[
  {
    "link_thumb": "https://live.staticflickr.com/65535/49693682648_1a841806bb_n.jpg",
    "id_album": "46674803",
    "description": "KAWAII24032022050349",
    "title": "KAWAII24032022050349",
    "link_img": "https://live.staticflickr.com/65535/49693682648_21aa5984af_o.jpg",
    "id_image": "KAWAII24032022050349",
    "count_view": 0
  },
  {
    "link_thumb": "https://live.staticflickr.com/65535/49693573483_ea8d2f7051_n.jpg",
    "id_album": "-643980979",
    "description": "KAWAII170220234617",
    "title": "KAWAII170220234617",
    "link_img": "https://live.staticflickr.com/65535/49693573483_049617c5d9_o.jpg",
    "id_image": "KAWAII170220234617",
    "count_view": 0
  },
  {
    "link_thumb": "https://live.staticflickr.com/65535/49622848876_ddcc0655dc_n.jpg",
    "id_album": "-406350429",
    "description": "KAWAII050320202132",
    "title": "KAWAII050320202132",
    "link_img": "https://live.staticflickr.com/65535/49622848876_b472353609_o.jpg",
    "id_image": "KAWAII050320202132",
    "count_view": 0
  },
  {
    "link_thumb": "https://live.staticflickr.com/65535/49694394307_ce4ef3eaf2_n.jpg",
    "id_album": "-643980979",
    "description": "KAWAII120918216",
    "title": "KAWAII120918216",
    "link_img": "https://live.staticflickr.com/65535/49694394307_024ed829e4_o.jpg",
    "id_image": "KAWAII120918216",
    "count_view": 0
  },
  {
    "link_thumb": "https://live.staticflickr.com/65535/49743238712_63dded63b7_n.jpg",
    "id_album": "-1497779911",
    "description": "KAWAII06042021491445",
    "title": "KAWAII06042021491445",
    "link_img": "https://live.staticflickr.com/65535/49743238712_d4ec543d5d_o.jpg",
    "id_image": "KAWAII06042021491445",
    "count_view": 0
  },
  {
    "link_thumb": "https://live.staticflickr.com/65535/49693562898_049c1a1207_n.jpg",
    "id_album": "1201366373",
    "description": "KAWAII170220223333",
    "title": "KAWAII170220223333",
    "link_img": "https://live.staticflickr.com/65535/49693562898_515fdfe650_o.jpg",
    "id_image": "KAWAII170220223333",
    "count_view": 0
  },
  {
    "link_thumb": "https://live.staticflickr.com/65535/49743240962_68aa6de7b9_n.jpg",
    "id_album": "-1432180061",
    "description": "KAWAII06042021491889",
    "title": "KAWAII06042021491889",
    "link_img": "https://live.staticflickr.com/65535/49743240962_2d9f67db5f_o.jpg",
    "id_image": "KAWAII06042021491889",
    "count_view": 0
  },
  {
    "link_thumb": "https://live.staticflickr.com/65535/49727432191_e451c83739_n.jpg",
    "id_album": "-1497779911",
    "description": "KAWAII050320202125",
    "title": "KAWAII050320202125",
    "link_img": "https://live.staticflickr.com/65535/49727432191_11228863a9_o.jpg",
    "id_image": "KAWAII050320202125",
    "count_view": 0
  },
  {
    "link_thumb": "https://live.staticflickr.com/65535/49592707881_8f77d6f622_n.jpg",
    "id_album": "1396902986",
    "description": "KAWAII270220235122",
    "title": "KAWAII270220235122",
    "link_img": "https://live.staticflickr.com/65535/49592707881_cdd5baa49e_o.jpg",
    "id_image": "KAWAII270220235122",
    "count_view": 0
  },
  {
    "link_thumb": "https://live.staticflickr.com/65535/49727754967_b6db8d013b_n.jpg",
    "id_album": "-316663319",
    "description": "KAWAII020420194513195",
    "title": "KAWAII020420194513195",
    "link_img": "https://live.staticflickr.com/65535/49727754967_d66f53f51c_o.jpg",
    "id_image": "KAWAII020420194513195",
    "count_view": 0
  },
  {
    "link_thumb": "https://live.staticflickr.com/65535/49742359078_fd9d82915a_n.jpg",
    "id_album": "1699819648",
    "description": "KAWAII06042021491275",
    "title": "KAWAII06042021491275",
    "link_img": "https://live.staticflickr.com/65535/49742359078_abdedcd173_o.jpg",
    "id_image": "KAWAII06042021491275",
    "count_view": 0
  },
  {
    "link_thumb": "https://live.staticflickr.com/65535/49623115707_10800da982_n.jpg",
    "id_album": "-406350429",
    "description": "KAWAII0503202021170",
    "title": "KAWAII0503202021170",
    "link_img": "https://live.staticflickr.com/65535/49623115707_0e97b1336f_o.jpg",
    "id_image": "KAWAII0503202021170",
    "count_view": 0
  },
  {
    "link_thumb": "https://live.staticflickr.com/65535/49548722211_281280d70c_n.jpg",
    "id_album": "-1431786825",
    "description": "KAWAII1702202238462",
    "title": "KAWAII1702202238462",
    "link_img": "https://live.staticflickr.com/65535/49548722211_e4873d0821_o.jpg",
    "id_image": "KAWAII1702202238462",
    "count_view": 0
  },
  {
    "link_thumb": "https://live.staticflickr.com/65535/49743256457_b3730c7fbf_n.jpg",
    "id_album": "-316663319",
    "description": "KAWAII06042021491793",
    "title": "KAWAII06042021491793",
    "link_img": "https://live.staticflickr.com/65535/49743256457_c81101e369_o.jpg",
    "id_image": "KAWAII06042021491793",
    "count_view": 0
  },
  {
    "link_thumb": "https://live.staticflickr.com/65535/49727759157_d16557d744_n.jpg",
    "id_album": "742877173",
    "description": "KAWAII02042019450942",
    "title": "KAWAII02042019450942",
    "link_img": "https://live.staticflickr.com/65535/49727759157_411c19c88e_o.jpg",
    "id_image": "KAWAII02042019450942",
    "count_view": 0
  },
  {
    "link_thumb": "https://live.staticflickr.com/65535/49727440006_66400aafb1_n.jpg",
    "id_album": "-316663319",
    "description": "KAWAII020420194512222",
    "title": "KAWAII020420194512222",
    "link_img": "https://live.staticflickr.com/65535/49727440006_21151552c4_o.jpg",
    "id_image": "KAWAII020420194512222",
    "count_view": 0
  },
  {
    "link_thumb": "https://live.staticflickr.com/65535/49727428866_b94445e179_n.jpg",
    "id_album": "-1741487325",
    "description": "KAWAII020420194509190",
    "title": "KAWAII020420194509190",
    "link_img": "https://live.staticflickr.com/65535/49727428866_92a2cc237b_o.jpg",
    "id_image": "KAWAII020420194509190",
    "count_view": 0
  },
  {
    "link_thumb": "https://live.staticflickr.com/65535/49694525352_e0861033b7_n.jpg",
    "id_album": "-1432180061",
    "description": "KAWAII17022023464",
    "title": "KAWAII17022023464",
    "link_img": "https://live.staticflickr.com/65535/49694525352_07bed07793_o.jpg",
    "id_image": "KAWAII17022023464",
    "count_view": 0
  },
  {
    "link_thumb": "https://live.staticflickr.com/65535/49548913662_40a2b27483_n.jpg",
    "id_album": "1396902986",
    "description": "KAWAII1702202237317",
    "title": "KAWAII1702202237317",
    "link_img": "https://live.staticflickr.com/65535/49548913662_a2faeeeccd_o.jpg",
    "id_image": "KAWAII1702202237317",
    "count_view": 0
  },
  {
    "link_thumb": "https://live.staticflickr.com/65535/49548094683_24aab8379c_n.jpg",
    "id_album": "-316663319",
    "description": "KAWAII120918326",
    "title": "KAWAII120918326",
    "link_img": "https://live.staticflickr.com/65535/49548094683_d7759ecd44_o.jpg",
    "id_image": "KAWAII120918326",
    "count_view": 0
  },
  {
    "link_thumb": "https://live.staticflickr.com/65535/49548120603_dacbbc6809_n.jpg",
    "id_album": "-1099943053",
    "description": "KAWAII170220223310",
    "title": "KAWAII170220223310",
    "link_img": "https://live.staticflickr.com/65535/49548120603_9955480543_o.jpg",
    "id_image": "KAWAII170220223310",
    "count_view": 0
  },
  {
    "link_thumb": "https://live.staticflickr.com/65535/49693583198_75c583622b_n.jpg",
    "id_album": "-1431786825",
    "description": "KAWAII270220235195",
    "title": "KAWAII270220235195",
    "link_img": "https://live.staticflickr.com/65535/49693583198_20c97a95a0_o.jpg",
    "id_image": "KAWAII270220235195",
    "count_view": 0
  },
  {
    "link_thumb": "https://live.staticflickr.com/65535/49694099141_6079f0800d_n.jpg",
    "id_album": "1201366373",
    "description": "KAWAII120918285",
    "title": "KAWAII120918285",
    "link_img": "https://live.staticflickr.com/65535/49694099141_d0069c4ce2_o.jpg",
    "id_image": "KAWAII120918285",
    "count_view": 0
  },
  {
    "link_thumb": "https://live.staticflickr.com/65535/49548850277_1b92a73686_n.jpg",
    "id_album": "-1431786825",
    "description": "KAWAII170220223311",
    "title": "KAWAII170220223311",
    "link_img": "https://live.staticflickr.com/65535/49548850277_812817c5c4_o.jpg",
    "id_image": "KAWAII170220223311",
    "count_view": 0
  },
  {
    "link_thumb": "https://live.staticflickr.com/65535/49694115596_8700cc913c_n.jpg",
    "id_album": "-643980979",
    "description": "KAWAII170220234613",
    "title": "KAWAII170220234613",
    "link_img": "https://live.staticflickr.com/65535/49694115596_4e60b7e973_o.jpg",
    "id_image": "KAWAII170220234613",
    "count_view": 0
  },
  {
    "link_thumb": "https://live.staticflickr.com/65535/49726884508_99c8e18231_n.jpg",
    "id_album": "-1497779911",
    "description": "KAWAII0503202021218",
    "title": "KAWAII0503202021218",
    "link_img": "https://live.staticflickr.com/65535/49726884508_1c0456b6bb_o.jpg",
    "id_image": "KAWAII0503202021218",
    "count_view": 0
  },
  {
    "link_thumb": "https://live.staticflickr.com/65535/49578750051_26e3a6ac43_n.jpg",
    "id_album": "-316663319",
    "description": "KAWAII190220211123",
    "title": "KAWAII190220211123",
    "link_img": "https://live.staticflickr.com/65535/49578750051_3bc0f9edfc_o.jpg",
    "id_image": "KAWAII190220211123",
    "count_view": 0
  },
  {
    "link_thumb": "https://live.staticflickr.com/65535/49549001717_8ec64f1a0b_n.jpg",
    "id_album": "949200594",
    "description": "KAWAII17091858",
    "title": "KAWAII17091858",
    "link_img": "https://live.staticflickr.com/65535/49549001717_cf02f085f2_o.jpg",
    "id_image": "KAWAII17091858",
    "count_view": 0
  },
  {
    "link_thumb": "https://live.staticflickr.com/65535/49548623586_f55e5b16ef_n.jpg",
    "id_album": "-316663319",
    "description": "KAWAII170220223315",
    "title": "KAWAII170220223315",
    "link_img": "https://live.staticflickr.com/65535/49548623586_c374067c56_o.jpg",
    "id_image": "KAWAII170220223315",
    "count_view": 0
  },
  {
    "link_thumb": "https://live.staticflickr.com/65535/49727466646_be3177e0ae_n.jpg",
    "id_album": "-1862561193",
    "description": "KAWAII020420194509184",
    "title": "KAWAII020420194509184",
    "link_img": "https://live.staticflickr.com/65535/49727466646_dce2693bf9_o.jpg",
    "id_image": "KAWAII020420194509184",
    "count_view": 0
  },
  {
    "link_thumb": "https://live.staticflickr.com/65535/49693549298_c7eaef73cb_n.jpg",
    "id_album": "1201366373",
    "description": "KAWAII120918226",
    "title": "KAWAII120918226",
    "link_img": "https://live.staticflickr.com/65535/49693549298_789a292352_o.jpg",
    "id_image": "KAWAII120918226",
    "count_view": 0
  },
  {
    "link_thumb": "https://live.staticflickr.com/65535/49548911892_ae57db85f4_n.jpg",
    "id_album": "-422187261",
    "description": "KAWAII1702202237309",
    "title": "KAWAII1702202237309",
    "link_img": "https://live.staticflickr.com/65535/49548911892_342fb1ff70_o.jpg",
    "id_image": "KAWAII1702202237309",
    "count_view": 0
  },
  {
    "link_thumb": "https://live.staticflickr.com/65535/49622335358_4018292f11_n.jpg",
    "id_album": "-406350429",
    "description": "KAWAII050320202192",
    "title": "KAWAII050320202192",
    "link_img": "https://live.staticflickr.com/65535/49622335358_2c13717142_o.jpg",
    "id_image": "KAWAII050320202192",
    "count_view": 0
  },
  {
    "link_thumb": "https://live.staticflickr.com/65535/49548248893_bfa698f500_n.jpg",
    "id_album": "-316663319",
    "description": "KAWAII1702202239566",
    "title": "KAWAII1702202239566",
    "link_img": "https://live.staticflickr.com/65535/49548248893_27df966554_o.jpg",
    "id_image": "KAWAII1702202239566",
    "count_view": 0
  },
  {
    "link_thumb": "https://live.staticflickr.com/65535/49548721141_54705f70dc_n.jpg",
    "id_album": "-422187261",
    "description": "KAWAII1702202238458",
    "title": "KAWAII1702202238458",
    "link_img": "https://live.staticflickr.com/65535/49548721141_d281d1b5e8_o.jpg",
    "id_image": "KAWAII1702202238458",
    "count_view": 0
  },
  {
    "link_thumb": "https://live.staticflickr.com/65535/49623081207_309c899daa_n.jpg",
    "id_album": "-1741487325",
    "description": "KAWAII050320202190",
    "title": "KAWAII050320202190",
    "link_img": "https://live.staticflickr.com/65535/49623081207_5fd50b8331_o.jpg",
    "id_image": "KAWAII050320202190",
    "count_view": 0
  },
  {
    "link_thumb": "https://live.staticflickr.com/65535/49623079297_a7c178893d_n.jpg",
    "id_album": "-1741487325",
    "description": "KAWAII0503202021172",
    "title": "KAWAII0503202021172",
    "link_img": "https://live.staticflickr.com/65535/49623079297_dc3b7d3cf6_o.jpg",
    "id_image": "KAWAII0503202021172",
    "count_view": 0
  },
  {
    "link_thumb": "https://live.staticflickr.com/65535/49693682353_8b39a5992c_n.jpg",
    "id_album": "46674803",
    "description": "KAWAII24032022050233",
    "title": "KAWAII24032022050233",
    "link_img": "https://live.staticflickr.com/65535/49693682353_ffce88a729_o.jpg",
    "id_image": "KAWAII24032022050233",
    "count_view": 0
  },
  {
    "link_thumb": "https://live.staticflickr.com/65535/49552755517_25b299252c_n.jpg",
    "id_album": "-1694302085",
    "description": "KAWAII1209182518022020591",
    "title": "KAWAII1209182518022020591",
    "link_img": "https://live.staticflickr.com/65535/49552755517_359822b8ec_o.jpg",
    "id_image": "KAWAII1209182518022020591",
    "count_view": 0
  },
  {
    "link_thumb": "https://live.staticflickr.com/65535/49726918963_b2a3514582_n.jpg",
    "id_album": "-1862561193",
    "description": "KAWAII020420194508177",
    "title": "KAWAII020420194508177",
    "link_img": "https://live.staticflickr.com/65535/49726918963_5ab6ca99ac_o.jpg",
    "id_image": "KAWAII020420194508177",
    "count_view": 0
  },
  {
    "link_thumb": "https://live.staticflickr.com/65535/49552020238_5f3b69df12_n.jpg",
    "id_album": "431597977",
    "description": "KAWAII12091825180220205910",
    "title": "KAWAII12091825180220205910",
    "link_img": "https://live.staticflickr.com/65535/49552020238_8e8b804ebf_o.jpg",
    "id_image": "KAWAII12091825180220205910",
    "count_view": 0
  },
  {
    "link_thumb": "https://live.staticflickr.com/65535/49694365907_ce28f0a332_n.jpg",
    "id_album": "1699819648",
    "description": "KAWAII0503202021143",
    "title": "KAWAII0503202021143",
    "link_img": "https://live.staticflickr.com/65535/49694365907_be0377e56b_o.jpg",
    "id_image": "KAWAII0503202021143",
    "count_view": 0
  },
  {
    "link_thumb": "https://live.staticflickr.com/65535/49694415617_cb48c63648_n.jpg",
    "id_album": "1201366373",
    "description": "KAWAII1702202238486",
    "title": "KAWAII1702202238486",
    "link_img": "https://live.staticflickr.com/65535/49694415617_80201d7773_o.jpg",
    "id_image": "KAWAII1702202238486",
    "count_view": 0
  },
  {
    "link_thumb": "https://live.staticflickr.com/65535/49694529942_bdd95d0a90_n.jpg",
    "id_album": "1226948986",
    "description": "KAWAII24032022050168",
    "title": "KAWAII24032022050168",
    "link_img": "https://live.staticflickr.com/65535/49694529942_9f74fd07b0_o.jpg",
    "id_image": "KAWAII24032022050168",
    "count_view": 0
  },
  {
    "link_thumb": "https://live.staticflickr.com/65535/49622802016_1558a39696_n.jpg",
    "id_album": "1396902986",
    "description": "KAWAII0503202021231",
    "title": "KAWAII0503202021231",
    "link_img": "https://live.staticflickr.com/65535/49622802016_e5b340f81d_o.jpg",
    "id_image": "KAWAII0503202021231",
    "count_view": 0
  },
  {
    "link_thumb": "https://live.staticflickr.com/65535/49743264657_6b99584462_n.jpg",
    "id_album": "-1473448477",
    "description": "KAWAII06042021491622",
    "title": "KAWAII06042021491622",
    "link_img": "https://live.staticflickr.com/65535/49743264657_4a600af82d_o.jpg",
    "id_image": "KAWAII06042021491622",
    "count_view": 0
  },
  {
    "link_thumb": "https://live.staticflickr.com/65535/49726888153_5b12154636_n.jpg",
    "id_album": "-316663319",
    "description": "KAWAII020420194507131",
    "title": "KAWAII020420194507131",
    "link_img": "https://live.staticflickr.com/65535/49726888153_0a189f0da6_o.jpg",
    "id_image": "KAWAII020420194507131",
    "count_view": 0
  },
  {
    "link_thumb": "https://live.staticflickr.com/65535/49693562108_97c407f7ed_n.jpg",
    "id_album": "1201366373",
    "description": "KAWAII12091895",
    "title": "KAWAII12091895",
    "link_img": "https://live.staticflickr.com/65535/49693562108_078679f628_o.jpg",
    "id_image": "KAWAII12091895",
    "count_view": 0
  },
  {
    "link_thumb": "https://live.staticflickr.com/65535/49727739842_08815b2b29_n.jpg",
    "id_album": "-1694302085",
    "description": "KAWAII02042019450876",
    "title": "KAWAII02042019450876",
    "link_img": "https://live.staticflickr.com/65535/49727739842_d9ba38723e_o.jpg",
    "id_image": "KAWAII02042019450876",
    "count_view": 0
  },
  {
    "link_thumb": "https://live.staticflickr.com/65535/49742395988_a59f5d3f3d_n.jpg",
    "id_album": "-1779286820",
    "description": "KAWAII060420214914257",
    "title": "KAWAII060420214914257",
    "link_img": "https://live.staticflickr.com/65535/49742395988_e3017805e1_o.jpg",
    "id_image": "KAWAII060420214914257",
    "count_view": 0
  },
  {
    "link_thumb": "https://live.staticflickr.com/65535/49548090478_e14671db02_n.jpg",
    "id_album": "-422187261",
    "description": "KAWAII120918308",
    "title": "KAWAII120918308",
    "link_img": "https://live.staticflickr.com/65535/49548090478_68298f952a_o.jpg",
    "id_image": "KAWAII120918308",
    "count_view": 0
  },
  {
    "link_thumb": "https://live.staticflickr.com/65535/49694386657_07a4f6fa3e_n.jpg",
    "id_album": "1201366373",
    "description": "KAWAII12091815",
    "title": "KAWAII12091815",
    "link_img": "https://live.staticflickr.com/65535/49694386657_679a3490e7_o.jpg",
    "id_image": "KAWAII12091815",
    "count_view": 0
  },
  {
    "link_thumb": "https://live.staticflickr.com/65535/49693571673_b7157feeb2_n.jpg",
    "id_album": "-643980979",
    "description": "KAWAII1702202239562",
    "title": "KAWAII1702202239562",
    "link_img": "https://live.staticflickr.com/65535/49693571673_e6720ca332_o.jpg",
    "id_image": "KAWAII1702202239562",
    "count_view": 0
  },
  {
    "link_thumb": "https://live.staticflickr.com/65535/49727788102_0980ef4ce0_n.jpg",
    "id_album": "-1099943053",
    "description": "KAWAII02042019450950",
    "title": "KAWAII02042019450950",
    "link_img": "https://live.staticflickr.com/65535/49727788102_f38d28268d_o.jpg",
    "id_image": "KAWAII02042019450950",
    "count_view": 0
  },
  {
    "link_thumb": "https://live.staticflickr.com/65535/49726926883_0fd5102fc0_n.jpg",
    "id_album": "1563362783",
    "description": "KAWAII1702202236280",
    "title": "KAWAII1702202236280",
    "link_img": "https://live.staticflickr.com/65535/49726926883_5f89a6c30c_o.jpg",
    "id_image": "KAWAII1702202236280",
    "count_view": 0
  },
  {
    "link_thumb": "https://live.staticflickr.com/65535/49694079036_c5b22da7ce_n.jpg",
    "id_album": "-643980979",
    "description": "KAWAII050320202184",
    "title": "KAWAII050320202184",
    "link_img": "https://live.staticflickr.com/65535/49694079036_5552a877d7_o.jpg",
    "id_image": "KAWAII050320202184",
    "count_view": 0
  },
  {
    "link_thumb": "https://live.staticflickr.com/65535/49694375437_3d66a347bb_n.jpg",
    "id_album": "1201366373",
    "description": "KAWAII0503202021240",
    "title": "KAWAII0503202021240",
    "link_img": "https://live.staticflickr.com/65535/49694375437_7e1acd5975_o.jpg",
    "id_image": "KAWAII0503202021240",
    "count_view": 0
  },
  {
    "link_thumb": "https://live.staticflickr.com/65535/49548091408_f4169d36f8_n.jpg",
    "id_album": "-316663319",
    "description": "KAWAII120918311",
    "title": "KAWAII120918311",
    "link_img": "https://live.staticflickr.com/65535/49548091408_0c9ec560f0_o.jpg",
    "id_image": "KAWAII120918311",
    "count_view": 0
  },
  {
    "link_thumb": "https://live.staticflickr.com/65535/49742400133_346686fa5e_n.jpg",
    "id_album": "1396902986",
    "description": "KAWAII060420214913225",
    "title": "KAWAII060420214913225",
    "link_img": "https://live.staticflickr.com/65535/49742400133_99a88585b1_o.jpg",
    "id_image": "KAWAII060420214913225",
    "count_view": 0
  },
  {
    "link_thumb": "https://live.staticflickr.com/65535/49548612096_56dbaf8b54_n.jpg",
    "id_album": "-422187261",
    "description": "KAWAII12091851",
    "title": "KAWAII12091851",
    "link_img": "https://live.staticflickr.com/65535/49548612096_e93a30cdd0_o.jpg",
    "id_image": "KAWAII12091851",
    "count_view": 0
  },
  {
    "link_thumb": "https://live.staticflickr.com/65535/49623118772_bae39237f8_n.jpg",
    "id_album": "-406350429",
    "description": "KAWAII0503202021261",
    "title": "KAWAII0503202021261",
    "link_img": "https://live.staticflickr.com/65535/49623118772_c63f4c843d_o.jpg",
    "id_image": "KAWAII0503202021261",
    "count_view": 0
  },
  {
    "link_thumb": "https://live.staticflickr.com/65535/49743238552_fd3ffb0faa_n.jpg",
    "id_album": "-1497779911",
    "description": "KAWAII060420214914287",
    "title": "KAWAII060420214914287",
    "link_img": "https://live.staticflickr.com/65535/49743238552_30b39754c4_o.jpg",
    "id_image": "KAWAII060420214914287",
    "count_view": 0
  },
  {
    "link_thumb": "https://live.staticflickr.com/65535/49548162338_78fe406fcf_n.jpg",
    "id_album": "-316663319",
    "description": "KAWAII1702202235204",
    "title": "KAWAII1702202235204",
    "link_img": "https://live.staticflickr.com/65535/49548162338_8bbf3e7c04_o.jpg",
    "id_image": "KAWAII1702202235204",
    "count_view": 0
  },
  {
    "link_thumb": "https://live.staticflickr.com/65535/49694422457_9d228a8ec9_n.jpg",
    "id_album": "1201366373",
    "description": "KAWAII17091844",
    "title": "KAWAII17091844",
    "link_img": "https://live.staticflickr.com/65535/49694422457_49d9464530_o.jpg",
    "id_image": "KAWAII17091844",
    "count_view": 0
  },
  {
    "link_thumb": "https://live.staticflickr.com/65535/49694388692_8c05230376_n.jpg",
    "id_album": "-643980979",
    "description": "KAWAII120918164",
    "title": "KAWAII120918164",
    "link_img": "https://live.staticflickr.com/65535/49694388692_4df2e7dd01_o.jpg",
    "id_image": "KAWAII120918164",
    "count_view": 0
  },
  {
    "link_thumb": "https://live.staticflickr.com/65535/49548544106_8405c0472a_n.jpg",
    "id_album": "-316663319",
    "description": "KAWAII12091810",
    "title": "KAWAII12091810",
    "link_img": "https://live.staticflickr.com/65535/49548544106_9f59e75a27_o.jpg",
    "id_image": "KAWAII12091810",
    "count_view": 0
  },
  {
    "link_thumb": "https://live.staticflickr.com/65535/49592206198_a695eda715_n.jpg",
    "id_album": "1396902986",
    "description": "KAWAII27022023517",
    "title": "KAWAII27022023517",
    "link_img": "https://live.staticflickr.com/65535/49592206198_a184daf249_o.jpg",
    "id_image": "KAWAII27022023517",
    "count_view": 0
  },
  {
    "link_thumb": "https://live.staticflickr.com/65535/49742374448_92059c5454_n.jpg",
    "id_album": "-316663319",
    "description": "KAWAII060420214912309",
    "title": "KAWAII060420214912309",
    "link_img": "https://live.staticflickr.com/65535/49742374448_fe14355e29_o.jpg",
    "id_image": "KAWAII060420214912309",
    "count_view": 0
  },
  {
    "link_thumb": "https://live.staticflickr.com/65535/49694428572_f60c5091e4_n.jpg",
    "id_album": "-358592519",
    "description": "KAWAII1702202239564",
    "title": "KAWAII1702202239564",
    "link_img": "https://live.staticflickr.com/65535/49694428572_a53551f534_o.jpg",
    "id_image": "KAWAII1702202239564",
    "count_view": 0
  },
  {
    "link_thumb": "https://live.staticflickr.com/65535/49727753397_4be244d399_n.jpg",
    "id_album": "-316663319",
    "description": "KAWAII0204201945112",
    "title": "KAWAII0204201945112",
    "link_img": "https://live.staticflickr.com/65535/49727753397_6f21a34d4b_o.jpg",
    "id_image": "KAWAII0204201945112",
    "count_view": 0
  },
  {
    "link_thumb": "https://live.staticflickr.com/65535/49622295503_702dda537d_n.jpg",
    "id_album": "-316663319",
    "description": "KAWAII0503202021114",
    "title": "KAWAII0503202021114",
    "link_img": "https://live.staticflickr.com/65535/49622295503_74778609a0_o.jpg",
    "id_image": "KAWAII0503202021114",
    "count_view": 0
  },
  {
    "link_thumb": "https://live.staticflickr.com/65535/49548588306_49c128b1de_n.jpg",
    "id_album": "-316663319",
    "description": "KAWAII120918293",
    "title": "KAWAII120918293",
    "link_img": "https://live.staticflickr.com/65535/49548588306_9ec38513ff_o.jpg",
    "id_image": "KAWAII120918293",
    "count_view": 0
  },
  {
    "link_thumb": "https://live.staticflickr.com/65535/49548153918_9f2a39eaf5_n.jpg",
    "id_album": "-316663319",
    "description": "KAWAII1702202235165",
    "title": "KAWAII1702202235165",
    "link_img": "https://live.staticflickr.com/65535/49548153918_2e4a738d4a_o.jpg",
    "id_image": "KAWAII1702202235165",
    "count_view": 0
  },
  {
    "link_thumb": "https://live.staticflickr.com/65535/49694114116_91ecefcb2a_n.jpg",
    "id_album": "1201366373",
    "description": "KAWAII1702202239544",
    "title": "KAWAII1702202239544",
    "link_img": "https://live.staticflickr.com/65535/49694114116_740b4357a9_o.jpg",
    "id_image": "KAWAII1702202239544",
    "count_view": 0
  },
  {
    "link_thumb": "https://live.staticflickr.com/65535/49623080782_dbe5e06e20_n.jpg",
    "id_album": "-1432180061",
    "description": "KAWAII050320202155",
    "title": "KAWAII050320202155",
    "link_img": "https://live.staticflickr.com/65535/49623080782_45549458fd_o.jpg",
    "id_image": "KAWAII050320202155",
    "count_view": 0
  },
  {
    "link_thumb": "https://live.staticflickr.com/65535/49694070071_dde1f6737b_n.jpg",
    "id_album": "-643980979",
    "description": "KAWAII0503202021118",
    "title": "KAWAII0503202021118",
    "link_img": "https://live.staticflickr.com/65535/49694070071_8aebd40329_o.jpg",
    "id_image": "KAWAII0503202021118",
    "count_view": 0
  },
  {
    "link_thumb": "https://live.staticflickr.com/65535/49548634831_fa8b6bf488_n.jpg",
    "id_album": "-422187261",
    "description": "KAWAII170220223444",
    "title": "KAWAII170220223444",
    "link_img": "https://live.staticflickr.com/65535/49548634831_48fb7917fe_o.jpg",
    "id_image": "KAWAII170220223444",
    "count_view": 0
  },
  {
    "link_thumb": "https://live.staticflickr.com/65535/49694069891_4d3f9bb401_n.jpg",
    "id_album": "-643980979",
    "description": "KAWAII0503202021113",
    "title": "KAWAII0503202021113",
    "link_img": "https://live.staticflickr.com/65535/49694069891_29beff98a7_o.jpg",
    "id_image": "KAWAII0503202021113",
    "count_view": 0
  },
  {
    "link_thumb": "https://live.staticflickr.com/65535/49711144482_7ba00aa8ac_n.jpg",
    "id_album": "-1599896063",
    "description": "LITTLEMONK29032012063427",
    "title": "LITTLEMONK29032012063427",
    "link_img": "https://live.staticflickr.com/65535/49711144482_942eaa2988_o.jpg",
    "id_image": "LITTLEMONK29032012063427",
    "count_view": 0
  },
  {
    "link_thumb": "https://live.staticflickr.com/65535/49742357218_998358f25d_n.jpg",
    "id_album": "-1913845949",
    "description": "KAWAII06042021491719",
    "title": "KAWAII06042021491719",
    "link_img": "https://live.staticflickr.com/65535/49742357218_847a0f458e_o.jpg",
    "id_image": "KAWAII06042021491719",
    "count_view": 0
  },
  {
    "link_thumb": "https://live.staticflickr.com/65535/49727754157_91cc09de26_n.jpg",
    "id_album": "-316663319",
    "description": "KAWAII020420194512160",
    "title": "KAWAII020420194512160",
    "link_img": "https://live.staticflickr.com/65535/49727754157_1ab4982a2a_o.jpg",
    "id_image": "KAWAII020420194512160",
    "count_view": 0
  },
  {
    "link_thumb": "https://live.staticflickr.com/65535/49592953492_b84fb37449_n.jpg",
    "id_album": "-1741487325",
    "description": "KAWAII17091831",
    "title": "KAWAII17091831",
    "link_img": "https://live.staticflickr.com/65535/49592953492_ee077b4196_o.jpg",
    "id_image": "KAWAII17091831",
    "count_view": 0
  },
  {
    "link_thumb": "https://live.staticflickr.com/65535/49727475286_91fcb0b675_n.jpg",
    "id_album": "1226948986",
    "description": "KAWAII020420194508229",
    "title": "KAWAII020420194508229",
    "link_img": "https://live.staticflickr.com/65535/49727475286_d55afbf765_o.jpg",
    "id_image": "KAWAII020420194508229",
    "count_view": 0
  },
  {
    "link_thumb": "https://live.staticflickr.com/65535/49694374747_d9d4e61e71_n.jpg",
    "id_album": "1201366373",
    "description": "KAWAII0503202021201",
    "title": "KAWAII0503202021201",
    "link_img": "https://live.staticflickr.com/65535/49694374747_70cb46d76a_o.jpg",
    "id_image": "KAWAII0503202021201",
    "count_view": 0
  },
  {
    "link_thumb": "https://live.staticflickr.com/65535/49742950846_26970047b4_n.jpg",
    "id_album": "-1862561193",
    "description": "KAWAII060420214914236",
    "title": "KAWAII060420214914236",
    "link_img": "https://live.staticflickr.com/65535/49742950846_f89017c778_o.jpg",
    "id_image": "KAWAII060420214914236",
    "count_view": 0
  },
  {
    "link_thumb": "https://live.staticflickr.com/65535/49548232588_7194aab0df_n.jpg",
    "id_album": "-316663319",
    "description": "KAWAII1702202239503",
    "title": "KAWAII1702202239503",
    "link_img": "https://live.staticflickr.com/65535/49548232588_d34785b680_o.jpg",
    "id_image": "KAWAII1702202239503",
    "count_view": 0
  },
  {
    "link_thumb": "https://live.staticflickr.com/65535/49743259472_e3b19a4610_n.jpg",
    "id_album": "-1473448477",
    "description": "KAWAII06042021491517",
    "title": "KAWAII06042021491517",
    "link_img": "https://live.staticflickr.com/65535/49743259472_059f78e1bf_o.jpg",
    "id_image": "KAWAII06042021491517",
    "count_view": 0
  },
  {
    "link_thumb": "https://live.staticflickr.com/65535/49548656586_3eb4f55992_n.jpg",
    "id_album": "-316663319",
    "description": "KAWAII1702202235172",
    "title": "KAWAII1702202235172",
    "link_img": "https://live.staticflickr.com/65535/49548656586_c3e7fa161d_o.jpg",
    "id_image": "KAWAII1702202235172",
    "count_view": 0
  },
  {
    "link_thumb": "https://live.staticflickr.com/65535/49743249472_6c2ed4a0f7_n.jpg",
    "id_album": "-316663319",
    "description": "KAWAII060420214914239",
    "title": "KAWAII060420214914239",
    "link_img": "https://live.staticflickr.com/65535/49743249472_dd1416c502_o.jpg",
    "id_image": "KAWAII060420214914239",
    "count_view": 0
  },
  {
    "link_thumb": "https://live.staticflickr.com/65535/49743224367_4843c13df6_n.jpg",
    "id_album": "-1913845949",
    "description": "KAWAII060420214912296",
    "title": "KAWAII060420214912296",
    "link_img": "https://live.staticflickr.com/65535/49743224367_699fd6fe3e_o.jpg",
    "id_image": "KAWAII060420214912296",
    "count_view": 0
  },
  {
    "link_thumb": "https://live.staticflickr.com/65535/49742921686_7245a4fb8a_n.jpg",
    "id_album": "-316663319",
    "description": "KAWAII060420214912232",
    "title": "KAWAII060420214912232",
    "link_img": "https://live.staticflickr.com/65535/49742921686_db426d9638_o.jpg",
    "id_image": "KAWAII060420214912232",
    "count_view": 0
  },
  {
    "link_thumb": "https://live.staticflickr.com/65535/49694379302_6d40337bae_n.jpg",
    "id_album": "-643980979",
    "description": "KAWAII050320202156",
    "title": "KAWAII050320202156",
    "link_img": "https://live.staticflickr.com/65535/49694379302_393105eca9_o.jpg",
    "id_image": "KAWAII050320202156",
    "count_view": 0
  },
  {
    "link_thumb": "https://live.staticflickr.com/65535/49592215753_bd7b967a2f_n.jpg",
    "id_album": "-316663319",
    "description": "KAWAII270220235148",
    "title": "KAWAII270220235148",
    "link_img": "https://live.staticflickr.com/65535/49592215753_b49fea377f_o.jpg",
    "id_image": "KAWAII270220235148",
    "count_view": 0
  },
  {
    "link_thumb": "https://live.staticflickr.com/65535/49592212603_ef02e6c970_n.jpg",
    "id_album": "-316663319",
    "description": "KAWAII2702202351139",
    "title": "KAWAII2702202351139",
    "link_img": "https://live.staticflickr.com/65535/49592212603_896797164e_o.jpg",
    "id_image": "KAWAII2702202351139",
    "count_view": 0
  },
  {
    "link_thumb": "https://live.staticflickr.com/65535/49548694021_aac1a408ab_n.jpg",
    "id_album": "-422187261",
    "description": "KAWAII1702202237355",
    "title": "KAWAII1702202237355",
    "link_img": "https://live.staticflickr.com/65535/49548694021_8570f5a361_o.jpg",
    "id_image": "KAWAII1702202237355",
    "count_view": 0
  },
  {
    "link_thumb": "https://live.staticflickr.com/65535/49726925128_f475533b2b_n.jpg",
    "id_album": "-1862561193",
    "description": "KAWAII02042019451366",
    "title": "KAWAII02042019451366",
    "link_img": "https://live.staticflickr.com/65535/49726925128_bba6ddf96b_o.jpg",
    "id_image": "KAWAII02042019451366",
    "count_view": 0
  },
  {
    "link_thumb": "https://live.staticflickr.com/65535/49694410897_b8cffab1b0_n.jpg",
    "id_album": "-643980979",
    "description": "KAWAII1702202235136",
    "title": "KAWAII1702202235136",
    "link_img": "https://live.staticflickr.com/65535/49694410897_8bcbcd948f_o.jpg",
    "id_image": "KAWAII1702202235136",
    "count_view": 0
  },
  {
    "link_thumb": "https://live.staticflickr.com/65535/49548587041_497fdce4ca_n.jpg",
    "id_album": "-316663319",
    "description": "KAWAII120918288",
    "title": "KAWAII120918288",
    "link_img": "https://live.staticflickr.com/65535/49548587041_cf1d84938a_o.jpg",
    "id_image": "KAWAII120918288",
    "count_view": 0
  },
  {
    "link_thumb": "https://live.staticflickr.com/65535/49693557633_68068027e0_n.jpg",
    "id_album": "1201366373",
    "description": "KAWAII120918316",
    "title": "KAWAII120918316",
    "link_img": "https://live.staticflickr.com/65535/49693557633_de2dec1a9f_o.jpg",
    "id_image": "KAWAII120918316",
    "count_view": 0
  },
  {
    "link_thumb": "https://live.staticflickr.com/65535/49694120256_28cdfc4b93_n.jpg",
    "id_album": "-643980979",
    "description": "KAWAII1709186",
    "title": "KAWAII1709186",
    "link_img": "https://live.staticflickr.com/65535/49694120256_9b5ee318c4_o.jpg",
    "id_image": "KAWAII1709186",
    "count_view": 0
  },
  {
    "link_thumb": "https://live.staticflickr.com/65535/49743229022_18f1dffec0_n.jpg",
    "id_album": "-1913845949",
    "description": "KAWAII060420214918319",
    "title": "KAWAII060420214918319",
    "link_img": "https://live.staticflickr.com/65535/49743229022_a755296381_o.jpg",
    "id_image": "KAWAII060420214918319",
    "count_view": 0
  },
  {
    "link_thumb": "https://live.staticflickr.com/65535/49548140838_1bb468884e_n.jpg",
    "id_album": "-422187261",
    "description": "KAWAII170220223477",
    "title": "KAWAII170220223477",
    "link_img": "https://live.staticflickr.com/65535/49548140838_9cdcb4c19d_o.jpg",
    "id_image": "KAWAII170220223477",
    "count_view": 0
  },
  {
    "link_thumb": "https://live.staticflickr.com/65535/49622329693_8ebeaafc84_n.jpg",
    "id_album": "-406350429",
    "description": "KAWAII050320202120",
    "title": "KAWAII050320202120",
    "link_img": "https://live.staticflickr.com/65535/49622329693_4feecd972a_o.jpg",
    "id_image": "KAWAII050320202120",
    "count_view": 0
  },
  {
    "link_thumb": "https://live.staticflickr.com/65535/49548610471_c6a9e5014f_n.jpg",
    "id_album": "-316663319",
    "description": "KAWAII12091843",
    "title": "KAWAII12091843",
    "link_img": "https://live.staticflickr.com/65535/49548610471_bf36fce83f_o.jpg",
    "id_image": "KAWAII12091843",
    "count_view": 0
  },
  {
    "link_thumb": "https://live.staticflickr.com/65535/49710286888_ae2ed877ff_n.jpg",
    "id_album": "-1599896063",
    "description": "LITTLEMONK2903201206349",
    "title": "LITTLEMONK2903201206349",
    "link_img": "https://live.staticflickr.com/65535/49710286888_b6549cc1db_o.jpg",
    "id_image": "LITTLEMONK2903201206349",
    "count_view": 0
  },
  {
    "link_thumb": "https://live.staticflickr.com/65535/49743249287_94f386397e_n.jpg",
    "id_album": "-316663319",
    "description": "KAWAII060420214914226",
    "title": "KAWAII060420214914226",
    "link_img": "https://live.staticflickr.com/65535/49743249287_a3c538756a_o.jpg",
    "id_image": "KAWAII060420214914226",
    "count_view": 0
  },
  {
    "link_thumb": "https://live.staticflickr.com/65535/49548627951_1abdc4fe57_n.jpg",
    "id_album": "-316663319",
    "description": "KAWAII170220223335",
    "title": "KAWAII170220223335",
    "link_img": "https://live.staticflickr.com/65535/49548627951_b5dc7ff754_o.jpg",
    "id_image": "KAWAII170220223335",
    "count_view": 0
  },
  {
    "link_thumb": "https://live.staticflickr.com/65535/49742362603_1a5c03cb89_n.jpg",
    "id_album": "-1694302085",
    "description": "KAWAII060420214913294",
    "title": "KAWAII060420214913294",
    "link_img": "https://live.staticflickr.com/65535/49742362603_df8428ccb2_o.jpg",
    "id_image": "KAWAII060420214913294",
    "count_view": 0
  },
  {
    "link_thumb": "https://live.staticflickr.com/65535/49592734431_2caa3999b0_n.jpg",
    "id_album": "949200594",
    "description": "KAWAII27022023519",
    "title": "KAWAII27022023519",
    "link_img": "https://live.staticflickr.com/65535/49592734431_cc7c9317c4_o.jpg",
    "id_image": "KAWAII27022023519",
    "count_view": 0
  },
  {
    "link_thumb": "https://live.staticflickr.com/65535/49693532663_66cff1d8d8_n.jpg",
    "id_album": "-643980979",
    "description": "KAWAII050320202149",
    "title": "KAWAII050320202149",
    "link_img": "https://live.staticflickr.com/65535/49693532663_bbf5d522f9_o.jpg",
    "id_image": "KAWAII050320202149",
    "count_view": 0
  },
  {
    "link_thumb": "https://live.staticflickr.com/65535/49743258997_7e5f53904a_n.jpg",
    "id_album": "-1473448477",
    "description": "KAWAII060420214915155",
    "title": "KAWAII060420214915155",
    "link_img": "https://live.staticflickr.com/65535/49743258997_29df7961ef_o.jpg",
    "id_image": "KAWAII060420214915155",
    "count_view": 0
  },
  {
    "link_thumb": "https://live.staticflickr.com/65535/49693567148_49b477c0e3_n.jpg",
    "id_album": "1201366373",
    "description": "KAWAII1702202236259",
    "title": "KAWAII1702202236259",
    "link_img": "https://live.staticflickr.com/65535/49693567148_6e0c7e5bfe_o.jpg",
    "id_image": "KAWAII1702202236259",
    "count_view": 0
  },
  {
    "link_thumb": "https://live.staticflickr.com/65535/49623103367_d8fd4c08d2_n.jpg",
    "id_album": "-316663319",
    "description": "KAWAII0503202021301",
    "title": "KAWAII0503202021301",
    "link_img": "https://live.staticflickr.com/65535/49623103367_81f403b2ff_o.jpg",
    "id_image": "KAWAII0503202021301",
    "count_view": 0
  },
  {
    "link_thumb": "https://live.staticflickr.com/65535/49694130451_011541c1c3_n.jpg",
    "id_album": "431597977",
    "description": "KAWAII12091819",
    "title": "KAWAII12091819",
    "link_img": "https://live.staticflickr.com/65535/49694130451_5f5ee9beeb_o.jpg",
    "id_image": "KAWAII12091819",
    "count_view": 0
  },
  {
    "link_thumb": "https://live.staticflickr.com/65535/49548692246_e33c44dc92_n.jpg",
    "id_album": "-1431786825",
    "description": "KAWAII1702202237347",
    "title": "KAWAII1702202237347",
    "link_img": "https://live.staticflickr.com/65535/49548692246_38e5e82e1a_o.jpg",
    "id_image": "KAWAII1702202237347",
    "count_view": 0
  },
  {
    "link_thumb": "https://live.staticflickr.com/65535/49742956766_47b7a5156a_n.jpg",
    "id_album": "-1431786825",
    "description": "KAWAII060420214915297",
    "title": "KAWAII060420214915297",
    "link_img": "https://live.staticflickr.com/65535/49742956766_8f346b98d5_o.jpg",
    "id_image": "KAWAII060420214915297",
    "count_view": 0
  },
  {
    "link_thumb": "https://live.staticflickr.com/65535/49622827011_6611e8b22c_n.jpg",
    "id_album": "-316663319",
    "description": "KAWAII0503202021246",
    "title": "KAWAII0503202021246",
    "link_img": "https://live.staticflickr.com/65535/49622827011_6cfa1627f7_o.jpg",
    "id_image": "KAWAII0503202021246",
    "count_view": 0
  },
  {
    "link_thumb": "https://live.staticflickr.com/65535/49592732726_278f17e315_n.jpg",
    "id_album": "949200594",
    "description": "KAWAII270220235154",
    "title": "KAWAII270220235154",
    "link_img": "https://live.staticflickr.com/65535/49592732726_7fb09fa990_o.jpg",
    "id_image": "KAWAII270220235154",
    "count_view": 0
  },
  {
    "link_thumb": "https://live.staticflickr.com/65535/49743237037_f8b55e401d_n.jpg",
    "id_album": "-1497779911",
    "description": "KAWAII060420214912104",
    "title": "KAWAII060420214912104",
    "link_img": "https://live.staticflickr.com/65535/49743237037_7d4cda70dd_o.jpg",
    "id_image": "KAWAII060420214912104",
    "count_view": 0
  },
  {
    "link_thumb": "https://live.staticflickr.com/65535/49623073707_58305f3072_n.jpg",
    "id_album": "1396902986",
    "description": "KAWAII050320202121",
    "title": "KAWAII050320202121",
    "link_img": "https://live.staticflickr.com/65535/49623073707_d671eb6e3a_o.jpg",
    "id_image": "KAWAII050320202121",
    "count_view": 0
  },
  {
    "link_thumb": "https://live.staticflickr.com/65535/49548780792_9b7e4af362_n.jpg",
    "id_album": "-422187261",
    "description": "KAWAII120918137",
    "title": "KAWAII120918137",
    "link_img": "https://live.staticflickr.com/65535/49548780792_3a9fd6b134_o.jpg",
    "id_image": "KAWAII120918137",
    "count_view": 0
  },
  {
    "link_thumb": "https://live.staticflickr.com/65535/49694125931_f8f3987c14_n.jpg",
    "id_album": "-358592519",
    "description": "KAWAII1702202239568",
    "title": "KAWAII1702202239568",
    "link_img": "https://live.staticflickr.com/65535/49694125931_361e3743c3_o.jpg",
    "id_image": "KAWAII1702202239568",
    "count_view": 0
  },
  {
    "link_thumb": "https://live.staticflickr.com/65535/49694405907_df658c7e09_n.jpg",
    "id_album": "1201366373",
    "description": "KAWAII12091867",
    "title": "KAWAII12091867",
    "link_img": "https://live.staticflickr.com/65535/49694405907_16355d3222_o.jpg",
    "id_image": "KAWAII12091867",
    "count_view": 0
  },
  {
    "link_thumb": "https://live.staticflickr.com/65535/49548662521_495fec0c6f_n.jpg",
    "id_album": "1396902986",
    "description": "KAWAII1702202235199",
    "title": "KAWAII1702202235199",
    "link_img": "https://live.staticflickr.com/65535/49548662521_41402ffbc9_o.jpg",
    "id_image": "KAWAII1702202235199",
    "count_view": 0
  },
  {
    "link_thumb": "https://live.staticflickr.com/65535/49694113176_4998b08d75_n.jpg",
    "id_album": "-643980979",
    "description": "KAWAII1702202238496",
    "title": "KAWAII1702202238496",
    "link_img": "https://live.staticflickr.com/65535/49694113176_0a4c515e09_o.jpg",
    "id_image": "KAWAII1702202238496",
    "count_view": 0
  },
  {
    "link_thumb": "https://live.staticflickr.com/65535/49592948717_ca9e5f330c_n.jpg",
    "id_album": "1396902986",
    "description": "KAWAII2702202351105",
    "title": "KAWAII2702202351105",
    "link_img": "https://live.staticflickr.com/65535/49592948717_92bdf1a7c9_o.jpg",
    "id_image": "KAWAII2702202351105",
    "count_view": 0
  },
  {
    "link_thumb": "https://live.staticflickr.com/65535/49548903547_a7812df0f8_n.jpg",
    "id_album": "-422187261",
    "description": "KAWAII1702202236271",
    "title": "KAWAII1702202236271",
    "link_img": "https://live.staticflickr.com/65535/49548903547_c91e97f61d_o.jpg",
    "id_image": "KAWAII1702202236271",
    "count_view": 0
  },
  {
    "link_thumb": "https://live.staticflickr.com/65535/49727741482_f48f2b390b_n.jpg",
    "id_album": "-1694302085",
    "description": "KAWAII1702202239559",
    "title": "KAWAII1702202239559",
    "link_img": "https://live.staticflickr.com/65535/49727741482_eed1cb3888_o.jpg",
    "id_image": "KAWAII1702202239559",
    "count_view": 0
  },
  {
    "link_thumb": "https://live.staticflickr.com/65535/49742408918_213cc96f26_n.jpg",
    "id_album": "-1431786825",
    "description": "KAWAII06042021491547",
    "title": "KAWAII06042021491547",
    "link_img": "https://live.staticflickr.com/65535/49742408918_6001cd189c_o.jpg",
    "id_image": "KAWAII06042021491547",
    "count_view": 0
  },
  {
    "link_thumb": "https://live.staticflickr.com/65535/49548927977_c4b7791b97_n.jpg",
    "id_album": "-422187261",
    "description": "KAWAII1702202237381",
    "title": "KAWAII1702202237381",
    "link_img": "https://live.staticflickr.com/65535/49548927977_03f5048ee0_o.jpg",
    "id_image": "KAWAII1702202237381",
    "count_view": 0
  },
  {
    "link_thumb": "https://live.staticflickr.com/65535/49727779722_730c65946c_n.jpg",
    "id_album": "1396902986",
    "description": "KAWAII1702202237336",
    "title": "KAWAII1702202237336",
    "link_img": "https://live.staticflickr.com/65535/49727779722_6e4be09687_o.jpg",
    "id_image": "KAWAII1702202237336",
    "count_view": 0
  },
  {
    "link_thumb": "https://live.staticflickr.com/65535/49622828551_1cbbae756c_n.jpg",
    "id_album": "-316663319",
    "description": "KAWAII0503202021263",
    "title": "KAWAII0503202021263",
    "link_img": "https://live.staticflickr.com/65535/49622828551_abd9a8735d_o.jpg",
    "id_image": "KAWAII0503202021263",
    "count_view": 0
  },
  {
    "link_thumb": "https://live.staticflickr.com/65535/49548159738_789b788be2_n.jpg",
    "id_album": "-1099943053",
    "description": "KAWAII1702202235193",
    "title": "KAWAII1702202235193",
    "link_img": "https://live.staticflickr.com/65535/49548159738_94d5a8132f_o.jpg",
    "id_image": "KAWAII1702202235193",
    "count_view": 0
  },
  {
    "link_thumb": "https://live.staticflickr.com/65535/49548834887_675f3dd3b1_n.jpg",
    "id_album": "-1741487325",
    "description": "KAWAII120918369",
    "title": "KAWAII120918369",
    "link_img": "https://live.staticflickr.com/65535/49548834887_e90e9472a9_o.jpg",
    "id_image": "KAWAII120918369",
    "count_view": 0
  },
  {
    "link_thumb": "https://live.staticflickr.com/65535/49693565083_f554226746_n.jpg",
    "id_album": "-643980979",
    "description": "KAWAII170220223495",
    "title": "KAWAII170220223495",
    "link_img": "https://live.staticflickr.com/65535/49693565083_32ab5df91c_o.jpg",
    "id_image": "KAWAII170220223495",
    "count_view": 0
  },
  {
    "link_thumb": "https://live.staticflickr.com/65535/49694381982_22f65d6e4b_n.jpg",
    "id_album": "-643980979",
    "description": "KAWAII050320202188",
    "title": "KAWAII050320202188",
    "link_img": "https://live.staticflickr.com/65535/49694381982_3672308b8b_o.jpg",
    "id_image": "KAWAII050320202188",
    "count_view": 0
  },
  {
    "link_thumb": "https://live.staticflickr.com/65535/49548602866_68dc12d7a1_n.jpg",
    "id_album": "-1099943053",
    "description": "KAWAII120918350",
    "title": "KAWAII120918350",
    "link_img": "https://live.staticflickr.com/65535/49548602866_b528e1d3d1_o.jpg",
    "id_image": "KAWAII120918350",
    "count_view": 0
  },
  {
    "link_thumb": "https://live.staticflickr.com/65535/49693548643_f895171502_n.jpg",
    "id_album": "-643980979",
    "description": "KAWAII120918221",
    "title": "KAWAII120918221",
    "link_img": "https://live.staticflickr.com/65535/49693548643_4a459079ff_o.jpg",
    "id_image": "KAWAII120918221",
    "count_view": 0
  },
  {
    "link_thumb": "https://live.staticflickr.com/65535/49742952006_e9716ab44a_n.jpg",
    "id_album": "-1862561193",
    "description": "KAWAII0604202149153",
    "title": "KAWAII0604202149153",
    "link_img": "https://live.staticflickr.com/65535/49742952006_73b3e51801_o.jpg",
    "id_image": "KAWAII0604202149153",
    "count_view": 0
  },
  {
    "link_thumb": "https://live.staticflickr.com/65535/49711144802_1e0afd3a19_n.jpg",
    "id_album": "-1599896063",
    "description": "LITTLEMONK29032012063521",
    "title": "LITTLEMONK29032012063521",
    "link_img": "https://live.staticflickr.com/65535/49711144802_4d2dc609c2_o.jpg",
    "id_image": "LITTLEMONK29032012063521",
    "count_view": 0
  },
  {
    "link_thumb": "https://live.staticflickr.com/65535/49694414657_93b941e79f_n.jpg",
    "id_album": "-643980979",
    "description": "KAWAII1702202238417",
    "title": "KAWAII1702202238417",
    "link_img": "https://live.staticflickr.com/65535/49694414657_66ce6860ea_o.jpg",
    "id_image": "KAWAII1702202238417",
    "count_view": 0
  },
  {
    "link_thumb": "https://live.staticflickr.com/65535/49742932701_d5377d3cb9_n.jpg",
    "id_album": "-316663319",
    "description": "KAWAII060420214918252",
    "title": "KAWAII060420214918252",
    "link_img": "https://live.staticflickr.com/65535/49742932701_f9a76244d5_o.jpg",
    "id_image": "KAWAII060420214918252",
    "count_view": 0
  },
  {
    "link_thumb": "https://live.staticflickr.com/65535/49726892263_172c0149e8_n.jpg",
    "id_album": "-316663319",
    "description": "KAWAII020420194512161",
    "title": "KAWAII020420194512161",
    "link_img": "https://live.staticflickr.com/65535/49726892263_bee807b6e8_o.jpg",
    "id_image": "KAWAII020420194512161",
    "count_view": 0
  },
  {
    "link_thumb": "https://live.staticflickr.com/65535/49548935857_227d1e92ef_n.jpg",
    "id_album": "-422187261",
    "description": "KAWAII1702202238411",
    "title": "KAWAII1702202238411",
    "link_img": "https://live.staticflickr.com/65535/49548935857_20b73201c8_o.jpg",
    "id_image": "KAWAII1702202238411",
    "count_view": 0
  },
  {
    "link_thumb": "https://live.staticflickr.com/65535/49548991382_a3038cb70f_n.jpg",
    "id_album": "1396902986",
    "description": "KAWAII17091823",
    "title": "KAWAII17091823",
    "link_img": "https://live.staticflickr.com/65535/49548991382_b7990f7462_o.jpg",
    "id_image": "KAWAII17091823",
    "count_view": 0
  },
  {
    "link_thumb": "https://live.staticflickr.com/65535/49548775137_a598aa735d_n.jpg",
    "id_album": "-1741487325",
    "description": "KAWAII120918117",
    "title": "KAWAII120918117",
    "link_img": "https://live.staticflickr.com/65535/49548775137_6eceb08f83_o.jpg",
    "id_image": "KAWAII120918117",
    "count_view": 0
  },
  {
    "link_thumb": "https://live.staticflickr.com/65535/49726898628_e58725e8fe_n.jpg",
    "id_album": "742877173",
    "description": "KAWAII020420194510168",
    "title": "KAWAII020420194510168",
    "link_img": "https://live.staticflickr.com/65535/49726898628_9f32337f51_o.jpg",
    "id_image": "KAWAII020420194510168",
    "count_view": 0
  },
  {
    "link_thumb": "https://live.staticflickr.com/65535/49727447791_f88960a7f0_n.jpg",
    "id_album": "742877173",
    "description": "KAWAII020420194511182",
    "title": "KAWAII020420194511182",
    "link_img": "https://live.staticflickr.com/65535/49727447791_fbd6a3f3a2_o.jpg",
    "id_image": "KAWAII020420194511182",
    "count_view": 0
  },
  {
    "link_thumb": "https://live.staticflickr.com/65535/49743233892_8006c1c9bf_n.jpg",
    "id_album": "-1694302085",
    "description": "KAWAII060420214917292",
    "title": "KAWAII060420214917292",
    "link_img": "https://live.staticflickr.com/65535/49743233892_aa0b5ce156_o.jpg",
    "id_image": "KAWAII060420214917292",
    "count_view": 0
  },
  {
    "link_thumb": "https://live.staticflickr.com/65535/49548677171_d64ee7e0c8_n.jpg",
    "id_album": "1396902986",
    "description": "KAWAII1702202236276",
    "title": "KAWAII1702202236276",
    "link_img": "https://live.staticflickr.com/65535/49548677171_e3d7c58ebb_o.jpg",
    "id_image": "KAWAII1702202236276",
    "count_view": 0
  },
  {
    "link_thumb": "https://live.staticflickr.com/65535/49726927883_8b29fdece6_n.jpg",
    "id_album": "1226948986",
    "description": "KAWAII02042019450715",
    "title": "KAWAII02042019450715",
    "link_img": "https://live.staticflickr.com/65535/49726927883_646cf323b6_o.jpg",
    "id_image": "KAWAII02042019450715",
    "count_view": 0
  },
  {
    "link_thumb": "https://live.staticflickr.com/65535/49742934366_ef750daf0f_n.jpg",
    "id_album": "-1473448477",
    "description": "KAWAII060420214914180",
    "title": "KAWAII060420214914180",
    "link_img": "https://live.staticflickr.com/65535/49742934366_cbb2ac1530_o.jpg",
    "id_image": "KAWAII060420214914180",
    "count_view": 0
  },
  {
    "link_thumb": "https://live.staticflickr.com/65535/49623101327_a4ea561390_n.jpg",
    "id_album": "-316663319",
    "description": "KAWAII0503202021283",
    "title": "KAWAII0503202021283",
    "link_img": "https://live.staticflickr.com/65535/49623101327_b84e9853b2_o.jpg",
    "id_image": "KAWAII0503202021283",
    "count_view": 0
  },
  {
    "link_thumb": "https://live.staticflickr.com/65535/49727783407_259b0f2615_n.jpg",
    "id_album": "-1862561193",
    "description": "KAWAII020420194511157",
    "title": "KAWAII020420194511157",
    "link_img": "https://live.staticflickr.com/65535/49727783407_5d92787465_o.jpg",
    "id_image": "KAWAII020420194511157",
    "count_view": 0
  },
  {
    "link_thumb": "https://live.staticflickr.com/65535/49727453971_8255094961_n.jpg",
    "id_album": "742877173",
    "description": "KAWAII02042019451497",
    "title": "KAWAII02042019451497",
    "link_img": "https://live.staticflickr.com/65535/49727453971_f333015350_o.jpg",
    "id_image": "KAWAII02042019451497",
    "count_view": 0
  },
  {
    "link_thumb": "https://live.staticflickr.com/65535/49693584983_b04cf0d2ea_n.jpg",
    "id_album": "405170427",
    "description": "KAWAII120918321",
    "title": "KAWAII120918321",
    "link_img": "https://live.staticflickr.com/65535/49693584983_80e3f045d3_o.jpg",
    "id_image": "KAWAII120918321",
    "count_view": 0
  },
  {
    "link_thumb": "https://live.staticflickr.com/65535/49727748897_340ff7ecbd_n.jpg",
    "id_album": "-1497779911",
    "description": "KAWAII1702202235213",
    "title": "KAWAII1702202235213",
    "link_img": "https://live.staticflickr.com/65535/49727748897_864116ab44_o.jpg",
    "id_image": "KAWAII1702202235213",
    "count_view": 0
  },
  {
    "link_thumb": "https://live.staticflickr.com/65535/49548691371_51bb8f0b89_n.jpg",
    "id_album": "-422187261",
    "description": "KAWAII1702202237343",
    "title": "KAWAII1702202237343",
    "link_img": "https://live.staticflickr.com/65535/49548691371_9f31a66f3c_o.jpg",
    "id_image": "KAWAII1702202237343",
    "count_view": 0
  },
  {
    "link_thumb": "https://live.staticflickr.com/65535/49548175748_73759313eb_n.jpg",
    "id_album": "1396902986",
    "description": "KAWAII1702202236275",
    "title": "KAWAII1702202236275",
    "link_img": "https://live.staticflickr.com/65535/49548175748_0e675ef75d_o.jpg",
    "id_image": "KAWAII1702202236275",
    "count_view": 0
  },
  {
    "link_thumb": "https://live.staticflickr.com/65535/49622285883_0f844c56b7_n.jpg",
    "id_album": "1396902986",
    "description": "KAWAII0503202021205",
    "title": "KAWAII0503202021205",
    "link_img": "https://live.staticflickr.com/65535/49622285883_25d3449fa3_o.jpg",
    "id_image": "KAWAII0503202021205",
    "count_view": 0
  },
  {
    "link_thumb": "https://live.staticflickr.com/65535/49548582731_356f3cb7a8_n.jpg",
    "id_album": "-422187261",
    "description": "KAWAII120918269",
    "title": "KAWAII120918269",
    "link_img": "https://live.staticflickr.com/65535/49548582731_fff15eca70_o.jpg",
    "id_image": "KAWAII120918269",
    "count_view": 0
  },
  {
    "link_thumb": "https://live.staticflickr.com/65535/49727476226_49b37303c7_n.jpg",
    "id_album": "431597977",
    "description": "KAWAII02042019451226",
    "title": "KAWAII02042019451226",
    "link_img": "https://live.staticflickr.com/65535/49727476226_8e7e823ef0_o.jpg",
    "id_image": "KAWAII02042019451226",
    "count_view": 0
  },
  {
    "link_thumb": "https://live.staticflickr.com/65535/49743264002_3560ee231e_n.jpg",
    "id_album": "-1473448477",
    "description": "KAWAII06042021491585",
    "title": "KAWAII06042021491585",
    "link_img": "https://live.staticflickr.com/65535/49743264002_969813678f_o.jpg",
    "id_image": "KAWAII06042021491585",
    "count_view": 0
  },
  {
    "link_thumb": "https://live.staticflickr.com/65535/49622282488_3d68eeeb21_n.jpg",
    "id_album": "-422187261",
    "description": "KAWAII05032020214",
    "title": "KAWAII05032020214",
    "link_img": "https://live.staticflickr.com/65535/49622282488_75d958fc73_o.jpg",
    "id_image": "KAWAII05032020214",
    "count_view": 0
  },
  {
    "link_thumb": "https://live.staticflickr.com/65535/49727754687_0ef88fd8c3_n.jpg",
    "id_album": "-316663319",
    "description": "KAWAII02042019451298",
    "title": "KAWAII02042019451298",
    "link_img": "https://live.staticflickr.com/65535/49727754687_d35c90e8e0_o.jpg",
    "id_image": "KAWAII02042019451298",
    "count_view": 0
  },
  {
    "link_thumb": "https://live.staticflickr.com/65535/49552756917_77cfb21e42_n.jpg",
    "id_album": "-316663319",
    "description": "KAWAII1209182518022020592",
    "title": "KAWAII1209182518022020592",
    "link_img": "https://live.staticflickr.com/65535/49552756917_e42ee02182_o.jpg",
    "id_image": "KAWAII1209182518022020592",
    "count_view": 0
  },
  {
    "link_thumb": "https://live.staticflickr.com/65535/49743234747_559cb89647_n.jpg",
    "id_album": "-1694302085",
    "description": "KAWAII06042021491894",
    "title": "KAWAII06042021491894",
    "link_img": "https://live.staticflickr.com/65535/49743234747_fb403b44d9_o.jpg",
    "id_image": "KAWAII06042021491894",
    "count_view": 0
  },
  {
    "link_thumb": "https://live.staticflickr.com/65535/49694423752_6f90b793a7_n.jpg",
    "id_album": "-643980979",
    "description": "KAWAII2702202351148",
    "title": "KAWAII2702202351148",
    "link_img": "https://live.staticflickr.com/65535/49694423752_47092cfd73_o.jpg",
    "id_image": "KAWAII2702202351148",
    "count_view": 0
  },
  {
    "link_thumb": "https://live.staticflickr.com/65535/49694124706_1103db9b34_n.jpg",
    "id_album": "-358592519",
    "description": "KAWAII170220223465",
    "title": "KAWAII170220223465",
    "link_img": "https://live.staticflickr.com/65535/49694124706_3844e47e04_o.jpg",
    "id_image": "KAWAII170220223465",
    "count_view": 0
  },
  {
    "link_thumb": "https://live.staticflickr.com/65535/49694421177_bd95152de0_n.jpg",
    "id_album": "1201366373",
    "description": "KAWAII17022023502",
    "title": "KAWAII17022023502",
    "link_img": "https://live.staticflickr.com/65535/49694421177_18922e9cb6_o.jpg",
    "id_image": "KAWAII17022023502",
    "count_view": 0
  },
  {
    "link_thumb": "https://live.staticflickr.com/65535/49693684043_a164af7b2f_n.jpg",
    "id_album": "1226948986",
    "description": "KAWAII24032022050214",
    "title": "KAWAII24032022050214",
    "link_img": "https://live.staticflickr.com/65535/49693684043_ee586dface_o.jpg",
    "id_image": "KAWAII24032022050214",
    "count_view": 0
  },
  {
    "link_thumb": "https://live.staticflickr.com/65535/49694124856_a23b5e8b4a_n.jpg",
    "id_album": "-358592519",
    "description": "KAWAII1702202236225",
    "title": "KAWAII1702202236225",
    "link_img": "https://live.staticflickr.com/65535/49694124856_a72e80d765_o.jpg",
    "id_image": "KAWAII1702202236225",
    "count_view": 0
  },
  {
    "link_thumb": "https://live.staticflickr.com/65535/49694522597_cbc78edf6a_n.jpg",
    "id_album": "-643980979",
    "description": "KAWAII2403202205023",
    "title": "KAWAII2403202205023",
    "link_img": "https://live.staticflickr.com/65535/49694522597_72b3d5a0b8_o.jpg",
    "id_image": "KAWAII2403202205023",
    "count_view": 0
  },
  {
    "link_thumb": "https://live.staticflickr.com/65535/49592953772_c7408199a6_n.jpg",
    "id_album": "-1741487325",
    "description": "KAWAII2702202351122",
    "title": "KAWAII2702202351122",
    "link_img": "https://live.staticflickr.com/65535/49592953772_69dc6e9f46_o.jpg",
    "id_image": "KAWAII2702202351122",
    "count_view": 0
  },
  {
    "link_thumb": "https://live.staticflickr.com/65535/49742368198_a78aea33e3_n.jpg",
    "id_album": "-1497779911",
    "description": "KAWAII060420214917131",
    "title": "KAWAII060420214917131",
    "link_img": "https://live.staticflickr.com/65535/49742368198_ec94c1902b_o.jpg",
    "id_image": "KAWAII060420214917131",
    "count_view": 0
  },
  {
    "link_thumb": "https://live.staticflickr.com/65535/49592959667_2f7f2098df_n.jpg",
    "id_album": "-316663319",
    "description": "KAWAII270220235121",
    "title": "KAWAII270220235121",
    "link_img": "https://live.staticflickr.com/65535/49592959667_89894cfff3_o.jpg",
    "id_image": "KAWAII270220235121",
    "count_view": 0
  },
  {
    "link_thumb": "https://live.staticflickr.com/65535/49578979872_210bd44659_n.jpg",
    "id_album": "-1099943053",
    "description": "KAWAII190220211132",
    "title": "KAWAII190220211132",
    "link_img": "https://live.staticflickr.com/65535/49578979872_38bc4a89ff_o.jpg",
    "id_image": "KAWAII190220211132",
    "count_view": 0
  },
  {
    "link_thumb": "https://live.staticflickr.com/65535/49548617406_84aee99d48_n.jpg",
    "id_album": "-316663319",
    "description": "KAWAII12091877",
    "title": "KAWAII12091877",
    "link_img": "https://live.staticflickr.com/65535/49548617406_6cbf2fa379_o.jpg",
    "id_image": "KAWAII12091877",
    "count_view": 0
  },
  {
    "link_thumb": "https://live.staticflickr.com/65535/49548734856_2e5ceddcba_n.jpg",
    "id_album": "-422187261",
    "description": "KAWAII1702202239509",
    "title": "KAWAII1702202239509",
    "link_img": "https://live.staticflickr.com/65535/49548734856_21e734e710_o.jpg",
    "id_image": "KAWAII1702202239509",
    "count_view": 0
  },
  {
    "link_thumb": "https://live.staticflickr.com/65535/49623110077_21b03950bc_n.jpg",
    "id_album": "-316663319",
    "description": "KAWAII050320202154",
    "title": "KAWAII050320202154",
    "link_img": "https://live.staticflickr.com/65535/49623110077_15d7deab7b_o.jpg",
    "id_image": "KAWAII050320202154",
    "count_view": 0
  },
  {
    "link_thumb": "https://live.staticflickr.com/65535/49726925693_708ef6ca57_n.jpg",
    "id_album": "-1431786825",
    "description": "KAWAII020420194511158",
    "title": "KAWAII020420194511158",
    "link_img": "https://live.staticflickr.com/65535/49726925693_70f7508396_o.jpg",
    "id_image": "KAWAII020420194511158",
    "count_view": 0
  },
  {
    "link_thumb": "https://live.staticflickr.com/65535/49711146627_ecd37057a1_n.jpg",
    "id_album": "-1599896063",
    "description": "LITTLEMONK29032012064022",
    "title": "LITTLEMONK29032012064022",
    "link_img": "https://live.staticflickr.com/65535/49711146627_b08b52fb70_o.jpg",
    "id_image": "LITTLEMONK29032012064022",
    "count_view": 0
  },
  {
    "link_thumb": "https://live.staticflickr.com/65535/49548731631_730093018a_n.jpg",
    "id_album": "-422187261",
    "description": "KAWAII1702202238498",
    "title": "KAWAII1702202238498",
    "link_img": "https://live.staticflickr.com/65535/49548731631_cb19aed3bd_o.jpg",
    "id_image": "KAWAII1702202238498",
    "count_view": 0
  },
  {
    "link_thumb": "https://live.staticflickr.com/65535/49548807387_2f23a09639_n.jpg",
    "id_album": "-1741487325",
    "description": "KAWAII12091826",
    "title": "KAWAII12091826",
    "link_img": "https://live.staticflickr.com/65535/49548807387_3f7d724a79_o.jpg",
    "id_image": "KAWAII12091826",
    "count_view": 0
  },
  {
    "link_thumb": "https://live.staticflickr.com/65535/49622847721_e1602f2634_n.jpg",
    "id_album": "-406350429",
    "description": "KAWAII0503202021278",
    "title": "KAWAII0503202021278",
    "link_img": "https://live.staticflickr.com/65535/49622847721_093f75abe6_o.jpg",
    "id_image": "KAWAII0503202021278",
    "count_view": 0
  },
  {
    "link_thumb": "https://live.staticflickr.com/65535/49622317858_5497f31501_n.jpg",
    "id_album": "-316663319",
    "description": "KAWAII0503202021315",
    "title": "KAWAII0503202021315",
    "link_img": "https://live.staticflickr.com/65535/49622317858_0ecf191dcd_o.jpg",
    "id_image": "KAWAII0503202021315",
    "count_view": 0
  },
  {
    "link_thumb": "https://live.staticflickr.com/65535/49742937751_20f88234f0_n.jpg",
    "id_album": "-1473448477",
    "description": "KAWAII060420214915241",
    "title": "KAWAII060420214915241",
    "link_img": "https://live.staticflickr.com/65535/49742937751_00167a8b21_o.jpg",
    "id_image": "KAWAII060420214915241",
    "count_view": 0
  },
  {
    "link_thumb": "https://live.staticflickr.com/65535/49694073681_26a46d7531_n.jpg",
    "id_album": "-643980979",
    "description": "KAWAII0503202021264",
    "title": "KAWAII0503202021264",
    "link_img": "https://live.staticflickr.com/65535/49694073681_c3e9af1c12_o.jpg",
    "id_image": "KAWAII0503202021264",
    "count_view": 0
  },
  {
    "link_thumb": "https://live.staticflickr.com/65535/49548041908_66b8047820_n.jpg",
    "id_album": "1396902986",
    "description": "KAWAII1209181",
    "title": "KAWAII1209181",
    "link_img": "https://live.staticflickr.com/65535/49548041908_1f80d1139e_o.jpg",
    "id_image": "KAWAII1209181",
    "count_view": 0
  },
  {
    "link_thumb": "https://live.staticflickr.com/65535/49742906736_e96c174ea1_n.jpg",
    "id_album": "1699819648",
    "description": "KAWAII060420214914299",
    "title": "KAWAII060420214914299",
    "link_img": "https://live.staticflickr.com/65535/49742906736_034e0f4e56_o.jpg",
    "id_image": "KAWAII060420214914299",
    "count_view": 0
  },
  {
    "link_thumb": "https://live.staticflickr.com/65535/49548887602_4a0528ff2f_n.jpg",
    "id_album": "-1741487325",
    "description": "KAWAII1702202235188",
    "title": "KAWAII1702202235188",
    "link_img": "https://live.staticflickr.com/65535/49548887602_753e3e4750_o.jpg",
    "id_image": "KAWAII1702202235188",
    "count_view": 0
  },
  {
    "link_thumb": "https://live.staticflickr.com/65535/49694378392_d94a66076d_n.jpg",
    "id_album": "-643980979",
    "description": "KAWAII050320202136",
    "title": "KAWAII050320202136",
    "link_img": "https://live.staticflickr.com/65535/49694378392_9321ddde90_o.jpg",
    "id_image": "KAWAII050320202136",
    "count_view": 0
  },
  {
    "link_thumb": "https://live.staticflickr.com/65535/49742399878_faea0d5d6b_n.jpg",
    "id_album": "1396902986",
    "description": "KAWAII06042021491277",
    "title": "KAWAII06042021491277",
    "link_img": "https://live.staticflickr.com/65535/49742399878_a23337b0c7_o.jpg",
    "id_image": "KAWAII06042021491277",
    "count_view": 0
  },
  {
    "link_thumb": "https://live.staticflickr.com/65535/49622288518_cd3af19a45_n.jpg",
    "id_album": "1396902986",
    "description": "KAWAII0503202021279",
    "title": "KAWAII0503202021279",
    "link_img": "https://live.staticflickr.com/65535/49622288518_572274970f_o.jpg",
    "id_image": "KAWAII0503202021279",
    "count_view": 0
  },
  {
    "link_thumb": "https://live.staticflickr.com/65535/49548790307_e864ed324a_n.jpg",
    "id_album": "-1694302085",
    "description": "KAWAII120918179",
    "title": "KAWAII120918179",
    "link_img": "https://live.staticflickr.com/65535/49548790307_eb18fbb7fa_o.jpg",
    "id_image": "KAWAII120918179",
    "count_view": 0
  },
  {
    "link_thumb": "https://live.staticflickr.com/65535/49743252577_c5c37b428b_n.jpg",
    "id_album": "-316663319",
    "description": "KAWAII060420214915250",
    "title": "KAWAII060420214915250",
    "link_img": "https://live.staticflickr.com/65535/49743252577_4990f8d560_o.jpg",
    "id_image": "KAWAII060420214915250",
    "count_view": 0
  },
  {
    "link_thumb": "https://live.staticflickr.com/65535/49548825167_030b74dbd6_n.jpg",
    "id_album": "-316663319",
    "description": "KAWAII120918330",
    "title": "KAWAII120918330",
    "link_img": "https://live.staticflickr.com/65535/49548825167_4c814af17e_o.jpg",
    "id_image": "KAWAII120918330",
    "count_view": 0
  },
  {
    "link_thumb": "https://live.staticflickr.com/65535/49694085616_2567ac3105_n.jpg",
    "id_album": "1201366373",
    "description": "KAWAII12091816",
    "title": "KAWAII12091816",
    "link_img": "https://live.staticflickr.com/65535/49694085616_b9d55b8e93_o.jpg",
    "id_image": "KAWAII12091816",
    "count_view": 0
  },
  {
    "link_thumb": "https://live.staticflickr.com/65535/49694216611_d0f7c86d52_n.jpg",
    "id_album": "-1741487325",
    "description": "KAWAII120918249",
    "title": "KAWAII120918249",
    "link_img": "https://live.staticflickr.com/65535/49694216611_86a098ca41_o.jpg",
    "id_image": "KAWAII120918249",
    "count_view": 0
  },
  {
    "link_thumb": "https://live.staticflickr.com/65535/49743251342_f5abde3d17_n.jpg",
    "id_album": "-316663319",
    "description": "KAWAII060420214915168",
    "title": "KAWAII060420214915168",
    "link_img": "https://live.staticflickr.com/65535/49743251342_3c5a096da3_o.jpg",
    "id_image": "KAWAII060420214915168",
    "count_view": 0
  },
  {
    "link_thumb": "https://live.staticflickr.com/65535/49548112553_abe2621fa0_n.jpg",
    "id_album": "-422187261",
    "description": "KAWAII12091863",
    "title": "KAWAII12091863",
    "link_img": "https://live.staticflickr.com/65535/49548112553_4c15e165d9_o.jpg",
    "id_image": "KAWAII12091863",
    "count_view": 0
  },
  {
    "link_thumb": "https://live.staticflickr.com/65535/49694526327_66250a7747_n.jpg",
    "id_album": "1201366373",
    "description": "KAWAII1702202236243",
    "title": "KAWAII1702202236243",
    "link_img": "https://live.staticflickr.com/65535/49694526327_fbbe5a4484_o.jpg",
    "id_image": "KAWAII1702202236243",
    "count_view": 0
  },
  {
    "link_thumb": "https://live.staticflickr.com/65535/49727763977_e863d26ff9_n.jpg",
    "id_album": "742877173",
    "description": "KAWAII020420194512253",
    "title": "KAWAII020420194512253",
    "link_img": "https://live.staticflickr.com/65535/49727763977_92c1b7021c_o.jpg",
    "id_image": "KAWAII020420194512253",
    "count_view": 0
  },
  {
    "link_thumb": "https://live.staticflickr.com/65535/49742410363_1acfd7c229_n.jpg",
    "id_album": "1226948986",
    "description": "KAWAII060420214912216",
    "title": "KAWAII060420214912216",
    "link_img": "https://live.staticflickr.com/65535/49742410363_8ef30bc8d8_o.jpg",
    "id_image": "KAWAII060420214912216",
    "count_view": 0
  },
  {
    "link_thumb": "https://live.staticflickr.com/65535/49742931951_0bf3561d19_n.jpg",
    "id_album": "-316663319",
    "description": "KAWAII060420214917289",
    "title": "KAWAII060420214917289",
    "link_img": "https://live.staticflickr.com/65535/49742931951_2356bb7793_o.jpg",
    "id_image": "KAWAII060420214917289",
    "count_view": 0
  },
  {
    "link_thumb": "https://live.staticflickr.com/65535/49693586948_75d5f24801_n.jpg",
    "id_album": "1226948986",
    "description": "TOTORO22032015426",
    "title": "TOTORO22032015426",
    "link_img": "https://live.staticflickr.com/65535/49693586948_c05ff0c900_o.jpg",
    "id_image": "TOTORO22032015426",
    "count_view": 0
  },
  {
    "link_thumb": "https://live.staticflickr.com/65535/49726900853_dd24b8ddb6_n.jpg",
    "id_album": "742877173",
    "description": "KAWAII02042019451152",
    "title": "KAWAII02042019451152",
    "link_img": "https://live.staticflickr.com/65535/49726900853_6676000a86_o.jpg",
    "id_image": "KAWAII02042019451152",
    "count_view": 0
  },
  {
    "link_thumb": "https://live.staticflickr.com/65535/49742945926_2ba74fd24d_n.jpg",
    "id_album": "-1779286820",
    "description": "KAWAII060420214918265",
    "title": "KAWAII060420214918265",
    "link_img": "https://live.staticflickr.com/65535/49742945926_6ef82b7a3f_o.jpg",
    "id_image": "KAWAII060420214918265",
    "count_view": 0
  },
  {
    "link_thumb": "https://live.staticflickr.com/65535/49694374302_ff8455a18e_n.jpg",
    "id_album": "-643980979",
    "description": "KAWAII050320202118",
    "title": "KAWAII050320202118",
    "link_img": "https://live.staticflickr.com/65535/49694374302_dfde56cdb0_o.jpg",
    "id_image": "KAWAII050320202118",
    "count_view": 0
  },
  {
    "link_thumb": "https://live.staticflickr.com/65535/49694223546_248e7c2f8b_n.jpg",
    "id_album": "1396902986",
    "description": "KAWAII24032022050162",
    "title": "KAWAII24032022050162",
    "link_img": "https://live.staticflickr.com/65535/49694223546_490113feb3_o.jpg",
    "id_image": "KAWAII24032022050162",
    "count_view": 0
  },
  {
    "link_thumb": "https://live.staticflickr.com/65535/49622284898_9e965641df_n.jpg",
    "id_album": "1396902986",
    "description": "KAWAII0503202021155",
    "title": "KAWAII0503202021155",
    "link_img": "https://live.staticflickr.com/65535/49622284898_19d82e608c_o.jpg",
    "id_image": "KAWAII0503202021155",
    "count_view": 0
  },
  {
    "link_thumb": "https://live.staticflickr.com/65535/49693580403_9889b43d40_n.jpg",
    "id_album": "-784970094",
    "description": "KAWAII170220223499",
    "title": "KAWAII170220223499",
    "link_img": "https://live.staticflickr.com/65535/49693580403_0394dbeeb7_o.jpg",
    "id_image": "KAWAII170220223499",
    "count_view": 0
  },
  {
    "link_thumb": "https://live.staticflickr.com/65535/49742939091_f985427249_n.jpg",
    "id_album": "-1473448477",
    "description": "KAWAII06042021491534",
    "title": "KAWAII06042021491534",
    "link_img": "https://live.staticflickr.com/65535/49742939091_c33b080428_o.jpg",
    "id_image": "KAWAII06042021491534",
    "count_view": 0
  },
  {
    "link_thumb": "https://live.staticflickr.com/65535/49548663956_90a3113582_n.jpg",
    "id_album": "-1741487325",
    "description": "KAWAII1702202235206",
    "title": "KAWAII1702202235206",
    "link_img": "https://live.staticflickr.com/65535/49548663956_debf4e0019_o.jpg",
    "id_image": "KAWAII1702202235206",
    "count_view": 0
  },
  {
    "link_thumb": "https://live.staticflickr.com/65535/49592705886_95ab1e321a_n.jpg",
    "id_album": "1396902986",
    "description": "KAWAII27022023511",
    "title": "KAWAII27022023511",
    "link_img": "https://live.staticflickr.com/65535/49592705886_eec36d8b13_o.jpg",
    "id_image": "KAWAII27022023511",
    "count_view": 0
  },
  {
    "link_thumb": "https://live.staticflickr.com/65535/49727745242_30f5689fc8_n.jpg",
    "id_album": "-1497779911",
    "description": "KAWAII0503202021111",
    "title": "KAWAII0503202021111",
    "link_img": "https://live.staticflickr.com/65535/49727745242_eabb43d373_o.jpg",
    "id_image": "KAWAII0503202021111",
    "count_view": 0
  },
  {
    "link_thumb": "https://live.staticflickr.com/65535/49726903053_00683872c3_n.jpg",
    "id_album": "742877173",
    "description": "KAWAII020420194513108",
    "title": "KAWAII020420194513108",
    "link_img": "https://live.staticflickr.com/65535/49726903053_5fe085c133_o.jpg",
    "id_image": "KAWAII020420194513108",
    "count_view": 0
  },
  {
    "link_thumb": "https://live.staticflickr.com/65535/49727740802_83a4165e0b_n.jpg",
    "id_album": "-1694302085",
    "description": "KAWAII0503202021319",
    "title": "KAWAII0503202021319",
    "link_img": "https://live.staticflickr.com/65535/49727740802_f6b9d9ccb8_o.jpg",
    "id_image": "KAWAII0503202021319",
    "count_view": 0
  },
  {
    "link_thumb": "https://live.staticflickr.com/65535/49622805916_8b212f9d03_n.jpg",
    "id_album": "-1741487325",
    "description": "KAWAII050320202112",
    "title": "KAWAII050320202112",
    "link_img": "https://live.staticflickr.com/65535/49622805916_76f712a3f8_o.jpg",
    "id_image": "KAWAII050320202112",
    "count_view": 0
  },
  {
    "link_thumb": "https://live.staticflickr.com/65535/49727465396_43aa8d7c90_n.jpg",
    "id_album": "1396902986",
    "description": "KAWAII02042019451249",
    "title": "KAWAII02042019451249",
    "link_img": "https://live.staticflickr.com/65535/49727465396_a64da1a456_o.jpg",
    "id_image": "KAWAII02042019451249",
    "count_view": 0
  },
  {
    "link_thumb": "https://live.staticflickr.com/65535/49727426901_aa4714b602_n.jpg",
    "id_album": "-1694302085",
    "description": "KAWAII1702202235162",
    "title": "KAWAII1702202235162",
    "link_img": "https://live.staticflickr.com/65535/49727426901_c3b836d30b_o.jpg",
    "id_image": "KAWAII1702202235162",
    "count_view": 0
  },
  {
    "link_thumb": "https://live.staticflickr.com/65535/49622286108_d4a5d67cf8_n.jpg",
    "id_album": "1396902986",
    "description": "KAWAII0503202021209",
    "title": "KAWAII0503202021209",
    "link_img": "https://live.staticflickr.com/65535/49622286108_e050d8ce17_o.jpg",
    "id_image": "KAWAII0503202021209",
    "count_view": 0
  },
  {
    "link_thumb": "https://live.staticflickr.com/65535/49726883093_cdce31a6d0_n.jpg",
    "id_album": "-1497779911",
    "description": "KAWAII02042019451134",
    "title": "KAWAII02042019451134",
    "link_img": "https://live.staticflickr.com/65535/49726883093_7ecea6c899_o.jpg",
    "id_image": "KAWAII02042019451134",
    "count_view": 0
  },
  {
    "link_thumb": "https://live.staticflickr.com/65535/49592204528_636523a09a_n.jpg",
    "id_album": "1396902986",
    "description": "KAWAII2702202351149",
    "title": "KAWAII2702202351149",
    "link_img": "https://live.staticflickr.com/65535/49592204528_f30129f846_o.jpg",
    "id_image": "KAWAII2702202351149",
    "count_view": 0
  },
  {
    "link_thumb": "https://live.staticflickr.com/65535/49693563548_d1c224b6c8_n.jpg",
    "id_album": "-643980979",
    "description": "KAWAII1702202234115",
    "title": "KAWAII1702202234115",
    "link_img": "https://live.staticflickr.com/65535/49693563548_740cbf81fc_o.jpg",
    "id_image": "KAWAII1702202234115",
    "count_view": 0
  },
  {
    "link_thumb": "https://live.staticflickr.com/65535/49694092616_66efc7466f_n.jpg",
    "id_album": "1201366373",
    "description": "KAWAII120918224",
    "title": "KAWAII120918224",
    "link_img": "https://live.staticflickr.com/65535/49694092616_a1a1582151_o.jpg",
    "id_image": "KAWAII120918224",
    "count_view": 0
  },
  {
    "link_thumb": "https://live.staticflickr.com/65535/49743230917_4a213ccc73_n.jpg",
    "id_album": "-422187261",
    "description": "KAWAII06042021491288",
    "title": "KAWAII06042021491288",
    "link_img": "https://live.staticflickr.com/65535/49743230917_6c13b44d19_o.jpg",
    "id_image": "KAWAII06042021491288",
    "count_view": 0
  },
  {
    "link_thumb": "https://live.staticflickr.com/65535/49743261052_4b69c702e4_n.jpg",
    "id_album": "-1473448477",
    "description": "KAWAII06042021491524",
    "title": "KAWAII06042021491524",
    "link_img": "https://live.staticflickr.com/65535/49743261052_51fa3db42d_o.jpg",
    "id_image": "KAWAII06042021491524",
    "count_view": 0
  },
  {
    "link_thumb": "https://live.staticflickr.com/65535/49727745862_fe5f0d562c_n.jpg",
    "id_album": "-1497779911",
    "description": "KAWAII0503202021189",
    "title": "KAWAII0503202021189",
    "link_img": "https://live.staticflickr.com/65535/49727745862_a8cb1b0243_o.jpg",
    "id_image": "KAWAII0503202021189",
    "count_view": 0
  },
  {
    "link_thumb": "https://live.staticflickr.com/65535/49727453196_7151bc12f8_n.jpg",
    "id_album": "742877173",
    "description": "KAWAII02042019451430",
    "title": "KAWAII02042019451430",
    "link_img": "https://live.staticflickr.com/65535/49727453196_a3fe118243_o.jpg",
    "id_image": "KAWAII02042019451430",
    "count_view": 0
  },
  {
    "link_thumb": "https://live.staticflickr.com/65535/49548663011_6cb79bc795_n.jpg",
    "id_album": "-1099943053",
    "description": "KAWAII1702202235201",
    "title": "KAWAII1702202235201",
    "link_img": "https://live.staticflickr.com/65535/49548663011_2b685b0a5d_o.jpg",
    "id_image": "KAWAII1702202235201",
    "count_view": 0
  },
  {
    "link_thumb": "https://live.staticflickr.com/65535/49694414482_675c55845d_n.jpg",
    "id_album": "-643980979",
    "description": "KAWAII1702202237401",
    "title": "KAWAII1702202237401",
    "link_img": "https://live.staticflickr.com/65535/49694414482_625365d4b7_o.jpg",
    "id_image": "KAWAII1702202237401",
    "count_view": 0
  },
  {
    "link_thumb": "https://live.staticflickr.com/65535/49592975332_0aaa759e49_n.jpg",
    "id_album": "949200594",
    "description": "KAWAII27022023516",
    "title": "KAWAII27022023516",
    "link_img": "https://live.staticflickr.com/65535/49592975332_4ee484f112_o.jpg",
    "id_image": "KAWAII27022023516",
    "count_view": 0
  },
  {
    "link_thumb": "https://live.staticflickr.com/65535/49592231623_7d354d6249_n.jpg",
    "id_album": "-1431786825",
    "description": "KAWAII27022023512",
    "title": "KAWAII27022023512",
    "link_img": "https://live.staticflickr.com/65535/49592231623_1da59328d9_o.jpg",
    "id_image": "KAWAII27022023512",
    "count_view": 0
  },
  {
    "link_thumb": "https://live.staticflickr.com/65535/49727761752_c968d433f3_n.jpg",
    "id_album": "742877173",
    "description": "KAWAII02042019451113",
    "title": "KAWAII02042019451113",
    "link_img": "https://live.staticflickr.com/65535/49727761752_441f8fa031_o.jpg",
    "id_image": "KAWAII02042019451113",
    "count_view": 0
  },
  {
    "link_thumb": "https://live.staticflickr.com/65535/49694524487_a6a8840a83_n.jpg",
    "id_album": "-1432180061",
    "description": "KAWAII1702202235151",
    "title": "KAWAII1702202235151",
    "link_img": "https://live.staticflickr.com/65535/49694524487_e08cef51e0_o.jpg",
    "id_image": "KAWAII1702202235151",
    "count_view": 0
  },
  {
    "link_thumb": "https://live.staticflickr.com/65535/49693561193_9c73ba3d04_n.jpg",
    "id_album": "1201366373",
    "description": "KAWAII12091885",
    "title": "KAWAII12091885",
    "link_img": "https://live.staticflickr.com/65535/49693561193_49366dbf09_o.jpg",
    "id_image": "KAWAII12091885",
    "count_view": 0
  },
  {
    "link_thumb": "https://live.staticflickr.com/65535/49742920946_83d0686ccb_n.jpg",
    "id_album": "-316663319",
    "description": "KAWAII060420214912142",
    "title": "KAWAII060420214912142",
    "link_img": "https://live.staticflickr.com/65535/49742920946_b4f8cbc8e9_o.jpg",
    "id_image": "KAWAII060420214912142",
    "count_view": 0
  },
  {
    "link_thumb": "https://live.staticflickr.com/65535/49743232892_ca4857bffc_n.jpg",
    "id_album": "-1694302085",
    "description": "KAWAII060420214912302",
    "title": "KAWAII060420214912302",
    "link_img": "https://live.staticflickr.com/65535/49743232892_df46f0b288_o.jpg",
    "id_image": "KAWAII060420214912302",
    "count_view": 0
  },
  {
    "link_thumb": "https://live.staticflickr.com/65535/49548913477_92e37deab5_n.jpg",
    "id_album": "-1432180061",
    "description": "KAWAII1702202237316",
    "title": "KAWAII1702202237316",
    "link_img": "https://live.staticflickr.com/65535/49548913477_c9c6ed692f_o.jpg",
    "id_image": "KAWAII1702202237316",
    "count_view": 0
  },
  {
    "link_thumb": "https://live.staticflickr.com/65535/49742381618_be01198362_n.jpg",
    "id_album": "-316663319",
    "description": "KAWAII060420214915303",
    "title": "KAWAII060420214915303",
    "link_img": "https://live.staticflickr.com/65535/49742381618_782033aaac_o.jpg",
    "id_image": "KAWAII060420214915303",
    "count_view": 0
  },
  {
    "link_thumb": "https://live.staticflickr.com/65535/49592953277_fa9f56b16b_n.jpg",
    "id_album": "-1741487325",
    "description": "KAWAII17091829",
    "title": "KAWAII17091829",
    "link_img": "https://live.staticflickr.com/65535/49592953277_874a2deb29_o.jpg",
    "id_image": "KAWAII17091829",
    "count_view": 0
  },
  {
    "link_thumb": "https://live.staticflickr.com/65535/49548727196_7af34f5e15_n.jpg",
    "id_album": "-1741487325",
    "description": "KAWAII1702202238481",
    "title": "KAWAII1702202238481",
    "link_img": "https://live.staticflickr.com/65535/49548727196_c37f3180b8_o.jpg",
    "id_image": "KAWAII1702202238481",
    "count_view": 0
  },
  {
    "link_thumb": "https://live.staticflickr.com/65535/49548669546_d864b4cec1_n.jpg",
    "id_album": "-1741487325",
    "description": "KAWAII1702202236234",
    "title": "KAWAII1702202236234",
    "link_img": "https://live.staticflickr.com/65535/49548669546_02a854cb7a_o.jpg",
    "id_image": "KAWAII1702202236234",
    "count_view": 0
  },
  {
    "link_thumb": "https://live.staticflickr.com/65535/49742908481_95792a165d_n.jpg",
    "id_album": "-422187261",
    "description": "KAWAII06042021491857",
    "title": "KAWAII06042021491857",
    "link_img": "https://live.staticflickr.com/65535/49742908481_88e5ccd871_o.jpg",
    "id_image": "KAWAII06042021491857",
    "count_view": 0
  },
  {
    "link_thumb": "https://live.staticflickr.com/65535/49622816161_98892bc61c_n.jpg",
    "id_album": "-316663319",
    "description": "KAWAII0503202021127",
    "title": "KAWAII0503202021127",
    "link_img": "https://live.staticflickr.com/65535/49622816161_fb4f1c7349_o.jpg",
    "id_image": "KAWAII0503202021127",
    "count_view": 0
  },
  {
    "link_thumb": "https://live.staticflickr.com/65535/49548199453_66d102491a_n.jpg",
    "id_album": "-422187261",
    "description": "KAWAII1702202237378",
    "title": "KAWAII1702202237378",
    "link_img": "https://live.staticflickr.com/65535/49548199453_ff152d56a3_o.jpg",
    "id_image": "KAWAII1702202237378",
    "count_view": 0
  },
  {
    "link_thumb": "https://live.staticflickr.com/65535/49742901166_8843983f1b_n.jpg",
    "id_album": "-1913845949",
    "description": "KAWAII060420214912261",
    "title": "KAWAII060420214912261",
    "link_img": "https://live.staticflickr.com/65535/49742901166_f3ee82e220_o.jpg",
    "id_image": "KAWAII060420214912261",
    "count_view": 0
  },
  {
    "link_thumb": "https://live.staticflickr.com/65535/49743279152_b89231f4a4_n.jpg",
    "id_album": "-1431786825",
    "description": "KAWAII060420214915144",
    "title": "KAWAII060420214915144",
    "link_img": "https://live.staticflickr.com/65535/49743279152_27e97c5915_o.jpg",
    "id_image": "KAWAII060420214915144",
    "count_view": 0
  },
  {
    "link_thumb": "https://live.staticflickr.com/65535/49742955191_ec5217740a_n.jpg",
    "id_album": "-1431786825",
    "description": "KAWAII06042021491270",
    "title": "KAWAII06042021491270",
    "link_img": "https://live.staticflickr.com/65535/49742955191_f64c7952b5_o.jpg",
    "id_image": "KAWAII06042021491270",
    "count_view": 0
  }
]