[
  {
    "link_thumb": "https://live.staticflickr.com/65535/49622833316_5b2138bac9_n.jpg",
    "id_album": "-316663319",
    "description": "KAWAII0503202021324",
    "title": "KAWAII0503202021324",
    "link_img": "https://live.staticflickr.com/65535/49622833316_cdb05819ef_o.jpg",
    "id_image": "KAWAII0503202021324",
    "count_view": 0
  },
  {
    "link_thumb": "https://live.staticflickr.com/65535/49548091993_5bf7f748d0_n.jpg",
    "id_album": "-422187261",
    "description": "KAWAII120918313",
    "title": "KAWAII120918313",
    "link_img": "https://live.staticflickr.com/65535/49548091993_8860445e11_o.jpg",
    "id_image": "KAWAII120918313",
    "count_view": 0
  },
  {
    "link_thumb": "https://live.staticflickr.com/65535/49743229022_18f1dffec0_n.jpg",
    "id_album": "-1913845949",
    "description": "KAWAII060420214918319",
    "title": "KAWAII060420214918319",
    "link_img": "https://live.staticflickr.com/65535/49743229022_a755296381_o.jpg",
    "id_image": "KAWAII060420214918319",
    "count_view": 0
  },
  {
    "link_thumb": "https://live.staticflickr.com/65535/49693567148_49b477c0e3_n.jpg",
    "id_album": "1201366373",
    "description": "KAWAII1702202236259",
    "title": "KAWAII1702202236259",
    "link_img": "https://live.staticflickr.com/65535/49693567148_6e0c7e5bfe_o.jpg",
    "id_image": "KAWAII1702202236259",
    "count_view": 0
  },
  {
    "link_thumb": "https://live.staticflickr.com/65535/49548091663_f7151a01e2_n.jpg",
    "id_album": "-1741487325",
    "description": "KAWAII120918312",
    "title": "KAWAII120918312",
    "link_img": "https://live.staticflickr.com/65535/49548091663_14c5731e46_o.jpg",
    "id_image": "KAWAII120918312",
    "count_view": 0
  },
  {
    "link_thumb": "https://live.staticflickr.com/65535/49548242938_e9f62ba1e8_n.jpg",
    "id_album": "-1694302085",
    "description": "KAWAII1702202239542",
    "title": "KAWAII1702202239542",
    "link_img": "https://live.staticflickr.com/65535/49548242938_e930b45106_o.jpg",
    "id_image": "KAWAII1702202239542",
    "count_view": 0
  },
  {
    "link_thumb": "https://live.staticflickr.com/65535/49742955191_ec5217740a_n.jpg",
    "id_album": "-1431786825",
    "description": "KAWAII06042021491270",
    "title": "KAWAII06042021491270",
    "link_img": "https://live.staticflickr.com/65535/49742955191_f64c7952b5_o.jpg",
    "id_image": "KAWAII06042021491270",
    "count_view": 0
  },
  {
    "link_thumb": "https://live.staticflickr.com/65535/49548966717_ec63ed96ac_n.jpg",
    "id_album": "1396902986",
    "description": "KAWAII1702202239528",
    "title": "KAWAII1702202239528",
    "link_img": "https://live.staticflickr.com/65535/49548966717_58d4ff79ce_o.jpg",
    "id_image": "KAWAII1702202239528",
    "count_view": 0
  },
  {
    "link_thumb": "https://live.staticflickr.com/65535/49592228503_248d1795ef_n.jpg",
    "id_album": "949200594",
    "description": "KAWAII2702202351155",
    "title": "KAWAII2702202351155",
    "link_img": "https://live.staticflickr.com/65535/49592228503_73a5fbfed9_o.jpg",
    "id_image": "KAWAII2702202351155",
    "count_view": 0
  },
  {
    "link_thumb": "https://live.staticflickr.com/65535/49548962207_2c915d7e53_n.jpg",
    "id_album": "-422187261",
    "description": "KAWAII1702202239510",
    "title": "KAWAII1702202239510",
    "link_img": "https://live.staticflickr.com/65535/49548962207_8bd2b41354_o.jpg",
    "id_image": "KAWAII1702202239510",
    "count_view": 0
  },
  {
    "link_thumb": "https://live.staticflickr.com/65535/49592721871_d8c01a7af3_n.jpg",
    "id_album": "-316663319",
    "description": "KAWAII270220235192",
    "title": "KAWAII270220235192",
    "link_img": "https://live.staticflickr.com/65535/49592721871_96360fb768_o.jpg",
    "id_image": "KAWAII270220235192",
    "count_view": 0
  },
  {
    "link_thumb": "https://live.staticflickr.com/65535/49742910641_67f34bc564_n.jpg",
    "id_album": "-1694302085",
    "description": "KAWAII06042021491755",
    "title": "KAWAII06042021491755",
    "link_img": "https://live.staticflickr.com/65535/49742910641_67334324ae_o.jpg",
    "id_image": "KAWAII06042021491755",
    "count_view": 0
  },
  {
    "link_thumb": "https://live.staticflickr.com/65535/49622290008_e30c3995b0_n.jpg",
    "id_album": "1396902986",
    "description": "KAWAII050320202166",
    "title": "KAWAII050320202166",
    "link_img": "https://live.staticflickr.com/65535/49622290008_2f36ae4ca9_o.jpg",
    "id_image": "KAWAII050320202166",
    "count_view": 0
  },
  {
    "link_thumb": "https://live.staticflickr.com/65535/49693557013_04796e6138_n.jpg",
    "id_album": "1201366373",
    "description": "KAWAII120918305",
    "title": "KAWAII120918305",
    "link_img": "https://live.staticflickr.com/65535/49693557013_eb148c7f4e_o.jpg",
    "id_image": "KAWAII120918305",
    "count_view": 0
  },
  {
    "link_thumb": "https://live.staticflickr.com/65535/49548695681_144e731b98_n.jpg",
    "id_album": "-422187261",
    "description": "KAWAII1702202237361",
    "title": "KAWAII1702202237361",
    "link_img": "https://live.staticflickr.com/65535/49548695681_c139b41cc7_o.jpg",
    "id_image": "KAWAII1702202237361",
    "count_view": 0
  },
  {
    "link_thumb": "https://live.staticflickr.com/65535/49727761562_d26642ae62_n.jpg",
    "id_album": "742877173",
    "description": "KAWAII020420194510252",
    "title": "KAWAII020420194510252",
    "link_img": "https://live.staticflickr.com/65535/49727761562_19abf3a209_o.jpg",
    "id_image": "KAWAII020420194510252",
    "count_view": 0
  },
  {
    "link_thumb": "https://live.staticflickr.com/65535/49548570486_dc709ec43b_n.jpg",
    "id_album": "-1694302085",
    "description": "KAWAII120918209",
    "title": "KAWAII120918209",
    "link_img": "https://live.staticflickr.com/65535/49548570486_5138dfca7b_o.jpg",
    "id_image": "KAWAII120918209",
    "count_view": 0
  },
  {
    "link_thumb": "https://live.staticflickr.com/65535/49592732726_278f17e315_n.jpg",
    "id_album": "949200594",
    "description": "KAWAII270220235154",
    "title": "KAWAII270220235154",
    "link_img": "https://live.staticflickr.com/65535/49592732726_7fb09fa990_o.jpg",
    "id_image": "KAWAII270220235154",
    "count_view": 0
  },
  {
    "link_thumb": "https://live.staticflickr.com/65535/49727779722_730c65946c_n.jpg",
    "id_album": "1396902986",
    "description": "KAWAII1702202237336",
    "title": "KAWAII1702202237336",
    "link_img": "https://live.staticflickr.com/65535/49727779722_6e4be09687_o.jpg",
    "id_image": "KAWAII1702202237336",
    "count_view": 0
  },
  {
    "link_thumb": "https://live.staticflickr.com/65535/49622282488_3d68eeeb21_n.jpg",
    "id_album": "-422187261",
    "description": "KAWAII05032020214",
    "title": "KAWAII05032020214",
    "link_img": "https://live.staticflickr.com/65535/49622282488_75d958fc73_o.jpg",
    "id_image": "KAWAII05032020214",
    "count_view": 0
  },
  {
    "link_thumb": "https://live.staticflickr.com/65535/49694428222_2c96ddc16f_n.jpg",
    "id_album": "-358592519",
    "description": "KAWAII1702202237329",
    "title": "KAWAII1702202237329",
    "link_img": "https://live.staticflickr.com/65535/49694428222_2f534c562f_o.jpg",
    "id_image": "KAWAII1702202237329",
    "count_view": 0
  },
  {
    "link_thumb": "https://live.staticflickr.com/65535/49693550458_389a7c3a92_n.jpg",
    "id_album": "1201366373",
    "description": "KAWAII120918240",
    "title": "KAWAII120918240",
    "link_img": "https://live.staticflickr.com/65535/49693550458_4c71bcbf04_o.jpg",
    "id_image": "KAWAII120918240",
    "count_view": 0
  },
  {
    "link_thumb": "https://live.staticflickr.com/65535/49694526327_66250a7747_n.jpg",
    "id_album": "1201366373",
    "description": "KAWAII1702202236243",
    "title": "KAWAII1702202236243",
    "link_img": "https://live.staticflickr.com/65535/49694526327_fbbe5a4484_o.jpg",
    "id_image": "KAWAII1702202236243",
    "count_view": 0
  },
  {
    "link_thumb": "https://live.staticflickr.com/65535/49548997357_9ce11ec73d_n.jpg",
    "id_album": "-1741487325",
    "description": "KAWAII17091842",
    "title": "KAWAII17091842",
    "link_img": "https://live.staticflickr.com/65535/49548997357_47b164462a_o.jpg",
    "id_image": "KAWAII17091842",
    "count_view": 0
  },
  {
    "link_thumb": "https://live.staticflickr.com/65535/49548083698_a5d5e71e7f_n.jpg",
    "id_album": "-1741487325",
    "description": "KAWAII120918282",
    "title": "KAWAII120918282",
    "link_img": "https://live.staticflickr.com/65535/49548083698_a9a5b35c14_o.jpg",
    "id_image": "KAWAII120918282",
    "count_view": 0
  },
  {
    "link_thumb": "https://live.staticflickr.com/65535/49743233307_73ebe0ec47_n.jpg",
    "id_album": "-1694302085",
    "description": "KAWAII060420214913283",
    "title": "KAWAII060420214913283",
    "link_img": "https://live.staticflickr.com/65535/49743233307_2ff03ca347_o.jpg",
    "id_image": "KAWAII060420214913283",
    "count_view": 0
  },
  {
    "link_thumb": "https://live.staticflickr.com/65535/49592212928_405a8dd919_n.jpg",
    "id_album": "-316663319",
    "description": "KAWAII2702202351143",
    "title": "KAWAII2702202351143",
    "link_img": "https://live.staticflickr.com/65535/49592212928_3f4652a666_o.jpg",
    "id_image": "KAWAII2702202351143",
    "count_view": 0
  },
  {
    "link_thumb": "https://live.staticflickr.com/65535/49694396762_e664b34e90_n.jpg",
    "id_album": "1201366373",
    "description": "KAWAII120918244",
    "title": "KAWAII120918244",
    "link_img": "https://live.staticflickr.com/65535/49694396762_f82715b938_o.jpg",
    "id_image": "KAWAII120918244",
    "count_view": 0
  },
  {
    "link_thumb": "https://live.staticflickr.com/65535/49548113993_5e86f187cc_n.jpg",
    "id_album": "-316663319",
    "description": "KAWAII12091870",
    "title": "KAWAII12091870",
    "link_img": "https://live.staticflickr.com/65535/49548113993_1194419a0b_o.jpg",
    "id_image": "KAWAII12091870",
    "count_view": 0
  },
  {
    "link_thumb": "https://live.staticflickr.com/65535/49742399878_faea0d5d6b_n.jpg",
    "id_album": "1396902986",
    "description": "KAWAII06042021491277",
    "title": "KAWAII06042021491277",
    "link_img": "https://live.staticflickr.com/65535/49742399878_a23337b0c7_o.jpg",
    "id_image": "KAWAII06042021491277",
    "count_view": 0
  },
  {
    "link_thumb": "https://live.staticflickr.com/65535/49548091408_f4169d36f8_n.jpg",
    "id_album": "-316663319",
    "description": "KAWAII120918311",
    "title": "KAWAII120918311",
    "link_img": "https://live.staticflickr.com/65535/49548091408_0c9ec560f0_o.jpg",
    "id_image": "KAWAII120918311",
    "count_view": 0
  },
  {
    "link_thumb": "https://live.staticflickr.com/65535/49693558183_a469f8695b_n.jpg",
    "id_album": "1201366373",
    "description": "KAWAII12091837",
    "title": "KAWAII12091837",
    "link_img": "https://live.staticflickr.com/65535/49693558183_d571b7c6ef_o.jpg",
    "id_image": "KAWAII12091837",
    "count_view": 0
  },
  {
    "link_thumb": "https://live.staticflickr.com/65535/49727450066_b7156a255a_n.jpg",
    "id_album": "742877173",
    "description": "KAWAII02042019451235",
    "title": "KAWAII02042019451235",
    "link_img": "https://live.staticflickr.com/65535/49727450066_8ced2037ab_o.jpg",
    "id_image": "KAWAII02042019451235",
    "count_view": 0
  },
  {
    "link_thumb": "https://live.staticflickr.com/65535/49548188298_60c88f074b_n.jpg",
    "id_album": "-1431786825",
    "description": "KAWAII1702202237333",
    "title": "KAWAII1702202237333",
    "link_img": "https://live.staticflickr.com/65535/49548188298_392174a893_o.jpg",
    "id_image": "KAWAII1702202237333",
    "count_view": 0
  },
  {
    "link_thumb": "https://live.staticflickr.com/65535/49694425177_218d63f6ae_n.jpg",
    "id_album": "1201366373",
    "description": "KAWAII270220235159",
    "title": "KAWAII270220235159",
    "link_img": "https://live.staticflickr.com/65535/49694425177_c284129e6e_o.jpg",
    "id_image": "KAWAII270220235159",
    "count_view": 0
  },
  {
    "link_thumb": "https://live.staticflickr.com/65535/49726903528_9e8c3e7d87_n.jpg",
    "id_album": "742877173",
    "description": "KAWAII020420194513147",
    "title": "KAWAII020420194513147",
    "link_img": "https://live.staticflickr.com/65535/49726903528_b8cbc37f56_o.jpg",
    "id_image": "KAWAII020420194513147",
    "count_view": 0
  },
  {
    "link_thumb": "https://live.staticflickr.com/65535/49548082638_f017068a8f_n.jpg",
    "id_album": "-316663319",
    "description": "KAWAII120918278",
    "title": "KAWAII120918278",
    "link_img": "https://live.staticflickr.com/65535/49548082638_b0b4e0dcc5_o.jpg",
    "id_image": "KAWAII120918278",
    "count_view": 0
  },
  {
    "link_thumb": "https://live.staticflickr.com/65535/49727761257_5ac0c27d19_n.jpg",
    "id_album": "742877173",
    "description": "KAWAII020420194510239",
    "title": "KAWAII020420194510239",
    "link_img": "https://live.staticflickr.com/65535/49727761257_d57cc01515_o.jpg",
    "id_image": "KAWAII020420194510239",
    "count_view": 0
  },
  {
    "link_thumb": "https://live.staticflickr.com/65535/49742368198_a78aea33e3_n.jpg",
    "id_album": "-1497779911",
    "description": "KAWAII060420214917131",
    "title": "KAWAII060420214917131",
    "link_img": "https://live.staticflickr.com/65535/49742368198_ec94c1902b_o.jpg",
    "id_image": "KAWAII060420214917131",
    "count_view": 0
  },
  {
    "link_thumb": "https://live.staticflickr.com/65535/49548547066_a5fcae1d0d_n.jpg",
    "id_album": "-1741487325",
    "description": "KAWAII120918111",
    "title": "KAWAII120918111",
    "link_img": "https://live.staticflickr.com/65535/49548547066_58e63364cd_o.jpg",
    "id_image": "KAWAII120918111",
    "count_view": 0
  },
  {
    "link_thumb": "https://live.staticflickr.com/65535/49548062153_0a45846041_n.jpg",
    "id_album": "-1741487325",
    "description": "KAWAII120918180",
    "title": "KAWAII120918180",
    "link_img": "https://live.staticflickr.com/65535/49548062153_20b940c442_o.jpg",
    "id_image": "KAWAII120918180",
    "count_view": 0
  },
  {
    "link_thumb": "https://live.staticflickr.com/65535/49727470746_fa73e3a37f_n.jpg",
    "id_album": "-1862561193",
    "description": "KAWAII020420194512120",
    "title": "KAWAII020420194512120",
    "link_img": "https://live.staticflickr.com/65535/49727470746_3d39dec80e_o.jpg",
    "id_image": "KAWAII020420194512120",
    "count_view": 0
  },
  {
    "link_thumb": "https://live.staticflickr.com/65535/49592959667_2f7f2098df_n.jpg",
    "id_album": "-316663319",
    "description": "KAWAII270220235121",
    "title": "KAWAII270220235121",
    "link_img": "https://live.staticflickr.com/65535/49592959667_89894cfff3_o.jpg",
    "id_image": "KAWAII270220235121",
    "count_view": 0
  },
  {
    "link_thumb": "https://live.staticflickr.com/65535/49742396283_874932332b_n.jpg",
    "id_album": "-1779286820",
    "description": "KAWAII060420214915123",
    "title": "KAWAII060420214915123",
    "link_img": "https://live.staticflickr.com/65535/49742396283_90eacb75c7_o.jpg",
    "id_image": "KAWAII060420214915123",
    "count_view": 0
  },
  {
    "link_thumb": "https://live.staticflickr.com/65535/49548694021_aac1a408ab_n.jpg",
    "id_album": "-422187261",
    "description": "KAWAII1702202237355",
    "title": "KAWAII1702202237355",
    "link_img": "https://live.staticflickr.com/65535/49548694021_8570f5a361_o.jpg",
    "id_image": "KAWAII1702202237355",
    "count_view": 0
  },
  {
    "link_thumb": "https://live.staticflickr.com/65535/49548151138_9df7836e63_n.jpg",
    "id_album": "-316663319",
    "description": "KAWAII1702202235152",
    "title": "KAWAII1702202235152",
    "link_img": "https://live.staticflickr.com/65535/49548151138_c7aef7d8ff_o.jpg",
    "id_image": "KAWAII1702202235152",
    "count_view": 0
  },
  {
    "link_thumb": "https://live.staticflickr.com/65535/49548097683_dce4ccbd7e_n.jpg",
    "id_album": "1396902986",
    "description": "KAWAII120918338",
    "title": "KAWAII120918338",
    "link_img": "https://live.staticflickr.com/65535/49548097683_818d033f2d_o.jpg",
    "id_image": "KAWAII120918338",
    "count_view": 0
  },
  {
    "link_thumb": "https://live.staticflickr.com/65535/49726900093_f832526a51_n.jpg",
    "id_album": "742877173",
    "description": "KAWAII020420194511145",
    "title": "KAWAII020420194511145",
    "link_img": "https://live.staticflickr.com/65535/49726900093_e05e1fa3a0_o.jpg",
    "id_image": "KAWAII020420194511145",
    "count_view": 0
  },
  {
    "link_thumb": "https://live.staticflickr.com/65535/49548733976_b8ef83e3fe_n.jpg",
    "id_album": "-1099943053",
    "description": "KAWAII1702202239506",
    "title": "KAWAII1702202239506",
    "link_img": "https://live.staticflickr.com/65535/49548733976_88b6f6fe35_o.jpg",
    "id_image": "KAWAII1702202239506",
    "count_view": 0
  },
  {
    "link_thumb": "https://live.staticflickr.com/65535/49694383662_c3d6b5a253_n.jpg",
    "id_album": "1201366373",
    "description": "KAWAII120918110",
    "title": "KAWAII120918110",
    "link_img": "https://live.staticflickr.com/65535/49694383662_89b9a4d1d3_o.jpg",
    "id_image": "KAWAII120918110",
    "count_view": 0
  },
  {
    "link_thumb": "https://live.staticflickr.com/65535/49622845556_8beb801bb0_n.jpg",
    "id_album": "-406350429",
    "description": "KAWAII0503202021243",
    "title": "KAWAII0503202021243",
    "link_img": "https://live.staticflickr.com/65535/49622845556_e6dd85b368_o.jpg",
    "id_image": "KAWAII0503202021243",
    "count_view": 0
  },
  {
    "link_thumb": "https://live.staticflickr.com/65535/49694412777_2edfee1cdb_n.jpg",
    "id_album": "-643980979",
    "description": "KAWAII1702202236290",
    "title": "KAWAII1702202236290",
    "link_img": "https://live.staticflickr.com/65535/49694412777_7acf31a874_o.jpg",
    "id_image": "KAWAII1702202236290",
    "count_view": 0
  },
  {
    "link_thumb": "https://live.staticflickr.com/65535/49726877818_53f61f5de1_n.jpg",
    "id_album": "-1694302085",
    "description": "KAWAII02042019450832",
    "title": "KAWAII02042019450832",
    "link_img": "https://live.staticflickr.com/65535/49726877818_b29789fafa_o.jpg",
    "id_image": "KAWAII02042019450832",
    "count_view": 0
  },
  {
    "link_thumb": "https://live.staticflickr.com/65535/49592954487_25b10e6300_n.jpg",
    "id_album": "-1741487325",
    "description": "KAWAII270220235150",
    "title": "KAWAII270220235150",
    "link_img": "https://live.staticflickr.com/65535/49592954487_925a645ab0_o.jpg",
    "id_image": "KAWAII270220235150",
    "count_view": 0
  },
  {
    "link_thumb": "https://live.staticflickr.com/65535/49623115017_ddf91e3224_n.jpg",
    "id_album": "-406350429",
    "description": "KAWAII0503202021149",
    "title": "KAWAII0503202021149",
    "link_img": "https://live.staticflickr.com/65535/49623115017_21835e7cd3_o.jpg",
    "id_image": "KAWAII0503202021149",
    "count_view": 0
  },
  {
    "link_thumb": "https://live.staticflickr.com/65535/49726884778_087ace6f08_n.jpg",
    "id_album": "-1497779911",
    "description": "KAWAII0503202021248",
    "title": "KAWAII0503202021248",
    "link_img": "https://live.staticflickr.com/65535/49726884778_9344b62852_o.jpg",
    "id_image": "KAWAII0503202021248",
    "count_view": 0
  },
  {
    "link_thumb": "https://live.staticflickr.com/65535/49694092616_66efc7466f_n.jpg",
    "id_album": "1201366373",
    "description": "KAWAII120918224",
    "title": "KAWAII120918224",
    "link_img": "https://live.staticflickr.com/65535/49694092616_a1a1582151_o.jpg",
    "id_image": "KAWAII120918224",
    "count_view": 0
  },
  {
    "link_thumb": "https://live.staticflickr.com/65535/49592729256_4a8e4ee1c0_n.jpg",
    "id_album": "949200594",
    "description": "KAWAII2702202351113",
    "title": "KAWAII2702202351113",
    "link_img": "https://live.staticflickr.com/65535/49592729256_bb71706a95_o.jpg",
    "id_image": "KAWAII2702202351113",
    "count_view": 0
  },
  {
    "link_thumb": "https://live.staticflickr.com/65535/49693548643_f895171502_n.jpg",
    "id_album": "-643980979",
    "description": "KAWAII120918221",
    "title": "KAWAII120918221",
    "link_img": "https://live.staticflickr.com/65535/49693548643_4a459079ff_o.jpg",
    "id_image": "KAWAII120918221",
    "count_view": 0
  },
  {
    "link_thumb": "https://live.staticflickr.com/65535/49592728696_e65ca79af2_n.jpg",
    "id_album": "949200594",
    "description": "KAWAII2702202351102",
    "title": "KAWAII2702202351102",
    "link_img": "https://live.staticflickr.com/65535/49592728696_a73000a49f_o.jpg",
    "id_image": "KAWAII2702202351102",
    "count_view": 0
  },
  {
    "link_thumb": "https://live.staticflickr.com/65535/49742912506_ef3b279ef4_n.jpg",
    "id_album": "-1741487325",
    "description": "KAWAII06042021491566",
    "title": "KAWAII06042021491566",
    "link_img": "https://live.staticflickr.com/65535/49742912506_9d8f3b2559_o.jpg",
    "id_image": "KAWAII06042021491566",
    "count_view": 0
  },
  {
    "link_thumb": "https://live.staticflickr.com/65535/49623101327_a4ea561390_n.jpg",
    "id_album": "-316663319",
    "description": "KAWAII0503202021283",
    "title": "KAWAII0503202021283",
    "link_img": "https://live.staticflickr.com/65535/49623101327_b84e9853b2_o.jpg",
    "id_image": "KAWAII0503202021283",
    "count_view": 0
  },
  {
    "link_thumb": "https://live.staticflickr.com/65535/49742360258_9988d1a3af_n.jpg",
    "id_album": "-422187261",
    "description": "KAWAII060420214913270",
    "title": "KAWAII060420214913270",
    "link_img": "https://live.staticflickr.com/65535/49742360258_230c5dc197_o.jpg",
    "id_image": "KAWAII060420214913270",
    "count_view": 0
  },
  {
    "link_thumb": "https://live.staticflickr.com/65535/49548991382_a3038cb70f_n.jpg",
    "id_album": "1396902986",
    "description": "KAWAII17091823",
    "title": "KAWAII17091823",
    "link_img": "https://live.staticflickr.com/65535/49548991382_b7990f7462_o.jpg",
    "id_image": "KAWAII17091823",
    "count_view": 0
  },
  {
    "link_thumb": "https://live.staticflickr.com/65535/49727786952_77262a7d00_n.jpg",
    "id_album": "-1862561193",
    "description": "KAWAII02042019451490",
    "title": "KAWAII02042019451490",
    "link_img": "https://live.staticflickr.com/65535/49727786952_31e95d88f2_o.jpg",
    "id_image": "KAWAII02042019451490",
    "count_view": 0
  },
  {
    "link_thumb": "https://live.staticflickr.com/65535/49742919341_7d960dfd4e_n.jpg",
    "id_album": "-128218148",
    "description": "KAWAII06042021491238",
    "title": "KAWAII06042021491238",
    "link_img": "https://live.staticflickr.com/65535/49742919341_cb2f770b15_o.jpg",
    "id_image": "KAWAII06042021491238",
    "count_view": 0
  },
  {
    "link_thumb": "https://live.staticflickr.com/65535/49693526753_b1d2803960_n.jpg",
    "id_album": "-643980979",
    "description": "KAWAII0503202021140",
    "title": "KAWAII0503202021140",
    "link_img": "https://live.staticflickr.com/65535/49693526753_3f30c097d4_o.jpg",
    "id_image": "KAWAII0503202021140",
    "count_view": 0
  },
  {
    "link_thumb": "https://live.staticflickr.com/65535/49548783917_0cd7aa6838_n.jpg",
    "id_album": "-1741487325",
    "description": "KAWAII120918150",
    "title": "KAWAII120918150",
    "link_img": "https://live.staticflickr.com/65535/49548783917_f8974d8288_o.jpg",
    "id_image": "KAWAII120918150",
    "count_view": 0
  },
  {
    "link_thumb": "https://live.staticflickr.com/65535/49694123501_ec500e9a63_n.jpg",
    "id_album": "-784970094",
    "description": "KAWAII1702202235202",
    "title": "KAWAII1702202235202",
    "link_img": "https://live.staticflickr.com/65535/49694123501_326bc2acc0_o.jpg",
    "id_image": "KAWAII1702202235202",
    "count_view": 0
  },
  {
    "link_thumb": "https://live.staticflickr.com/65535/49548180778_6e380c3a9f_n.jpg",
    "id_album": "-1432180061",
    "description": "KAWAII1702202236298",
    "title": "KAWAII1702202236298",
    "link_img": "https://live.staticflickr.com/65535/49548180778_5d7d573817_o.jpg",
    "id_image": "KAWAII1702202236298",
    "count_view": 0
  },
  {
    "link_thumb": "https://live.staticflickr.com/65535/49711145752_b428a36eb6_n.jpg",
    "id_album": "-1599896063",
    "description": "LITTLEMONK29032012063817",
    "title": "LITTLEMONK29032012063817",
    "link_img": "https://live.staticflickr.com/65535/49711145752_3b11773dd6_o.jpg",
    "id_image": "LITTLEMONK29032012063817",
    "count_view": 0
  },
  {
    "link_thumb": "https://live.staticflickr.com/65535/49726919073_c2ff824298_n.jpg",
    "id_album": "-1862561193",
    "description": "KAWAII020420194508243",
    "title": "KAWAII020420194508243",
    "link_img": "https://live.staticflickr.com/65535/49726919073_b482a8ddc1_o.jpg",
    "id_image": "KAWAII020420194508243",
    "count_view": 0
  },
  {
    "link_thumb": "https://live.staticflickr.com/65535/49743230762_d587990639_n.jpg",
    "id_album": "-422187261",
    "description": "KAWAII060420214912167",
    "title": "KAWAII060420214912167",
    "link_img": "https://live.staticflickr.com/65535/49743230762_70ab22a7e4_o.jpg",
    "id_image": "KAWAII060420214912167",
    "count_view": 0
  },
  {
    "link_thumb": "https://live.staticflickr.com/65535/49742911686_9ff0af5e21_n.jpg",
    "id_album": "-1741487325",
    "description": "KAWAII060420214912184",
    "title": "KAWAII060420214912184",
    "link_img": "https://live.staticflickr.com/65535/49742911686_c7bee8c3a9_o.jpg",
    "id_image": "KAWAII060420214912184",
    "count_view": 0
  },
  {
    "link_thumb": "https://live.staticflickr.com/65535/49548566286_1178d84f81_n.jpg",
    "id_album": "1396902986",
    "description": "KAWAII120918190",
    "title": "KAWAII120918190",
    "link_img": "https://live.staticflickr.com/65535/49548566286_983818521d_o.jpg",
    "id_image": "KAWAII120918190",
    "count_view": 0
  },
  {
    "link_thumb": "https://live.staticflickr.com/65535/49727434356_c3ff8953bd_n.jpg",
    "id_album": "-1497779911",
    "description": "KAWAII1702202235125",
    "title": "KAWAII1702202235125",
    "link_img": "https://live.staticflickr.com/65535/49727434356_b768281799_o.jpg",
    "id_image": "KAWAII1702202235125",
    "count_view": 0
  },
  {
    "link_thumb": "https://live.staticflickr.com/65535/49548965382_a0187cbe61_n.jpg",
    "id_album": "-1099943053",
    "description": "KAWAII1702202239522",
    "title": "KAWAII1702202239522",
    "link_img": "https://live.staticflickr.com/65535/49548965382_ab60cb6c53_o.jpg",
    "id_image": "KAWAII1702202239522",
    "count_view": 0
  },
  {
    "link_thumb": "https://live.staticflickr.com/65535/49548572351_028e0778f4_n.jpg",
    "id_album": "-316663319",
    "description": "KAWAII120918219",
    "title": "KAWAII120918219",
    "link_img": "https://live.staticflickr.com/65535/49548572351_e6bd1de198_o.jpg",
    "id_image": "KAWAII120918219",
    "count_view": 0
  },
  {
    "link_thumb": "https://live.staticflickr.com/65535/49693682843_b56146b264_n.jpg",
    "id_album": "1226948986",
    "description": "KAWAII24032022050131",
    "title": "KAWAII24032022050131",
    "link_img": "https://live.staticflickr.com/65535/49693682843_655023106c_o.jpg",
    "id_image": "KAWAII24032022050131",
    "count_view": 0
  },
  {
    "link_thumb": "https://live.staticflickr.com/65535/49694402162_571e2018be_n.jpg",
    "id_album": "1201366373",
    "description": "KAWAII120918301",
    "title": "KAWAII120918301",
    "link_img": "https://live.staticflickr.com/65535/49694402162_4b50bcf03a_o.jpg",
    "id_image": "KAWAII120918301",
    "count_view": 0
  },
  {
    "link_thumb": "https://live.staticflickr.com/65535/49742354563_11e3dbd821_n.jpg",
    "id_album": "-1913845949",
    "description": "KAWAII060420214914316",
    "title": "KAWAII060420214914316",
    "link_img": "https://live.staticflickr.com/65535/49742354563_6ec665346f_o.jpg",
    "id_image": "KAWAII060420214914316",
    "count_view": 0
  },
  {
    "link_thumb": "https://live.staticflickr.com/65535/49548566621_f8a47d0bae_n.jpg",
    "id_album": "-1741487325",
    "description": "KAWAII120918192",
    "title": "KAWAII120918192",
    "link_img": "https://live.staticflickr.com/65535/49548566621_dcf7453533_o.jpg",
    "id_image": "KAWAII120918192",
    "count_view": 0
  },
  {
    "link_thumb": "https://live.staticflickr.com/65535/49622334453_e7acc9cfeb_n.jpg",
    "id_album": "-406350429",
    "description": "KAWAII050320202160",
    "title": "KAWAII050320202160",
    "link_img": "https://live.staticflickr.com/65535/49622334453_db673f5e89_o.jpg",
    "id_image": "KAWAII050320202160",
    "count_view": 0
  },
  {
    "link_thumb": "https://live.staticflickr.com/65535/49711144802_1e0afd3a19_n.jpg",
    "id_album": "-1599896063",
    "description": "LITTLEMONK29032012063521",
    "title": "LITTLEMONK29032012063521",
    "link_img": "https://live.staticflickr.com/65535/49711144802_4d2dc609c2_o.jpg",
    "id_image": "LITTLEMONK29032012063521",
    "count_view": 0
  },
  {
    "link_thumb": "https://live.staticflickr.com/65535/49743247462_f92806a66d_n.jpg",
    "id_album": "-316663319",
    "description": "KAWAII060420214913137",
    "title": "KAWAII060420214913137",
    "link_img": "https://live.staticflickr.com/65535/49743247462_821845a635_o.jpg",
    "id_image": "KAWAII060420214913137",
    "count_view": 0
  },
  {
    "link_thumb": "https://live.staticflickr.com/65535/49694127511_dfcb8f8d26_n.jpg",
    "id_album": "-755466332",
    "description": "KAWAII120918329",
    "title": "KAWAII120918329",
    "link_img": "https://live.staticflickr.com/65535/49694127511_fd11edfdf7_o.jpg",
    "id_image": "KAWAII120918329",
    "count_view": 0
  },
  {
    "link_thumb": "https://live.staticflickr.com/65535/49548195458_58ee968802_n.jpg",
    "id_album": "-1432180061",
    "description": "KAWAII1702202237363",
    "title": "KAWAII1702202237363",
    "link_img": "https://live.staticflickr.com/65535/49548195458_2d6f2e65ca_o.jpg",
    "id_image": "KAWAII1702202237363",
    "count_view": 0
  },
  {
    "link_thumb": "https://live.staticflickr.com/65535/49726922283_ca0505d06b_n.jpg",
    "id_album": "-1862561193",
    "description": "KAWAII020420194511233",
    "title": "KAWAII020420194511233",
    "link_img": "https://live.staticflickr.com/65535/49726922283_ed7cb0cc3b_o.jpg",
    "id_image": "KAWAII020420194511233",
    "count_view": 0
  },
  {
    "link_thumb": "https://live.staticflickr.com/65535/49742945926_2ba74fd24d_n.jpg",
    "id_album": "-1779286820",
    "description": "KAWAII060420214918265",
    "title": "KAWAII060420214918265",
    "link_img": "https://live.staticflickr.com/65535/49742945926_6ef82b7a3f_o.jpg",
    "id_image": "KAWAII060420214918265",
    "count_view": 0
  },
  {
    "link_thumb": "https://live.staticflickr.com/65535/49727429366_4dc911d79c_n.jpg",
    "id_album": "-1741487325",
    "description": "KAWAII02042019451286",
    "title": "KAWAII02042019451286",
    "link_img": "https://live.staticflickr.com/65535/49727429366_9d132547f7_o.jpg",
    "id_image": "KAWAII02042019451286",
    "count_view": 0
  },
  {
    "link_thumb": "https://live.staticflickr.com/65535/49693682353_8b39a5992c_n.jpg",
    "id_album": "46674803",
    "description": "KAWAII24032022050233",
    "title": "KAWAII24032022050233",
    "link_img": "https://live.staticflickr.com/65535/49693682353_ffce88a729_o.jpg",
    "id_image": "KAWAII24032022050233",
    "count_view": 0
  },
  {
    "link_thumb": "https://live.staticflickr.com/65535/49727448541_087b7b8cab_n.jpg",
    "id_album": "742877173",
    "description": "KAWAII02042019451188",
    "title": "KAWAII02042019451188",
    "link_img": "https://live.staticflickr.com/65535/49727448541_16fd383dcc_o.jpg",
    "id_image": "KAWAII02042019451188",
    "count_view": 0
  },
  {
    "link_thumb": "https://live.staticflickr.com/65535/49548691371_51bb8f0b89_n.jpg",
    "id_album": "-422187261",
    "description": "KAWAII1702202237343",
    "title": "KAWAII1702202237343",
    "link_img": "https://live.staticflickr.com/65535/49548691371_9f31a66f3c_o.jpg",
    "id_image": "KAWAII1702202237343",
    "count_view": 0
  },
  {
    "link_thumb": "https://live.staticflickr.com/65535/49742945786_d5e0c62073_n.jpg",
    "id_album": "-1779286820",
    "description": "KAWAII060420214918264",
    "title": "KAWAII060420214918264",
    "link_img": "https://live.staticflickr.com/65535/49742945786_f45b580126_o.jpg",
    "id_image": "KAWAII060420214918264",
    "count_view": 0
  },
  {
    "link_thumb": "https://live.staticflickr.com/65535/49694081176_09810f47ba_n.jpg",
    "id_album": "-643980979",
    "description": "KAWAII12091811",
    "title": "KAWAII12091811",
    "link_img": "https://live.staticflickr.com/65535/49694081176_18dac0675d_o.jpg",
    "id_image": "KAWAII12091811",
    "count_view": 0
  },
  {
    "link_thumb": "https://live.staticflickr.com/65535/49548648796_cfeb122be0_n.jpg",
    "id_album": "-1741487325",
    "description": "KAWAII1702202235134",
    "title": "KAWAII1702202235134",
    "link_img": "https://live.staticflickr.com/65535/49548648796_306a19d7d5_o.jpg",
    "id_image": "KAWAII1702202235134",
    "count_view": 0
  },
  {
    "link_thumb": "https://live.staticflickr.com/65535/49742354763_4f8e3fc9e6_n.jpg",
    "id_album": "-1913845949",
    "description": "KAWAII06042021491432",
    "title": "KAWAII06042021491432",
    "link_img": "https://live.staticflickr.com/65535/49742354763_a1c9206fa6_o.jpg",
    "id_image": "KAWAII06042021491432",
    "count_view": 0
  },
  {
    "link_thumb": "https://live.staticflickr.com/65535/49622848876_ddcc0655dc_n.jpg",
    "id_album": "-406350429",
    "description": "KAWAII050320202132",
    "title": "KAWAII050320202132",
    "link_img": "https://live.staticflickr.com/65535/49622848876_b472353609_o.jpg",
    "id_image": "KAWAII050320202132",
    "count_view": 0
  },
  {
    "link_thumb": "https://live.staticflickr.com/65535/49694421257_73b07e22c3_n.jpg",
    "id_album": "1201366373",
    "description": "KAWAII17022023504",
    "title": "KAWAII17022023504",
    "link_img": "https://live.staticflickr.com/65535/49694421257_a95c39fb40_o.jpg",
    "id_image": "KAWAII17022023504",
    "count_view": 0
  },
  {
    "link_thumb": "https://live.staticflickr.com/65535/49694079036_c5b22da7ce_n.jpg",
    "id_album": "-643980979",
    "description": "KAWAII050320202184",
    "title": "KAWAII050320202184",
    "link_img": "https://live.staticflickr.com/65535/49694079036_5552a877d7_o.jpg",
    "id_image": "KAWAII050320202184",
    "count_view": 0
  },
  {
    "link_thumb": "https://live.staticflickr.com/65535/49548877017_2c93180579_n.jpg",
    "id_album": "-1432180061",
    "description": "KAWAII1702202235140",
    "title": "KAWAII1702202235140",
    "link_img": "https://live.staticflickr.com/65535/49548877017_93a4e04f3f_o.jpg",
    "id_image": "KAWAII1702202235140",
    "count_view": 0
  },
  {
    "link_thumb": "https://live.staticflickr.com/65535/49694104556_18a17eb7e2_n.jpg",
    "id_album": "1201366373",
    "description": "KAWAII12091893",
    "title": "KAWAII12091893",
    "link_img": "https://live.staticflickr.com/65535/49694104556_0abc29feb6_o.jpg",
    "id_image": "KAWAII12091893",
    "count_view": 0
  },
  {
    "link_thumb": "https://live.staticflickr.com/65535/49726900853_dd24b8ddb6_n.jpg",
    "id_album": "742877173",
    "description": "KAWAII02042019451152",
    "title": "KAWAII02042019451152",
    "link_img": "https://live.staticflickr.com/65535/49726900853_6676000a86_o.jpg",
    "id_image": "KAWAII02042019451152",
    "count_view": 0
  },
  {
    "link_thumb": "https://live.staticflickr.com/65535/49622286478_3e670975d2_n.jpg",
    "id_album": "1396902986",
    "description": "KAWAII0503202021217",
    "title": "KAWAII0503202021217",
    "link_img": "https://live.staticflickr.com/65535/49622286478_b504a41004_o.jpg",
    "id_image": "KAWAII0503202021217",
    "count_view": 0
  },
  {
    "link_thumb": "https://live.staticflickr.com/65535/49548866362_12816ef6b5_n.jpg",
    "id_album": "-1432180061",
    "description": "KAWAII170220223463",
    "title": "KAWAII170220223463",
    "link_img": "https://live.staticflickr.com/65535/49548866362_4041334eae_o.jpg",
    "id_image": "KAWAII170220223463",
    "count_view": 0
  },
  {
    "link_thumb": "https://live.staticflickr.com/65535/49726920378_5fe622b19f_n.jpg",
    "id_album": "-1862561193",
    "description": "KAWAII02042019450970",
    "title": "KAWAII02042019450970",
    "link_img": "https://live.staticflickr.com/65535/49726920378_b7e012f436_o.jpg",
    "id_image": "KAWAII02042019450970",
    "count_view": 0
  },
  {
    "link_thumb": "https://live.staticflickr.com/65535/49622291638_2e4139d76c_n.jpg",
    "id_album": "-1741487325",
    "description": "KAWAII0503202021160",
    "title": "KAWAII0503202021160",
    "link_img": "https://live.staticflickr.com/65535/49622291638_95aaffd762_o.jpg",
    "id_image": "KAWAII0503202021160",
    "count_view": 0
  },
  {
    "link_thumb": "https://live.staticflickr.com/65535/49552757447_256c75cf48_n.jpg",
    "id_album": "-1694302085",
    "description": "KAWAII12091825180220205924",
    "title": "KAWAII12091825180220205924",
    "link_img": "https://live.staticflickr.com/65535/49552757447_0c6ce1820b_o.jpg",
    "id_image": "KAWAII12091825180220205924",
    "count_view": 0
  },
  {
    "link_thumb": "https://live.staticflickr.com/65535/49694392237_a898db2aed_n.jpg",
    "id_album": "1201366373",
    "description": "KAWAII120918197",
    "title": "KAWAII120918197",
    "link_img": "https://live.staticflickr.com/65535/49694392237_749440c1a6_o.jpg",
    "id_image": "KAWAII120918197",
    "count_view": 0
  },
  {
    "link_thumb": "https://live.staticflickr.com/65535/49552759917_19b94a5bea_n.jpg",
    "id_album": "-316663319",
    "description": "KAWAII12091825180220205940",
    "title": "KAWAII12091825180220205940",
    "link_img": "https://live.staticflickr.com/65535/49552759917_c59a92f79d_o.jpg",
    "id_image": "KAWAII12091825180220205940",
    "count_view": 0
  },
  {
    "link_thumb": "https://live.staticflickr.com/65535/49592204403_99989d7f92_n.jpg",
    "id_album": "1396902986",
    "description": "KAWAII2702202351145",
    "title": "KAWAII2702202351145",
    "link_img": "https://live.staticflickr.com/65535/49592204403_aa5304ec91_o.jpg",
    "id_image": "KAWAII2702202351145",
    "count_view": 0
  },
  {
    "link_thumb": "https://live.staticflickr.com/65535/49693531088_f8aa4fc009_n.jpg",
    "id_album": "1201366373",
    "description": "KAWAII0503202021294",
    "title": "KAWAII0503202021294",
    "link_img": "https://live.staticflickr.com/65535/49693531088_828666a701_o.jpg",
    "id_image": "KAWAII0503202021294",
    "count_view": 0
  },
  {
    "link_thumb": "https://live.staticflickr.com/65535/49548612096_56dbaf8b54_n.jpg",
    "id_album": "-422187261",
    "description": "KAWAII12091851",
    "title": "KAWAII12091851",
    "link_img": "https://live.staticflickr.com/65535/49548612096_e93a30cdd0_o.jpg",
    "id_image": "KAWAII12091851",
    "count_view": 0
  },
  {
    "link_thumb": "https://live.staticflickr.com/65535/49727471611_58cc6cbf82_n.jpg",
    "id_album": "-1862561193",
    "description": "KAWAII02042019451248",
    "title": "KAWAII02042019451248",
    "link_img": "https://live.staticflickr.com/65535/49727471611_e695fa35a5_o.jpg",
    "id_image": "KAWAII02042019451248",
    "count_view": 0
  },
  {
    "link_thumb": "https://live.staticflickr.com/65535/49693680053_5058b72042_n.jpg",
    "id_album": "1201366373",
    "description": "KAWAII24032022050243",
    "title": "KAWAII24032022050243",
    "link_img": "https://live.staticflickr.com/65535/49693680053_0fbb10e2f5_o.jpg",
    "id_image": "KAWAII24032022050243",
    "count_view": 0
  },
  {
    "link_thumb": "https://live.staticflickr.com/65535/49693568038_916ee82a8f_n.jpg",
    "id_album": "1201366373",
    "description": "KAWAII1702202237342",
    "title": "KAWAII1702202237342",
    "link_img": "https://live.staticflickr.com/65535/49693568038_c81c3ed181_o.jpg",
    "id_image": "KAWAII1702202237342",
    "count_view": 0
  },
  {
    "link_thumb": "https://live.staticflickr.com/65535/49726895823_7197f25723_n.jpg",
    "id_album": "742877173",
    "description": "KAWAII02042019450860",
    "title": "KAWAII02042019450860",
    "link_img": "https://live.staticflickr.com/65535/49726895823_b23a068759_o.jpg",
    "id_image": "KAWAII02042019450860",
    "count_view": 0
  },
  {
    "link_thumb": "https://live.staticflickr.com/65535/49694378102_b34904131f_n.jpg",
    "id_album": "-643980979",
    "description": "KAWAII050320202133",
    "title": "KAWAII050320202133",
    "link_img": "https://live.staticflickr.com/65535/49694378102_8fa954c923_o.jpg",
    "id_image": "KAWAII050320202133",
    "count_view": 0
  },
  {
    "link_thumb": "https://live.staticflickr.com/65535/49693549983_a041942161_n.jpg",
    "id_album": "1201366373",
    "description": "KAWAII120918232",
    "title": "KAWAII120918232",
    "link_img": "https://live.staticflickr.com/65535/49693549983_9f32833095_o.jpg",
    "id_image": "KAWAII120918232",
    "count_view": 0
  },
  {
    "link_thumb": "https://live.staticflickr.com/65535/49548831437_5f1799ae82_n.jpg",
    "id_album": "-1741487325",
    "description": "KAWAII120918356",
    "title": "KAWAII120918356",
    "link_img": "https://live.staticflickr.com/65535/49548831437_157df654a0_o.jpg",
    "id_image": "KAWAII120918356",
    "count_view": 0
  },
  {
    "link_thumb": "https://live.staticflickr.com/65535/49548998657_d4c4792e73_n.jpg",
    "id_album": "949200594",
    "description": "KAWAII17091847",
    "title": "KAWAII17091847",
    "link_img": "https://live.staticflickr.com/65535/49548998657_170f4d120f_o.jpg",
    "id_image": "KAWAII17091847",
    "count_view": 0
  },
  {
    "link_thumb": "https://live.staticflickr.com/65535/49743230212_a927f80940_n.jpg",
    "id_album": "-422187261",
    "description": "KAWAII02042019451474",
    "title": "KAWAII02042019451474",
    "link_img": "https://live.staticflickr.com/65535/49743230212_5680ef703f_o.jpg",
    "id_image": "KAWAII02042019451474",
    "count_view": 0
  },
  {
    "link_thumb": "https://live.staticflickr.com/65535/49694386657_07a4f6fa3e_n.jpg",
    "id_album": "1201366373",
    "description": "KAWAII12091815",
    "title": "KAWAII12091815",
    "link_img": "https://live.staticflickr.com/65535/49694386657_679a3490e7_o.jpg",
    "id_image": "KAWAII12091815",
    "count_view": 0
  },
  {
    "link_thumb": "https://live.staticflickr.com/65535/49548730031_4400a7483c_n.jpg",
    "id_album": "-1431786825",
    "description": "KAWAII1702202238493",
    "title": "KAWAII1702202238493",
    "link_img": "https://live.staticflickr.com/65535/49548730031_a2c1c20dbf_o.jpg",
    "id_image": "KAWAII1702202238493",
    "count_view": 0
  },
  {
    "link_thumb": "https://live.staticflickr.com/65535/49548228903_a91159fa1e_n.jpg",
    "id_album": "-1432180061",
    "description": "KAWAII1702202238490",
    "title": "KAWAII1702202238490",
    "link_img": "https://live.staticflickr.com/65535/49548228903_2cc4c933a6_o.jpg",
    "id_image": "KAWAII1702202238490",
    "count_view": 0
  },
  {
    "link_thumb": "https://live.staticflickr.com/65535/49693681333_6abeaa8d64_n.jpg",
    "id_album": "-1862561193",
    "description": "KAWAII24032022050164",
    "title": "KAWAII24032022050164",
    "link_img": "https://live.staticflickr.com/65535/49693681333_5a06cfd631_o.jpg",
    "id_image": "KAWAII24032022050164",
    "count_view": 0
  },
  {
    "link_thumb": "https://live.staticflickr.com/65535/49592977222_f58e952b9d_n.jpg",
    "id_album": "-1431786825",
    "description": "KAWAII270220235120",
    "title": "KAWAII270220235120",
    "link_img": "https://live.staticflickr.com/65535/49592977222_7328a342df_o.jpg",
    "id_image": "KAWAII270220235120",
    "count_view": 0
  },
  {
    "link_thumb": "https://live.staticflickr.com/65535/49742386353_169a844989_n.jpg",
    "id_album": "416744915",
    "description": "KAWAII060420214912114",
    "title": "KAWAII060420214912114",
    "link_img": "https://live.staticflickr.com/65535/49742386353_22d395e5c6_o.jpg",
    "id_image": "KAWAII060420214912114",
    "count_view": 0
  },
  {
    "link_thumb": "https://live.staticflickr.com/65535/49548908167_63b1aa9776_n.jpg",
    "id_album": "-422187261",
    "description": "KAWAII1702202236293",
    "title": "KAWAII1702202236293",
    "link_img": "https://live.staticflickr.com/65535/49548908167_6e57bf0cb4_o.jpg",
    "id_image": "KAWAII1702202236293",
    "count_view": 0
  },
  {
    "link_thumb": "https://live.staticflickr.com/65535/49548634831_fa8b6bf488_n.jpg",
    "id_album": "-422187261",
    "description": "KAWAII170220223444",
    "title": "KAWAII170220223444",
    "link_img": "https://live.staticflickr.com/65535/49548634831_48fb7917fe_o.jpg",
    "id_image": "KAWAII170220223444",
    "count_view": 0
  },
  {
    "link_thumb": "https://live.staticflickr.com/65535/49743240127_a27ab55489_n.jpg",
    "id_album": "-643980979",
    "description": "KAWAII060420214915151",
    "title": "KAWAII060420214915151",
    "link_img": "https://live.staticflickr.com/65535/49743240127_0e1c01ba4a_o.jpg",
    "id_image": "KAWAII060420214915151",
    "count_view": 0
  },
  {
    "link_thumb": "https://live.staticflickr.com/65535/49726918223_14efc09ef8_n.jpg",
    "id_album": "1396902986",
    "description": "KAWAII1702202237334",
    "title": "KAWAII1702202237334",
    "link_img": "https://live.staticflickr.com/65535/49726918223_fe3aa519d5_o.jpg",
    "id_image": "KAWAII1702202237334",
    "count_view": 0
  },
  {
    "link_thumb": "https://live.staticflickr.com/65535/49742362603_1a5c03cb89_n.jpg",
    "id_album": "-1694302085",
    "description": "KAWAII060420214913294",
    "title": "KAWAII060420214913294",
    "link_img": "https://live.staticflickr.com/65535/49742362603_df8428ccb2_o.jpg",
    "id_image": "KAWAII060420214913294",
    "count_view": 0
  },
  {
    "link_thumb": "https://live.staticflickr.com/65535/49693561393_32242b0474_n.jpg",
    "id_album": "1201366373",
    "description": "KAWAII12091886",
    "title": "KAWAII12091886",
    "link_img": "https://live.staticflickr.com/65535/49693561393_bb7b7c09f6_o.jpg",
    "id_image": "KAWAII12091886",
    "count_view": 0
  },
  {
    "link_thumb": "https://live.staticflickr.com/65535/49552026338_0531aab024_n.jpg",
    "id_album": "-316663319",
    "description": "KAWAII1209182518022020597",
    "title": "KAWAII1209182518022020597",
    "link_img": "https://live.staticflickr.com/65535/49552026338_a9506c28a3_o.jpg",
    "id_image": "KAWAII1209182518022020597",
    "count_view": 0
  },
  {
    "link_thumb": "https://live.staticflickr.com/65535/49623122532_efed924484_n.jpg",
    "id_album": "-406350429",
    "description": "KAWAII050320202194",
    "title": "KAWAII050320202194",
    "link_img": "https://live.staticflickr.com/65535/49623122532_69de6440d9_o.jpg",
    "id_image": "KAWAII050320202194",
    "count_view": 0
  },
  {
    "link_thumb": "https://live.staticflickr.com/65535/49622820181_aaa1a1aa67_n.jpg",
    "id_album": "-316663319",
    "description": "KAWAII0503202021178",
    "title": "KAWAII0503202021178",
    "link_img": "https://live.staticflickr.com/65535/49622820181_e390407a10_o.jpg",
    "id_image": "KAWAII0503202021178",
    "count_view": 0
  },
  {
    "link_thumb": "https://live.staticflickr.com/65535/49552517241_cfe1185bd3_n.jpg",
    "id_album": "-1694302085",
    "description": "KAWAII12091825180220205911",
    "title": "KAWAII12091825180220205911",
    "link_img": "https://live.staticflickr.com/65535/49552517241_e6d0dcecb0_o.jpg",
    "id_image": "KAWAII12091825180220205911",
    "count_view": 0
  },
  {
    "link_thumb": "https://live.staticflickr.com/65535/49548884902_c9ea1d67e8_n.jpg",
    "id_album": "-422187261",
    "description": "KAWAII1702202235175",
    "title": "KAWAII1702202235175",
    "link_img": "https://live.staticflickr.com/65535/49548884902_f126b3f549_o.jpg",
    "id_image": "KAWAII1702202235175",
    "count_view": 0
  },
  {
    "link_thumb": "https://live.staticflickr.com/65535/49694111601_9f55f2da0d_n.jpg",
    "id_album": "-643980979",
    "description": "KAWAII1702202237395",
    "title": "KAWAII1702202237395",
    "link_img": "https://live.staticflickr.com/65535/49694111601_c1d2752b4c_o.jpg",
    "id_image": "KAWAII1702202237395",
    "count_view": 0
  },
  {
    "link_thumb": "https://live.staticflickr.com/65535/49742372073_9bd255cb1d_n.jpg",
    "id_album": "-128218148",
    "description": "KAWAII06042021491456",
    "title": "KAWAII06042021491456",
    "link_img": "https://live.staticflickr.com/65535/49742372073_5257691a79_o.jpg",
    "id_image": "KAWAII06042021491456",
    "count_view": 0
  },
  {
    "link_thumb": "https://live.staticflickr.com/65535/49548085328_c6c49deae3_n.jpg",
    "id_album": "-1741487325",
    "description": "KAWAII120918289",
    "title": "KAWAII120918289",
    "link_img": "https://live.staticflickr.com/65535/49548085328_40a3127bbb_o.jpg",
    "id_image": "KAWAII120918289",
    "count_view": 0
  },
  {
    "link_thumb": "https://live.staticflickr.com/65535/49623097582_a0b5d26cc5_n.jpg",
    "id_album": "-316663319",
    "description": "KAWAII0503202021229",
    "title": "KAWAII0503202021229",
    "link_img": "https://live.staticflickr.com/65535/49623097582_22857551b6_o.jpg",
    "id_image": "KAWAII0503202021229",
    "count_view": 0
  },
  {
    "link_thumb": "https://live.staticflickr.com/65535/49548111123_f75e5dc4af_n.jpg",
    "id_album": "-316663319",
    "description": "KAWAII12091855",
    "title": "KAWAII12091855",
    "link_img": "https://live.staticflickr.com/65535/49548111123_bc4a7f7b98_o.jpg",
    "id_image": "KAWAII12091855",
    "count_view": 0
  },
  {
    "link_thumb": "https://live.staticflickr.com/65535/49548928647_fc902612c2_n.jpg",
    "id_album": "-1694302085",
    "description": "KAWAII1702202237384",
    "title": "KAWAII1702202237384",
    "link_img": "https://live.staticflickr.com/65535/49548928647_8d57ffa024_o.jpg",
    "id_image": "KAWAII1702202237384",
    "count_view": 0
  },
  {
    "link_thumb": "https://live.staticflickr.com/65535/49693685603_fea1c3b98f_n.jpg",
    "id_album": "1226948986",
    "description": "KAWAII24032022050230",
    "title": "KAWAII24032022050230",
    "link_img": "https://live.staticflickr.com/65535/49693685603_4b164d0fa6_o.jpg",
    "id_image": "KAWAII24032022050230",
    "count_view": 0
  },
  {
    "link_thumb": "https://live.staticflickr.com/65535/49726883983_810403235c_n.jpg",
    "id_album": "-1497779911",
    "description": "KAWAII050320202115",
    "title": "KAWAII050320202115",
    "link_img": "https://live.staticflickr.com/65535/49726883983_90249b40a9_o.jpg",
    "id_image": "KAWAII050320202115",
    "count_view": 0
  },
  {
    "link_thumb": "https://live.staticflickr.com/65535/49694216831_3fed509938_n.jpg",
    "id_album": "-1741487325",
    "description": "KAWAII1702202234110",
    "title": "KAWAII1702202234110",
    "link_img": "https://live.staticflickr.com/65535/49694216831_f93740519b_o.jpg",
    "id_image": "KAWAII1702202234110",
    "count_view": 0
  },
  {
    "link_thumb": "https://live.staticflickr.com/65535/49548905007_fe53d568fb_n.jpg",
    "id_album": "-1099943053",
    "description": "KAWAII1702202236279",
    "title": "KAWAII1702202236279",
    "link_img": "https://live.staticflickr.com/65535/49548905007_00a605895a_o.jpg",
    "id_image": "KAWAII1702202236279",
    "count_view": 0
  },
  {
    "link_thumb": "https://live.staticflickr.com/65535/49578979872_210bd44659_n.jpg",
    "id_album": "-1099943053",
    "description": "KAWAII190220211132",
    "title": "KAWAII190220211132",
    "link_img": "https://live.staticflickr.com/65535/49578979872_38bc4a89ff_o.jpg",
    "id_image": "KAWAII190220211132",
    "count_view": 0
  },
  {
    "link_thumb": "https://live.staticflickr.com/65535/49727466646_be3177e0ae_n.jpg",
    "id_album": "-1862561193",
    "description": "KAWAII020420194509184",
    "title": "KAWAII020420194509184",
    "link_img": "https://live.staticflickr.com/65535/49727466646_dce2693bf9_o.jpg",
    "id_image": "KAWAII020420194509184",
    "count_view": 0
  },
  {
    "link_thumb": "https://live.staticflickr.com/65535/49622802611_b07e2b1953_n.jpg",
    "id_album": "1396902986",
    "description": "KAWAII0503202021257",
    "title": "KAWAII0503202021257",
    "link_img": "https://live.staticflickr.com/65535/49622802611_93a828d3ae_o.jpg",
    "id_image": "KAWAII0503202021257",
    "count_view": 0
  },
  {
    "link_thumb": "https://live.staticflickr.com/65535/49622311928_5399a47ab4_n.jpg",
    "id_album": "-316663319",
    "description": "KAWAII0503202021242",
    "title": "KAWAII0503202021242",
    "link_img": "https://live.staticflickr.com/65535/49622311928_d4a9cd9208_o.jpg",
    "id_image": "KAWAII0503202021242",
    "count_view": 0
  },
  {
    "link_thumb": "https://live.staticflickr.com/65535/49694420347_b57abdc279_n.jpg",
    "id_album": "-643980979",
    "description": "KAWAII17022023468",
    "title": "KAWAII17022023468",
    "link_img": "https://live.staticflickr.com/65535/49694420347_5af6f65a0f_o.jpg",
    "id_image": "KAWAII17022023468",
    "count_view": 0
  },
  {
    "link_thumb": "https://live.staticflickr.com/65535/49742383238_ea87b68092_n.jpg",
    "id_album": "-316663319",
    "description": "KAWAII060420214917130",
    "title": "KAWAII060420214917130",
    "link_img": "https://live.staticflickr.com/65535/49742383238_5cf925f38d_o.jpg",
    "id_image": "KAWAII060420214917130",
    "count_view": 0
  },
  {
    "link_thumb": "https://live.staticflickr.com/65535/49548102943_1427b14e8f_n.jpg",
    "id_album": "-1741487325",
    "description": "KAWAII12091836",
    "title": "KAWAII12091836",
    "link_img": "https://live.staticflickr.com/65535/49548102943_505ac71255_o.jpg",
    "id_image": "KAWAII12091836",
    "count_view": 0
  },
  {
    "link_thumb": "https://live.staticflickr.com/65535/49726879358_9ce8e60cbd_n.jpg",
    "id_album": "-1694302085",
    "description": "KAWAII1702202235203",
    "title": "KAWAII1702202235203",
    "link_img": "https://live.staticflickr.com/65535/49726879358_ba7a714bb3_o.jpg",
    "id_image": "KAWAII1702202235203",
    "count_view": 0
  },
  {
    "link_thumb": "https://live.staticflickr.com/65535/49742950221_4312b49a6a_n.jpg",
    "id_album": "-1862561193",
    "description": "KAWAII060420214912115",
    "title": "KAWAII060420214912115",
    "link_img": "https://live.staticflickr.com/65535/49742950221_7ea92642e8_o.jpg",
    "id_image": "KAWAII060420214912115",
    "count_view": 0
  },
  {
    "link_thumb": "https://live.staticflickr.com/65535/49548862102_8b2351b5b6_n.jpg",
    "id_album": "-1099943053",
    "description": "KAWAII170220223442",
    "title": "KAWAII170220223442",
    "link_img": "https://live.staticflickr.com/65535/49548862102_248811aa32_o.jpg",
    "id_image": "KAWAII170220223442",
    "count_view": 0
  },
  {
    "link_thumb": "https://live.staticflickr.com/65535/49622292623_9d30ed3033_n.jpg",
    "id_album": "-1432180061",
    "description": "KAWAII0503202021260",
    "title": "KAWAII0503202021260",
    "link_img": "https://live.staticflickr.com/65535/49622292623_f523661a1b_o.jpg",
    "id_image": "KAWAII0503202021260",
    "count_view": 0
  },
  {
    "link_thumb": "https://live.staticflickr.com/65535/49622334648_8e2060c468_n.jpg",
    "id_album": "-406350429",
    "description": "KAWAII050320202169",
    "title": "KAWAII050320202169",
    "link_img": "https://live.staticflickr.com/65535/49622334648_69137388a7_o.jpg",
    "id_image": "KAWAII050320202169",
    "count_view": 0
  },
  {
    "link_thumb": "https://live.staticflickr.com/65535/49622842546_d246727f5d_n.jpg",
    "id_album": "-406350429",
    "description": "KAWAII0503202021129",
    "title": "KAWAII0503202021129",
    "link_img": "https://live.staticflickr.com/65535/49622842546_1fdb3f8ea0_o.jpg",
    "id_image": "KAWAII0503202021129",
    "count_view": 0
  },
  {
    "link_thumb": "https://live.staticflickr.com/65535/49622312083_f063a67fc7_n.jpg",
    "id_album": "-316663319",
    "description": "KAWAII0503202021244",
    "title": "KAWAII0503202021244",
    "link_img": "https://live.staticflickr.com/65535/49622312083_b3eff5c2cf_o.jpg",
    "id_image": "KAWAII0503202021244",
    "count_view": 0
  },
  {
    "link_thumb": "https://live.staticflickr.com/65535/49743276592_fbdd67d330_n.jpg",
    "id_album": "-358592519",
    "description": "KAWAII060420214912266",
    "title": "KAWAII060420214912266",
    "link_img": "https://live.staticflickr.com/65535/49743276592_0be05d9327_o.jpg",
    "id_image": "KAWAII060420214912266",
    "count_view": 0
  },
  {
    "link_thumb": "https://live.staticflickr.com/65535/49727783407_259b0f2615_n.jpg",
    "id_album": "-1862561193",
    "description": "KAWAII020420194511157",
    "title": "KAWAII020420194511157",
    "link_img": "https://live.staticflickr.com/65535/49727783407_5d92787465_o.jpg",
    "id_image": "KAWAII020420194511157",
    "count_view": 0
  },
  {
    "link_thumb": "https://live.staticflickr.com/65535/49548576341_b3485a5923_n.jpg",
    "id_album": "-316663319",
    "description": "KAWAII120918238",
    "title": "KAWAII120918238",
    "link_img": "https://live.staticflickr.com/65535/49548576341_7d71027424_o.jpg",
    "id_image": "KAWAII120918238",
    "count_view": 0
  },
  {
    "link_thumb": "https://live.staticflickr.com/65535/49726902843_0b4e5de194_n.jpg",
    "id_album": "742877173",
    "description": "KAWAII02042019451244",
    "title": "KAWAII02042019451244",
    "link_img": "https://live.staticflickr.com/65535/49726902843_ce66e3eb60_o.jpg",
    "id_image": "KAWAII02042019451244",
    "count_view": 0
  },
  {
    "link_thumb": "https://live.staticflickr.com/65535/49711145317_1b1a0262e9_n.jpg",
    "id_album": "-1599896063",
    "description": "LITTLEMONK29032012063710",
    "title": "LITTLEMONK29032012063710",
    "link_img": "https://live.staticflickr.com/65535/49711145317_eed91c0a9b_o.jpg",
    "id_image": "LITTLEMONK29032012063710",
    "count_view": 0
  },
  {
    "link_thumb": "https://live.staticflickr.com/65535/49548269008_3483f63071_n.jpg",
    "id_album": "-316663319",
    "description": "KAWAII17091839",
    "title": "KAWAII17091839",
    "link_img": "https://live.staticflickr.com/65535/49548269008_b3bcef5d54_o.jpg",
    "id_image": "KAWAII17091839",
    "count_view": 0
  },
  {
    "link_thumb": "https://live.staticflickr.com/65535/49548925197_9c7158b9c0_n.jpg",
    "id_album": "-316663319",
    "description": "KAWAII1702202237368",
    "title": "KAWAII1702202237368",
    "link_img": "https://live.staticflickr.com/65535/49548925197_f0ba9aa5b0_o.jpg",
    "id_image": "KAWAII1702202237368",
    "count_view": 0
  },
  {
    "link_thumb": "https://live.staticflickr.com/65535/49592962932_0c0df353dc_n.jpg",
    "id_album": "-316663319",
    "description": "KAWAII270220235187",
    "title": "KAWAII270220235187",
    "link_img": "https://live.staticflickr.com/65535/49592962932_3900739668_o.jpg",
    "id_image": "KAWAII270220235187",
    "count_view": 0
  },
  {
    "link_thumb": "https://live.staticflickr.com/65535/49694429872_2b6e9fdab7_n.jpg",
    "id_album": "1563362783",
    "description": "KAWAII1702202239529",
    "title": "KAWAII1702202239529",
    "link_img": "https://live.staticflickr.com/65535/49694429872_d589af1af9_o.jpg",
    "id_image": "KAWAII1702202239529",
    "count_view": 0
  },
  {
    "link_thumb": "https://live.staticflickr.com/65535/49694216366_23548fc773_n.jpg",
    "id_album": "-1741487325",
    "description": "KAWAII0503202021311",
    "title": "KAWAII0503202021311",
    "link_img": "https://live.staticflickr.com/65535/49694216366_9bb3068e36_o.jpg",
    "id_image": "KAWAII0503202021311",
    "count_view": 0
  },
  {
    "link_thumb": "https://live.staticflickr.com/65535/49694418562_51e263706d_n.jpg",
    "id_album": "-643980979",
    "description": "KAWAII170220234616",
    "title": "KAWAII170220234616",
    "link_img": "https://live.staticflickr.com/65535/49694418562_c02075e061_o.jpg",
    "id_image": "KAWAII170220234616",
    "count_view": 0
  },
  {
    "link_thumb": "https://live.staticflickr.com/65535/49548185898_3ef0c51f7b_n.jpg",
    "id_album": "-1741487325",
    "description": "KAWAII1702202237321",
    "title": "KAWAII1702202237321",
    "link_img": "https://live.staticflickr.com/65535/49548185898_abab100efd_o.jpg",
    "id_image": "KAWAII1702202237321",
    "count_view": 0
  },
  {
    "link_thumb": "https://live.staticflickr.com/65535/49742360793_90892a6399_n.jpg",
    "id_album": "-422187261",
    "description": "KAWAII06042021491595",
    "title": "KAWAII06042021491595",
    "link_img": "https://live.staticflickr.com/65535/49742360793_ae488deb4b_o.jpg",
    "id_image": "KAWAII06042021491595",
    "count_view": 0
  },
  {
    "link_thumb": "https://live.staticflickr.com/65535/49726877658_702cbe6d26_n.jpg",
    "id_album": "-1694302085",
    "description": "KAWAII020420194508231",
    "title": "KAWAII020420194508231",
    "link_img": "https://live.staticflickr.com/65535/49726877658_9c008455be_o.jpg",
    "id_image": "KAWAII020420194508231",
    "count_view": 0
  },
  {
    "link_thumb": "https://live.staticflickr.com/65535/49592708451_8824c137ec_n.jpg",
    "id_album": "1396902986",
    "description": "KAWAII270220235141",
    "title": "KAWAII270220235141",
    "link_img": "https://live.staticflickr.com/65535/49592708451_7b6f016983_o.jpg",
    "id_image": "KAWAII270220235141",
    "count_view": 0
  },
  {
    "link_thumb": "https://live.staticflickr.com/65535/49623111852_32aecd05d2_n.jpg",
    "id_album": "-316663319",
    "description": "KAWAII050320202187",
    "title": "KAWAII050320202187",
    "link_img": "https://live.staticflickr.com/65535/49623111852_3449ed0fd5_o.jpg",
    "id_image": "KAWAII050320202187",
    "count_view": 0
  },
  {
    "link_thumb": "https://live.staticflickr.com/65535/49578243728_cffc5e92dd_n.jpg",
    "id_album": "-1694302085",
    "description": "KAWAII19022021112",
    "title": "KAWAII19022021112",
    "link_img": "https://live.staticflickr.com/65535/49578243728_6c35416521_o.jpg",
    "id_image": "KAWAII19022021112",
    "count_view": 0
  },
  {
    "link_thumb": "https://live.staticflickr.com/65535/49693562268_2210e22661_n.jpg",
    "id_album": "1201366373",
    "description": "KAWAII12091899",
    "title": "KAWAII12091899",
    "link_img": "https://live.staticflickr.com/65535/49693562268_e18dd1bf79_o.jpg",
    "id_image": "KAWAII12091899",
    "count_view": 0
  },
  {
    "link_thumb": "https://live.staticflickr.com/65535/49694423752_6f90b793a7_n.jpg",
    "id_album": "-643980979",
    "description": "KAWAII2702202351148",
    "title": "KAWAII2702202351148",
    "link_img": "https://live.staticflickr.com/65535/49694423752_47092cfd73_o.jpg",
    "id_image": "KAWAII2702202351148",
    "count_view": 0
  },
  {
    "link_thumb": "https://live.staticflickr.com/65535/49693571673_b7157feeb2_n.jpg",
    "id_album": "-643980979",
    "description": "KAWAII1702202239562",
    "title": "KAWAII1702202239562",
    "link_img": "https://live.staticflickr.com/65535/49693571673_e6720ca332_o.jpg",
    "id_image": "KAWAII1702202239562",
    "count_view": 0
  },
  {
    "link_thumb": "https://live.staticflickr.com/65535/49592202703_b415d70ae7_n.jpg",
    "id_album": "-422187261",
    "description": "KAWAII270220235157",
    "title": "KAWAII270220235157",
    "link_img": "https://live.staticflickr.com/65535/49592202703_18a3020b77_o.jpg",
    "id_image": "KAWAII270220235157",
    "count_view": 0
  },
  {
    "link_thumb": "https://live.staticflickr.com/65535/49622282188_f7238e3cd5_n.jpg",
    "id_album": "-422187261",
    "description": "KAWAII0503202021330",
    "title": "KAWAII0503202021330",
    "link_img": "https://live.staticflickr.com/65535/49622282188_7f6aa8f2ff_o.jpg",
    "id_image": "KAWAII0503202021330",
    "count_view": 0
  },
  {
    "link_thumb": "https://live.staticflickr.com/65535/49548781682_9a1b7ee2c7_n.jpg",
    "id_album": "-316663319",
    "description": "KAWAII120918140",
    "title": "KAWAII120918140",
    "link_img": "https://live.staticflickr.com/65535/49548781682_1a37108021_o.jpg",
    "id_image": "KAWAII120918140",
    "count_view": 0
  },
  {
    "link_thumb": "https://live.staticflickr.com/65535/49694124706_1103db9b34_n.jpg",
    "id_album": "-358592519",
    "description": "KAWAII170220223465",
    "title": "KAWAII170220223465",
    "link_img": "https://live.staticflickr.com/65535/49694124706_3844e47e04_o.jpg",
    "id_image": "KAWAII170220223465",
    "count_view": 0
  },
  {
    "link_thumb": "https://live.staticflickr.com/65535/49727467276_137a88c6e2_n.jpg",
    "id_album": "-1862561193",
    "description": "KAWAII02042019450946",
    "title": "KAWAII02042019450946",
    "link_img": "https://live.staticflickr.com/65535/49727467276_743828d5f8_o.jpg",
    "id_image": "KAWAII02042019450946",
    "count_view": 0
  },
  {
    "link_thumb": "https://live.staticflickr.com/65535/49548094683_24aab8379c_n.jpg",
    "id_album": "-316663319",
    "description": "KAWAII120918326",
    "title": "KAWAII120918326",
    "link_img": "https://live.staticflickr.com/65535/49548094683_d7759ecd44_o.jpg",
    "id_image": "KAWAII120918326",
    "count_view": 0
  },
  {
    "link_thumb": "https://live.staticflickr.com/65535/49693681758_be15069edc_n.jpg",
    "id_album": "-1862561193",
    "description": "KAWAII24032022050266",
    "title": "KAWAII24032022050266",
    "link_img": "https://live.staticflickr.com/65535/49693681758_6d430e3652_o.jpg",
    "id_image": "KAWAII24032022050266",
    "count_view": 0
  },
  {
    "link_thumb": "https://live.staticflickr.com/65535/49727451646_d29dca58c3_n.jpg",
    "id_album": "742877173",
    "description": "KAWAII020420194513249",
    "title": "KAWAII020420194513249",
    "link_img": "https://live.staticflickr.com/65535/49727451646_721bcf3e35_o.jpg",
    "id_image": "KAWAII020420194513249",
    "count_view": 0
  },
  {
    "link_thumb": "https://live.staticflickr.com/65535/49694129606_7ac23b2cab_n.jpg",
    "id_album": "1226948986",
    "description": "TOTORO22032015424",
    "title": "TOTORO22032015424",
    "link_img": "https://live.staticflickr.com/65535/49694129606_2d1cd45ab7_o.jpg",
    "id_image": "TOTORO22032015424",
    "count_view": 0
  },
  {
    "link_thumb": "https://live.staticflickr.com/65535/49578975207_2c54b27a75_n.jpg",
    "id_album": "-1741487325",
    "description": "KAWAII19022021111",
    "title": "KAWAII19022021111",
    "link_img": "https://live.staticflickr.com/65535/49578975207_d8f3a27688_o.jpg",
    "id_image": "KAWAII19022021111",
    "count_view": 0
  },
  {
    "link_thumb": "https://live.staticflickr.com/65535/49622284898_9e965641df_n.jpg",
    "id_album": "1396902986",
    "description": "KAWAII0503202021155",
    "title": "KAWAII0503202021155",
    "link_img": "https://live.staticflickr.com/65535/49622284898_19d82e608c_o.jpg",
    "id_image": "KAWAII0503202021155",
    "count_view": 0
  },
  {
    "link_thumb": "https://live.staticflickr.com/65535/49623093352_35b1d184b3_n.jpg",
    "id_album": "-316663319",
    "description": "KAWAII0503202021191",
    "title": "KAWAII0503202021191",
    "link_img": "https://live.staticflickr.com/65535/49623093352_c23b7e6dbd_o.jpg",
    "id_image": "KAWAII0503202021191",
    "count_view": 0
  },
  {
    "link_thumb": "https://live.staticflickr.com/65535/49742957031_34edfd1845_n.jpg",
    "id_album": "-1431786825",
    "description": "KAWAII06042021491564",
    "title": "KAWAII06042021491564",
    "link_img": "https://live.staticflickr.com/65535/49742957031_7fb48a5c4c_o.jpg",
    "id_image": "KAWAII06042021491564",
    "count_view": 0
  },
  {
    "link_thumb": "https://live.staticflickr.com/65535/49622290498_4b0b08cd85_n.jpg",
    "id_album": "-1741487325",
    "description": "KAWAII0503202021117",
    "title": "KAWAII0503202021117",
    "link_img": "https://live.staticflickr.com/65535/49622290498_c9f4c4f7ae_o.jpg",
    "id_image": "KAWAII0503202021117",
    "count_view": 0
  },
  {
    "link_thumb": "https://live.staticflickr.com/65535/49726924648_f134b6b07e_n.jpg",
    "id_album": "-1862561193",
    "description": "KAWAII020420194513163",
    "title": "KAWAII020420194513163",
    "link_img": "https://live.staticflickr.com/65535/49726924648_a98d7f9529_o.jpg",
    "id_image": "KAWAII020420194513163",
    "count_view": 0
  },
  {
    "link_thumb": "https://live.staticflickr.com/65535/49548831722_d24a211b41_n.jpg",
    "id_album": "-1741487325",
    "description": "KAWAII120918357",
    "title": "KAWAII120918357",
    "link_img": "https://live.staticflickr.com/65535/49548831722_b0387db658_o.jpg",
    "id_image": "KAWAII120918357",
    "count_view": 0
  },
  {
    "link_thumb": "https://live.staticflickr.com/65535/49548050243_71552f7684_n.jpg",
    "id_album": "-422187261",
    "description": "KAWAII120918131",
    "title": "KAWAII120918131",
    "link_img": "https://live.staticflickr.com/65535/49548050243_7ca2a28fe6_o.jpg",
    "id_image": "KAWAII120918131",
    "count_view": 0
  },
  {
    "link_thumb": "https://live.staticflickr.com/65535/49727744267_0183ce4807_n.jpg",
    "id_album": "-1497779911",
    "description": "KAWAII020420194508164",
    "title": "KAWAII020420194508164",
    "link_img": "https://live.staticflickr.com/65535/49727744267_fe042c0027_o.jpg",
    "id_image": "KAWAII020420194508164",
    "count_view": 0
  },
  {
    "link_thumb": "https://live.staticflickr.com/65535/49694218436_5e85cee4f6_n.jpg",
    "id_album": "-643980979",
    "description": "KAWAII24032022050213",
    "title": "KAWAII24032022050213",
    "link_img": "https://live.staticflickr.com/65535/49694218436_ac6a12492e_o.jpg",
    "id_image": "KAWAII24032022050213",
    "count_view": 0
  },
  {
    "link_thumb": "https://live.staticflickr.com/65535/49623081207_309c899daa_n.jpg",
    "id_album": "-1741487325",
    "description": "KAWAII050320202190",
    "title": "KAWAII050320202190",
    "link_img": "https://live.staticflickr.com/65535/49623081207_5fd50b8331_o.jpg",
    "id_image": "KAWAII050320202190",
    "count_view": 0
  },
  {
    "link_thumb": "https://live.staticflickr.com/65535/49592956927_6b707f4644_n.jpg",
    "id_album": "-316663319",
    "description": "KAWAII2702202351130",
    "title": "KAWAII2702202351130",
    "link_img": "https://live.staticflickr.com/65535/49592956927_b063070251_o.jpg",
    "id_image": "KAWAII2702202351130",
    "count_view": 0
  },
  {
    "link_thumb": "https://live.staticflickr.com/65535/49694427082_1206fc2ee5_n.jpg",
    "id_album": "-358592519",
    "description": "KAWAII120918347",
    "title": "KAWAII120918347",
    "link_img": "https://live.staticflickr.com/65535/49694427082_21e2e6b3a7_o.jpg",
    "id_image": "KAWAII120918347",
    "count_view": 0
  },
  {
    "link_thumb": "https://live.staticflickr.com/65535/49592712591_65f92a548f_n.jpg",
    "id_album": "-1694302085",
    "description": "KAWAII12091825180220205912",
    "title": "KAWAII12091825180220205912",
    "link_img": "https://live.staticflickr.com/65535/49592712591_4eac5111e0_o.jpg",
    "id_image": "KAWAII12091825180220205912",
    "count_view": 0
  },
  {
    "link_thumb": "https://live.staticflickr.com/65535/49743238712_63dded63b7_n.jpg",
    "id_album": "-1497779911",
    "description": "KAWAII06042021491445",
    "title": "KAWAII06042021491445",
    "link_img": "https://live.staticflickr.com/65535/49743238712_d4ec543d5d_o.jpg",
    "id_image": "KAWAII06042021491445",
    "count_view": 0
  },
  {
    "link_thumb": "https://live.staticflickr.com/65535/49694123611_c7622fded6_n.jpg",
    "id_album": "-358592519",
    "description": "KAWAII120918106",
    "title": "KAWAII120918106",
    "link_img": "https://live.staticflickr.com/65535/49694123611_c2ff434e14_o.jpg",
    "id_image": "KAWAII120918106",
    "count_view": 0
  },
  {
    "link_thumb": "https://live.staticflickr.com/65535/49743259472_e3b19a4610_n.jpg",
    "id_album": "-1473448477",
    "description": "KAWAII06042021491517",
    "title": "KAWAII06042021491517",
    "link_img": "https://live.staticflickr.com/65535/49743259472_059f78e1bf_o.jpg",
    "id_image": "KAWAII06042021491517",
    "count_view": 0
  },
  {
    "link_thumb": "https://live.staticflickr.com/65535/49727741362_aa4939b53a_n.jpg",
    "id_album": "-1694302085",
    "description": "KAWAII1702202238438",
    "title": "KAWAII1702202238438",
    "link_img": "https://live.staticflickr.com/65535/49727741362_428eb0275b_o.jpg",
    "id_image": "KAWAII1702202238438",
    "count_view": 0
  },
  {
    "link_thumb": "https://live.staticflickr.com/65535/49693572278_c69dba307a_n.jpg",
    "id_album": "-643980979",
    "description": "KAWAII170220234610",
    "title": "KAWAII170220234610",
    "link_img": "https://live.staticflickr.com/65535/49693572278_b2cf9a09b1_o.jpg",
    "id_image": "KAWAII170220234610",
    "count_view": 0
  },
  {
    "link_thumb": "https://live.staticflickr.com/65535/49727742597_391b21ae15_n.jpg",
    "id_album": "-1694302085",
    "description": "KAWAII270220235164",
    "title": "KAWAII270220235164",
    "link_img": "https://live.staticflickr.com/65535/49727742597_58b7c0801c_o.jpg",
    "id_image": "KAWAII270220235164",
    "count_view": 0
  },
  {
    "link_thumb": "https://live.staticflickr.com/65535/49622325243_66ae261293_n.jpg",
    "id_album": "-316663319",
    "description": "KAWAII050320202191",
    "title": "KAWAII050320202191",
    "link_img": "https://live.staticflickr.com/65535/49622325243_6b33b0da10_o.jpg",
    "id_image": "KAWAII050320202191",
    "count_view": 0
  },
  {
    "link_thumb": "https://live.staticflickr.com/65535/49548557526_ce8318248b_n.jpg",
    "id_album": "-1741487325",
    "description": "KAWAII120918154",
    "title": "KAWAII120918154",
    "link_img": "https://live.staticflickr.com/65535/49548557526_0c16422ca2_o.jpg",
    "id_image": "KAWAII120918154",
    "count_view": 0
  },
  {
    "link_thumb": "https://live.staticflickr.com/65535/49548998347_2a9f9095e6_n.jpg",
    "id_album": "-316663319",
    "description": "KAWAII17091846",
    "title": "KAWAII17091846",
    "link_img": "https://live.staticflickr.com/65535/49548998347_1838f0e556_o.jpg",
    "id_image": "KAWAII17091846",
    "count_view": 0
  },
  {
    "link_thumb": "https://live.staticflickr.com/65535/49743282142_8e84ab67ca_n.jpg",
    "id_album": "1226948986",
    "description": "KAWAII060420214918282",
    "title": "KAWAII060420214918282",
    "link_img": "https://live.staticflickr.com/65535/49743282142_79a1d411eb_o.jpg",
    "id_image": "KAWAII060420214918282",
    "count_view": 0
  },
  {
    "link_thumb": "https://live.staticflickr.com/65535/49623096177_6bc24dae6a_n.jpg",
    "id_album": "-316663319",
    "description": "KAWAII0503202021215",
    "title": "KAWAII0503202021215",
    "link_img": "https://live.staticflickr.com/65535/49623096177_b449b4e1d1_o.jpg",
    "id_image": "KAWAII0503202021215",
    "count_view": 0
  },
  {
    "link_thumb": "https://live.staticflickr.com/65535/49548731631_730093018a_n.jpg",
    "id_album": "-422187261",
    "description": "KAWAII1702202238498",
    "title": "KAWAII1702202238498",
    "link_img": "https://live.staticflickr.com/65535/49548731631_cb19aed3bd_o.jpg",
    "id_image": "KAWAII1702202238498",
    "count_view": 0
  },
  {
    "link_thumb": "https://live.staticflickr.com/65535/49726920928_8f0623c8c0_n.jpg",
    "id_album": "-1862561193",
    "description": "KAWAII020420194511103",
    "title": "KAWAII020420194511103",
    "link_img": "https://live.staticflickr.com/65535/49726920928_c2143503dd_o.jpg",
    "id_image": "KAWAII020420194511103",
    "count_view": 0
  },
  {
    "link_thumb": "https://live.staticflickr.com/65535/49694391217_c2cb8c3d6e_n.jpg",
    "id_album": "-643980979",
    "description": "KAWAII120918188",
    "title": "KAWAII120918188",
    "link_img": "https://live.staticflickr.com/65535/49694391217_bf892865be_o.jpg",
    "id_image": "KAWAII120918188",
    "count_view": 0
  },
  {
    "link_thumb": "https://live.staticflickr.com/65535/49743240842_e2d22988ef_n.jpg",
    "id_album": "-1432180061",
    "description": "KAWAII060420214918251",
    "title": "KAWAII060420214918251",
    "link_img": "https://live.staticflickr.com/65535/49743240842_c2baa7d86b_o.jpg",
    "id_image": "KAWAII060420214918251",
    "count_view": 0
  },
  {
    "link_thumb": "https://live.staticflickr.com/65535/49622806251_53961a8dca_n.jpg",
    "id_album": "-1741487325",
    "description": "KAWAII0503202021158",
    "title": "KAWAII0503202021158",
    "link_img": "https://live.staticflickr.com/65535/49622806251_a997a54bbd_o.jpg",
    "id_image": "KAWAII0503202021158",
    "count_view": 0
  },
  {
    "link_thumb": "https://live.staticflickr.com/65535/49548797477_8571510e7c_n.jpg",
    "id_album": "-316663319",
    "description": "KAWAII120918211",
    "title": "KAWAII120918211",
    "link_img": "https://live.staticflickr.com/65535/49548797477_695593c1eb_o.jpg",
    "id_image": "KAWAII120918211",
    "count_view": 0
  },
  {
    "link_thumb": "https://live.staticflickr.com/65535/49592722206_ecfc59669c_n.jpg",
    "id_album": "-316663319",
    "description": "KAWAII270220235198",
    "title": "KAWAII270220235198",
    "link_img": "https://live.staticflickr.com/65535/49592722206_35be976e12_o.jpg",
    "id_image": "KAWAII270220235198",
    "count_view": 0
  },
  {
    "link_thumb": "https://live.staticflickr.com/65535/49742386178_0cfdce1133_n.jpg",
    "id_album": "742877173",
    "description": "KAWAII06042021491858",
    "title": "KAWAII06042021491858",
    "link_img": "https://live.staticflickr.com/65535/49742386178_b932cbaa6d_o.jpg",
    "id_image": "KAWAII06042021491858",
    "count_view": 0
  },
  {
    "link_thumb": "https://live.staticflickr.com/65535/49743266352_ef3704ed25_n.jpg",
    "id_album": "-1779286820",
    "description": "KAWAII060420214912201",
    "title": "KAWAII060420214912201",
    "link_img": "https://live.staticflickr.com/65535/49743266352_55704f23f8_o.jpg",
    "id_image": "KAWAII060420214912201",
    "count_view": 0
  },
  {
    "link_thumb": "https://live.staticflickr.com/65535/49694124986_bacd8e239b_n.jpg",
    "id_album": "-358592519",
    "description": "KAWAII1702202236283",
    "title": "KAWAII1702202236283",
    "link_img": "https://live.staticflickr.com/65535/49694124986_8f5026158c_o.jpg",
    "id_image": "KAWAII1702202236283",
    "count_view": 0
  },
  {
    "link_thumb": "https://live.staticflickr.com/65535/49742906736_e96c174ea1_n.jpg",
    "id_album": "1699819648",
    "description": "KAWAII060420214914299",
    "title": "KAWAII060420214914299",
    "link_img": "https://live.staticflickr.com/65535/49742906736_034e0f4e56_o.jpg",
    "id_image": "KAWAII060420214914299",
    "count_view": 0
  },
  {
    "link_thumb": "https://live.staticflickr.com/65535/49742934366_ef750daf0f_n.jpg",
    "id_album": "-1473448477",
    "description": "KAWAII060420214914180",
    "title": "KAWAII060420214914180",
    "link_img": "https://live.staticflickr.com/65535/49742934366_cbb2ac1530_o.jpg",
    "id_image": "KAWAII060420214914180",
    "count_view": 0
  },
  {
    "link_thumb": "https://live.staticflickr.com/65535/49548602866_68dc12d7a1_n.jpg",
    "id_album": "-1099943053",
    "description": "KAWAII120918350",
    "title": "KAWAII120918350",
    "link_img": "https://live.staticflickr.com/65535/49548602866_b528e1d3d1_o.jpg",
    "id_image": "KAWAII120918350",
    "count_view": 0
  },
  {
    "link_thumb": "https://live.staticflickr.com/65535/49548598861_c539f958f9_n.jpg",
    "id_album": "-316663319",
    "description": "KAWAII120918334",
    "title": "KAWAII120918334",
    "link_img": "https://live.staticflickr.com/65535/49548598861_130472ddd0_o.jpg",
    "id_image": "KAWAII120918334",
    "count_view": 0
  },
  {
    "link_thumb": "https://live.staticflickr.com/65535/49622805466_a5265a88fd_n.jpg",
    "id_album": "-1741487325",
    "description": "KAWAII050320202110",
    "title": "KAWAII050320202110",
    "link_img": "https://live.staticflickr.com/65535/49622805466_fb1a9fa924_o.jpg",
    "id_image": "KAWAII050320202110",
    "count_view": 0
  },
  {
    "link_thumb": "https://live.staticflickr.com/65535/49694228631_25383a0fda_n.jpg",
    "id_album": "1226948986",
    "description": "KAWAII24032022050246",
    "title": "KAWAII24032022050246",
    "link_img": "https://live.staticflickr.com/65535/49694228631_37a3fc6b58_o.jpg",
    "id_image": "KAWAII24032022050246",
    "count_view": 0
  },
  {
    "link_thumb": "https://live.staticflickr.com/65535/49622330038_a73d48814a_n.jpg",
    "id_album": "-406350429",
    "description": "KAWAII050320202122",
    "title": "KAWAII050320202122",
    "link_img": "https://live.staticflickr.com/65535/49622330038_4729d9fd93_o.jpg",
    "id_image": "KAWAII050320202122",
    "count_view": 0
  },
  {
    "link_thumb": "https://live.staticflickr.com/65535/49742930331_3e02841412_n.jpg",
    "id_album": "-316663319",
    "description": "KAWAII06042021491587",
    "title": "KAWAII06042021491587",
    "link_img": "https://live.staticflickr.com/65535/49742930331_ede8dc5592_o.jpg",
    "id_image": "KAWAII06042021491587",
    "count_view": 0
  },
  {
    "link_thumb": "https://live.staticflickr.com/65535/49694122391_bf914bca28_n.jpg",
    "id_album": "-643980979",
    "description": "KAWAII270220235144",
    "title": "KAWAII270220235144",
    "link_img": "https://live.staticflickr.com/65535/49694122391_06d9006193_o.jpg",
    "id_image": "KAWAII270220235144",
    "count_view": 0
  },
  {
    "link_thumb": "https://live.staticflickr.com/65535/49622828326_64f6ff7e17_n.jpg",
    "id_album": "-316663319",
    "description": "KAWAII0503202021262",
    "title": "KAWAII0503202021262",
    "link_img": "https://live.staticflickr.com/65535/49622828326_eda0ab1ac9_o.jpg",
    "id_image": "KAWAII0503202021262",
    "count_view": 0
  },
  {
    "link_thumb": "https://live.staticflickr.com/65535/49694419002_e65fc5005a_n.jpg",
    "id_album": "-643980979",
    "description": "KAWAII170220234618",
    "title": "KAWAII170220234618",
    "link_img": "https://live.staticflickr.com/65535/49694419002_8ab9b82634_o.jpg",
    "id_image": "KAWAII170220234618",
    "count_view": 0
  },
  {
    "link_thumb": "https://live.staticflickr.com/65535/49743255132_4bdd550b75_n.jpg",
    "id_album": "-316663319",
    "description": "KAWAII060420214917185",
    "title": "KAWAII060420214917185",
    "link_img": "https://live.staticflickr.com/65535/49743255132_dc88868ca4_o.jpg",
    "id_image": "KAWAII060420214917185",
    "count_view": 0
  },
  {
    "link_thumb": "https://live.staticflickr.com/65535/49548699601_ca3c47dd25_n.jpg",
    "id_album": "-422187261",
    "description": "KAWAII1702202237376",
    "title": "KAWAII1702202237376",
    "link_img": "https://live.staticflickr.com/65535/49548699601_7c11111924_o.jpg",
    "id_image": "KAWAII1702202237376",
    "count_view": 0
  },
  {
    "link_thumb": "https://live.staticflickr.com/65535/49548198158_5a9a25317d_n.jpg",
    "id_album": "1396902986",
    "description": "KAWAII1702202237373",
    "title": "KAWAII1702202237373",
    "link_img": "https://live.staticflickr.com/65535/49548198158_a3bf926739_o.jpg",
    "id_image": "KAWAII1702202237373",
    "count_view": 0
  },
  {
    "link_thumb": "https://live.staticflickr.com/65535/49592730631_f3ff40a4f1_n.jpg",
    "id_album": "949200594",
    "description": "KAWAII2702202351129",
    "title": "KAWAII2702202351129",
    "link_img": "https://live.staticflickr.com/65535/49592730631_7f24a025c3_o.jpg",
    "id_image": "KAWAII2702202351129",
    "count_view": 0
  },
  {
    "link_thumb": "https://live.staticflickr.com/65535/49727759157_d16557d744_n.jpg",
    "id_album": "742877173",
    "description": "KAWAII02042019450942",
    "title": "KAWAII02042019450942",
    "link_img": "https://live.staticflickr.com/65535/49727759157_411c19c88e_o.jpg",
    "id_image": "KAWAII02042019450942",
    "count_view": 0
  },
  {
    "link_thumb": "https://live.staticflickr.com/65535/49548083248_38f59ac156_n.jpg",
    "id_album": "-1741487325",
    "description": "KAWAII12091828",
    "title": "KAWAII12091828",
    "link_img": "https://live.staticflickr.com/65535/49548083248_c20621c5d3_o.jpg",
    "id_image": "KAWAII12091828",
    "count_view": 0
  },
  {
    "link_thumb": "https://live.staticflickr.com/65535/49622329163_7bf2efc724_n.jpg",
    "id_album": "-406350429",
    "description": "KAWAII0503202021187",
    "title": "KAWAII0503202021187",
    "link_img": "https://live.staticflickr.com/65535/49622329163_f4aa1f3bc6_o.jpg",
    "id_image": "KAWAII0503202021187",
    "count_view": 0
  },
  {
    "link_thumb": "https://live.staticflickr.com/65535/49743263517_83166ec652_n.jpg",
    "id_album": "-1473448477",
    "description": "KAWAII06042021491574",
    "title": "KAWAII06042021491574",
    "link_img": "https://live.staticflickr.com/65535/49743263517_0ddfb92706_o.jpg",
    "id_image": "KAWAII06042021491574",
    "count_view": 0
  },
  {
    "link_thumb": "https://live.staticflickr.com/65535/49548634151_aa774613fb_n.jpg",
    "id_album": "-422187261",
    "description": "KAWAII170220223441",
    "title": "KAWAII170220223441",
    "link_img": "https://live.staticflickr.com/65535/49548634151_3f11d7dfe3_o.jpg",
    "id_image": "KAWAII170220223441",
    "count_view": 0
  },
  {
    "link_thumb": "https://live.staticflickr.com/65535/49623161222_daf7824de2_n.jpg",
    "id_album": "949200594",
    "description": "KAWAII0503202021145",
    "title": "KAWAII0503202021145",
    "link_img": "https://live.staticflickr.com/65535/49623161222_aa6d7bb9f6_o.jpg",
    "id_image": "KAWAII0503202021145",
    "count_view": 0
  },
  {
    "link_thumb": "https://live.staticflickr.com/65535/49693672398_86aafaeca7_n.jpg",
    "id_album": "-1694302085",
    "description": "KAWAII120918201",
    "title": "KAWAII120918201",
    "link_img": "https://live.staticflickr.com/65535/49693672398_cb7e8c4cdb_o.jpg",
    "id_image": "KAWAII120918201",
    "count_view": 0
  },
  {
    "link_thumb": "https://live.staticflickr.com/65535/49693545928_61f463169e_n.jpg",
    "id_album": "1201366373",
    "description": "KAWAII120918196",
    "title": "KAWAII120918196",
    "link_img": "https://live.staticflickr.com/65535/49693545928_b65581381d_o.jpg",
    "id_image": "KAWAII120918196",
    "count_view": 0
  }
]