[
  {
    "link_thumb": "https://live.staticflickr.com/65535/49742389058_53d1bf6200_n.jpg",
    "id_album": "-1473448477",
    "description": "KAWAII060420214915215",
    "title": "KAWAII060420214915215",
    "link_img": "https://live.staticflickr.com/65535/49742389058_dde80c8b33_o.jpg",
    "id_image": "KAWAII060420214915215",
    "count_view": 0
  },
  {
    "link_thumb": "https://live.staticflickr.com/65535/49743251557_062a9af5c8_n.jpg",
    "id_album": "-316663319",
    "description": "KAWAII0604202149152",
    "title": "KAWAII0604202149152",
    "link_img": "https://live.staticflickr.com/65535/49743251557_f49e8419da_o.jpg",
    "id_image": "KAWAII0604202149152",
    "count_view": 0
  },
  {
    "link_thumb": "https://live.staticflickr.com/65535/49726876713_347a15e4ed_n.jpg",
    "id_album": "-1694302085",
    "description": "KAWAII020420194508119",
    "title": "KAWAII020420194508119",
    "link_img": "https://live.staticflickr.com/65535/49726876713_7db942ecae_o.jpg",
    "id_image": "KAWAII020420194508119",
    "count_view": 0
  },
  {
    "link_thumb": "https://live.staticflickr.com/65535/49623098177_593ccafa87_n.jpg",
    "id_album": "-316663319",
    "description": "KAWAII0503202021239",
    "title": "KAWAII0503202021239",
    "link_img": "https://live.staticflickr.com/65535/49623098177_df7a844bd6_o.jpg",
    "id_image": "KAWAII0503202021239",
    "count_view": 0
  },
  {
    "link_thumb": "https://live.staticflickr.com/65535/49693569493_bcc9abe5f7_n.jpg",
    "id_album": "1201366373",
    "description": "KAWAII1702202238478",
    "title": "KAWAII1702202238478",
    "link_img": "https://live.staticflickr.com/65535/49693569493_ce73b63e12_o.jpg",
    "id_image": "KAWAII1702202238478",
    "count_view": 0
  },
  {
    "link_thumb": "https://live.staticflickr.com/65535/49548060263_8d7e848b2a_n.jpg",
    "id_album": "-1741487325",
    "description": "KAWAII120918173",
    "title": "KAWAII120918173",
    "link_img": "https://live.staticflickr.com/65535/49548060263_d35db328c4_o.jpg",
    "id_image": "KAWAII120918173",
    "count_view": 0
  },
  {
    "link_thumb": "https://live.staticflickr.com/65535/49727744167_ae7810e661_n.jpg",
    "id_album": "-1497779911",
    "description": "KAWAII020420194508116",
    "title": "KAWAII020420194508116",
    "link_img": "https://live.staticflickr.com/65535/49727744167_3dea6310e9_o.jpg",
    "id_image": "KAWAII020420194508116",
    "count_view": 0
  },
  {
    "link_thumb": "https://live.staticflickr.com/65535/49742958361_ec0c86e7bb_n.jpg",
    "id_album": "1226948986",
    "description": "KAWAII06042021491791",
    "title": "KAWAII06042021491791",
    "link_img": "https://live.staticflickr.com/65535/49742958361_61b7b026d3_o.jpg",
    "id_image": "KAWAII06042021491791",
    "count_view": 0
  },
  {
    "link_thumb": "https://live.staticflickr.com/65535/49548844797_7ca96dfa33_n.jpg",
    "id_album": "-1694302085",
    "description": "KAWAII12091876",
    "title": "KAWAII12091876",
    "link_img": "https://live.staticflickr.com/65535/49548844797_a2d51ebe21_o.jpg",
    "id_image": "KAWAII12091876",
    "count_view": 0
  },
  {
    "link_thumb": "https://live.staticflickr.com/65535/49623101327_a4ea561390_n.jpg",
    "id_album": "-316663319",
    "description": "KAWAII0503202021283",
    "title": "KAWAII0503202021283",
    "link_img": "https://live.staticflickr.com/65535/49623101327_b84e9853b2_o.jpg",
    "id_image": "KAWAII0503202021283",
    "count_view": 0
  },
  {
    "link_thumb": "https://live.staticflickr.com/65535/49743228317_96446c5e59_n.jpg",
    "id_album": "-1913845949",
    "description": "KAWAII060420214917223",
    "title": "KAWAII060420214917223",
    "link_img": "https://live.staticflickr.com/65535/49743228317_44d2346ef5_o.jpg",
    "id_image": "KAWAII060420214917223",
    "count_view": 0
  },
  {
    "link_thumb": "https://live.staticflickr.com/65535/49693562268_2210e22661_n.jpg",
    "id_album": "1201366373",
    "description": "KAWAII12091899",
    "title": "KAWAII12091899",
    "link_img": "https://live.staticflickr.com/65535/49693562268_e18dd1bf79_o.jpg",
    "id_image": "KAWAII12091899",
    "count_view": 0
  },
  {
    "link_thumb": "https://live.staticflickr.com/65535/49693577613_5c37370496_n.jpg",
    "id_album": "-643980979",
    "description": "KAWAII19022021115",
    "title": "KAWAII19022021115",
    "link_img": "https://live.staticflickr.com/65535/49693577613_4c43e8a7ea_o.jpg",
    "id_image": "KAWAII19022021115",
    "count_view": 0
  },
  {
    "link_thumb": "https://live.staticflickr.com/65535/49727475286_91fcb0b675_n.jpg",
    "id_album": "1226948986",
    "description": "KAWAII020420194508229",
    "title": "KAWAII020420194508229",
    "link_img": "https://live.staticflickr.com/65535/49727475286_d55afbf765_o.jpg",
    "id_image": "KAWAII020420194508229",
    "count_view": 0
  },
  {
    "link_thumb": "https://live.staticflickr.com/65535/49548634831_fa8b6bf488_n.jpg",
    "id_album": "-422187261",
    "description": "KAWAII170220223444",
    "title": "KAWAII170220223444",
    "link_img": "https://live.staticflickr.com/65535/49548634831_48fb7917fe_o.jpg",
    "id_image": "KAWAII170220223444",
    "count_view": 0
  },
  {
    "link_thumb": "https://live.staticflickr.com/65535/49548595901_594b32ba8b_n.jpg",
    "id_album": "-316663319",
    "description": "KAWAII120918322",
    "title": "KAWAII120918322",
    "link_img": "https://live.staticflickr.com/65535/49548595901_a73b49f32b_o.jpg",
    "id_image": "KAWAII120918322",
    "count_view": 0
  },
  {
    "link_thumb": "https://live.staticflickr.com/65535/49742955191_ec5217740a_n.jpg",
    "id_album": "-1431786825",
    "description": "KAWAII06042021491270",
    "title": "KAWAII06042021491270",
    "link_img": "https://live.staticflickr.com/65535/49742955191_f64c7952b5_o.jpg",
    "id_image": "KAWAII06042021491270",
    "count_view": 0
  },
  {
    "link_thumb": "https://live.staticflickr.com/65535/49727428866_b94445e179_n.jpg",
    "id_album": "-1741487325",
    "description": "KAWAII020420194509190",
    "title": "KAWAII020420194509190",
    "link_img": "https://live.staticflickr.com/65535/49727428866_92a2cc237b_o.jpg",
    "id_image": "KAWAII020420194509190",
    "count_view": 0
  },
  {
    "link_thumb": "https://live.staticflickr.com/65535/49622307308_3576589ac7_n.jpg",
    "id_album": "-316663319",
    "description": "KAWAII0503202021198",
    "title": "KAWAII0503202021198",
    "link_img": "https://live.staticflickr.com/65535/49622307308_652f5de480_o.jpg",
    "id_image": "KAWAII0503202021198",
    "count_view": 0
  },
  {
    "link_thumb": "https://live.staticflickr.com/65535/49727440006_66400aafb1_n.jpg",
    "id_album": "-316663319",
    "description": "KAWAII020420194512222",
    "title": "KAWAII020420194512222",
    "link_img": "https://live.staticflickr.com/65535/49727440006_21151552c4_o.jpg",
    "id_image": "KAWAII020420194512222",
    "count_view": 0
  },
  {
    "link_thumb": "https://live.staticflickr.com/65535/49743247877_3868e1f44c_n.jpg",
    "id_album": "-316663319",
    "description": "KAWAII060420214913169",
    "title": "KAWAII060420214913169",
    "link_img": "https://live.staticflickr.com/65535/49743247877_8f7720baea_o.jpg",
    "id_image": "KAWAII060420214913169",
    "count_view": 0
  },
  {
    "link_thumb": "https://live.staticflickr.com/65535/49694402042_b3356c643e_n.jpg",
    "id_album": "1201366373",
    "description": "KAWAII12091830",
    "title": "KAWAII12091830",
    "link_img": "https://live.staticflickr.com/65535/49694402042_887efc8fbe_o.jpg",
    "id_image": "KAWAII12091830",
    "count_view": 0
  },
  {
    "link_thumb": "https://live.staticflickr.com/65535/49548734856_2e5ceddcba_n.jpg",
    "id_album": "-422187261",
    "description": "KAWAII1702202239509",
    "title": "KAWAII1702202239509",
    "link_img": "https://live.staticflickr.com/65535/49548734856_21e734e710_o.jpg",
    "id_image": "KAWAII1702202239509",
    "count_view": 0
  },
  {
    "link_thumb": "https://live.staticflickr.com/65535/49694078471_063ecc0884_n.jpg",
    "id_album": "-643980979",
    "description": "KAWAII050320202177",
    "title": "KAWAII050320202177",
    "link_img": "https://live.staticflickr.com/65535/49694078471_c5ebb44ffc_o.jpg",
    "id_image": "KAWAII050320202177",
    "count_view": 0
  },
  {
    "link_thumb": "https://live.staticflickr.com/65535/49694386657_07a4f6fa3e_n.jpg",
    "id_album": "1201366373",
    "description": "KAWAII12091815",
    "title": "KAWAII12091815",
    "link_img": "https://live.staticflickr.com/65535/49694386657_679a3490e7_o.jpg",
    "id_image": "KAWAII12091815",
    "count_view": 0
  },
  {
    "link_thumb": "https://live.staticflickr.com/65535/49726892263_172c0149e8_n.jpg",
    "id_album": "-316663319",
    "description": "KAWAII020420194512161",
    "title": "KAWAII020420194512161",
    "link_img": "https://live.staticflickr.com/65535/49726892263_bee807b6e8_o.jpg",
    "id_image": "KAWAII020420194512161",
    "count_view": 0
  },
  {
    "link_thumb": "https://live.staticflickr.com/65535/49622287383_fc159ea83c_n.jpg",
    "id_album": "1396902986",
    "description": "KAWAII0503202021250",
    "title": "KAWAII0503202021250",
    "link_img": "https://live.staticflickr.com/65535/49622287383_a1edc87a33_o.jpg",
    "id_image": "KAWAII0503202021250",
    "count_view": 0
  },
  {
    "link_thumb": "https://live.staticflickr.com/65535/49623122532_efed924484_n.jpg",
    "id_album": "-406350429",
    "description": "KAWAII050320202194",
    "title": "KAWAII050320202194",
    "link_img": "https://live.staticflickr.com/65535/49623122532_69de6440d9_o.jpg",
    "id_image": "KAWAII050320202194",
    "count_view": 0
  },
  {
    "link_thumb": "https://live.staticflickr.com/65535/49548704591_00653c5e83_n.jpg",
    "id_album": "-1741487325",
    "description": "KAWAII1702202237397",
    "title": "KAWAII1702202237397",
    "link_img": "https://live.staticflickr.com/65535/49548704591_e08e358b04_o.jpg",
    "id_image": "KAWAII1702202237397",
    "count_view": 0
  },
  {
    "link_thumb": "https://live.staticflickr.com/65535/49726905873_760521dc37_n.jpg",
    "id_album": "742877173",
    "description": "KAWAII02042019451456",
    "title": "KAWAII02042019451456",
    "link_img": "https://live.staticflickr.com/65535/49726905873_5c14423e87_o.jpg",
    "id_image": "KAWAII02042019451456",
    "count_view": 0
  },
  {
    "link_thumb": "https://live.staticflickr.com/65535/49726884508_99c8e18231_n.jpg",
    "id_album": "-1497779911",
    "description": "KAWAII0503202021218",
    "title": "KAWAII0503202021218",
    "link_img": "https://live.staticflickr.com/65535/49726884508_1c0456b6bb_o.jpg",
    "id_image": "KAWAII0503202021218",
    "count_view": 0
  },
  {
    "link_thumb": "https://live.staticflickr.com/65535/49694220881_4301aa3dea_n.jpg",
    "id_album": "-1432180061",
    "description": "KAWAII1702202237315",
    "title": "KAWAII1702202237315",
    "link_img": "https://live.staticflickr.com/65535/49694220881_2fa35d596c_o.jpg",
    "id_image": "KAWAII1702202237315",
    "count_view": 0
  },
  {
    "link_thumb": "https://live.staticflickr.com/65535/49694393502_2237f4da4a_n.jpg",
    "id_album": "1201366373",
    "description": "KAWAII120918208",
    "title": "KAWAII120918208",
    "link_img": "https://live.staticflickr.com/65535/49694393502_4971805d9e_o.jpg",
    "id_image": "KAWAII120918208",
    "count_view": 0
  },
  {
    "link_thumb": "https://live.staticflickr.com/65535/49592708121_d3b90ed4e7_n.jpg",
    "id_album": "1396902986",
    "description": "KAWAII270220235137",
    "title": "KAWAII270220235137",
    "link_img": "https://live.staticflickr.com/65535/49592708121_c87e16771c_o.jpg",
    "id_image": "KAWAII270220235137",
    "count_view": 0
  },
  {
    "link_thumb": "https://live.staticflickr.com/65535/49694110991_1c3a41c632_n.jpg",
    "id_album": "-643980979",
    "description": "KAWAII1702202237374",
    "title": "KAWAII1702202237374",
    "link_img": "https://live.staticflickr.com/65535/49694110991_6fd8867659_o.jpg",
    "id_image": "KAWAII1702202237374",
    "count_view": 0
  },
  {
    "link_thumb": "https://live.staticflickr.com/65535/49623096962_b2e24a4f06_n.jpg",
    "id_album": "-316663319",
    "description": "KAWAII0503202021223",
    "title": "KAWAII0503202021223",
    "link_img": "https://live.staticflickr.com/65535/49623096962_8d05fc8f26_o.jpg",
    "id_image": "KAWAII0503202021223",
    "count_view": 0
  },
  {
    "link_thumb": "https://live.staticflickr.com/65535/49623069322_56a5a0f0ea_n.jpg",
    "id_album": "-422187261",
    "description": "KAWAII0503202021236",
    "title": "KAWAII0503202021236",
    "link_img": "https://live.staticflickr.com/65535/49623069322_0491e6eca9_o.jpg",
    "id_image": "KAWAII0503202021236",
    "count_view": 0
  },
  {
    "link_thumb": "https://live.staticflickr.com/65535/49694404492_c3e5ea8555_n.jpg",
    "id_album": "1201366373",
    "description": "KAWAII12091846",
    "title": "KAWAII12091846",
    "link_img": "https://live.staticflickr.com/65535/49694404492_077284c5e7_o.jpg",
    "id_image": "KAWAII12091846",
    "count_view": 0
  },
  {
    "link_thumb": "https://live.staticflickr.com/65535/49592953277_fa9f56b16b_n.jpg",
    "id_album": "-1741487325",
    "description": "KAWAII17091829",
    "title": "KAWAII17091829",
    "link_img": "https://live.staticflickr.com/65535/49592953277_874a2deb29_o.jpg",
    "id_image": "KAWAII17091829",
    "count_view": 0
  },
  {
    "link_thumb": "https://live.staticflickr.com/65535/49742381618_be01198362_n.jpg",
    "id_album": "-316663319",
    "description": "KAWAII060420214915303",
    "title": "KAWAII060420214915303",
    "link_img": "https://live.staticflickr.com/65535/49742381618_782033aaac_o.jpg",
    "id_image": "KAWAII060420214915303",
    "count_view": 0
  },
  {
    "link_thumb": "https://live.staticflickr.com/65535/49694123611_c7622fded6_n.jpg",
    "id_album": "-358592519",
    "description": "KAWAII120918106",
    "title": "KAWAII120918106",
    "link_img": "https://live.staticflickr.com/65535/49694123611_c2ff434e14_o.jpg",
    "id_image": "KAWAII120918106",
    "count_view": 0
  },
  {
    "link_thumb": "https://live.staticflickr.com/65535/49742370283_264933b2a1_n.jpg",
    "id_album": "-128218148",
    "description": "KAWAII060420214912111",
    "title": "KAWAII060420214912111",
    "link_img": "https://live.staticflickr.com/65535/49742370283_50ef9d42d0_o.jpg",
    "id_image": "KAWAII060420214912111",
    "count_view": 0
  },
  {
    "link_thumb": "https://live.staticflickr.com/65535/49726903528_9e8c3e7d87_n.jpg",
    "id_album": "742877173",
    "description": "KAWAII020420194513147",
    "title": "KAWAII020420194513147",
    "link_img": "https://live.staticflickr.com/65535/49726903528_b8cbc37f56_o.jpg",
    "id_image": "KAWAII020420194513147",
    "count_view": 0
  },
  {
    "link_thumb": "https://live.staticflickr.com/65535/49742930331_3e02841412_n.jpg",
    "id_album": "-316663319",
    "description": "KAWAII06042021491587",
    "title": "KAWAII06042021491587",
    "link_img": "https://live.staticflickr.com/65535/49742930331_ede8dc5592_o.jpg",
    "id_image": "KAWAII06042021491587",
    "count_view": 0
  },
  {
    "link_thumb": "https://live.staticflickr.com/65535/49743255447_b5cdb13779_n.jpg",
    "id_album": "-316663319",
    "description": "KAWAII060420214917271",
    "title": "KAWAII060420214917271",
    "link_img": "https://live.staticflickr.com/65535/49743255447_4b9dbecc6a_o.jpg",
    "id_image": "KAWAII060420214917271",
    "count_view": 0
  },
  {
    "link_thumb": "https://live.staticflickr.com/65535/49694073361_dc86530e5b_n.jpg",
    "id_album": "-643980979",
    "description": "KAWAII0503202021258",
    "title": "KAWAII0503202021258",
    "link_img": "https://live.staticflickr.com/65535/49694073361_208c511a69_o.jpg",
    "id_image": "KAWAII0503202021258",
    "count_view": 0
  },
  {
    "link_thumb": "https://live.staticflickr.com/65535/49548555011_1951e30121_n.jpg",
    "id_album": "-422187261",
    "description": "KAWAII120918143",
    "title": "KAWAII120918143",
    "link_img": "https://live.staticflickr.com/65535/49548555011_5e7aca42cb_o.jpg",
    "id_image": "KAWAII120918143",
    "count_view": 0
  },
  {
    "link_thumb": "https://live.staticflickr.com/65535/49726900853_dd24b8ddb6_n.jpg",
    "id_album": "742877173",
    "description": "KAWAII02042019451152",
    "title": "KAWAII02042019451152",
    "link_img": "https://live.staticflickr.com/65535/49726900853_6676000a86_o.jpg",
    "id_image": "KAWAII02042019451152",
    "count_view": 0
  },
  {
    "link_thumb": "https://live.staticflickr.com/65535/49548076793_3be3fe5c09_n.jpg",
    "id_album": "-1431786825",
    "description": "KAWAII120918252",
    "title": "KAWAII120918252",
    "link_img": "https://live.staticflickr.com/65535/49548076793_832b5b7c91_o.jpg",
    "id_image": "KAWAII120918252",
    "count_view": 0
  },
  {
    "link_thumb": "https://live.staticflickr.com/65535/49693552923_f17c02dde2_n.jpg",
    "id_album": "1201366373",
    "description": "KAWAII12091825180220205943",
    "title": "KAWAII12091825180220205943",
    "link_img": "https://live.staticflickr.com/65535/49693552923_0114e008e9_o.jpg",
    "id_image": "KAWAII12091825180220205943",
    "count_view": 0
  },
  {
    "link_thumb": "https://live.staticflickr.com/65535/49548146233_188fafd02f_n.jpg",
    "id_album": "-1694302085",
    "description": "KAWAII1702202235127",
    "title": "KAWAII1702202235127",
    "link_img": "https://live.staticflickr.com/65535/49548146233_e99c3e4208_o.jpg",
    "id_image": "KAWAII1702202235127",
    "count_view": 0
  },
  {
    "link_thumb": "https://live.staticflickr.com/65535/49693555748_fafc0c40c6_n.jpg",
    "id_album": "1201366373",
    "description": "KAWAII120918279",
    "title": "KAWAII120918279",
    "link_img": "https://live.staticflickr.com/65535/49693555748_6c68d75bc0_o.jpg",
    "id_image": "KAWAII120918279",
    "count_view": 0
  },
  {
    "link_thumb": "https://live.staticflickr.com/65535/49727767037_44e8788115_n.jpg",
    "id_album": "742877173",
    "description": "KAWAII020420194514246",
    "title": "KAWAII020420194514246",
    "link_img": "https://live.staticflickr.com/65535/49727767037_c005c78e27_o.jpg",
    "id_image": "KAWAII020420194514246",
    "count_view": 0
  },
  {
    "link_thumb": "https://live.staticflickr.com/65535/49548617816_1b9e579e45_n.jpg",
    "id_album": "-1432180061",
    "description": "KAWAII1209188",
    "title": "KAWAII1209188",
    "link_img": "https://live.staticflickr.com/65535/49548617816_7760c68fb1_o.jpg",
    "id_image": "KAWAII1209188",
    "count_view": 0
  },
  {
    "link_thumb": "https://live.staticflickr.com/65535/49694527092_bc6ec76b97_n.jpg",
    "id_album": "1396902986",
    "description": "KAWAII170220223478",
    "title": "KAWAII170220223478",
    "link_img": "https://live.staticflickr.com/65535/49694527092_0f6c240b52_o.jpg",
    "id_image": "KAWAII170220223478",
    "count_view": 0
  },
  {
    "link_thumb": "https://live.staticflickr.com/65535/49694399017_c0024defa7_n.jpg",
    "id_album": "1201366373",
    "description": "KAWAII120918257",
    "title": "KAWAII120918257",
    "link_img": "https://live.staticflickr.com/65535/49694399017_4d233fe629_o.jpg",
    "id_image": "KAWAII120918257",
    "count_view": 0
  },
  {
    "link_thumb": "https://live.staticflickr.com/65535/49727752612_35e5f1d701_n.jpg",
    "id_album": "-316663319",
    "description": "KAWAII02042019451099",
    "title": "KAWAII02042019451099",
    "link_img": "https://live.staticflickr.com/65535/49727752612_628887066e_o.jpg",
    "id_image": "KAWAII02042019451099",
    "count_view": 0
  },
  {
    "link_thumb": "https://live.staticflickr.com/65535/49694422457_9d228a8ec9_n.jpg",
    "id_album": "1201366373",
    "description": "KAWAII17091844",
    "title": "KAWAII17091844",
    "link_img": "https://live.staticflickr.com/65535/49694422457_49d9464530_o.jpg",
    "id_image": "KAWAII17091844",
    "count_view": 0
  },
  {
    "link_thumb": "https://live.staticflickr.com/65535/49694429872_2b6e9fdab7_n.jpg",
    "id_album": "1563362783",
    "description": "KAWAII1702202239529",
    "title": "KAWAII1702202239529",
    "link_img": "https://live.staticflickr.com/65535/49694429872_d589af1af9_o.jpg",
    "id_image": "KAWAII1702202239529",
    "count_view": 0
  },
  {
    "link_thumb": "https://live.staticflickr.com/65535/49710821746_09f4b2b018_n.jpg",
    "id_album": "-1599896063",
    "description": "LITTLEMONK2903201206374",
    "title": "LITTLEMONK2903201206374",
    "link_img": "https://live.staticflickr.com/65535/49710821746_5d30870154_o.jpg",
    "id_image": "LITTLEMONK2903201206374",
    "count_view": 0
  },
  {
    "link_thumb": "https://live.staticflickr.com/65535/49726919073_c2ff824298_n.jpg",
    "id_album": "-1862561193",
    "description": "KAWAII020420194508243",
    "title": "KAWAII020420194508243",
    "link_img": "https://live.staticflickr.com/65535/49726919073_b482a8ddc1_o.jpg",
    "id_image": "KAWAII020420194508243",
    "count_view": 0
  },
  {
    "link_thumb": "https://live.staticflickr.com/65535/49548775137_a598aa735d_n.jpg",
    "id_album": "-1741487325",
    "description": "KAWAII120918117",
    "title": "KAWAII120918117",
    "link_img": "https://live.staticflickr.com/65535/49548775137_6eceb08f83_o.jpg",
    "id_image": "KAWAII120918117",
    "count_view": 0
  },
  {
    "link_thumb": "https://live.staticflickr.com/65535/49742912051_2dd184ee26_n.jpg",
    "id_album": "-1741487325",
    "description": "KAWAII060420214912194",
    "title": "KAWAII060420214912194",
    "link_img": "https://live.staticflickr.com/65535/49742912051_c0027a0bb3_o.jpg",
    "id_image": "KAWAII060420214912194",
    "count_view": 0
  },
  {
    "link_thumb": "https://live.staticflickr.com/65535/49548721141_54705f70dc_n.jpg",
    "id_album": "-422187261",
    "description": "KAWAII1702202238458",
    "title": "KAWAII1702202238458",
    "link_img": "https://live.staticflickr.com/65535/49548721141_d281d1b5e8_o.jpg",
    "id_image": "KAWAII1702202238458",
    "count_view": 0
  },
  {
    "link_thumb": "https://live.staticflickr.com/65535/49742395988_a59f5d3f3d_n.jpg",
    "id_album": "-1779286820",
    "description": "KAWAII060420214914257",
    "title": "KAWAII060420214914257",
    "link_img": "https://live.staticflickr.com/65535/49742395988_e3017805e1_o.jpg",
    "id_image": "KAWAII060420214914257",
    "count_view": 0
  },
  {
    "link_thumb": "https://live.staticflickr.com/65535/49548864702_23c49122e7_n.jpg",
    "id_album": "-422187261",
    "description": "KAWAII170220223456",
    "title": "KAWAII170220223456",
    "link_img": "https://live.staticflickr.com/65535/49548864702_e87776d95f_o.jpg",
    "id_image": "KAWAII170220223456",
    "count_view": 0
  },
  {
    "link_thumb": "https://live.staticflickr.com/65535/49623103582_c6ce891571_n.jpg",
    "id_album": "-316663319",
    "description": "KAWAII0503202021302",
    "title": "KAWAII0503202021302",
    "link_img": "https://live.staticflickr.com/65535/49623103582_0438ee03ca_o.jpg",
    "id_image": "KAWAII0503202021302",
    "count_view": 0
  },
  {
    "link_thumb": "https://live.staticflickr.com/65535/49548818087_00d48ca029_n.jpg",
    "id_album": "-422187261",
    "description": "KAWAII120918302",
    "title": "KAWAII120918302",
    "link_img": "https://live.staticflickr.com/65535/49548818087_5861591717_o.jpg",
    "id_image": "KAWAII120918302",
    "count_view": 0
  },
  {
    "link_thumb": "https://live.staticflickr.com/65535/49693577243_1d71d43a8f_n.jpg",
    "id_album": "-643980979",
    "description": "KAWAII17091850",
    "title": "KAWAII17091850",
    "link_img": "https://live.staticflickr.com/65535/49693577243_8b5016ac40_o.jpg",
    "id_image": "KAWAII17091850",
    "count_view": 0
  },
  {
    "link_thumb": "https://live.staticflickr.com/65535/49548900632_a1b7c2ecdc_n.jpg",
    "id_album": "-1432180061",
    "description": "KAWAII1702202236255",
    "title": "KAWAII1702202236255",
    "link_img": "https://live.staticflickr.com/65535/49548900632_89634d0bd9_o.jpg",
    "id_image": "KAWAII1702202236255",
    "count_view": 0
  },
  {
    "link_thumb": "https://live.staticflickr.com/65535/49548846807_90eed5ba80_n.jpg",
    "id_album": "-1741487325",
    "description": "KAWAII12091887",
    "title": "KAWAII12091887",
    "link_img": "https://live.staticflickr.com/65535/49548846807_a8b7b527ac_o.jpg",
    "id_image": "KAWAII12091887",
    "count_view": 0
  },
  {
    "link_thumb": "https://live.staticflickr.com/65535/49592215883_1d103b4fd3_n.jpg",
    "id_album": "-316663319",
    "description": "KAWAII27022023515",
    "title": "KAWAII27022023515",
    "link_img": "https://live.staticflickr.com/65535/49592215883_0251ac3dd4_o.jpg",
    "id_image": "KAWAII27022023515",
    "count_view": 0
  },
  {
    "link_thumb": "https://live.staticflickr.com/65535/49548110983_1e71a4b2c7_n.jpg",
    "id_album": "-1432180061",
    "description": "KAWAII12091854",
    "title": "KAWAII12091854",
    "link_img": "https://live.staticflickr.com/65535/49548110983_320ca9e4dc_o.jpg",
    "id_image": "KAWAII12091854",
    "count_view": 0
  },
  {
    "link_thumb": "https://live.staticflickr.com/65535/49726877153_37ba83f92c_n.jpg",
    "id_album": "-1694302085",
    "description": "KAWAII020420194508143",
    "title": "KAWAII020420194508143",
    "link_img": "https://live.staticflickr.com/65535/49726877153_fc993e5b2d_o.jpg",
    "id_image": "KAWAII020420194508143",
    "count_view": 0
  },
  {
    "link_thumb": "https://live.staticflickr.com/65535/49693526623_5940574ea7_n.jpg",
    "id_album": "-643980979",
    "description": "KAWAII0503202021135",
    "title": "KAWAII0503202021135",
    "link_img": "https://live.staticflickr.com/65535/49693526623_d46d8c02b6_o.jpg",
    "id_image": "KAWAII0503202021135",
    "count_view": 0
  },
  {
    "link_thumb": "https://live.staticflickr.com/65535/49694111601_9f55f2da0d_n.jpg",
    "id_album": "-643980979",
    "description": "KAWAII1702202237395",
    "title": "KAWAII1702202237395",
    "link_img": "https://live.staticflickr.com/65535/49694111601_c1d2752b4c_o.jpg",
    "id_image": "KAWAII1702202237395",
    "count_view": 0
  },
  {
    "link_thumb": "https://live.staticflickr.com/65535/49727450881_7c7958f382_n.jpg",
    "id_album": "742877173",
    "description": "KAWAII020420194513138",
    "title": "KAWAII020420194513138",
    "link_img": "https://live.staticflickr.com/65535/49727450881_916c922e16_o.jpg",
    "id_image": "KAWAII020420194513138",
    "count_view": 0
  },
  {
    "link_thumb": "https://live.staticflickr.com/65535/49742945786_d5e0c62073_n.jpg",
    "id_album": "-1779286820",
    "description": "KAWAII060420214918264",
    "title": "KAWAII060420214918264",
    "link_img": "https://live.staticflickr.com/65535/49742945786_f45b580126_o.jpg",
    "id_image": "KAWAII060420214918264",
    "count_view": 0
  },
  {
    "link_thumb": "https://live.staticflickr.com/65535/49622802016_1558a39696_n.jpg",
    "id_album": "1396902986",
    "description": "KAWAII0503202021231",
    "title": "KAWAII0503202021231",
    "link_img": "https://live.staticflickr.com/65535/49622802016_e5b340f81d_o.jpg",
    "id_image": "KAWAII0503202021231",
    "count_view": 0
  },
  {
    "link_thumb": "https://live.staticflickr.com/65535/49548130028_19e352e618_n.jpg",
    "id_album": "431597977",
    "description": "KAWAII1702202234112",
    "title": "KAWAII1702202234112",
    "link_img": "https://live.staticflickr.com/65535/49548130028_a7604ab514_o.jpg",
    "id_image": "KAWAII1702202234112",
    "count_view": 0
  },
  {
    "link_thumb": "https://live.staticflickr.com/65535/49693583953_97eff14de3_n.jpg",
    "id_album": "1563362783",
    "description": "KAWAII12091825180220205950",
    "title": "KAWAII12091825180220205950",
    "link_img": "https://live.staticflickr.com/65535/49693583953_1745fccdf8_o.jpg",
    "id_image": "KAWAII12091825180220205950",
    "count_view": 0
  },
  {
    "link_thumb": "https://live.staticflickr.com/65535/49742357058_65158e4828_n.jpg",
    "id_album": "-1913845949",
    "description": "KAWAII060420214917173",
    "title": "KAWAII060420214917173",
    "link_img": "https://live.staticflickr.com/65535/49742357058_bb58205a46_o.jpg",
    "id_image": "KAWAII060420214917173",
    "count_view": 0
  },
  {
    "link_thumb": "https://live.staticflickr.com/65535/49548768756_e4617aa069_n.jpg",
    "id_album": "-316663319",
    "description": "KAWAII17091837",
    "title": "KAWAII17091837",
    "link_img": "https://live.staticflickr.com/65535/49548768756_e5066f3994_o.jpg",
    "id_image": "KAWAII17091837",
    "count_view": 0
  },
  {
    "link_thumb": "https://live.staticflickr.com/65535/49693544168_467e9abb20_n.jpg",
    "id_album": "1201366373",
    "description": "KAWAII120918177",
    "title": "KAWAII120918177",
    "link_img": "https://live.staticflickr.com/65535/49693544168_251a2efff3_o.jpg",
    "id_image": "KAWAII120918177",
    "count_view": 0
  },
  {
    "link_thumb": "https://live.staticflickr.com/65535/49726883238_c1f6625ddc_n.jpg",
    "id_album": "-1497779911",
    "description": "KAWAII020420194512169",
    "title": "KAWAII020420194512169",
    "link_img": "https://live.staticflickr.com/65535/49726883238_e983ae8813_o.jpg",
    "id_image": "KAWAII020420194512169",
    "count_view": 0
  },
  {
    "link_thumb": "https://live.staticflickr.com/65535/49623115017_ddf91e3224_n.jpg",
    "id_album": "-406350429",
    "description": "KAWAII0503202021149",
    "title": "KAWAII0503202021149",
    "link_img": "https://live.staticflickr.com/65535/49623115017_21835e7cd3_o.jpg",
    "id_image": "KAWAII0503202021149",
    "count_view": 0
  },
  {
    "link_thumb": "https://live.staticflickr.com/65535/49727451646_d29dca58c3_n.jpg",
    "id_album": "742877173",
    "description": "KAWAII020420194513249",
    "title": "KAWAII020420194513249",
    "link_img": "https://live.staticflickr.com/65535/49727451646_721bcf3e35_o.jpg",
    "id_image": "KAWAII020420194513249",
    "count_view": 0
  },
  {
    "link_thumb": "https://live.staticflickr.com/65535/49726882983_1a981c019f_n.jpg",
    "id_album": "-1497779911",
    "description": "KAWAII020420194511232",
    "title": "KAWAII020420194511232",
    "link_img": "https://live.staticflickr.com/65535/49726882983_cddcb7cb6a_o.jpg",
    "id_image": "KAWAII020420194511232",
    "count_view": 0
  },
  {
    "link_thumb": "https://live.staticflickr.com/65535/49694526327_66250a7747_n.jpg",
    "id_album": "1201366373",
    "description": "KAWAII1702202236243",
    "title": "KAWAII1702202236243",
    "link_img": "https://live.staticflickr.com/65535/49694526327_fbbe5a4484_o.jpg",
    "id_image": "KAWAII1702202236243",
    "count_view": 0
  },
  {
    "link_thumb": "https://live.staticflickr.com/65535/49548094108_e9f197e480_n.jpg",
    "id_album": "1396902986",
    "description": "KAWAII120918323",
    "title": "KAWAII120918323",
    "link_img": "https://live.staticflickr.com/65535/49548094108_881d048ace_o.jpg",
    "id_image": "KAWAII120918323",
    "count_view": 0
  },
  {
    "link_thumb": "https://live.staticflickr.com/65535/49622314693_bcce1671b7_n.jpg",
    "id_album": "-316663319",
    "description": "KAWAII0503202021281",
    "title": "KAWAII0503202021281",
    "link_img": "https://live.staticflickr.com/65535/49622314693_850067808d_o.jpg",
    "id_image": "KAWAII0503202021281",
    "count_view": 0
  },
  {
    "link_thumb": "https://live.staticflickr.com/65535/49694384787_491000eb76_n.jpg",
    "id_album": "1201366373",
    "description": "KAWAII120918118",
    "title": "KAWAII120918118",
    "link_img": "https://live.staticflickr.com/65535/49694384787_a790272051_o.jpg",
    "id_image": "KAWAII120918118",
    "count_view": 0
  },
  {
    "link_thumb": "https://live.staticflickr.com/65535/49548916167_7193644414_n.jpg",
    "id_album": "1396902986",
    "description": "KAWAII1702202237330",
    "title": "KAWAII1702202237330",
    "link_img": "https://live.staticflickr.com/65535/49548916167_ee64254e9d_o.jpg",
    "id_image": "KAWAII1702202237330",
    "count_view": 0
  },
  {
    "link_thumb": "https://live.staticflickr.com/65535/49548181248_3337af56a7_n.jpg",
    "id_album": "-316663319",
    "description": "KAWAII1702202236300",
    "title": "KAWAII1702202236300",
    "link_img": "https://live.staticflickr.com/65535/49548181248_05b162b6d7_o.jpg",
    "id_image": "KAWAII1702202236300",
    "count_view": 0
  },
  {
    "link_thumb": "https://live.staticflickr.com/65535/49622329163_7bf2efc724_n.jpg",
    "id_album": "-406350429",
    "description": "KAWAII0503202021187",
    "title": "KAWAII0503202021187",
    "link_img": "https://live.staticflickr.com/65535/49622329163_f4aa1f3bc6_o.jpg",
    "id_image": "KAWAII0503202021187",
    "count_view": 0
  },
  {
    "link_thumb": "https://live.staticflickr.com/65535/49743240127_a27ab55489_n.jpg",
    "id_album": "-643980979",
    "description": "KAWAII060420214915151",
    "title": "KAWAII060420214915151",
    "link_img": "https://live.staticflickr.com/65535/49743240127_0e1c01ba4a_o.jpg",
    "id_image": "KAWAII060420214915151",
    "count_view": 0
  },
  {
    "link_thumb": "https://live.staticflickr.com/65535/49743268247_7e9591e74a_n.jpg",
    "id_album": "-1779286820",
    "description": "KAWAII060420214916207",
    "title": "KAWAII060420214916207",
    "link_img": "https://live.staticflickr.com/65535/49743268247_0a5aa914a6_o.jpg",
    "id_image": "KAWAII060420214916207",
    "count_view": 0
  },
  {
    "link_thumb": "https://live.staticflickr.com/65535/49694378392_d94a66076d_n.jpg",
    "id_album": "-643980979",
    "description": "KAWAII050320202136",
    "title": "KAWAII050320202136",
    "link_img": "https://live.staticflickr.com/65535/49694378392_9321ddde90_o.jpg",
    "id_image": "KAWAII050320202136",
    "count_view": 0
  },
  {
    "link_thumb": "https://live.staticflickr.com/65535/49592711586_5567f36eaf_n.jpg",
    "id_album": "-1741487325",
    "description": "KAWAII270220235125",
    "title": "KAWAII270220235125",
    "link_img": "https://live.staticflickr.com/65535/49592711586_efbfdb630f_o.jpg",
    "id_image": "KAWAII270220235125",
    "count_view": 0
  },
  {
    "link_thumb": "https://live.staticflickr.com/65535/49548227978_e1e32a890a_n.jpg",
    "id_album": "-1431786825",
    "description": "KAWAII1702202238485",
    "title": "KAWAII1702202238485",
    "link_img": "https://live.staticflickr.com/65535/49548227978_1607398cbb_o.jpg",
    "id_image": "KAWAII1702202238485",
    "count_view": 0
  },
  {
    "link_thumb": "https://live.staticflickr.com/65535/49622303833_10c06cfc6a_n.jpg",
    "id_album": "-316663319",
    "description": "KAWAII0503202021153",
    "title": "KAWAII0503202021153",
    "link_img": "https://live.staticflickr.com/65535/49622303833_e829c0ab56_o.jpg",
    "id_image": "KAWAII0503202021153",
    "count_view": 0
  },
  {
    "link_thumb": "https://live.staticflickr.com/65535/49727763412_a8a509b1fd_n.jpg",
    "id_album": "742877173",
    "description": "KAWAII020420194512174",
    "title": "KAWAII020420194512174",
    "link_img": "https://live.staticflickr.com/65535/49727763412_45efa3caa1_o.jpg",
    "id_image": "KAWAII020420194512174",
    "count_view": 0
  },
  {
    "link_thumb": "https://live.staticflickr.com/65535/49548108483_ae04058ac7_n.jpg",
    "id_album": "-316663319",
    "description": "KAWAII12091842",
    "title": "KAWAII12091842",
    "link_img": "https://live.staticflickr.com/65535/49548108483_5523ba086d_o.jpg",
    "id_image": "KAWAII12091842",
    "count_view": 0
  },
  {
    "link_thumb": "https://live.staticflickr.com/65535/49694069891_4d3f9bb401_n.jpg",
    "id_album": "-643980979",
    "description": "KAWAII0503202021113",
    "title": "KAWAII0503202021113",
    "link_img": "https://live.staticflickr.com/65535/49694069891_29beff98a7_o.jpg",
    "id_image": "KAWAII0503202021113",
    "count_view": 0
  },
  {
    "link_thumb": "https://live.staticflickr.com/65535/49727437116_04fe3d752f_n.jpg",
    "id_album": "-316663319",
    "description": "KAWAII020420194510210",
    "title": "KAWAII020420194510210",
    "link_img": "https://live.staticflickr.com/65535/49727437116_db41a81af1_o.jpg",
    "id_image": "KAWAII020420194510210",
    "count_view": 0
  },
  {
    "link_thumb": "https://live.staticflickr.com/65535/49622284898_9e965641df_n.jpg",
    "id_album": "1396902986",
    "description": "KAWAII0503202021155",
    "title": "KAWAII0503202021155",
    "link_img": "https://live.staticflickr.com/65535/49622284898_19d82e608c_o.jpg",
    "id_image": "KAWAII0503202021155",
    "count_view": 0
  },
  {
    "link_thumb": "https://live.staticflickr.com/65535/49694366052_be9e798b27_n.jpg",
    "id_album": "1699819648",
    "description": "KAWAII0503202021154",
    "title": "KAWAII0503202021154",
    "link_img": "https://live.staticflickr.com/65535/49694366052_ddf3f9b608_o.jpg",
    "id_image": "KAWAII0503202021154",
    "count_view": 0
  },
  {
    "link_thumb": "https://live.staticflickr.com/65535/49694094696_78606a6e68_n.jpg",
    "id_album": "1201366373",
    "description": "KAWAII120918246",
    "title": "KAWAII120918246",
    "link_img": "https://live.staticflickr.com/65535/49694094696_3546c39ba8_o.jpg",
    "id_image": "KAWAII120918246",
    "count_view": 0
  },
  {
    "link_thumb": "https://live.staticflickr.com/65535/49622335358_4018292f11_n.jpg",
    "id_album": "-406350429",
    "description": "KAWAII050320202192",
    "title": "KAWAII050320202192",
    "link_img": "https://live.staticflickr.com/65535/49622335358_2c13717142_o.jpg",
    "id_image": "KAWAII050320202192",
    "count_view": 0
  },
  {
    "link_thumb": "https://live.staticflickr.com/65535/49694218436_5e85cee4f6_n.jpg",
    "id_album": "-643980979",
    "description": "KAWAII24032022050213",
    "title": "KAWAII24032022050213",
    "link_img": "https://live.staticflickr.com/65535/49694218436_ac6a12492e_o.jpg",
    "id_image": "KAWAII24032022050213",
    "count_view": 0
  },
  {
    "link_thumb": "https://live.staticflickr.com/65535/49693675653_0e7fd4a63e_n.jpg",
    "id_album": "-643980979",
    "description": "KAWAII24032022050223",
    "title": "KAWAII24032022050223",
    "link_img": "https://live.staticflickr.com/65535/49693675653_c3fa1e43ba_o.jpg",
    "id_image": "KAWAII24032022050223",
    "count_view": 0
  },
  {
    "link_thumb": "https://live.staticflickr.com/65535/49548979637_95ca19ffa0_n.jpg",
    "id_album": "-1694302085",
    "description": "KAWAII1702202239581",
    "title": "KAWAII1702202239581",
    "link_img": "https://live.staticflickr.com/65535/49548979637_d09ac4d8e8_o.jpg",
    "id_image": "KAWAII1702202239581",
    "count_view": 0
  },
  {
    "link_thumb": "https://live.staticflickr.com/65535/49694122391_bf914bca28_n.jpg",
    "id_album": "-643980979",
    "description": "KAWAII270220235144",
    "title": "KAWAII270220235144",
    "link_img": "https://live.staticflickr.com/65535/49694122391_06d9006193_o.jpg",
    "id_image": "KAWAII270220235144",
    "count_view": 0
  },
  {
    "link_thumb": "https://live.staticflickr.com/65535/49548656586_3eb4f55992_n.jpg",
    "id_album": "-316663319",
    "description": "KAWAII1702202235172",
    "title": "KAWAII1702202235172",
    "link_img": "https://live.staticflickr.com/65535/49548656586_c3e7fa161d_o.jpg",
    "id_image": "KAWAII1702202235172",
    "count_view": 0
  },
  {
    "link_thumb": "https://live.staticflickr.com/65535/49592206198_a695eda715_n.jpg",
    "id_album": "1396902986",
    "description": "KAWAII27022023517",
    "title": "KAWAII27022023517",
    "link_img": "https://live.staticflickr.com/65535/49592206198_a184daf249_o.jpg",
    "id_image": "KAWAII27022023517",
    "count_view": 0
  },
  {
    "link_thumb": "https://live.staticflickr.com/65535/49548979192_8701e062fe_n.jpg",
    "id_album": "-1431786825",
    "description": "KAWAII1702202239579",
    "title": "KAWAII1702202239579",
    "link_img": "https://live.staticflickr.com/65535/49548979192_dbd6fac7f5_o.jpg",
    "id_image": "KAWAII1702202239579",
    "count_view": 0
  },
  {
    "link_thumb": "https://live.staticflickr.com/65535/49592707666_c6e0083116_n.jpg",
    "id_album": "1396902986",
    "description": "KAWAII2702202351156",
    "title": "KAWAII2702202351156",
    "link_img": "https://live.staticflickr.com/65535/49592707666_31403892d7_o.jpg",
    "id_image": "KAWAII2702202351156",
    "count_view": 0
  },
  {
    "link_thumb": "https://live.staticflickr.com/65535/49694228911_22e5202745_n.jpg",
    "id_album": "1226948986",
    "description": "KAWAII24032022050252",
    "title": "KAWAII24032022050252",
    "link_img": "https://live.staticflickr.com/65535/49694228911_fae9953d61_o.jpg",
    "id_image": "KAWAII24032022050252",
    "count_view": 0
  },
  {
    "link_thumb": "https://live.staticflickr.com/65535/49552759917_19b94a5bea_n.jpg",
    "id_album": "-316663319",
    "description": "KAWAII12091825180220205940",
    "title": "KAWAII12091825180220205940",
    "link_img": "https://live.staticflickr.com/65535/49552759917_c59a92f79d_o.jpg",
    "id_image": "KAWAII12091825180220205940",
    "count_view": 0
  },
  {
    "link_thumb": "https://live.staticflickr.com/65535/49548206843_8fde65bb42_n.jpg",
    "id_album": "431597977",
    "description": "KAWAII1702202238407",
    "title": "KAWAII1702202238407",
    "link_img": "https://live.staticflickr.com/65535/49548206843_e68a019677_o.jpg",
    "id_image": "KAWAII1702202238407",
    "count_view": 0
  },
  {
    "link_thumb": "https://live.staticflickr.com/65535/49743237037_f8b55e401d_n.jpg",
    "id_album": "-1497779911",
    "description": "KAWAII060420214912104",
    "title": "KAWAII060420214912104",
    "link_img": "https://live.staticflickr.com/65535/49743237037_7d4cda70dd_o.jpg",
    "id_image": "KAWAII060420214912104",
    "count_view": 0
  },
  {
    "link_thumb": "https://live.staticflickr.com/65535/49693524883_f74fe6ac9d_n.jpg",
    "id_album": "-1432180061",
    "description": "KAWAII1702202234108",
    "title": "KAWAII1702202234108",
    "link_img": "https://live.staticflickr.com/65535/49693524883_7cc40b571f_o.jpg",
    "id_image": "KAWAII1702202234108",
    "count_view": 0
  },
  {
    "link_thumb": "https://live.staticflickr.com/65535/49548666081_af29dc7e0d_n.jpg",
    "id_album": "-316663319",
    "description": "KAWAII1702202235217",
    "title": "KAWAII1702202235217",
    "link_img": "https://live.staticflickr.com/65535/49548666081_f380b51d80_o.jpg",
    "id_image": "KAWAII1702202235217",
    "count_view": 0
  },
  {
    "link_thumb": "https://live.staticflickr.com/65535/49743268647_5836ba6a0b_n.jpg",
    "id_album": "-1779286820",
    "description": "KAWAII06042021491810",
    "title": "KAWAII06042021491810",
    "link_img": "https://live.staticflickr.com/65535/49743268647_6d1c9c795c_o.jpg",
    "id_image": "KAWAII06042021491810",
    "count_view": 0
  },
  {
    "link_thumb": "https://live.staticflickr.com/65535/49726920928_8f0623c8c0_n.jpg",
    "id_album": "-1862561193",
    "description": "KAWAII020420194511103",
    "title": "KAWAII020420194511103",
    "link_img": "https://live.staticflickr.com/65535/49726920928_c2143503dd_o.jpg",
    "id_image": "KAWAII020420194511103",
    "count_view": 0
  },
  {
    "link_thumb": "https://live.staticflickr.com/65535/49548118198_78b244d526_n.jpg",
    "id_album": "-316663319",
    "description": "KAWAII12091890",
    "title": "KAWAII12091890",
    "link_img": "https://live.staticflickr.com/65535/49548118198_6663a0551c_o.jpg",
    "id_image": "KAWAII12091890",
    "count_view": 0
  },
  {
    "link_thumb": "https://live.staticflickr.com/65535/49592230628_c6e755e674_n.jpg",
    "id_album": "949200594",
    "description": "KAWAII270220235176",
    "title": "KAWAII270220235176",
    "link_img": "https://live.staticflickr.com/65535/49592230628_149dc42680_o.jpg",
    "id_image": "KAWAII270220235176",
    "count_view": 0
  },
  {
    "link_thumb": "https://live.staticflickr.com/65535/49694115596_8700cc913c_n.jpg",
    "id_album": "-643980979",
    "description": "KAWAII170220234613",
    "title": "KAWAII170220234613",
    "link_img": "https://live.staticflickr.com/65535/49694115596_4e60b7e973_o.jpg",
    "id_image": "KAWAII170220234613",
    "count_view": 0
  },
  {
    "link_thumb": "https://live.staticflickr.com/65535/49592709166_8c4cbcb70a_n.jpg",
    "id_album": "1396902986",
    "description": "KAWAII270220235183",
    "title": "KAWAII270220235183",
    "link_img": "https://live.staticflickr.com/65535/49592709166_0b71f7ea95_o.jpg",
    "id_image": "KAWAII270220235183",
    "count_view": 0
  },
  {
    "link_thumb": "https://live.staticflickr.com/65535/49742407823_323f75a2aa_n.jpg",
    "id_album": "-1431786825",
    "description": "KAWAII060420214914275",
    "title": "KAWAII060420214914275",
    "link_img": "https://live.staticflickr.com/65535/49742407823_2e8d533bf4_o.jpg",
    "id_image": "KAWAII060420214914275",
    "count_view": 0
  },
  {
    "link_thumb": "https://live.staticflickr.com/65535/49727428596_4d8e9b250d_n.jpg",
    "id_album": "-1741487325",
    "description": "KAWAII020420194508217",
    "title": "KAWAII020420194508217",
    "link_img": "https://live.staticflickr.com/65535/49727428596_90b724e4f1_o.jpg",
    "id_image": "KAWAII020420194508217",
    "count_view": 0
  },
  {
    "link_thumb": "https://live.staticflickr.com/65535/49548898952_07f6c9e509_n.jpg",
    "id_album": "1396902986",
    "description": "KAWAII1702202236246",
    "title": "KAWAII1702202236246",
    "link_img": "https://live.staticflickr.com/65535/49548898952_b34c40a11f_o.jpg",
    "id_image": "KAWAII1702202236246",
    "count_view": 0
  },
  {
    "link_thumb": "https://live.staticflickr.com/65535/49742930621_46cbfcebfa_n.jpg",
    "id_album": "-316663319",
    "description": "KAWAII060420214917101",
    "title": "KAWAII060420214917101",
    "link_img": "https://live.staticflickr.com/65535/49742930621_c8a5efe622_o.jpg",
    "id_image": "KAWAII060420214917101",
    "count_view": 0
  },
  {
    "link_thumb": "https://live.staticflickr.com/65535/49592715936_b6563ff9cf_n.jpg",
    "id_album": "-316663319",
    "description": "KAWAII2702202351151",
    "title": "KAWAII2702202351151",
    "link_img": "https://live.staticflickr.com/65535/49592715936_a826674ff2_o.jpg",
    "id_image": "KAWAII2702202351151",
    "count_view": 0
  },
  {
    "link_thumb": "https://live.staticflickr.com/65535/49694532017_2f599c40e0_n.jpg",
    "id_album": "1226948986",
    "description": "KAWAII24032022050237",
    "title": "KAWAII24032022050237",
    "link_img": "https://live.staticflickr.com/65535/49694532017_1504776f2b_o.jpg",
    "id_image": "KAWAII24032022050237",
    "count_view": 0
  },
  {
    "link_thumb": "https://live.staticflickr.com/65535/49548866362_12816ef6b5_n.jpg",
    "id_album": "-1432180061",
    "description": "KAWAII170220223463",
    "title": "KAWAII170220223463",
    "link_img": "https://live.staticflickr.com/65535/49548866362_4041334eae_o.jpg",
    "id_image": "KAWAII170220223463",
    "count_view": 0
  },
  {
    "link_thumb": "https://live.staticflickr.com/65535/49592216793_9f13e875ce_n.jpg",
    "id_album": "-316663319",
    "description": "KAWAII270220235168",
    "title": "KAWAII270220235168",
    "link_img": "https://live.staticflickr.com/65535/49592216793_25bdab5987_o.jpg",
    "id_image": "KAWAII270220235168",
    "count_view": 0
  },
  {
    "link_thumb": "https://live.staticflickr.com/65535/49592957402_3ea6d1276e_n.jpg",
    "id_album": "-316663319",
    "description": "KAWAII2702202351137",
    "title": "KAWAII2702202351137",
    "link_img": "https://live.staticflickr.com/65535/49592957402_366e7bebb4_o.jpg",
    "id_image": "KAWAII2702202351137",
    "count_view": 0
  },
  {
    "link_thumb": "https://live.staticflickr.com/65535/49742939091_f985427249_n.jpg",
    "id_album": "-1473448477",
    "description": "KAWAII06042021491534",
    "title": "KAWAII06042021491534",
    "link_img": "https://live.staticflickr.com/65535/49742939091_c33b080428_o.jpg",
    "id_image": "KAWAII06042021491534",
    "count_view": 0
  },
  {
    "link_thumb": "https://live.staticflickr.com/65535/49743236517_585777528f_n.jpg",
    "id_album": "-1741487325",
    "description": "KAWAII060420214918140",
    "title": "KAWAII060420214918140",
    "link_img": "https://live.staticflickr.com/65535/49743236517_c67a517862_o.jpg",
    "id_image": "KAWAII060420214918140",
    "count_view": 0
  },
  {
    "link_thumb": "https://live.staticflickr.com/65535/49742374778_5eda6f9533_n.jpg",
    "id_album": "-316663319",
    "description": "KAWAII060420214912310",
    "title": "KAWAII060420214912310",
    "link_img": "https://live.staticflickr.com/65535/49742374778_14edba0f0b_o.jpg",
    "id_image": "KAWAII060420214912310",
    "count_view": 0
  },
  {
    "link_thumb": "https://live.staticflickr.com/65535/49742901631_78d2e49845_n.jpg",
    "id_album": "-1913845949",
    "description": "KAWAII0604202149127",
    "title": "KAWAII0604202149127",
    "link_img": "https://live.staticflickr.com/65535/49742901631_70c14b6e2f_o.jpg",
    "id_image": "KAWAII0604202149127",
    "count_view": 0
  },
  {
    "link_thumb": "https://live.staticflickr.com/65535/49710287328_18c2ba3d5f_n.jpg",
    "id_album": "-1599896063",
    "description": "LITTLEMONK29032012063624",
    "title": "LITTLEMONK29032012063624",
    "link_img": "https://live.staticflickr.com/65535/49710287328_1c3a63f6c7_o.jpg",
    "id_image": "LITTLEMONK29032012063624",
    "count_view": 0
  },
  {
    "link_thumb": "https://live.staticflickr.com/65535/49727782887_cac39ff7ec_n.jpg",
    "id_album": "-1862561193",
    "description": "KAWAII020420194511121",
    "title": "KAWAII020420194511121",
    "link_img": "https://live.staticflickr.com/65535/49727782887_051589ae4d_o.jpg",
    "id_image": "KAWAII020420194511121",
    "count_view": 0
  },
  {
    "link_thumb": "https://live.staticflickr.com/65535/49693551533_3204e11952_n.jpg",
    "id_album": "1201366373",
    "description": "KAWAII120918247",
    "title": "KAWAII120918247",
    "link_img": "https://live.staticflickr.com/65535/49693551533_e00c35ceea_o.jpg",
    "id_image": "KAWAII120918247",
    "count_view": 0
  },
  {
    "link_thumb": "https://live.staticflickr.com/65535/49592732136_8ec2b07b5c_n.jpg",
    "id_album": "949200594",
    "description": "KAWAII270220235128",
    "title": "KAWAII270220235128",
    "link_img": "https://live.staticflickr.com/65535/49592732136_e1c28a6421_o.jpg",
    "id_image": "KAWAII270220235128",
    "count_view": 0
  },
  {
    "link_thumb": "https://live.staticflickr.com/65535/49694380432_89f3889088_n.jpg",
    "id_album": "-643980979",
    "description": "KAWAII050320202175",
    "title": "KAWAII050320202175",
    "link_img": "https://live.staticflickr.com/65535/49694380432_579e059c17_o.jpg",
    "id_image": "KAWAII050320202175",
    "count_view": 0
  },
  {
    "link_thumb": "https://live.staticflickr.com/65535/49694097081_996458b2c0_n.jpg",
    "id_album": "1201366373",
    "description": "KAWAII120918259",
    "title": "KAWAII120918259",
    "link_img": "https://live.staticflickr.com/65535/49694097081_3712d412e7_o.jpg",
    "id_image": "KAWAII120918259",
    "count_view": 0
  },
  {
    "link_thumb": "https://live.staticflickr.com/65535/49743263517_83166ec652_n.jpg",
    "id_album": "-1473448477",
    "description": "KAWAII06042021491574",
    "title": "KAWAII06042021491574",
    "link_img": "https://live.staticflickr.com/65535/49743263517_0ddfb92706_o.jpg",
    "id_image": "KAWAII06042021491574",
    "count_view": 0
  },
  {
    "link_thumb": "https://live.staticflickr.com/65535/49548571991_37274a1e5f_n.jpg",
    "id_album": "-316663319",
    "description": "KAWAII120918217",
    "title": "KAWAII120918217",
    "link_img": "https://live.staticflickr.com/65535/49548571991_6ea344d13f_o.jpg",
    "id_image": "KAWAII120918217",
    "count_view": 0
  },
  {
    "link_thumb": "https://live.staticflickr.com/65535/49742940636_d8143ca171_n.jpg",
    "id_album": "-1473448477",
    "description": "KAWAII06042021491592",
    "title": "KAWAII06042021491592",
    "link_img": "https://live.staticflickr.com/65535/49742940636_f6647df838_o.jpg",
    "id_image": "KAWAII06042021491592",
    "count_view": 0
  },
  {
    "link_thumb": "https://live.staticflickr.com/65535/49694090886_f5a8983a5b_n.jpg",
    "id_album": "1201366373",
    "description": "KAWAII120918207",
    "title": "KAWAII120918207",
    "link_img": "https://live.staticflickr.com/65535/49694090886_f2d6594686_o.jpg",
    "id_image": "KAWAII120918207",
    "count_view": 0
  },
  {
    "link_thumb": "https://live.staticflickr.com/65535/49694102456_7180e81e0c_n.jpg",
    "id_album": "1201366373",
    "description": "KAWAII12091850",
    "title": "KAWAII12091850",
    "link_img": "https://live.staticflickr.com/65535/49694102456_a37abb310b_o.jpg",
    "id_image": "KAWAII12091850",
    "count_view": 0
  },
  {
    "link_thumb": "https://live.staticflickr.com/65535/49622283833_4431a37fe7_n.jpg",
    "id_album": "1396902986",
    "description": "KAWAII0503202021108",
    "title": "KAWAII0503202021108",
    "link_img": "https://live.staticflickr.com/65535/49622283833_65829db4d6_o.jpg",
    "id_image": "KAWAII0503202021108",
    "count_view": 0
  },
  {
    "link_thumb": "https://live.staticflickr.com/65535/49548990817_b3d7189fee_n.jpg",
    "id_album": "-316663319",
    "description": "KAWAII17091821",
    "title": "KAWAII17091821",
    "link_img": "https://live.staticflickr.com/65535/49548990817_1245b29036_o.jpg",
    "id_image": "KAWAII17091821",
    "count_view": 0
  },
  {
    "link_thumb": "https://live.staticflickr.com/65535/49592228503_248d1795ef_n.jpg",
    "id_album": "949200594",
    "description": "KAWAII2702202351155",
    "title": "KAWAII2702202351155",
    "link_img": "https://live.staticflickr.com/65535/49592228503_73a5fbfed9_o.jpg",
    "id_image": "KAWAII2702202351155",
    "count_view": 0
  },
  {
    "link_thumb": "https://live.staticflickr.com/65535/49548672536_ebdfaf9237_n.jpg",
    "id_album": "-422187261",
    "description": "KAWAII1702202236252",
    "title": "KAWAII1702202236252",
    "link_img": "https://live.staticflickr.com/65535/49548672536_000c99449f_o.jpg",
    "id_image": "KAWAII1702202236252",
    "count_view": 0
  },
  {
    "link_thumb": "https://live.staticflickr.com/65535/49693573983_d5936924a6_n.jpg",
    "id_album": "-643980979",
    "description": "KAWAII17022023462",
    "title": "KAWAII17022023462",
    "link_img": "https://live.staticflickr.com/65535/49693573983_9eb4cbed21_o.jpg",
    "id_image": "KAWAII17022023462",
    "count_view": 0
  },
  {
    "link_thumb": "https://live.staticflickr.com/65535/49727465396_43aa8d7c90_n.jpg",
    "id_album": "1396902986",
    "description": "KAWAII02042019451249",
    "title": "KAWAII02042019451249",
    "link_img": "https://live.staticflickr.com/65535/49727465396_a64da1a456_o.jpg",
    "id_image": "KAWAII02042019451249",
    "count_view": 0
  },
  {
    "link_thumb": "https://live.staticflickr.com/65535/49743276592_fbdd67d330_n.jpg",
    "id_album": "-358592519",
    "description": "KAWAII060420214912266",
    "title": "KAWAII060420214912266",
    "link_img": "https://live.staticflickr.com/65535/49743276592_0be05d9327_o.jpg",
    "id_image": "KAWAII060420214912266",
    "count_view": 0
  },
  {
    "link_thumb": "https://live.staticflickr.com/65535/49622842546_d246727f5d_n.jpg",
    "id_album": "-406350429",
    "description": "KAWAII0503202021129",
    "title": "KAWAII0503202021129",
    "link_img": "https://live.staticflickr.com/65535/49622842546_1fdb3f8ea0_o.jpg",
    "id_image": "KAWAII0503202021129",
    "count_view": 0
  },
  {
    "link_thumb": "https://live.staticflickr.com/65535/49693567148_49b477c0e3_n.jpg",
    "id_album": "1201366373",
    "description": "KAWAII1702202236259",
    "title": "KAWAII1702202236259",
    "link_img": "https://live.staticflickr.com/65535/49693567148_6e0c7e5bfe_o.jpg",
    "id_image": "KAWAII1702202236259",
    "count_view": 0
  },
  {
    "link_thumb": "https://live.staticflickr.com/65535/49624534756_bbaab8afc8_n.jpg",
    "id_album": "-422187261",
    "description": "KAWAII050320202179",
    "title": "KAWAII050320202179",
    "link_img": "https://live.staticflickr.com/65535/49624534756_21dbeda38b_o.jpg",
    "id_image": "KAWAII050320202179",
    "count_view": 0
  },
  {
    "link_thumb": "https://live.staticflickr.com/65535/49742405328_c94bc0f915_n.jpg",
    "id_album": "-1862561193",
    "description": "KAWAII060420214918143",
    "title": "KAWAII060420214918143",
    "link_img": "https://live.staticflickr.com/65535/49742405328_bbc4ea039d_o.jpg",
    "id_image": "KAWAII060420214918143",
    "count_view": 0
  },
  {
    "link_thumb": "https://live.staticflickr.com/65535/49548843397_dbf2fe5fe9_n.jpg",
    "id_album": "-1432180061",
    "description": "KAWAII1209187",
    "title": "KAWAII1209187",
    "link_img": "https://live.staticflickr.com/65535/49548843397_bf8a64d198_o.jpg",
    "id_image": "KAWAII1209187",
    "count_view": 0
  },
  {
    "link_thumb": "https://live.staticflickr.com/65535/49743244182_a033f0a672_n.jpg",
    "id_album": "-316663319",
    "description": "KAWAII060420214912107",
    "title": "KAWAII060420214912107",
    "link_img": "https://live.staticflickr.com/65535/49743244182_71f8f98f08_o.jpg",
    "id_image": "KAWAII060420214912107",
    "count_view": 0
  },
  {
    "link_thumb": "https://live.staticflickr.com/65535/49548917217_2f20948f47_n.jpg",
    "id_album": "-422187261",
    "description": "KAWAII1702202237335",
    "title": "KAWAII1702202237335",
    "link_img": "https://live.staticflickr.com/65535/49548917217_99103157a4_o.jpg",
    "id_image": "KAWAII1702202237335",
    "count_view": 0
  },
  {
    "link_thumb": "https://live.staticflickr.com/65535/49548671301_2ff61f3d30_n.jpg",
    "id_album": "-1099943053",
    "description": "KAWAII1702202236244",
    "title": "KAWAII1702202236244",
    "link_img": "https://live.staticflickr.com/65535/49548671301_90c4e550f5_o.jpg",
    "id_image": "KAWAII1702202236244",
    "count_view": 0
  },
  {
    "link_thumb": "https://live.staticflickr.com/65535/49693571198_a82879b5bf_n.jpg",
    "id_album": "-643980979",
    "description": "KAWAII1702202239525",
    "title": "KAWAII1702202239525",
    "link_img": "https://live.staticflickr.com/65535/49693571198_79c07df54a_o.jpg",
    "id_image": "KAWAII1702202239525",
    "count_view": 0
  },
  {
    "link_thumb": "https://live.staticflickr.com/65535/49726925128_f475533b2b_n.jpg",
    "id_album": "-1862561193",
    "description": "KAWAII02042019451366",
    "title": "KAWAII02042019451366",
    "link_img": "https://live.staticflickr.com/65535/49726925128_bba6ddf96b_o.jpg",
    "id_image": "KAWAII02042019451366",
    "count_view": 0
  },
  {
    "link_thumb": "https://live.staticflickr.com/65535/49622335103_64a8defb90_n.jpg",
    "id_album": "-406350429",
    "description": "KAWAII05032020219",
    "title": "KAWAII05032020219",
    "link_img": "https://live.staticflickr.com/65535/49622335103_1cc8197d63_o.jpg",
    "id_image": "KAWAII05032020219",
    "count_view": 0
  },
  {
    "link_thumb": "https://live.staticflickr.com/65535/49592204403_99989d7f92_n.jpg",
    "id_album": "1396902986",
    "description": "KAWAII2702202351145",
    "title": "KAWAII2702202351145",
    "link_img": "https://live.staticflickr.com/65535/49592204403_aa5304ec91_o.jpg",
    "id_image": "KAWAII2702202351145",
    "count_view": 0
  },
  {
    "link_thumb": "https://live.staticflickr.com/65535/49726924473_3f8ea1d665_n.jpg",
    "id_album": "-1862561193",
    "description": "KAWAII020420194513106",
    "title": "KAWAII020420194513106",
    "link_img": "https://live.staticflickr.com/65535/49726924473_6c8e71e23c_o.jpg",
    "id_image": "KAWAII020420194513106",
    "count_view": 0
  },
  {
    "link_thumb": "https://live.staticflickr.com/65535/49693545928_61f463169e_n.jpg",
    "id_album": "1201366373",
    "description": "KAWAII120918196",
    "title": "KAWAII120918196",
    "link_img": "https://live.staticflickr.com/65535/49693545928_b65581381d_o.jpg",
    "id_image": "KAWAII120918196",
    "count_view": 0
  },
  {
    "link_thumb": "https://live.staticflickr.com/65535/49742931951_0bf3561d19_n.jpg",
    "id_album": "-316663319",
    "description": "KAWAII060420214917289",
    "title": "KAWAII060420214917289",
    "link_img": "https://live.staticflickr.com/65535/49742931951_2356bb7793_o.jpg",
    "id_image": "KAWAII060420214917289",
    "count_view": 0
  },
  {
    "link_thumb": "https://live.staticflickr.com/65535/49694370822_2deb15b120_n.jpg",
    "id_album": "-1432180061",
    "description": "KAWAII120918222",
    "title": "KAWAII120918222",
    "link_img": "https://live.staticflickr.com/65535/49694370822_b592161bf5_o.jpg",
    "id_image": "KAWAII120918222",
    "count_view": 0
  },
  {
    "link_thumb": "https://live.staticflickr.com/65535/49592714866_6f627c0f8c_n.jpg",
    "id_album": "-316663319",
    "description": "KAWAII2702202351133",
    "title": "KAWAII2702202351133",
    "link_img": "https://live.staticflickr.com/65535/49592714866_e095f49d99_o.jpg",
    "id_image": "KAWAII2702202351133",
    "count_view": 0
  },
  {
    "link_thumb": "https://live.staticflickr.com/65535/49622334453_e7acc9cfeb_n.jpg",
    "id_album": "-406350429",
    "description": "KAWAII050320202160",
    "title": "KAWAII050320202160",
    "link_img": "https://live.staticflickr.com/65535/49622334453_db673f5e89_o.jpg",
    "id_image": "KAWAII050320202160",
    "count_view": 0
  },
  {
    "link_thumb": "https://live.staticflickr.com/65535/49592951792_516da0925f_n.jpg",
    "id_album": "-1741487325",
    "description": "KAWAII170220223325",
    "title": "KAWAII170220223325",
    "link_img": "https://live.staticflickr.com/65535/49592951792_b284ba8523_o.jpg",
    "id_image": "KAWAII170220223325",
    "count_view": 0
  },
  {
    "link_thumb": "https://live.staticflickr.com/65535/49743234747_559cb89647_n.jpg",
    "id_album": "-1694302085",
    "description": "KAWAII06042021491894",
    "title": "KAWAII06042021491894",
    "link_img": "https://live.staticflickr.com/65535/49743234747_fb403b44d9_o.jpg",
    "id_image": "KAWAII06042021491894",
    "count_view": 0
  },
  {
    "link_thumb": "https://live.staticflickr.com/65535/49693681963_54f345268e_n.jpg",
    "id_album": "46674803",
    "description": "KAWAII24032022050224",
    "title": "KAWAII24032022050224",
    "link_img": "https://live.staticflickr.com/65535/49693681963_82e07e92be_o.jpg",
    "id_image": "KAWAII24032022050224",
    "count_view": 0
  },
  {
    "link_thumb": "https://live.staticflickr.com/65535/49592212603_ef02e6c970_n.jpg",
    "id_album": "-316663319",
    "description": "KAWAII2702202351139",
    "title": "KAWAII2702202351139",
    "link_img": "https://live.staticflickr.com/65535/49592212603_896797164e_o.jpg",
    "id_image": "KAWAII2702202351139",
    "count_view": 0
  },
  {
    "link_thumb": "https://live.staticflickr.com/65535/49622325243_66ae261293_n.jpg",
    "id_album": "-316663319",
    "description": "KAWAII050320202191",
    "title": "KAWAII050320202191",
    "link_img": "https://live.staticflickr.com/65535/49622325243_6b33b0da10_o.jpg",
    "id_image": "KAWAII050320202191",
    "count_view": 0
  },
  {
    "link_thumb": "https://live.staticflickr.com/65535/49548572351_028e0778f4_n.jpg",
    "id_album": "-316663319",
    "description": "KAWAII120918219",
    "title": "KAWAII120918219",
    "link_img": "https://live.staticflickr.com/65535/49548572351_e6bd1de198_o.jpg",
    "id_image": "KAWAII120918219",
    "count_view": 0
  },
  {
    "link_thumb": "https://live.staticflickr.com/65535/49622333383_66149eb52f_n.jpg",
    "id_album": "-406350429",
    "description": "KAWAII0503202021309",
    "title": "KAWAII0503202021309",
    "link_img": "https://live.staticflickr.com/65535/49622333383_b5ce7cf8e8_o.jpg",
    "id_image": "KAWAII0503202021309",
    "count_view": 0
  },
  {
    "link_thumb": "https://live.staticflickr.com/65535/49694084581_9d6fb6a1b8_n.jpg",
    "id_album": "-643980979",
    "description": "KAWAII120918151",
    "title": "KAWAII120918151",
    "link_img": "https://live.staticflickr.com/65535/49694084581_fd70a5c5b1_o.jpg",
    "id_image": "KAWAII120918151",
    "count_view": 0
  },
  {
    "link_thumb": "https://live.staticflickr.com/65535/49742356483_b4dbd813b8_n.jpg",
    "id_album": "-1913845949",
    "description": "KAWAII060420214915298",
    "title": "KAWAII060420214915298",
    "link_img": "https://live.staticflickr.com/65535/49742356483_5d266574ca_o.jpg",
    "id_image": "KAWAII060420214915298",
    "count_view": 0
  },
  {
    "link_thumb": "https://live.staticflickr.com/65535/49694385152_aeb06a1a8f_n.jpg",
    "id_album": "1201366373",
    "description": "KAWAII120918121",
    "title": "KAWAII120918121",
    "link_img": "https://live.staticflickr.com/65535/49694385152_5aa92e3173_o.jpg",
    "id_image": "KAWAII120918121",
    "count_view": 0
  },
  {
    "link_thumb": "https://live.staticflickr.com/65535/49549724838_49f72f0e2b_n.jpg",
    "id_album": "-1694302085",
    "description": "KAWAII12091834",
    "title": "KAWAII12091834",
    "link_img": "https://live.staticflickr.com/65535/49549724838_77a3d2a921_o.jpg",
    "id_image": "KAWAII12091834",
    "count_view": 0
  },
  {
    "link_thumb": "https://live.staticflickr.com/65535/49592977222_f58e952b9d_n.jpg",
    "id_album": "-1431786825",
    "description": "KAWAII270220235120",
    "title": "KAWAII270220235120",
    "link_img": "https://live.staticflickr.com/65535/49592977222_7328a342df_o.jpg",
    "id_image": "KAWAII270220235120",
    "count_view": 0
  },
  {
    "link_thumb": "https://live.staticflickr.com/65535/49742919561_6b11564d35_n.jpg",
    "id_album": "-128218148",
    "description": "KAWAII06042021491296",
    "title": "KAWAII06042021491296",
    "link_img": "https://live.staticflickr.com/65535/49742919561_5e08411a16_o.jpg",
    "id_image": "KAWAII06042021491296",
    "count_view": 0
  },
  {
    "link_thumb": "https://live.staticflickr.com/65535/49727453711_69725a9b6a_n.jpg",
    "id_album": "742877173",
    "description": "KAWAII02042019451471",
    "title": "KAWAII02042019451471",
    "link_img": "https://live.staticflickr.com/65535/49727453711_1b093a62f5_o.jpg",
    "id_image": "KAWAII02042019451471",
    "count_view": 0
  },
  {
    "link_thumb": "https://live.staticflickr.com/65535/49727474271_07d32936da_n.jpg",
    "id_album": "1563362783",
    "description": "KAWAII1702202237328",
    "title": "KAWAII1702202237328",
    "link_img": "https://live.staticflickr.com/65535/49727474271_1ab324c88b_o.jpg",
    "id_image": "KAWAII1702202237328",
    "count_view": 0
  },
  {
    "link_thumb": "https://live.staticflickr.com/65535/49548857017_a2206d4fb1_n.jpg",
    "id_album": "-1694302085",
    "description": "KAWAII17022022339",
    "title": "KAWAII17022022339",
    "link_img": "https://live.staticflickr.com/65535/49548857017_78ff7c5c27_o.jpg",
    "id_image": "KAWAII17022022339",
    "count_view": 0
  },
  {
    "link_thumb": "https://live.staticflickr.com/65535/49548195908_e7ed86881e_n.jpg",
    "id_album": "-1431786825",
    "description": "KAWAII1702202237365",
    "title": "KAWAII1702202237365",
    "link_img": "https://live.staticflickr.com/65535/49548195908_d1ae362fbc_o.jpg",
    "id_image": "KAWAII1702202237365",
    "count_view": 0
  },
  {
    "link_thumb": "https://live.staticflickr.com/65535/49694109831_34a1bbd234_n.jpg",
    "id_album": "-643980979",
    "description": "KAWAII1702202236281",
    "title": "KAWAII1702202236281",
    "link_img": "https://live.staticflickr.com/65535/49694109831_78a373918d_o.jpg",
    "id_image": "KAWAII1702202236281",
    "count_view": 0
  },
  {
    "link_thumb": "https://live.staticflickr.com/65535/49693584983_b04cf0d2ea_n.jpg",
    "id_album": "405170427",
    "description": "KAWAII120918321",
    "title": "KAWAII120918321",
    "link_img": "https://live.staticflickr.com/65535/49693584983_80e3f045d3_o.jpg",
    "id_image": "KAWAII120918321",
    "count_view": 0
  },
  {
    "link_thumb": "https://live.staticflickr.com/65535/49548781432_bbf23e809a_n.jpg",
    "id_album": "-316663319",
    "description": "KAWAII12091814",
    "title": "KAWAII12091814",
    "link_img": "https://live.staticflickr.com/65535/49548781432_02ef9ac37d_o.jpg",
    "id_image": "KAWAII12091814",
    "count_view": 0
  },
  {
    "link_thumb": "https://live.staticflickr.com/65535/49548217328_788ffac1da_n.jpg",
    "id_album": "-1099943053",
    "description": "KAWAII1702202238447",
    "title": "KAWAII1702202238447",
    "link_img": "https://live.staticflickr.com/65535/49548217328_151ec9ed83_o.jpg",
    "id_image": "KAWAII1702202238447",
    "count_view": 0
  },
  {
    "link_thumb": "https://live.staticflickr.com/65535/49694218276_54cc4425bf_n.jpg",
    "id_album": "-643980979",
    "description": "KAWAII2403202205017",
    "title": "KAWAII2403202205017",
    "link_img": "https://live.staticflickr.com/65535/49694218276_e05bf39ccf_o.jpg",
    "id_image": "KAWAII2403202205017",
    "count_view": 0
  },
  {
    "link_thumb": "https://live.staticflickr.com/65535/49727754967_b6db8d013b_n.jpg",
    "id_album": "-316663319",
    "description": "KAWAII020420194513195",
    "title": "KAWAII020420194513195",
    "link_img": "https://live.staticflickr.com/65535/49727754967_d66f53f51c_o.jpg",
    "id_image": "KAWAII020420194513195",
    "count_view": 0
  },
  {
    "link_thumb": "https://live.staticflickr.com/65535/49548824417_efffec8b98_n.jpg",
    "id_album": "-1741487325",
    "description": "KAWAII120918328",
    "title": "KAWAII120918328",
    "link_img": "https://live.staticflickr.com/65535/49548824417_a9b7e9303d_o.jpg",
    "id_image": "KAWAII120918328",
    "count_view": 0
  },
  {
    "link_thumb": "https://live.staticflickr.com/65535/49727763682_55f3936388_n.jpg",
    "id_album": "742877173",
    "description": "KAWAII020420194512206",
    "title": "KAWAII020420194512206",
    "link_img": "https://live.staticflickr.com/65535/49727763682_6017d5924b_o.jpg",
    "id_image": "KAWAII020420194512206",
    "count_view": 0
  },
  {
    "link_thumb": "https://live.staticflickr.com/65535/49694227126_690962cd91_n.jpg",
    "id_album": "1226948986",
    "description": "KAWAII24032022050216",
    "title": "KAWAII24032022050216",
    "link_img": "https://live.staticflickr.com/65535/49694227126_383d7ae9b4_o.jpg",
    "id_image": "KAWAII24032022050216",
    "count_view": 0
  },
  {
    "link_thumb": "https://live.staticflickr.com/65535/49727742027_652122fdb0_n.jpg",
    "id_album": "-1694302085",
    "description": "KAWAII190220211125",
    "title": "KAWAII190220211125",
    "link_img": "https://live.staticflickr.com/65535/49727742027_caa66c7ef6_o.jpg",
    "id_image": "KAWAII190220211125",
    "count_view": 0
  },
  {
    "link_thumb": "https://live.staticflickr.com/65535/49592732726_278f17e315_n.jpg",
    "id_album": "949200594",
    "description": "KAWAII270220235154",
    "title": "KAWAII270220235154",
    "link_img": "https://live.staticflickr.com/65535/49592732726_7fb09fa990_o.jpg",
    "id_image": "KAWAII270220235154",
    "count_view": 0
  },
  {
    "link_thumb": "https://live.staticflickr.com/65535/49548610471_c6a9e5014f_n.jpg",
    "id_album": "-316663319",
    "description": "KAWAII12091843",
    "title": "KAWAII12091843",
    "link_img": "https://live.staticflickr.com/65535/49548610471_bf36fce83f_o.jpg",
    "id_image": "KAWAII12091843",
    "count_view": 0
  },
  {
    "link_thumb": "https://live.staticflickr.com/65535/49693672998_18981af17b_n.jpg",
    "id_album": "-1741487325",
    "description": "KAWAII0503202021121",
    "title": "KAWAII0503202021121",
    "link_img": "https://live.staticflickr.com/65535/49693672998_32a6f17ddf_o.jpg",
    "id_image": "KAWAII0503202021121",
    "count_view": 0
  },
  {
    "link_thumb": "https://live.staticflickr.com/65535/49742352583_6a2be094ce_n.jpg",
    "id_album": "-1913845949",
    "description": "KAWAII060420214912125",
    "title": "KAWAII060420214912125",
    "link_img": "https://live.staticflickr.com/65535/49742352583_485a149253_o.jpg",
    "id_image": "KAWAII060420214912125",
    "count_view": 0
  },
  {
    "link_thumb": "https://live.staticflickr.com/65535/49710820586_fe595c2acd_n.jpg",
    "id_album": "-1599896063",
    "description": "LITTLEMONK29032012063316",
    "title": "LITTLEMONK29032012063316",
    "link_img": "https://live.staticflickr.com/65535/49710820586_acbdb7b8ff_o.jpg",
    "id_image": "LITTLEMONK29032012063316",
    "count_view": 0
  },
  {
    "link_thumb": "https://live.staticflickr.com/65535/49548064628_d02e014ab6_n.jpg",
    "id_album": "-316663319",
    "description": "KAWAII120918191",
    "title": "KAWAII120918191",
    "link_img": "https://live.staticflickr.com/65535/49548064628_78deddcd7e_o.jpg",
    "id_image": "KAWAII120918191",
    "count_view": 0
  },
  {
    "link_thumb": "https://live.staticflickr.com/65535/49743252732_c485ed0a5b_n.jpg",
    "id_album": "-316663319",
    "description": "KAWAII060420214915259",
    "title": "KAWAII060420214915259",
    "link_img": "https://live.staticflickr.com/65535/49743252732_68d6e0a7e8_o.jpg",
    "id_image": "KAWAII060420214915259",
    "count_view": 0
  },
  {
    "link_thumb": "https://live.staticflickr.com/65535/49743266612_67a23a67d8_n.jpg",
    "id_album": "-1779286820",
    "description": "KAWAII06042021491236",
    "title": "KAWAII06042021491236",
    "link_img": "https://live.staticflickr.com/65535/49743266612_0ae8e41462_o.jpg",
    "id_image": "KAWAII06042021491236",
    "count_view": 0
  },
  {
    "link_thumb": "https://live.staticflickr.com/65535/49694071171_cd5ac07c04_n.jpg",
    "id_album": "-643980979",
    "description": "KAWAII0503202021165",
    "title": "KAWAII0503202021165",
    "link_img": "https://live.staticflickr.com/65535/49694071171_d1e527d8fc_o.jpg",
    "id_image": "KAWAII0503202021165",
    "count_view": 0
  },
  {
    "link_thumb": "https://live.staticflickr.com/65535/49727765507_72ed327b7e_n.jpg",
    "id_album": "742877173",
    "description": "KAWAII020420194513228",
    "title": "KAWAII020420194513228",
    "link_img": "https://live.staticflickr.com/65535/49727765507_ef2e736a73_o.jpg",
    "id_image": "KAWAII020420194513228",
    "count_view": 0
  },
  {
    "link_thumb": "https://live.staticflickr.com/65535/49622837701_8c5132a8df_n.jpg",
    "id_album": "-316663319",
    "description": "KAWAII050320202153",
    "title": "KAWAII050320202153",
    "link_img": "https://live.staticflickr.com/65535/49622837701_082e4868e9_o.jpg",
    "id_image": "KAWAII050320202153",
    "count_view": 0
  },
  {
    "link_thumb": "https://live.staticflickr.com/65535/49548715926_c11836b31f_n.jpg",
    "id_album": "-422187261",
    "description": "KAWAII1702202238439",
    "title": "KAWAII1702202238439",
    "link_img": "https://live.staticflickr.com/65535/49548715926_bc37b6ac4d_o.jpg",
    "id_image": "KAWAII1702202238439",
    "count_view": 0
  },
  {
    "link_thumb": "https://live.staticflickr.com/65535/49623074512_72ec37dba4_n.jpg",
    "id_album": "1396902986",
    "description": "KAWAII050320202124",
    "title": "KAWAII050320202124",
    "link_img": "https://live.staticflickr.com/65535/49623074512_8a5df48ac3_o.jpg",
    "id_image": "KAWAII050320202124",
    "count_view": 0
  },
  {
    "link_thumb": "https://live.staticflickr.com/65535/49743241147_80a6becc0c_n.jpg",
    "id_album": "-128218148",
    "description": "KAWAII060420214911110",
    "title": "KAWAII060420214911110",
    "link_img": "https://live.staticflickr.com/65535/49743241147_4cd4d2ac3e_o.jpg",
    "id_image": "KAWAII060420214911110",
    "count_view": 0
  },
  {
    "link_thumb": "https://live.staticflickr.com/65535/49548070103_c51992d11a_n.jpg",
    "id_album": "-316663319",
    "description": "KAWAII120918218",
    "title": "KAWAII120918218",
    "link_img": "https://live.staticflickr.com/65535/49548070103_060f53032d_o.jpg",
    "id_image": "KAWAII120918218",
    "count_view": 0
  },
  {
    "link_thumb": "https://live.staticflickr.com/65535/49578975672_8980cce170_n.jpg",
    "id_album": "-1694302085",
    "description": "KAWAII190220211114",
    "title": "KAWAII190220211114",
    "link_img": "https://live.staticflickr.com/65535/49578975672_926de08b53_o.jpg",
    "id_image": "KAWAII190220211114",
    "count_view": 0
  },
  {
    "link_thumb": "https://live.staticflickr.com/65535/49548665886_19a3b84cbf_n.jpg",
    "id_album": "-422187261",
    "description": "KAWAII1702202235216",
    "title": "KAWAII1702202235216",
    "link_img": "https://live.staticflickr.com/65535/49548665886_e19ea7dbe9_o.jpg",
    "id_image": "KAWAII1702202235216",
    "count_view": 0
  },
  {
    "link_thumb": "https://live.staticflickr.com/65535/49710820856_27331632e1_n.jpg",
    "id_album": "-1599896063",
    "description": "LITTLEMONK2903201206345",
    "title": "LITTLEMONK2903201206345",
    "link_img": "https://live.staticflickr.com/65535/49710820856_873a5f0ae1_o.jpg",
    "id_image": "LITTLEMONK2903201206345",
    "count_view": 0
  },
  {
    "link_thumb": "https://live.staticflickr.com/65535/49622332363_9dcb2579a8_n.jpg",
    "id_album": "-406350429",
    "description": "KAWAII0503202021268",
    "title": "KAWAII0503202021268",
    "link_img": "https://live.staticflickr.com/65535/49622332363_25d01093c7_o.jpg",
    "id_image": "KAWAII0503202021268",
    "count_view": 0
  },
  {
    "link_thumb": "https://live.staticflickr.com/65535/49727434816_02b27db2b0_n.jpg",
    "id_album": "-1497779911",
    "description": "KAWAII1702202238476",
    "title": "KAWAII1702202238476",
    "link_img": "https://live.staticflickr.com/65535/49727434816_7c2163c581_o.jpg",
    "id_image": "KAWAII1702202238476",
    "count_view": 0
  },
  {
    "link_thumb": "https://live.staticflickr.com/65535/49622798036_37e3d71912_n.jpg",
    "id_album": "-422187261",
    "description": "KAWAII050320202170",
    "title": "KAWAII050320202170",
    "link_img": "https://live.staticflickr.com/65535/49622798036_93a62058b1_o.jpg",
    "id_image": "KAWAII050320202170",
    "count_view": 0
  },
  {
    "link_thumb": "https://live.staticflickr.com/65535/49694128121_0a3c66066a_n.jpg",
    "id_album": "1226948986",
    "description": "KAWAII1209183",
    "title": "KAWAII1209183",
    "link_img": "https://live.staticflickr.com/65535/49694128121_8ec7588b7f_o.jpg",
    "id_image": "KAWAII1209183",
    "count_view": 0
  },
  {
    "link_thumb": "https://live.staticflickr.com/65535/49548198158_5a9a25317d_n.jpg",
    "id_album": "1396902986",
    "description": "KAWAII1702202237373",
    "title": "KAWAII1702202237373",
    "link_img": "https://live.staticflickr.com/65535/49548198158_a3bf926739_o.jpg",
    "id_image": "KAWAII1702202237373",
    "count_view": 0
  },
  {
    "link_thumb": "https://live.staticflickr.com/65535/49694431617_90867bcb8a_n.jpg",
    "id_album": "1226948986",
    "description": "TOTORO220320154114",
    "title": "TOTORO220320154114",
    "link_img": "https://live.staticflickr.com/65535/49694431617_c4ac376478_o.jpg",
    "id_image": "TOTORO220320154114",
    "count_view": 0
  },
  {
    "link_thumb": "https://live.staticflickr.com/65535/49552022963_0a629afafb_n.jpg",
    "id_album": "-1694302085",
    "description": "KAWAII12091825180220205931",
    "title": "KAWAII12091825180220205931",
    "link_img": "https://live.staticflickr.com/65535/49552022963_5b8deaced8_o.jpg",
    "id_image": "KAWAII12091825180220205931",
    "count_view": 0
  },
  {
    "link_thumb": "https://live.staticflickr.com/65535/49694075791_a55c1db55a_n.jpg",
    "id_album": "-643980979",
    "description": "KAWAII0503202021326",
    "title": "KAWAII0503202021326",
    "link_img": "https://live.staticflickr.com/65535/49694075791_96a815a5ed_o.jpg",
    "id_image": "KAWAII0503202021326",
    "count_view": 0
  },
  {
    "link_thumb": "https://live.staticflickr.com/65535/49726889313_269c56d408_n.jpg",
    "id_album": "-316663319",
    "description": "KAWAII02042019451011",
    "title": "KAWAII02042019451011",
    "link_img": "https://live.staticflickr.com/65535/49726889313_5411c0b820_o.jpg",
    "id_image": "KAWAII02042019451011",
    "count_view": 0
  },
  {
    "link_thumb": "https://live.staticflickr.com/65535/49743268987_a02ff27df9_n.jpg",
    "id_album": "-1779286820",
    "description": "KAWAII060420214918105",
    "title": "KAWAII060420214918105",
    "link_img": "https://live.staticflickr.com/65535/49743268987_0692e47578_o.jpg",
    "id_image": "KAWAII060420214918105",
    "count_view": 0
  },
  {
    "link_thumb": "https://live.staticflickr.com/65535/49548939852_a42e71ac09_n.jpg",
    "id_album": "-422187261",
    "description": "KAWAII1702202238427",
    "title": "KAWAII1702202238427",
    "link_img": "https://live.staticflickr.com/65535/49548939852_797f0f6bed_o.jpg",
    "id_image": "KAWAII1702202238427",
    "count_view": 0
  },
  {
    "link_thumb": "https://live.staticflickr.com/65535/49622319153_3ac6d6079b_n.jpg",
    "id_album": "-1694302085",
    "description": "KAWAII0503202021328",
    "title": "KAWAII0503202021328",
    "link_img": "https://live.staticflickr.com/65535/49622319153_f04c849c44_o.jpg",
    "id_image": "KAWAII0503202021328",
    "count_view": 0
  },
  {
    "link_thumb": "https://live.staticflickr.com/65535/49694427082_1206fc2ee5_n.jpg",
    "id_album": "-358592519",
    "description": "KAWAII120918347",
    "title": "KAWAII120918347",
    "link_img": "https://live.staticflickr.com/65535/49694427082_21e2e6b3a7_o.jpg",
    "id_image": "KAWAII120918347",
    "count_view": 0
  },
  {
    "link_thumb": "https://live.staticflickr.com/65535/49622306878_f6b262f2dd_n.jpg",
    "id_album": "-316663319",
    "description": "KAWAII0503202021193",
    "title": "KAWAII0503202021193",
    "link_img": "https://live.staticflickr.com/65535/49622306878_1de4b7ac25_o.jpg",
    "id_image": "KAWAII0503202021193",
    "count_view": 0
  },
  {
    "link_thumb": "https://live.staticflickr.com/65535/49743247462_f92806a66d_n.jpg",
    "id_album": "-316663319",
    "description": "KAWAII060420214913137",
    "title": "KAWAII060420214913137",
    "link_img": "https://live.staticflickr.com/65535/49743247462_821845a635_o.jpg",
    "id_image": "KAWAII060420214913137",
    "count_view": 0
  },
  {
    "link_thumb": "https://live.staticflickr.com/65535/49711144802_1e0afd3a19_n.jpg",
    "id_album": "-1599896063",
    "description": "LITTLEMONK29032012063521",
    "title": "LITTLEMONK29032012063521",
    "link_img": "https://live.staticflickr.com/65535/49711144802_4d2dc609c2_o.jpg",
    "id_image": "LITTLEMONK29032012063521",
    "count_view": 0
  },
  {
    "link_thumb": "https://live.staticflickr.com/65535/49693682353_8b39a5992c_n.jpg",
    "id_album": "46674803",
    "description": "KAWAII24032022050233",
    "title": "KAWAII24032022050233",
    "link_img": "https://live.staticflickr.com/65535/49693682353_ffce88a729_o.jpg",
    "id_image": "KAWAII24032022050233",
    "count_view": 0
  },
  {
    "link_thumb": "https://live.staticflickr.com/65535/49548090478_e14671db02_n.jpg",
    "id_album": "-422187261",
    "description": "KAWAII120918308",
    "title": "KAWAII120918308",
    "link_img": "https://live.staticflickr.com/65535/49548090478_68298f952a_o.jpg",
    "id_image": "KAWAII120918308",
    "count_view": 0
  },
  {
    "link_thumb": "https://live.staticflickr.com/65535/49548637661_4ae151bdfe_n.jpg",
    "id_album": "-422187261",
    "description": "KAWAII170220223458",
    "title": "KAWAII170220223458",
    "link_img": "https://live.staticflickr.com/65535/49548637661_246e7542bb_o.jpg",
    "id_image": "KAWAII170220223458",
    "count_view": 0
  },
  {
    "link_thumb": "https://live.staticflickr.com/65535/49548183848_ded9940ffb_n.jpg",
    "id_album": "-316663319",
    "description": "KAWAII1702202237312",
    "title": "KAWAII1702202237312",
    "link_img": "https://live.staticflickr.com/65535/49548183848_e66a9dce38_o.jpg",
    "id_image": "KAWAII1702202237312",
    "count_view": 0
  },
  {
    "link_thumb": "https://live.staticflickr.com/65535/49623075332_dbe0d6c0f1_n.jpg",
    "id_album": "1396902986",
    "description": "KAWAII0503202021275",
    "title": "KAWAII0503202021275",
    "link_img": "https://live.staticflickr.com/65535/49623075332_e5eafa7577_o.jpg",
    "id_image": "KAWAII0503202021275",
    "count_view": 0
  },
  {
    "link_thumb": "https://live.staticflickr.com/65535/49742372073_9bd255cb1d_n.jpg",
    "id_album": "-128218148",
    "description": "KAWAII06042021491456",
    "title": "KAWAII06042021491456",
    "link_img": "https://live.staticflickr.com/65535/49742372073_5257691a79_o.jpg",
    "id_image": "KAWAII06042021491456",
    "count_view": 0
  },
  {
    "link_thumb": "https://live.staticflickr.com/65535/49622288518_cd3af19a45_n.jpg",
    "id_album": "1396902986",
    "description": "KAWAII0503202021279",
    "title": "KAWAII0503202021279",
    "link_img": "https://live.staticflickr.com/65535/49622288518_572274970f_o.jpg",
    "id_image": "KAWAII0503202021279",
    "count_view": 0
  },
  {
    "link_thumb": "https://live.staticflickr.com/65535/49578243728_cffc5e92dd_n.jpg",
    "id_album": "-1694302085",
    "description": "KAWAII19022021112",
    "title": "KAWAII19022021112",
    "link_img": "https://live.staticflickr.com/65535/49578243728_6c35416521_o.jpg",
    "id_image": "KAWAII19022021112",
    "count_view": 0
  },
  {
    "link_thumb": "https://live.staticflickr.com/65535/49742901501_e4f5d95199_n.jpg",
    "id_album": "-1913845949",
    "description": "KAWAII06042021491242",
    "title": "KAWAII06042021491242",
    "link_img": "https://live.staticflickr.com/65535/49742901501_d47960e2eb_o.jpg",
    "id_image": "KAWAII06042021491242",
    "count_view": 0
  },
  {
    "link_thumb": "https://live.staticflickr.com/65535/49622836806_915fa269a6_n.jpg",
    "id_album": "-316663319",
    "description": "KAWAII050320202140",
    "title": "KAWAII050320202140",
    "link_img": "https://live.staticflickr.com/65535/49622836806_a70cf95061_o.jpg",
    "id_image": "KAWAII050320202140",
    "count_view": 0
  },
  {
    "link_thumb": "https://live.staticflickr.com/65535/49548910507_30b6984d2f_n.jpg",
    "id_album": "-316663319",
    "description": "KAWAII1702202236304",
    "title": "KAWAII1702202236304",
    "link_img": "https://live.staticflickr.com/65535/49548910507_619db8d005_o.jpg",
    "id_image": "KAWAII1702202236304",
    "count_view": 0
  }
]