[
  {
    "link_thumb": "https://live.staticflickr.com/65535/49622329693_8ebeaafc84_n.jpg",
    "id_album": "-406350429",
    "description": "KAWAII050320202120",
    "title": "KAWAII050320202120",
    "link_img": "https://live.staticflickr.com/65535/49622329693_4feecd972a_o.jpg",
    "id_image": "KAWAII050320202120",
    "count_view": 0
  },
  {
    "link_thumb": "https://live.staticflickr.com/65535/49693545928_61f463169e_n.jpg",
    "id_album": "1201366373",
    "description": "KAWAII120918196",
    "title": "KAWAII120918196",
    "link_img": "https://live.staticflickr.com/65535/49693545928_b65581381d_o.jpg",
    "id_image": "KAWAII120918196",
    "count_view": 0
  },
  {
    "link_thumb": "https://live.staticflickr.com/65535/49622827011_6611e8b22c_n.jpg",
    "id_album": "-316663319",
    "description": "KAWAII0503202021246",
    "title": "KAWAII0503202021246",
    "link_img": "https://live.staticflickr.com/65535/49622827011_6cfa1627f7_o.jpg",
    "id_image": "KAWAII0503202021246",
    "count_view": 0
  },
  {
    "link_thumb": "https://live.staticflickr.com/65535/49694405537_4e31a2246e_n.jpg",
    "id_album": "1201366373",
    "description": "KAWAII12091861",
    "title": "KAWAII12091861",
    "link_img": "https://live.staticflickr.com/65535/49694405537_f1c5d561c6_o.jpg",
    "id_image": "KAWAII12091861",
    "count_view": 0
  },
  {
    "link_thumb": "https://live.staticflickr.com/65535/49622842546_d246727f5d_n.jpg",
    "id_album": "-406350429",
    "description": "KAWAII0503202021129",
    "title": "KAWAII0503202021129",
    "link_img": "https://live.staticflickr.com/65535/49622842546_1fdb3f8ea0_o.jpg",
    "id_image": "KAWAII0503202021129",
    "count_view": 0
  },
  {
    "link_thumb": "https://live.staticflickr.com/65535/49727437116_04fe3d752f_n.jpg",
    "id_album": "-316663319",
    "description": "KAWAII020420194510210",
    "title": "KAWAII020420194510210",
    "link_img": "https://live.staticflickr.com/65535/49727437116_db41a81af1_o.jpg",
    "id_image": "KAWAII020420194510210",
    "count_view": 0
  },
  {
    "link_thumb": "https://live.staticflickr.com/65535/49726927883_8b29fdece6_n.jpg",
    "id_album": "1226948986",
    "description": "KAWAII02042019450715",
    "title": "KAWAII02042019450715",
    "link_img": "https://live.staticflickr.com/65535/49726927883_646cf323b6_o.jpg",
    "id_image": "KAWAII02042019450715",
    "count_view": 0
  },
  {
    "link_thumb": "https://live.staticflickr.com/65535/49742949546_5a2707e56d_n.jpg",
    "id_album": "1396902986",
    "description": "KAWAII060420214917148",
    "title": "KAWAII060420214917148",
    "link_img": "https://live.staticflickr.com/65535/49742949546_2909604b24_o.jpg",
    "id_image": "KAWAII060420214917148",
    "count_view": 0
  },
  {
    "link_thumb": "https://live.staticflickr.com/65535/49548096408_75317da3fd_n.jpg",
    "id_album": "-316663319",
    "description": "KAWAII120918332",
    "title": "KAWAII120918332",
    "link_img": "https://live.staticflickr.com/65535/49548096408_d743bc575a_o.jpg",
    "id_image": "KAWAII120918332",
    "count_view": 0
  },
  {
    "link_thumb": "https://live.staticflickr.com/65535/49742921686_7245a4fb8a_n.jpg",
    "id_album": "-316663319",
    "description": "KAWAII060420214912232",
    "title": "KAWAII060420214912232",
    "link_img": "https://live.staticflickr.com/65535/49742921686_db426d9638_o.jpg",
    "id_image": "KAWAII060420214912232",
    "count_view": 0
  },
  {
    "link_thumb": "https://live.staticflickr.com/65535/49694096531_6d257d2400_n.jpg",
    "id_album": "1201366373",
    "description": "KAWAII120918256",
    "title": "KAWAII120918256",
    "link_img": "https://live.staticflickr.com/65535/49694096531_ee6e497485_o.jpg",
    "id_image": "KAWAII120918256",
    "count_view": 0
  },
  {
    "link_thumb": "https://live.staticflickr.com/65535/49727450881_7c7958f382_n.jpg",
    "id_album": "742877173",
    "description": "KAWAII020420194513138",
    "title": "KAWAII020420194513138",
    "link_img": "https://live.staticflickr.com/65535/49727450881_916c922e16_o.jpg",
    "id_image": "KAWAII020420194513138",
    "count_view": 0
  },
  {
    "link_thumb": "https://live.staticflickr.com/65535/49726898053_d8f0c3bca1_n.jpg",
    "id_album": "742877173",
    "description": "KAWAII020420194510148",
    "title": "KAWAII020420194510148",
    "link_img": "https://live.staticflickr.com/65535/49726898053_a28a9c24da_o.jpg",
    "id_image": "KAWAII020420194510148",
    "count_view": 0
  },
  {
    "link_thumb": "https://live.staticflickr.com/65535/49693548643_f895171502_n.jpg",
    "id_album": "-643980979",
    "description": "KAWAII120918221",
    "title": "KAWAII120918221",
    "link_img": "https://live.staticflickr.com/65535/49693548643_4a459079ff_o.jpg",
    "id_image": "KAWAII120918221",
    "count_view": 0
  },
  {
    "link_thumb": "https://live.staticflickr.com/65535/49743252732_c485ed0a5b_n.jpg",
    "id_album": "-316663319",
    "description": "KAWAII060420214915259",
    "title": "KAWAII060420214915259",
    "link_img": "https://live.staticflickr.com/65535/49743252732_68d6e0a7e8_o.jpg",
    "id_image": "KAWAII060420214915259",
    "count_view": 0
  },
  {
    "link_thumb": "https://live.staticflickr.com/65535/49742397118_31632c9a8a_n.jpg",
    "id_album": "-1779286820",
    "description": "KAWAII060420214917108",
    "title": "KAWAII060420214917108",
    "link_img": "https://live.staticflickr.com/65535/49742397118_7036c67f36_o.jpg",
    "id_image": "KAWAII060420214917108",
    "count_view": 0
  },
  {
    "link_thumb": "https://live.staticflickr.com/65535/49693549298_c7eaef73cb_n.jpg",
    "id_album": "1201366373",
    "description": "KAWAII120918226",
    "title": "KAWAII120918226",
    "link_img": "https://live.staticflickr.com/65535/49693549298_789a292352_o.jpg",
    "id_image": "KAWAII120918226",
    "count_view": 0
  },
  {
    "link_thumb": "https://live.staticflickr.com/65535/49622805916_8b212f9d03_n.jpg",
    "id_album": "-1741487325",
    "description": "KAWAII050320202112",
    "title": "KAWAII050320202112",
    "link_img": "https://live.staticflickr.com/65535/49622805916_76f712a3f8_o.jpg",
    "id_image": "KAWAII050320202112",
    "count_view": 0
  },
  {
    "link_thumb": "https://live.staticflickr.com/65535/49592729676_51ee2d2792_n.jpg",
    "id_album": "949200594",
    "description": "KAWAII2702202351121",
    "title": "KAWAII2702202351121",
    "link_img": "https://live.staticflickr.com/65535/49592729676_4bae3275f4_o.jpg",
    "id_image": "KAWAII2702202351121",
    "count_view": 0
  },
  {
    "link_thumb": "https://live.staticflickr.com/65535/49548557526_ce8318248b_n.jpg",
    "id_album": "-1741487325",
    "description": "KAWAII120918154",
    "title": "KAWAII120918154",
    "link_img": "https://live.staticflickr.com/65535/49548557526_0c16422ca2_o.jpg",
    "id_image": "KAWAII120918154",
    "count_view": 0
  },
  {
    "link_thumb": "https://live.staticflickr.com/65535/49548119988_4e6f381ed7_n.jpg",
    "id_album": "-316663319",
    "description": "KAWAII12091898",
    "title": "KAWAII12091898",
    "link_img": "https://live.staticflickr.com/65535/49548119988_638fe1d01a_o.jpg",
    "id_image": "KAWAII12091898",
    "count_view": 0
  },
  {
    "link_thumb": "https://live.staticflickr.com/65535/49726923168_2cf720de1d_n.jpg",
    "id_album": "-1862561193",
    "description": "KAWAII02042019451185",
    "title": "KAWAII02042019451185",
    "link_img": "https://live.staticflickr.com/65535/49726923168_c1d21a7780_o.jpg",
    "id_image": "KAWAII02042019451185",
    "count_view": 0
  },
  {
    "link_thumb": "https://live.staticflickr.com/65535/49694425322_b51eb0e2a3_n.jpg",
    "id_album": "-643980979",
    "description": "KAWAII270220235163",
    "title": "KAWAII270220235163",
    "link_img": "https://live.staticflickr.com/65535/49694425322_970edb1907_o.jpg",
    "id_image": "KAWAII270220235163",
    "count_view": 0
  },
  {
    "link_thumb": "https://live.staticflickr.com/65535/49743251107_e88cc269cf_n.jpg",
    "id_album": "-316663319",
    "description": "KAWAII060420214915164",
    "title": "KAWAII060420214915164",
    "link_img": "https://live.staticflickr.com/65535/49743251107_4266a8506e_o.jpg",
    "id_image": "KAWAII060420214915164",
    "count_view": 0
  },
  {
    "link_thumb": "https://live.staticflickr.com/65535/49548120603_dacbbc6809_n.jpg",
    "id_album": "-1099943053",
    "description": "KAWAII170220223310",
    "title": "KAWAII170220223310",
    "link_img": "https://live.staticflickr.com/65535/49548120603_9955480543_o.jpg",
    "id_image": "KAWAII170220223310",
    "count_view": 0
  },
  {
    "link_thumb": "https://live.staticflickr.com/65535/49742933406_ca2712e878_n.jpg",
    "id_album": "-316663319",
    "description": "KAWAII06042021491890",
    "title": "KAWAII06042021491890",
    "link_img": "https://live.staticflickr.com/65535/49742933406_7718feaedc_o.jpg",
    "id_image": "KAWAII06042021491890",
    "count_view": 0
  },
  {
    "link_thumb": "https://live.staticflickr.com/65535/49693562268_2210e22661_n.jpg",
    "id_album": "1201366373",
    "description": "KAWAII12091899",
    "title": "KAWAII12091899",
    "link_img": "https://live.staticflickr.com/65535/49693562268_e18dd1bf79_o.jpg",
    "id_image": "KAWAII12091899",
    "count_view": 0
  },
  {
    "link_thumb": "https://live.staticflickr.com/65535/49592207248_426b3e5f30_n.jpg",
    "id_album": "-1741487325",
    "description": "KAWAII1702202235146",
    "title": "KAWAII1702202235146",
    "link_img": "https://live.staticflickr.com/65535/49592207248_43f8e028ce_o.jpg",
    "id_image": "KAWAII1702202235146",
    "count_view": 0
  },
  {
    "link_thumb": "https://live.staticflickr.com/65535/49742934841_69d09604fe_n.jpg",
    "id_album": "-1473448477",
    "description": "KAWAII06042021491514",
    "title": "KAWAII06042021491514",
    "link_img": "https://live.staticflickr.com/65535/49742934841_48a5606e88_o.jpg",
    "id_image": "KAWAII06042021491514",
    "count_view": 0
  },
  {
    "link_thumb": "https://live.staticflickr.com/65535/49727475936_5723e4d0a5_n.jpg",
    "id_album": "431597977",
    "description": "KAWAII020420194512109",
    "title": "KAWAII020420194512109",
    "link_img": "https://live.staticflickr.com/65535/49727475936_5f53df718a_o.jpg",
    "id_image": "KAWAII020420194512109",
    "count_view": 0
  },
  {
    "link_thumb": "https://live.staticflickr.com/65535/49726885228_f3551204a1_n.jpg",
    "id_album": "-1497779911",
    "description": "KAWAII050320202164",
    "title": "KAWAII050320202164",
    "link_img": "https://live.staticflickr.com/65535/49726885228_3207863863_o.jpg",
    "id_image": "KAWAII050320202164",
    "count_view": 0
  },
  {
    "link_thumb": "https://live.staticflickr.com/65535/49727789047_984311d8a0_n.jpg",
    "id_album": "1563362783",
    "description": "KAWAII1702202237392",
    "title": "KAWAII1702202237392",
    "link_img": "https://live.staticflickr.com/65535/49727789047_b9f8c98b67_o.jpg",
    "id_image": "KAWAII1702202237392",
    "count_view": 0
  },
  {
    "link_thumb": "https://live.staticflickr.com/65535/49622828946_a3ec03670c_n.jpg",
    "id_album": "-316663319",
    "description": "KAWAII0503202021276",
    "title": "KAWAII0503202021276",
    "link_img": "https://live.staticflickr.com/65535/49622828946_b9f0ca563d_o.jpg",
    "id_image": "KAWAII0503202021276",
    "count_view": 0
  },
  {
    "link_thumb": "https://live.staticflickr.com/65535/49693574143_b085e67ec3_n.jpg",
    "id_album": "-643980979",
    "description": "KAWAII17022023463",
    "title": "KAWAII17022023463",
    "link_img": "https://live.staticflickr.com/65535/49693574143_396fa49eca_o.jpg",
    "id_image": "KAWAII17022023463",
    "count_view": 0
  },
  {
    "link_thumb": "https://live.staticflickr.com/65535/49548217328_788ffac1da_n.jpg",
    "id_album": "-1099943053",
    "description": "KAWAII1702202238447",
    "title": "KAWAII1702202238447",
    "link_img": "https://live.staticflickr.com/65535/49548217328_151ec9ed83_o.jpg",
    "id_image": "KAWAII1702202238447",
    "count_view": 0
  },
  {
    "link_thumb": "https://live.staticflickr.com/65535/49742923161_2d7e175f84_n.jpg",
    "id_album": "-316663319",
    "description": "KAWAII060420214913120",
    "title": "KAWAII060420214913120",
    "link_img": "https://live.staticflickr.com/65535/49742923161_e4af605f0b_o.jpg",
    "id_image": "KAWAII060420214913120",
    "count_view": 0
  },
  {
    "link_thumb": "https://live.staticflickr.com/65535/49622799796_dd4a25355b_n.jpg",
    "id_album": "1396902986",
    "description": "KAWAII0503202021137",
    "title": "KAWAII0503202021137",
    "link_img": "https://live.staticflickr.com/65535/49622799796_cc0cd3eacf_o.jpg",
    "id_image": "KAWAII0503202021137",
    "count_view": 0
  },
  {
    "link_thumb": "https://live.staticflickr.com/65535/49742953836_b71ac9c8d5_n.jpg",
    "id_album": "-358592519",
    "description": "KAWAII060420214915311",
    "title": "KAWAII060420214915311",
    "link_img": "https://live.staticflickr.com/65535/49742953836_43140ac6c7_o.jpg",
    "id_image": "KAWAII060420214915311",
    "count_view": 0
  },
  {
    "link_thumb": "https://live.staticflickr.com/65535/49743258527_6ff605826d_n.jpg",
    "id_album": "-1473448477",
    "description": "KAWAII06042021491512",
    "title": "KAWAII06042021491512",
    "link_img": "https://live.staticflickr.com/65535/49743258527_ff528a6d5a_o.jpg",
    "id_image": "KAWAII06042021491512",
    "count_view": 0
  },
  {
    "link_thumb": "https://live.staticflickr.com/65535/49694102261_ea702f35c0_n.jpg",
    "id_album": "1201366373",
    "description": "KAWAII12091849",
    "title": "KAWAII12091849",
    "link_img": "https://live.staticflickr.com/65535/49694102261_3f4c6bfa43_o.jpg",
    "id_image": "KAWAII12091849",
    "count_view": 0
  },
  {
    "link_thumb": "https://live.staticflickr.com/65535/49726905873_760521dc37_n.jpg",
    "id_album": "742877173",
    "description": "KAWAII02042019451456",
    "title": "KAWAII02042019451456",
    "link_img": "https://live.staticflickr.com/65535/49726905873_5c14423e87_o.jpg",
    "id_image": "KAWAII02042019451456",
    "count_view": 0
  },
  {
    "link_thumb": "https://live.staticflickr.com/65535/49548903742_c5a43ab67f_n.jpg",
    "id_album": "-316663319",
    "description": "KAWAII1702202236272",
    "title": "KAWAII1702202236272",
    "link_img": "https://live.staticflickr.com/65535/49548903742_3a39d3472c_o.jpg",
    "id_image": "KAWAII1702202236272",
    "count_view": 0
  },
  {
    "link_thumb": "https://live.staticflickr.com/65535/49727768697_a0ebfcc31b_n.jpg",
    "id_album": "1201366373",
    "description": "KAWAII120918296",
    "title": "KAWAII120918296",
    "link_img": "https://live.staticflickr.com/65535/49727768697_b04898132a_o.jpg",
    "id_image": "KAWAII120918296",
    "count_view": 0
  },
  {
    "link_thumb": "https://live.staticflickr.com/65535/49693528313_e2a2db57d1_n.jpg",
    "id_album": "-643980979",
    "description": "KAWAII0503202021188",
    "title": "KAWAII0503202021188",
    "link_img": "https://live.staticflickr.com/65535/49693528313_4748d2da47_o.jpg",
    "id_image": "KAWAII0503202021188",
    "count_view": 0
  },
  {
    "link_thumb": "https://live.staticflickr.com/65535/49548998657_d4c4792e73_n.jpg",
    "id_album": "949200594",
    "description": "KAWAII17091847",
    "title": "KAWAII17091847",
    "link_img": "https://live.staticflickr.com/65535/49548998657_170f4d120f_o.jpg",
    "id_image": "KAWAII17091847",
    "count_view": 0
  },
  {
    "link_thumb": "https://live.staticflickr.com/65535/49694409882_b6fa30919f_n.jpg",
    "id_album": "-643980979",
    "description": "KAWAII170220223472",
    "title": "KAWAII170220223472",
    "link_img": "https://live.staticflickr.com/65535/49694409882_5c3cc8c8d5_o.jpg",
    "id_image": "KAWAII170220223472",
    "count_view": 0
  },
  {
    "link_thumb": "https://live.staticflickr.com/65535/49743230212_a927f80940_n.jpg",
    "id_album": "-422187261",
    "description": "KAWAII02042019451474",
    "title": "KAWAII02042019451474",
    "link_img": "https://live.staticflickr.com/65535/49743230212_5680ef703f_o.jpg",
    "id_image": "KAWAII02042019451474",
    "count_view": 0
  },
  {
    "link_thumb": "https://live.staticflickr.com/65535/49592707666_c6e0083116_n.jpg",
    "id_album": "1396902986",
    "description": "KAWAII2702202351156",
    "title": "KAWAII2702202351156",
    "link_img": "https://live.staticflickr.com/65535/49592707666_31403892d7_o.jpg",
    "id_image": "KAWAII2702202351156",
    "count_view": 0
  },
  {
    "link_thumb": "https://live.staticflickr.com/65535/49548974152_be46f5c0fd_n.jpg",
    "id_album": "-1099943053",
    "description": "KAWAII1702202239557",
    "title": "KAWAII1702202239557",
    "link_img": "https://live.staticflickr.com/65535/49548974152_183ccf7aa7_o.jpg",
    "id_image": "KAWAII1702202239557",
    "count_view": 0
  },
  {
    "link_thumb": "https://live.staticflickr.com/65535/49742925101_b70829c04d_n.jpg",
    "id_album": "-316663319",
    "description": "KAWAII060420214914199",
    "title": "KAWAII060420214914199",
    "link_img": "https://live.staticflickr.com/65535/49742925101_b1391f182a_o.jpg",
    "id_image": "KAWAII060420214914199",
    "count_view": 0
  },
  {
    "link_thumb": "https://live.staticflickr.com/65535/49622288943_90697e855d_n.jpg",
    "id_album": "1396902986",
    "description": "KAWAII050320202129",
    "title": "KAWAII050320202129",
    "link_img": "https://live.staticflickr.com/65535/49622288943_d342a9aaf7_o.jpg",
    "id_image": "KAWAII050320202129",
    "count_view": 0
  },
  {
    "link_thumb": "https://live.staticflickr.com/65535/49548783917_0cd7aa6838_n.jpg",
    "id_album": "-1741487325",
    "description": "KAWAII120918150",
    "title": "KAWAII120918150",
    "link_img": "https://live.staticflickr.com/65535/49548783917_f8974d8288_o.jpg",
    "id_image": "KAWAII120918150",
    "count_view": 0
  },
  {
    "link_thumb": "https://live.staticflickr.com/65535/49578979767_e6d2afdbf8_n.jpg",
    "id_album": "-1099943053",
    "description": "KAWAII190220211128",
    "title": "KAWAII190220211128",
    "link_img": "https://live.staticflickr.com/65535/49578979767_dd095c1211_o.jpg",
    "id_image": "KAWAII190220211128",
    "count_view": 0
  },
  {
    "link_thumb": "https://live.staticflickr.com/65535/49548665886_19a3b84cbf_n.jpg",
    "id_album": "-422187261",
    "description": "KAWAII1702202235216",
    "title": "KAWAII1702202235216",
    "link_img": "https://live.staticflickr.com/65535/49548665886_e19ea7dbe9_o.jpg",
    "id_image": "KAWAII1702202235216",
    "count_view": 0
  },
  {
    "link_thumb": "https://live.staticflickr.com/65535/49742949936_19f0003080_n.jpg",
    "id_album": "1396902986",
    "description": "KAWAII0604202149184",
    "title": "KAWAII0604202149184",
    "link_img": "https://live.staticflickr.com/65535/49742949936_4d7d1605c3_o.jpg",
    "id_image": "KAWAII0604202149184",
    "count_view": 0
  },
  {
    "link_thumb": "https://live.staticflickr.com/65535/49727443596_72a83f0aac_n.jpg",
    "id_album": "742877173",
    "description": "KAWAII02042019450879",
    "title": "KAWAII02042019450879",
    "link_img": "https://live.staticflickr.com/65535/49727443596_fc339dda69_o.jpg",
    "id_image": "KAWAII02042019450879",
    "count_view": 0
  },
  {
    "link_thumb": "https://live.staticflickr.com/65535/49694418562_51e263706d_n.jpg",
    "id_album": "-643980979",
    "description": "KAWAII170220234616",
    "title": "KAWAII170220234616",
    "link_img": "https://live.staticflickr.com/65535/49694418562_c02075e061_o.jpg",
    "id_image": "KAWAII170220234616",
    "count_view": 0
  },
  {
    "link_thumb": "https://live.staticflickr.com/65535/49592228503_248d1795ef_n.jpg",
    "id_album": "949200594",
    "description": "KAWAII2702202351155",
    "title": "KAWAII2702202351155",
    "link_img": "https://live.staticflickr.com/65535/49592228503_73a5fbfed9_o.jpg",
    "id_image": "KAWAII2702202351155",
    "count_view": 0
  },
  {
    "link_thumb": "https://live.staticflickr.com/65535/49726895823_7197f25723_n.jpg",
    "id_album": "742877173",
    "description": "KAWAII02042019450860",
    "title": "KAWAII02042019450860",
    "link_img": "https://live.staticflickr.com/65535/49726895823_b23a068759_o.jpg",
    "id_image": "KAWAII02042019450860",
    "count_view": 0
  },
  {
    "link_thumb": "https://live.staticflickr.com/65535/49743233307_73ebe0ec47_n.jpg",
    "id_album": "-1694302085",
    "description": "KAWAII060420214913283",
    "title": "KAWAII060420214913283",
    "link_img": "https://live.staticflickr.com/65535/49743233307_2ff03ca347_o.jpg",
    "id_image": "KAWAII060420214913283",
    "count_view": 0
  },
  {
    "link_thumb": "https://live.staticflickr.com/65535/49578242613_7c8b60b077_n.jpg",
    "id_album": "-422187261",
    "description": "KAWAII190220211129",
    "title": "KAWAII190220211129",
    "link_img": "https://live.staticflickr.com/65535/49578242613_b4337b78c2_o.jpg",
    "id_image": "KAWAII190220211129",
    "count_view": 0
  },
  {
    "link_thumb": "https://live.staticflickr.com/65535/49694529942_bdd95d0a90_n.jpg",
    "id_album": "1226948986",
    "description": "KAWAII24032022050168",
    "title": "KAWAII24032022050168",
    "link_img": "https://live.staticflickr.com/65535/49694529942_9f74fd07b0_o.jpg",
    "id_image": "KAWAII24032022050168",
    "count_view": 0
  },
  {
    "link_thumb": "https://live.staticflickr.com/65535/49742359078_fd9d82915a_n.jpg",
    "id_album": "1699819648",
    "description": "KAWAII06042021491275",
    "title": "KAWAII06042021491275",
    "link_img": "https://live.staticflickr.com/65535/49742359078_abdedcd173_o.jpg",
    "id_image": "KAWAII06042021491275",
    "count_view": 0
  },
  {
    "link_thumb": "https://live.staticflickr.com/65535/49548833852_d878829ec5_n.jpg",
    "id_album": "-1741487325",
    "description": "KAWAII120918365",
    "title": "KAWAII120918365",
    "link_img": "https://live.staticflickr.com/65535/49548833852_1826f5a600_o.jpg",
    "id_image": "KAWAII120918365",
    "count_view": 0
  },
  {
    "link_thumb": "https://live.staticflickr.com/65535/49743228317_96446c5e59_n.jpg",
    "id_album": "-1913845949",
    "description": "KAWAII060420214917223",
    "title": "KAWAII060420214917223",
    "link_img": "https://live.staticflickr.com/65535/49743228317_44d2346ef5_o.jpg",
    "id_image": "KAWAII060420214917223",
    "count_view": 0
  },
  {
    "link_thumb": "https://live.staticflickr.com/65535/49742409703_a2a1850435_n.jpg",
    "id_album": "-1431786825",
    "description": "KAWAII060420214918188",
    "title": "KAWAII060420214918188",
    "link_img": "https://live.staticflickr.com/65535/49742409703_58075f483e_o.jpg",
    "id_image": "KAWAII060420214918188",
    "count_view": 0
  },
  {
    "link_thumb": "https://live.staticflickr.com/65535/49548831722_d24a211b41_n.jpg",
    "id_album": "-1741487325",
    "description": "KAWAII120918357",
    "title": "KAWAII120918357",
    "link_img": "https://live.staticflickr.com/65535/49548831722_b0387db658_o.jpg",
    "id_image": "KAWAII120918357",
    "count_view": 0
  },
  {
    "link_thumb": "https://live.staticflickr.com/65535/49592975792_8d5c9b8fa7_n.jpg",
    "id_album": "949200594",
    "description": "KAWAII270220235173",
    "title": "KAWAII270220235173",
    "link_img": "https://live.staticflickr.com/65535/49592975792_a991967fea_o.jpg",
    "id_image": "KAWAII270220235173",
    "count_view": 0
  },
  {
    "link_thumb": "https://live.staticflickr.com/65535/49552522646_f48c42dffb_n.jpg",
    "id_album": "431597977",
    "description": "KAWAII12091825180220205948",
    "title": "KAWAII12091825180220205948",
    "link_img": "https://live.staticflickr.com/65535/49552522646_e82ca66f82_o.jpg",
    "id_image": "KAWAII12091825180220205948",
    "count_view": 0
  },
  {
    "link_thumb": "https://live.staticflickr.com/65535/49694424747_f4bca52c0e_n.jpg",
    "id_album": "-643980979",
    "description": "KAWAII270220235143",
    "title": "KAWAII270220235143",
    "link_img": "https://live.staticflickr.com/65535/49694424747_becc1d4f3a_o.jpg",
    "id_image": "KAWAII270220235143",
    "count_view": 0
  },
  {
    "link_thumb": "https://live.staticflickr.com/65535/49727426016_3ea6756eb8_n.jpg",
    "id_album": "-1694302085",
    "description": "KAWAII02042019451159",
    "title": "KAWAII02042019451159",
    "link_img": "https://live.staticflickr.com/65535/49727426016_645aebf6ea_o.jpg",
    "id_image": "KAWAII02042019451159",
    "count_view": 0
  },
  {
    "link_thumb": "https://live.staticflickr.com/65535/49693564098_3a86af7d55_n.jpg",
    "id_album": "1201366373",
    "description": "KAWAII170220223439",
    "title": "KAWAII170220223439",
    "link_img": "https://live.staticflickr.com/65535/49693564098_c448ab54f0_o.jpg",
    "id_image": "KAWAII170220223439",
    "count_view": 0
  },
  {
    "link_thumb": "https://live.staticflickr.com/65535/49548096168_960e4bf3a5_n.jpg",
    "id_album": "-1741487325",
    "description": "KAWAII120918331",
    "title": "KAWAII120918331",
    "link_img": "https://live.staticflickr.com/65535/49548096168_deab32ef86_o.jpg",
    "id_image": "KAWAII120918331",
    "count_view": 0
  },
  {
    "link_thumb": "https://live.staticflickr.com/65535/49694418432_bbcce21390_n.jpg",
    "id_album": "-643980979",
    "description": "KAWAII170220234615",
    "title": "KAWAII170220234615",
    "link_img": "https://live.staticflickr.com/65535/49694418432_8fa6f8d931_o.jpg",
    "id_image": "KAWAII170220234615",
    "count_view": 0
  },
  {
    "link_thumb": "https://live.staticflickr.com/65535/49694128691_4f0e62d6c1_n.jpg",
    "id_album": "1226948986",
    "description": "TOTORO220320154113",
    "title": "TOTORO220320154113",
    "link_img": "https://live.staticflickr.com/65535/49694128691_9b97e65182_o.jpg",
    "id_image": "TOTORO220320154113",
    "count_view": 0
  },
  {
    "link_thumb": "https://live.staticflickr.com/65535/49742389058_53d1bf6200_n.jpg",
    "id_album": "-1473448477",
    "description": "KAWAII060420214915215",
    "title": "KAWAII060420214915215",
    "link_img": "https://live.staticflickr.com/65535/49742389058_dde80c8b33_o.jpg",
    "id_image": "KAWAII060420214915215",
    "count_view": 0
  },
  {
    "link_thumb": "https://live.staticflickr.com/65535/49694085796_53f3554199_n.jpg",
    "id_album": "1201366373",
    "description": "KAWAII120918160",
    "title": "KAWAII120918160",
    "link_img": "https://live.staticflickr.com/65535/49694085796_06ce5074a9_o.jpg",
    "id_image": "KAWAII120918160",
    "count_view": 0
  },
  {
    "link_thumb": "https://live.staticflickr.com/65535/49622802016_1558a39696_n.jpg",
    "id_album": "1396902986",
    "description": "KAWAII0503202021231",
    "title": "KAWAII0503202021231",
    "link_img": "https://live.staticflickr.com/65535/49622802016_e5b340f81d_o.jpg",
    "id_image": "KAWAII0503202021231",
    "count_view": 0
  },
  {
    "link_thumb": "https://live.staticflickr.com/65535/49622847721_e1602f2634_n.jpg",
    "id_album": "-406350429",
    "description": "KAWAII0503202021278",
    "title": "KAWAII0503202021278",
    "link_img": "https://live.staticflickr.com/65535/49622847721_093f75abe6_o.jpg",
    "id_image": "KAWAII0503202021278",
    "count_view": 0
  },
  {
    "link_thumb": "https://live.staticflickr.com/65535/49623116602_110b090b4c_n.jpg",
    "id_album": "-406350429",
    "description": "KAWAII0503202021206",
    "title": "KAWAII0503202021206",
    "link_img": "https://live.staticflickr.com/65535/49623116602_271373667e_o.jpg",
    "id_image": "KAWAII0503202021206",
    "count_view": 0
  },
  {
    "link_thumb": "https://live.staticflickr.com/65535/49742948051_4c3bc0f67f_n.jpg",
    "id_album": "1396902986",
    "description": "KAWAII060420214915113",
    "title": "KAWAII060420214915113",
    "link_img": "https://live.staticflickr.com/65535/49742948051_8b6173d550_o.jpg",
    "id_image": "KAWAII060420214915113",
    "count_view": 0
  },
  {
    "link_thumb": "https://live.staticflickr.com/65535/49548913477_92e37deab5_n.jpg",
    "id_album": "-1432180061",
    "description": "KAWAII1702202237316",
    "title": "KAWAII1702202237316",
    "link_img": "https://live.staticflickr.com/65535/49548913477_c9c6ed692f_o.jpg",
    "id_image": "KAWAII1702202237316",
    "count_view": 0
  },
  {
    "link_thumb": "https://live.staticflickr.com/65535/49727443351_559cf78630_n.jpg",
    "id_album": "742877173",
    "description": "KAWAII02042019450867",
    "title": "KAWAII02042019450867",
    "link_img": "https://live.staticflickr.com/65535/49727443351_48a92a949e_o.jpg",
    "id_image": "KAWAII02042019450867",
    "count_view": 0
  },
  {
    "link_thumb": "https://live.staticflickr.com/65535/49694114441_d96d2de253_n.jpg",
    "id_album": "1201366373",
    "description": "KAWAII1702202239573",
    "title": "KAWAII1702202239573",
    "link_img": "https://live.staticflickr.com/65535/49694114441_404a9beed8_o.jpg",
    "id_image": "KAWAII1702202239573",
    "count_view": 0
  },
  {
    "link_thumb": "https://live.staticflickr.com/65535/49694387352_27923845d9_n.jpg",
    "id_album": "1201366373",
    "description": "KAWAII120918153",
    "title": "KAWAII120918153",
    "link_img": "https://live.staticflickr.com/65535/49694387352_611f10838a_o.jpg",
    "id_image": "KAWAII120918153",
    "count_view": 0
  },
  {
    "link_thumb": "https://live.staticflickr.com/65535/49693681758_be15069edc_n.jpg",
    "id_album": "-1862561193",
    "description": "KAWAII24032022050266",
    "title": "KAWAII24032022050266",
    "link_img": "https://live.staticflickr.com/65535/49693681758_6d430e3652_o.jpg",
    "id_image": "KAWAII24032022050266",
    "count_view": 0
  },
  {
    "link_thumb": "https://live.staticflickr.com/65535/49742382473_e32c75fba0_n.jpg",
    "id_album": "-316663319",
    "description": "KAWAII06042021491584",
    "title": "KAWAII06042021491584",
    "link_img": "https://live.staticflickr.com/65535/49742382473_ecb505c7ca_o.jpg",
    "id_image": "KAWAII06042021491584",
    "count_view": 0
  },
  {
    "link_thumb": "https://live.staticflickr.com/65535/49742408543_f5f39b9b01_n.jpg",
    "id_album": "-1431786825",
    "description": "KAWAII060420214915193",
    "title": "KAWAII060420214915193",
    "link_img": "https://live.staticflickr.com/65535/49742408543_e1cc061ec5_o.jpg",
    "id_image": "KAWAII060420214915193",
    "count_view": 0
  },
  {
    "link_thumb": "https://live.staticflickr.com/65535/49622831141_40b5253569_n.jpg",
    "id_album": "-1694302085",
    "description": "KAWAII050320202130",
    "title": "KAWAII050320202130",
    "link_img": "https://live.staticflickr.com/65535/49622831141_39b6005f93_o.jpg",
    "id_image": "KAWAII050320202130",
    "count_view": 0
  },
  {
    "link_thumb": "https://live.staticflickr.com/65535/49548864702_23c49122e7_n.jpg",
    "id_album": "-422187261",
    "description": "KAWAII170220223456",
    "title": "KAWAII170220223456",
    "link_img": "https://live.staticflickr.com/65535/49548864702_e87776d95f_o.jpg",
    "id_image": "KAWAII170220223456",
    "count_view": 0
  },
  {
    "link_thumb": "https://live.staticflickr.com/65535/49743254982_55b8851550_n.jpg",
    "id_album": "-316663319",
    "description": "KAWAII060420214917150",
    "title": "KAWAII060420214917150",
    "link_img": "https://live.staticflickr.com/65535/49743254982_47dd6f411e_o.jpg",
    "id_image": "KAWAII060420214917150",
    "count_view": 0
  },
  {
    "link_thumb": "https://live.staticflickr.com/65535/49743248487_2470e7d2eb_n.jpg",
    "id_album": "-316663319",
    "description": "KAWAII060420214913307",
    "title": "KAWAII060420214913307",
    "link_img": "https://live.staticflickr.com/65535/49743248487_0739556b42_o.jpg",
    "id_image": "KAWAII060420214913307",
    "count_view": 0
  },
  {
    "link_thumb": "https://live.staticflickr.com/65535/49743240552_7cd755625e_n.jpg",
    "id_album": "-1432180061",
    "description": "KAWAII060420214914122",
    "title": "KAWAII060420214914122",
    "link_img": "https://live.staticflickr.com/65535/49743240552_875d81d504_o.jpg",
    "id_image": "KAWAII060420214914122",
    "count_view": 0
  },
  {
    "link_thumb": "https://live.staticflickr.com/65535/49742910236_bd52560f58_n.jpg",
    "id_album": "-1694302085",
    "description": "KAWAII060420214917260",
    "title": "KAWAII060420214917260",
    "link_img": "https://live.staticflickr.com/65535/49742910236_7f8d4bc298_o.jpg",
    "id_image": "KAWAII060420214917260",
    "count_view": 0
  },
  {
    "link_thumb": "https://live.staticflickr.com/65535/49622840081_e373bc4bf9_n.jpg",
    "id_album": "-1694302085",
    "description": "KAWAII050320202197",
    "title": "KAWAII050320202197",
    "link_img": "https://live.staticflickr.com/65535/49622840081_3138ee4372_o.jpg",
    "id_image": "KAWAII050320202197",
    "count_view": 0
  },
  {
    "link_thumb": "https://live.staticflickr.com/65535/49548896447_10611e9e0e_n.jpg",
    "id_album": "-316663319",
    "description": "KAWAII1702202236231",
    "title": "KAWAII1702202236231",
    "link_img": "https://live.staticflickr.com/65535/49548896447_e20532dd12_o.jpg",
    "id_image": "KAWAII1702202236231",
    "count_view": 0
  },
  {
    "link_thumb": "https://live.staticflickr.com/65535/49743226532_456c5d1ba3_n.jpg",
    "id_album": "-1913845949",
    "description": "KAWAII060420214915132",
    "title": "KAWAII060420214915132",
    "link_img": "https://live.staticflickr.com/65535/49743226532_f184789a63_o.jpg",
    "id_image": "KAWAII060420214915132",
    "count_view": 0
  },
  {
    "link_thumb": "https://live.staticflickr.com/65535/49622285663_33e9e60699_n.jpg",
    "id_album": "1396902986",
    "description": "KAWAII0503202021200",
    "title": "KAWAII0503202021200",
    "link_img": "https://live.staticflickr.com/65535/49622285663_9bb454601f_o.jpg",
    "id_image": "KAWAII0503202021200",
    "count_view": 0
  },
  {
    "link_thumb": "https://live.staticflickr.com/65535/49742353083_658b28ed17_n.jpg",
    "id_album": "-1913845949",
    "description": "KAWAII060420214912234",
    "title": "KAWAII060420214912234",
    "link_img": "https://live.staticflickr.com/65535/49742353083_68c7682cd6_o.jpg",
    "id_image": "KAWAII060420214912234",
    "count_view": 0
  },
  {
    "link_thumb": "https://live.staticflickr.com/65535/49694216366_23548fc773_n.jpg",
    "id_album": "-1741487325",
    "description": "KAWAII0503202021311",
    "title": "KAWAII0503202021311",
    "link_img": "https://live.staticflickr.com/65535/49694216366_9bb3068e36_o.jpg",
    "id_image": "KAWAII0503202021311",
    "count_view": 0
  },
  {
    "link_thumb": "https://live.staticflickr.com/65535/49548263893_45c89875c1_n.jpg",
    "id_album": "949200594",
    "description": "KAWAII17091822",
    "title": "KAWAII17091822",
    "link_img": "https://live.staticflickr.com/65535/49548263893_50121a0bbf_o.jpg",
    "id_image": "KAWAII17091822",
    "count_view": 0
  },
  {
    "link_thumb": "https://live.staticflickr.com/65535/49592953492_b84fb37449_n.jpg",
    "id_album": "-1741487325",
    "description": "KAWAII17091831",
    "title": "KAWAII17091831",
    "link_img": "https://live.staticflickr.com/65535/49592953492_ee077b4196_o.jpg",
    "id_image": "KAWAII17091831",
    "count_view": 0
  },
  {
    "link_thumb": "https://live.staticflickr.com/65535/49742357218_998358f25d_n.jpg",
    "id_album": "-1913845949",
    "description": "KAWAII06042021491719",
    "title": "KAWAII06042021491719",
    "link_img": "https://live.staticflickr.com/65535/49742357218_847a0f458e_o.jpg",
    "id_image": "KAWAII06042021491719",
    "count_view": 0
  },
  {
    "link_thumb": "https://live.staticflickr.com/65535/49548885487_672752375d_n.jpg",
    "id_album": "431597977",
    "description": "KAWAII1702202235178",
    "title": "KAWAII1702202235178",
    "link_img": "https://live.staticflickr.com/65535/49548885487_3e60b2de35_o.jpg",
    "id_image": "KAWAII1702202235178",
    "count_view": 0
  },
  {
    "link_thumb": "https://live.staticflickr.com/65535/49548617406_84aee99d48_n.jpg",
    "id_album": "-316663319",
    "description": "KAWAII12091877",
    "title": "KAWAII12091877",
    "link_img": "https://live.staticflickr.com/65535/49548617406_6cbf2fa379_o.jpg",
    "id_image": "KAWAII12091877",
    "count_view": 0
  },
  {
    "link_thumb": "https://live.staticflickr.com/65535/49742950451_7db9483b51_n.jpg",
    "id_album": "-1862561193",
    "description": "KAWAII0604202149126",
    "title": "KAWAII0604202149126",
    "link_img": "https://live.staticflickr.com/65535/49742950451_bf6196a714_o.jpg",
    "id_image": "KAWAII0604202149126",
    "count_view": 0
  },
  {
    "link_thumb": "https://live.staticflickr.com/65535/49548247718_b459a9d214_n.jpg",
    "id_album": "-1741487325",
    "description": "KAWAII1702202239561",
    "title": "KAWAII1702202239561",
    "link_img": "https://live.staticflickr.com/65535/49548247718_f328196e9b_o.jpg",
    "id_image": "KAWAII1702202239561",
    "count_view": 0
  },
  {
    "link_thumb": "https://live.staticflickr.com/65535/49548857017_a2206d4fb1_n.jpg",
    "id_album": "-1694302085",
    "description": "KAWAII17022022339",
    "title": "KAWAII17022022339",
    "link_img": "https://live.staticflickr.com/65535/49548857017_78ff7c5c27_o.jpg",
    "id_image": "KAWAII17022022339",
    "count_view": 0
  },
  {
    "link_thumb": "https://live.staticflickr.com/65535/49742946911_554a53ee30_n.jpg",
    "id_album": "1396902986",
    "description": "KAWAII06042021491181",
    "title": "KAWAII06042021491181",
    "link_img": "https://live.staticflickr.com/65535/49742946911_fa5d7f719b_o.jpg",
    "id_image": "KAWAII06042021491181",
    "count_view": 0
  },
  {
    "link_thumb": "https://live.staticflickr.com/65535/49727454391_11052785bf_n.jpg",
    "id_album": "1201366373",
    "description": "KAWAII120918294",
    "title": "KAWAII120918294",
    "link_img": "https://live.staticflickr.com/65535/49727454391_85b7ebafec_o.jpg",
    "id_image": "KAWAII120918294",
    "count_view": 0
  },
  {
    "link_thumb": "https://live.staticflickr.com/65535/49622833516_ae393cdda7_n.jpg",
    "id_album": "-316663319",
    "description": "KAWAII0503202021325",
    "title": "KAWAII0503202021325",
    "link_img": "https://live.staticflickr.com/65535/49622833516_076f9d9752_o.jpg",
    "id_image": "KAWAII0503202021325",
    "count_view": 0
  },
  {
    "link_thumb": "https://live.staticflickr.com/65535/49622323933_8aec11e413_n.jpg",
    "id_album": "-316663319",
    "description": "KAWAII050320202162",
    "title": "KAWAII050320202162",
    "link_img": "https://live.staticflickr.com/65535/49622323933_2654154e7e_o.jpg",
    "id_image": "KAWAII050320202162",
    "count_view": 0
  },
  {
    "link_thumb": "https://live.staticflickr.com/65535/49694425462_c4ddd144bd_n.jpg",
    "id_album": "-643980979",
    "description": "KAWAII270220235175",
    "title": "KAWAII270220235175",
    "link_img": "https://live.staticflickr.com/65535/49694425462_c8d144aa33_o.jpg",
    "id_image": "KAWAII270220235175",
    "count_view": 0
  },
  {
    "link_thumb": "https://live.staticflickr.com/65535/49693677093_8a9bf78dcc_n.jpg",
    "id_album": "-1432180061",
    "description": "KAWAII120918263",
    "title": "KAWAII120918263",
    "link_img": "https://live.staticflickr.com/65535/49693677093_3b554b7c07_o.jpg",
    "id_image": "KAWAII120918263",
    "count_view": 0
  },
  {
    "link_thumb": "https://live.staticflickr.com/65535/49742406923_1631d0f5fc_n.jpg",
    "id_album": "-1431786825",
    "description": "KAWAII06042021491268",
    "title": "KAWAII06042021491268",
    "link_img": "https://live.staticflickr.com/65535/49742406923_797826b5f0_o.jpg",
    "id_image": "KAWAII06042021491268",
    "count_view": 0
  },
  {
    "link_thumb": "https://live.staticflickr.com/65535/49548728826_0160971641_n.jpg",
    "id_album": "-1741487325",
    "description": "KAWAII1702202238487",
    "title": "KAWAII1702202238487",
    "link_img": "https://live.staticflickr.com/65535/49548728826_b3ea952716_o.jpg",
    "id_image": "KAWAII1702202238487",
    "count_view": 0
  },
  {
    "link_thumb": "https://live.staticflickr.com/65535/49727441781_99d6ccfc8f_n.jpg",
    "id_album": "742877173",
    "description": "KAWAII020420194508132",
    "title": "KAWAII020420194508132",
    "link_img": "https://live.staticflickr.com/65535/49727441781_344c918c8d_o.jpg",
    "id_image": "KAWAII020420194508132",
    "count_view": 0
  },
  {
    "link_thumb": "https://live.staticflickr.com/65535/49548907182_b3a4f4155d_n.jpg",
    "id_album": "-422187261",
    "description": "KAWAII1702202236289",
    "title": "KAWAII1702202236289",
    "link_img": "https://live.staticflickr.com/65535/49548907182_832a2bdfc9_o.jpg",
    "id_image": "KAWAII1702202236289",
    "count_view": 0
  },
  {
    "link_thumb": "https://live.staticflickr.com/65535/49693686833_7bdc7f11e6_n.jpg",
    "id_album": "1226948986",
    "description": "KAWAII24032022050263",
    "title": "KAWAII24032022050263",
    "link_img": "https://live.staticflickr.com/65535/49693686833_83d4a4b298_o.jpg",
    "id_image": "KAWAII24032022050263",
    "count_view": 0
  },
  {
    "link_thumb": "https://live.staticflickr.com/65535/49694422457_9d228a8ec9_n.jpg",
    "id_album": "1201366373",
    "description": "KAWAII17091844",
    "title": "KAWAII17091844",
    "link_img": "https://live.staticflickr.com/65535/49694422457_49d9464530_o.jpg",
    "id_image": "KAWAII17091844",
    "count_view": 0
  },
  {
    "link_thumb": "https://live.staticflickr.com/65535/49592216943_17cddedd62_n.jpg",
    "id_album": "-316663319",
    "description": "KAWAII270220235169",
    "title": "KAWAII270220235169",
    "link_img": "https://live.staticflickr.com/65535/49592216943_9690c5453f_o.jpg",
    "id_image": "KAWAII270220235169",
    "count_view": 0
  },
  {
    "link_thumb": "https://live.staticflickr.com/65535/49743269112_a8e02d0f29_n.jpg",
    "id_album": "-1779286820",
    "description": "KAWAII060420214918209",
    "title": "KAWAII060420214918209",
    "link_img": "https://live.staticflickr.com/65535/49743269112_803209a4a3_o.jpg",
    "id_image": "KAWAII060420214918209",
    "count_view": 0
  },
  {
    "link_thumb": "https://live.staticflickr.com/65535/49742933571_6e9e9f413c_n.jpg",
    "id_album": "742877173",
    "description": "KAWAII060420214918237",
    "title": "KAWAII060420214918237",
    "link_img": "https://live.staticflickr.com/65535/49742933571_e39f3a2b2a_o.jpg",
    "id_image": "KAWAII060420214918237",
    "count_view": 0
  },
  {
    "link_thumb": "https://live.staticflickr.com/65535/49743255447_b5cdb13779_n.jpg",
    "id_album": "-316663319",
    "description": "KAWAII060420214917271",
    "title": "KAWAII060420214917271",
    "link_img": "https://live.staticflickr.com/65535/49743255447_4b9dbecc6a_o.jpg",
    "id_image": "KAWAII060420214917271",
    "count_view": 0
  },
  {
    "link_thumb": "https://live.staticflickr.com/65535/49694071171_cd5ac07c04_n.jpg",
    "id_album": "-643980979",
    "description": "KAWAII0503202021165",
    "title": "KAWAII0503202021165",
    "link_img": "https://live.staticflickr.com/65535/49694071171_d1e527d8fc_o.jpg",
    "id_image": "KAWAII0503202021165",
    "count_view": 0
  },
  {
    "link_thumb": "https://live.staticflickr.com/65535/49743269782_25c03d9457_n.jpg",
    "id_album": "-1779286820",
    "description": "KAWAII06042021491833",
    "title": "KAWAII06042021491833",
    "link_img": "https://live.staticflickr.com/65535/49743269782_e9026c57c0_o.jpg",
    "id_image": "KAWAII06042021491833",
    "count_view": 0
  },
  {
    "link_thumb": "https://live.staticflickr.com/65535/49548862102_8b2351b5b6_n.jpg",
    "id_album": "-1099943053",
    "description": "KAWAII170220223442",
    "title": "KAWAII170220223442",
    "link_img": "https://live.staticflickr.com/65535/49548862102_248811aa32_o.jpg",
    "id_image": "KAWAII170220223442",
    "count_view": 0
  },
  {
    "link_thumb": "https://live.staticflickr.com/65535/49742912051_2dd184ee26_n.jpg",
    "id_album": "-1741487325",
    "description": "KAWAII060420214912194",
    "title": "KAWAII060420214912194",
    "link_img": "https://live.staticflickr.com/65535/49742912051_c0027a0bb3_o.jpg",
    "id_image": "KAWAII060420214912194",
    "count_view": 0
  },
  {
    "link_thumb": "https://live.staticflickr.com/65535/49623072437_5d592690ea_n.jpg",
    "id_album": "1396902986",
    "description": "KAWAII0503202021182",
    "title": "KAWAII0503202021182",
    "link_img": "https://live.staticflickr.com/65535/49623072437_ed50980cd8_o.jpg",
    "id_image": "KAWAII0503202021182",
    "count_view": 0
  },
  {
    "link_thumb": "https://live.staticflickr.com/65535/49694110351_5db1d489ac_n.jpg",
    "id_album": "-643980979",
    "description": "KAWAII1702202236295",
    "title": "KAWAII1702202236295",
    "link_img": "https://live.staticflickr.com/65535/49694110351_b45f617bf8_o.jpg",
    "id_image": "KAWAII1702202236295",
    "count_view": 0
  },
  {
    "link_thumb": "https://live.staticflickr.com/65535/49742934526_c63d1f7c1c_n.jpg",
    "id_album": "-1473448477",
    "description": "KAWAII060420214915112",
    "title": "KAWAII060420214915112",
    "link_img": "https://live.staticflickr.com/65535/49742934526_e387f14521_o.jpg",
    "id_image": "KAWAII060420214915112",
    "count_view": 0
  },
  {
    "link_thumb": "https://live.staticflickr.com/65535/49548699601_ca3c47dd25_n.jpg",
    "id_album": "-422187261",
    "description": "KAWAII1702202237376",
    "title": "KAWAII1702202237376",
    "link_img": "https://live.staticflickr.com/65535/49548699601_7c11111924_o.jpg",
    "id_image": "KAWAII1702202237376",
    "count_view": 0
  },
  {
    "link_thumb": "https://live.staticflickr.com/65535/49592227688_ef059cfa35_n.jpg",
    "id_album": "949200594",
    "description": "KAWAII270220235113",
    "title": "KAWAII270220235113",
    "link_img": "https://live.staticflickr.com/65535/49592227688_fb97dc9948_o.jpg",
    "id_image": "KAWAII270220235113",
    "count_view": 0
  },
  {
    "link_thumb": "https://live.staticflickr.com/65535/49743241307_74fce1c2ba_n.jpg",
    "id_album": "-128218148",
    "description": "KAWAII060420214911249",
    "title": "KAWAII060420214911249",
    "link_img": "https://live.staticflickr.com/65535/49743241307_d6e91fe2b3_o.jpg",
    "id_image": "KAWAII060420214911249",
    "count_view": 0
  },
  {
    "link_thumb": "https://live.staticflickr.com/65535/49742943546_140855094f_n.jpg",
    "id_album": "-1779286820",
    "description": "KAWAII060420214913190",
    "title": "KAWAII060420214913190",
    "link_img": "https://live.staticflickr.com/65535/49742943546_0b980a0a42_o.jpg",
    "id_image": "KAWAII060420214913190",
    "count_view": 0
  },
  {
    "link_thumb": "https://live.staticflickr.com/65535/49694377812_aa7b39c844_n.jpg",
    "id_album": "1201366373",
    "description": "KAWAII0503202021312",
    "title": "KAWAII0503202021312",
    "link_img": "https://live.staticflickr.com/65535/49694377812_bc1e2c0c94_o.jpg",
    "id_image": "KAWAII0503202021312",
    "count_view": 0
  },
  {
    "link_thumb": "https://live.staticflickr.com/65535/49693537013_f1f4170a46_n.jpg",
    "id_album": "1201366373",
    "description": "KAWAII120918101",
    "title": "KAWAII120918101",
    "link_img": "https://live.staticflickr.com/65535/49693537013_79860da14e_o.jpg",
    "id_image": "KAWAII120918101",
    "count_view": 0
  },
  {
    "link_thumb": "https://live.staticflickr.com/65535/49693678043_28ff5f0824_n.jpg",
    "id_album": "-1432180061",
    "description": "KAWAII1702202237331",
    "title": "KAWAII1702202237331",
    "link_img": "https://live.staticflickr.com/65535/49693678043_e1f98b1124_o.jpg",
    "id_image": "KAWAII1702202237331",
    "count_view": 0
  },
  {
    "link_thumb": "https://live.staticflickr.com/65535/49548128073_3f00b9f7c1_n.jpg",
    "id_album": "-1431786825",
    "description": "KAWAII1702202234101",
    "title": "KAWAII1702202234101",
    "link_img": "https://live.staticflickr.com/65535/49548128073_2fe4883e52_o.jpg",
    "id_image": "KAWAII1702202234101",
    "count_view": 0
  },
  {
    "link_thumb": "https://live.staticflickr.com/65535/49592734571_e7317aa3f2_n.jpg",
    "id_album": "949200594",
    "description": "KAWAII270220235193",
    "title": "KAWAII270220235193",
    "link_img": "https://live.staticflickr.com/65535/49592734571_d36286450a_o.jpg",
    "id_image": "KAWAII270220235193",
    "count_view": 0
  },
  {
    "link_thumb": "https://live.staticflickr.com/65535/49743282302_88444c1c8e_n.jpg",
    "id_album": "1226948986",
    "description": "KAWAII060420214918291",
    "title": "KAWAII060420214918291",
    "link_img": "https://live.staticflickr.com/65535/49743282302_540f70f218_o.jpg",
    "id_image": "KAWAII060420214918291",
    "count_view": 0
  },
  {
    "link_thumb": "https://live.staticflickr.com/65535/49578750876_bea642f332_n.jpg",
    "id_album": "-1694302085",
    "description": "KAWAII190220211135",
    "title": "KAWAII190220211135",
    "link_img": "https://live.staticflickr.com/65535/49578750876_721cb6ccf2_o.jpg",
    "id_image": "KAWAII190220211135",
    "count_view": 0
  },
  {
    "link_thumb": "https://live.staticflickr.com/65535/49622848876_ddcc0655dc_n.jpg",
    "id_album": "-406350429",
    "description": "KAWAII050320202132",
    "title": "KAWAII050320202132",
    "link_img": "https://live.staticflickr.com/65535/49622848876_b472353609_o.jpg",
    "id_image": "KAWAII050320202132",
    "count_view": 0
  },
  {
    "link_thumb": "https://live.staticflickr.com/65535/49711144482_7ba00aa8ac_n.jpg",
    "id_album": "-1599896063",
    "description": "LITTLEMONK29032012063427",
    "title": "LITTLEMONK29032012063427",
    "link_img": "https://live.staticflickr.com/65535/49711144482_942eaa2988_o.jpg",
    "id_image": "LITTLEMONK29032012063427",
    "count_view": 0
  },
  {
    "link_thumb": "https://live.staticflickr.com/65535/49548618671_9f25ded9ee_n.jpg",
    "id_album": "-422187261",
    "description": "KAWAII12091884",
    "title": "KAWAII12091884",
    "link_img": "https://live.staticflickr.com/65535/49548618671_76e79df1ca_o.jpg",
    "id_image": "KAWAII12091884",
    "count_view": 0
  },
  {
    "link_thumb": "https://live.staticflickr.com/65535/49694530172_55f3fd7ce6_n.jpg",
    "id_album": "1226948986",
    "description": "KAWAII2403202205019",
    "title": "KAWAII2403202205019",
    "link_img": "https://live.staticflickr.com/65535/49694530172_170787ec41_o.jpg",
    "id_image": "KAWAII2403202205019",
    "count_view": 0
  },
  {
    "link_thumb": "https://live.staticflickr.com/65535/49727474271_07d32936da_n.jpg",
    "id_album": "1563362783",
    "description": "KAWAII1702202237328",
    "title": "KAWAII1702202237328",
    "link_img": "https://live.staticflickr.com/65535/49727474271_1ab324c88b_o.jpg",
    "id_image": "KAWAII1702202237328",
    "count_view": 0
  },
  {
    "link_thumb": "https://live.staticflickr.com/65535/49743265042_a289f35b3c_n.jpg",
    "id_album": "-1473448477",
    "description": "KAWAII060420214917177",
    "title": "KAWAII060420214917177",
    "link_img": "https://live.staticflickr.com/65535/49743265042_902a3b4cbe_o.jpg",
    "id_image": "KAWAII060420214917177",
    "count_view": 0
  },
  {
    "link_thumb": "https://live.staticflickr.com/65535/49693533863_24f57dd157_n.jpg",
    "id_album": "1201366373",
    "description": "KAWAII050320202172",
    "title": "KAWAII050320202172",
    "link_img": "https://live.staticflickr.com/65535/49693533863_6a9820385c_o.jpg",
    "id_image": "KAWAII050320202172",
    "count_view": 0
  },
  {
    "link_thumb": "https://live.staticflickr.com/65535/49727785262_9a8665653b_n.jpg",
    "id_album": "-1862561193",
    "description": "KAWAII02042019451214",
    "title": "KAWAII02042019451214",
    "link_img": "https://live.staticflickr.com/65535/49727785262_cc3eae3fff_o.jpg",
    "id_image": "KAWAII02042019451214",
    "count_view": 0
  },
  {
    "link_thumb": "https://live.staticflickr.com/65535/49578243728_cffc5e92dd_n.jpg",
    "id_album": "-1694302085",
    "description": "KAWAII19022021112",
    "title": "KAWAII19022021112",
    "link_img": "https://live.staticflickr.com/65535/49578243728_6c35416521_o.jpg",
    "id_image": "KAWAII19022021112",
    "count_view": 0
  },
  {
    "link_thumb": "https://live.staticflickr.com/65535/49622848066_e50e00a1a6_n.jpg",
    "id_album": "-406350429",
    "description": "KAWAII0503202021308",
    "title": "KAWAII0503202021308",
    "link_img": "https://live.staticflickr.com/65535/49622848066_1a10d01fed_o.jpg",
    "id_image": "KAWAII0503202021308",
    "count_view": 0
  },
  {
    "link_thumb": "https://live.staticflickr.com/65535/49622303293_655cb13b6d_n.jpg",
    "id_album": "-316663319",
    "description": "KAWAII0503202021146",
    "title": "KAWAII0503202021146",
    "link_img": "https://live.staticflickr.com/65535/49622303293_d1c675112f_o.jpg",
    "id_image": "KAWAII0503202021146",
    "count_view": 0
  },
  {
    "link_thumb": "https://live.staticflickr.com/65535/49548866362_12816ef6b5_n.jpg",
    "id_album": "-1432180061",
    "description": "KAWAII170220223463",
    "title": "KAWAII170220223463",
    "link_img": "https://live.staticflickr.com/65535/49548866362_4041334eae_o.jpg",
    "id_image": "KAWAII170220223463",
    "count_view": 0
  },
  {
    "link_thumb": "https://live.staticflickr.com/65535/49710287328_18c2ba3d5f_n.jpg",
    "id_album": "-1599896063",
    "description": "LITTLEMONK29032012063624",
    "title": "LITTLEMONK29032012063624",
    "link_img": "https://live.staticflickr.com/65535/49710287328_1c3a63f6c7_o.jpg",
    "id_image": "LITTLEMONK29032012063624",
    "count_view": 0
  },
  {
    "link_thumb": "https://live.staticflickr.com/65535/49548172753_6ce5717ff2_n.jpg",
    "id_album": "1396902986",
    "description": "KAWAII1702202236257",
    "title": "KAWAII1702202236257",
    "link_img": "https://live.staticflickr.com/65535/49548172753_645a75a782_o.jpg",
    "id_image": "KAWAII1702202236257",
    "count_view": 0
  },
  {
    "link_thumb": "https://live.staticflickr.com/65535/49742938901_507f0fb296_n.jpg",
    "id_album": "-1473448477",
    "description": "KAWAII060420214915300",
    "title": "KAWAII060420214915300",
    "link_img": "https://live.staticflickr.com/65535/49742938901_df0988c9a6_o.jpg",
    "id_image": "KAWAII060420214915300",
    "count_view": 0
  },
  {
    "link_thumb": "https://live.staticflickr.com/65535/49623114102_c4b0e64840_n.jpg",
    "id_album": "-406350429",
    "description": "KAWAII0503202021115",
    "title": "KAWAII0503202021115",
    "link_img": "https://live.staticflickr.com/65535/49623114102_63275bcc45_o.jpg",
    "id_image": "KAWAII0503202021115",
    "count_view": 0
  },
  {
    "link_thumb": "https://live.staticflickr.com/65535/49743278442_bc32367502_n.jpg",
    "id_album": "-1431786825",
    "description": "KAWAII060420214914189",
    "title": "KAWAII060420214914189",
    "link_img": "https://live.staticflickr.com/65535/49743278442_2e24886911_o.jpg",
    "id_image": "KAWAII060420214914189",
    "count_view": 0
  },
  {
    "link_thumb": "https://live.staticflickr.com/65535/49548627746_292f5a9a12_n.jpg",
    "id_album": "-1741487325",
    "description": "KAWAII170220223334",
    "title": "KAWAII170220223334",
    "link_img": "https://live.staticflickr.com/65535/49548627746_d5dac589c4_o.jpg",
    "id_image": "KAWAII170220223334",
    "count_view": 0
  },
  {
    "link_thumb": "https://live.staticflickr.com/65535/49694384597_349f683169_n.jpg",
    "id_album": "1201366373",
    "description": "KAWAII120918116",
    "title": "KAWAII120918116",
    "link_img": "https://live.staticflickr.com/65535/49694384597_a8a8631421_o.jpg",
    "id_image": "KAWAII120918116",
    "count_view": 0
  },
  {
    "link_thumb": "https://live.staticflickr.com/65535/49742409188_22e72030a2_n.jpg",
    "id_album": "-1431786825",
    "description": "KAWAII060420214917183",
    "title": "KAWAII060420214917183",
    "link_img": "https://live.staticflickr.com/65535/49742409188_e13fbcc783_o.jpg",
    "id_image": "KAWAII060420214917183",
    "count_view": 0
  },
  {
    "link_thumb": "https://live.staticflickr.com/65535/49694375157_db336622d4_n.jpg",
    "id_album": "-643980979",
    "description": "KAWAII0503202021228",
    "title": "KAWAII0503202021228",
    "link_img": "https://live.staticflickr.com/65535/49694375157_cec48781da_o.jpg",
    "id_image": "KAWAII0503202021228",
    "count_view": 0
  },
  {
    "link_thumb": "https://live.staticflickr.com/65535/49710820856_27331632e1_n.jpg",
    "id_album": "-1599896063",
    "description": "LITTLEMONK2903201206345",
    "title": "LITTLEMONK2903201206345",
    "link_img": "https://live.staticflickr.com/65535/49710820856_873a5f0ae1_o.jpg",
    "id_image": "LITTLEMONK2903201206345",
    "count_view": 0
  },
  {
    "link_thumb": "https://live.staticflickr.com/65535/49548833642_65f447d4b0_n.jpg",
    "id_album": "-1741487325",
    "description": "KAWAII120918364",
    "title": "KAWAII120918364",
    "link_img": "https://live.staticflickr.com/65535/49548833642_13ab6186c0_o.jpg",
    "id_image": "KAWAII120918364",
    "count_view": 0
  },
  {
    "link_thumb": "https://live.staticflickr.com/65535/49742915941_883ca8ddcd_n.jpg",
    "id_album": "-1497779911",
    "description": "KAWAII060420214918276",
    "title": "KAWAII060420214918276",
    "link_img": "https://live.staticflickr.com/65535/49742915941_86224c14f7_o.jpg",
    "id_image": "KAWAII060420214918276",
    "count_view": 0
  },
  {
    "link_thumb": "https://live.staticflickr.com/65535/49592212603_ef02e6c970_n.jpg",
    "id_album": "-316663319",
    "description": "KAWAII2702202351139",
    "title": "KAWAII2702202351139",
    "link_img": "https://live.staticflickr.com/65535/49592212603_896797164e_o.jpg",
    "id_image": "KAWAII2702202351139",
    "count_view": 0
  },
  {
    "link_thumb": "https://live.staticflickr.com/65535/49742957031_34edfd1845_n.jpg",
    "id_album": "-1431786825",
    "description": "KAWAII06042021491564",
    "title": "KAWAII06042021491564",
    "link_img": "https://live.staticflickr.com/65535/49742957031_7fb48a5c4c_o.jpg",
    "id_image": "KAWAII06042021491564",
    "count_view": 0
  },
  {
    "link_thumb": "https://live.staticflickr.com/65535/49743268647_5836ba6a0b_n.jpg",
    "id_album": "-1779286820",
    "description": "KAWAII06042021491810",
    "title": "KAWAII06042021491810",
    "link_img": "https://live.staticflickr.com/65535/49743268647_6d1c9c795c_o.jpg",
    "id_image": "KAWAII06042021491810",
    "count_view": 0
  },
  {
    "link_thumb": "https://live.staticflickr.com/65535/49742354763_4f8e3fc9e6_n.jpg",
    "id_album": "-1913845949",
    "description": "KAWAII06042021491432",
    "title": "KAWAII06042021491432",
    "link_img": "https://live.staticflickr.com/65535/49742354763_a1c9206fa6_o.jpg",
    "id_image": "KAWAII06042021491432",
    "count_view": 0
  },
  {
    "link_thumb": "https://live.staticflickr.com/65535/49548194378_a450fa4b4d_n.jpg",
    "id_album": "-1099943053",
    "description": "KAWAII1702202237359",
    "title": "KAWAII1702202237359",
    "link_img": "https://live.staticflickr.com/65535/49548194378_b10166d896_o.jpg",
    "id_image": "KAWAII1702202237359",
    "count_view": 0
  },
  {
    "link_thumb": "https://live.staticflickr.com/65535/49743276592_fbdd67d330_n.jpg",
    "id_album": "-358592519",
    "description": "KAWAII060420214912266",
    "title": "KAWAII060420214912266",
    "link_img": "https://live.staticflickr.com/65535/49743276592_0be05d9327_o.jpg",
    "id_image": "KAWAII060420214912266",
    "count_view": 0
  },
  {
    "link_thumb": "https://live.staticflickr.com/65535/49592711266_9f1c10e4a6_n.jpg",
    "id_album": "-1741487325",
    "description": "KAWAII2702202351135",
    "title": "KAWAII2702202351135",
    "link_img": "https://live.staticflickr.com/65535/49592711266_c98eb4866d_o.jpg",
    "id_image": "KAWAII2702202351135",
    "count_view": 0
  },
  {
    "link_thumb": "https://live.staticflickr.com/65535/49622333383_66149eb52f_n.jpg",
    "id_album": "-406350429",
    "description": "KAWAII0503202021309",
    "title": "KAWAII0503202021309",
    "link_img": "https://live.staticflickr.com/65535/49622333383_b5ce7cf8e8_o.jpg",
    "id_image": "KAWAII0503202021309",
    "count_view": 0
  },
  {
    "link_thumb": "https://live.staticflickr.com/65535/49693587498_ae99d125d9_n.jpg",
    "id_album": "1226948986",
    "description": "TOTORO22032015428",
    "title": "TOTORO22032015428",
    "link_img": "https://live.staticflickr.com/65535/49693587498_8001c33ca7_o.jpg",
    "id_image": "TOTORO22032015428",
    "count_view": 0
  },
  {
    "link_thumb": "https://live.staticflickr.com/65535/49727431766_5c3398f5a8_n.jpg",
    "id_album": "-1497779911",
    "description": "KAWAII0503202021213",
    "title": "KAWAII0503202021213",
    "link_img": "https://live.staticflickr.com/65535/49727431766_e3e4f14fba_o.jpg",
    "id_image": "KAWAII0503202021213",
    "count_view": 0
  },
  {
    "link_thumb": "https://live.staticflickr.com/65535/49727738967_e4973d12f0_n.jpg",
    "id_album": "-1694302085",
    "description": "KAWAII020420194508185",
    "title": "KAWAII020420194508185",
    "link_img": "https://live.staticflickr.com/65535/49727738967_80ec5f38eb_o.jpg",
    "id_image": "KAWAII020420194508185",
    "count_view": 0
  },
  {
    "link_thumb": "https://live.staticflickr.com/65535/49622827431_3bd790c494_n.jpg",
    "id_album": "-316663319",
    "description": "KAWAII0503202021249",
    "title": "KAWAII0503202021249",
    "link_img": "https://live.staticflickr.com/65535/49622827431_1ff409f254_o.jpg",
    "id_image": "KAWAII0503202021249",
    "count_view": 0
  },
  {
    "link_thumb": "https://live.staticflickr.com/65535/49548733976_b8ef83e3fe_n.jpg",
    "id_album": "-1099943053",
    "description": "KAWAII1702202239506",
    "title": "KAWAII1702202239506",
    "link_img": "https://live.staticflickr.com/65535/49548733976_88b6f6fe35_o.jpg",
    "id_image": "KAWAII1702202239506",
    "count_view": 0
  },
  {
    "link_thumb": "https://live.staticflickr.com/65535/49548107723_a6803ce39d_n.jpg",
    "id_album": "-422187261",
    "description": "KAWAII12091839",
    "title": "KAWAII12091839",
    "link_img": "https://live.staticflickr.com/65535/49548107723_3fc0b3dfa7_o.jpg",
    "id_image": "KAWAII12091839",
    "count_view": 0
  },
  {
    "link_thumb": "https://live.staticflickr.com/65535/49548219163_b7c23d2f73_n.jpg",
    "id_album": "-422187261",
    "description": "KAWAII1702202238454",
    "title": "KAWAII1702202238454",
    "link_img": "https://live.staticflickr.com/65535/49548219163_85206ac23f_o.jpg",
    "id_image": "KAWAII1702202238454",
    "count_view": 0
  },
  {
    "link_thumb": "https://live.staticflickr.com/65535/49727476716_b31cf435f9_n.jpg",
    "id_album": "431597977",
    "description": "KAWAII0204201945127",
    "title": "KAWAII0204201945127",
    "link_img": "https://live.staticflickr.com/65535/49727476716_81c73efe64_o.jpg",
    "id_image": "KAWAII0204201945127",
    "count_view": 0
  },
  {
    "link_thumb": "https://live.staticflickr.com/65535/49694395392_08a2bd609a_n.jpg",
    "id_album": "1201366373",
    "description": "KAWAII120918227",
    "title": "KAWAII120918227",
    "link_img": "https://live.staticflickr.com/65535/49694395392_53d4fb2179_o.jpg",
    "id_image": "KAWAII120918227",
    "count_view": 0
  },
  {
    "link_thumb": "https://live.staticflickr.com/65535/49743238712_63dded63b7_n.jpg",
    "id_album": "-1497779911",
    "description": "KAWAII06042021491445",
    "title": "KAWAII06042021491445",
    "link_img": "https://live.staticflickr.com/65535/49743238712_d4ec543d5d_o.jpg",
    "id_image": "KAWAII06042021491445",
    "count_view": 0
  },
  {
    "link_thumb": "https://live.staticflickr.com/65535/49694223711_9936d6d2f6_n.jpg",
    "id_album": "-1862561193",
    "description": "KAWAII24032022050147",
    "title": "KAWAII24032022050147",
    "link_img": "https://live.staticflickr.com/65535/49694223711_6553dda6a5_o.jpg",
    "id_image": "KAWAII24032022050147",
    "count_view": 0
  },
  {
    "link_thumb": "https://live.staticflickr.com/65535/49742360958_8303521500_n.jpg",
    "id_album": "-422187261",
    "description": "KAWAII06042021491815",
    "title": "KAWAII06042021491815",
    "link_img": "https://live.staticflickr.com/65535/49742360958_9fa4d89638_o.jpg",
    "id_image": "KAWAII06042021491815",
    "count_view": 0
  },
  {
    "link_thumb": "https://live.staticflickr.com/65535/49694521342_f81714dbf3_n.jpg",
    "id_album": "-643980979",
    "description": "KAWAII24032022050127",
    "title": "KAWAII24032022050127",
    "link_img": "https://live.staticflickr.com/65535/49694521342_a6e11da6d3_o.jpg",
    "id_image": "KAWAII24032022050127",
    "count_view": 0
  },
  {
    "link_thumb": "https://live.staticflickr.com/65535/49694388692_8c05230376_n.jpg",
    "id_album": "-643980979",
    "description": "KAWAII120918164",
    "title": "KAWAII120918164",
    "link_img": "https://live.staticflickr.com/65535/49694388692_4df2e7dd01_o.jpg",
    "id_image": "KAWAII120918164",
    "count_view": 0
  },
  {
    "link_thumb": "https://live.staticflickr.com/65535/49743233537_97550c2e33_n.jpg",
    "id_album": "-1694302085",
    "description": "KAWAII06042021491576",
    "title": "KAWAII06042021491576",
    "link_img": "https://live.staticflickr.com/65535/49743233537_15d0ff1aaf_o.jpg",
    "id_image": "KAWAII06042021491576",
    "count_view": 0
  },
  {
    "link_thumb": "https://live.staticflickr.com/65535/49743264002_3560ee231e_n.jpg",
    "id_album": "-1473448477",
    "description": "KAWAII06042021491585",
    "title": "KAWAII06042021491585",
    "link_img": "https://live.staticflickr.com/65535/49743264002_969813678f_o.jpg",
    "id_image": "KAWAII06042021491585",
    "count_view": 0
  },
  {
    "link_thumb": "https://live.staticflickr.com/65535/49742900241_e939992b5b_n.jpg",
    "id_album": "-1913845949",
    "description": "KAWAII06042021491144",
    "title": "KAWAII06042021491144",
    "link_img": "https://live.staticflickr.com/65535/49742900241_c60f6d444d_o.jpg",
    "id_image": "KAWAII06042021491144",
    "count_view": 0
  },
  {
    "link_thumb": "https://live.staticflickr.com/65535/49956925207_e3e14a24a6_n.jpg",
    "id_album": "-358592519",
    "description": "KAWAII060420214911229",
    "title": "KAWAII060420214911229",
    "link_img": "https://live.staticflickr.com/65535/49956925207_72f10c8219_o.jpg",
    "id_image": "KAWAII060420214911229",
    "count_view": 0
  },
  {
    "link_thumb": "https://live.staticflickr.com/65535/49623077527_f75a4ccf12_n.jpg",
    "id_album": "1396902986",
    "description": "KAWAII050320202189",
    "title": "KAWAII050320202189",
    "link_img": "https://live.staticflickr.com/65535/49623077527_f93d23b57d_o.jpg",
    "id_image": "KAWAII050320202189",
    "count_view": 0
  },
  {
    "link_thumb": "https://live.staticflickr.com/65535/49742941756_a02cc6b55a_n.jpg",
    "id_album": "-1473448477",
    "description": "KAWAII06042021491737",
    "title": "KAWAII06042021491737",
    "link_img": "https://live.staticflickr.com/65535/49742941756_0cd2c07c03_o.jpg",
    "id_image": "KAWAII06042021491737",
    "count_view": 0
  },
  {
    "link_thumb": "https://live.staticflickr.com/65535/49548587041_497fdce4ca_n.jpg",
    "id_album": "-316663319",
    "description": "KAWAII120918288",
    "title": "KAWAII120918288",
    "link_img": "https://live.staticflickr.com/65535/49548587041_cf1d84938a_o.jpg",
    "id_image": "KAWAII120918288",
    "count_view": 0
  },
  {
    "link_thumb": "https://live.staticflickr.com/65535/49548608146_9fe9c57e70_n.jpg",
    "id_album": "-1741487325",
    "description": "KAWAII120918373",
    "title": "KAWAII120918373",
    "link_img": "https://live.staticflickr.com/65535/49548608146_ba1314391a_o.jpg",
    "id_image": "KAWAII120918373",
    "count_view": 0
  },
  {
    "link_thumb": "https://live.staticflickr.com/65535/49548991382_a3038cb70f_n.jpg",
    "id_album": "1396902986",
    "description": "KAWAII17091823",
    "title": "KAWAII17091823",
    "link_img": "https://live.staticflickr.com/65535/49548991382_b7990f7462_o.jpg",
    "id_image": "KAWAII17091823",
    "count_view": 0
  },
  {
    "link_thumb": "https://live.staticflickr.com/65535/49742398653_358db2c76e_n.jpg",
    "id_album": "-1779286820",
    "description": "KAWAII06042021491835",
    "title": "KAWAII06042021491835",
    "link_img": "https://live.staticflickr.com/65535/49742398653_4ee33a0760_o.jpg",
    "id_image": "KAWAII06042021491835",
    "count_view": 0
  },
  {
    "link_thumb": "https://live.staticflickr.com/65535/49727750827_5544a6d51e_n.jpg",
    "id_album": "-316663319",
    "description": "KAWAII02042019450928",
    "title": "KAWAII02042019450928",
    "link_img": "https://live.staticflickr.com/65535/49727750827_b0a265e665_o.jpg",
    "id_image": "KAWAII02042019450928",
    "count_view": 0
  },
  {
    "link_thumb": "https://live.staticflickr.com/65535/49548641176_daafac3d1b_n.jpg",
    "id_album": "-422187261",
    "description": "KAWAII170220223473",
    "title": "KAWAII170220223473",
    "link_img": "https://live.staticflickr.com/65535/49548641176_0de4ce227a_o.jpg",
    "id_image": "KAWAII170220223473",
    "count_view": 0
  },
  {
    "link_thumb": "https://live.staticflickr.com/65535/49726888853_b3dbe268ea_n.jpg",
    "id_album": "-316663319",
    "description": "KAWAII02042019450894",
    "title": "KAWAII02042019450894",
    "link_img": "https://live.staticflickr.com/65535/49726888853_11a6296c9a_o.jpg",
    "id_image": "KAWAII02042019450894",
    "count_view": 0
  },
  {
    "link_thumb": "https://live.staticflickr.com/65535/49743268247_7e9591e74a_n.jpg",
    "id_album": "-1779286820",
    "description": "KAWAII060420214916207",
    "title": "KAWAII060420214916207",
    "link_img": "https://live.staticflickr.com/65535/49743268247_0a5aa914a6_o.jpg",
    "id_image": "KAWAII060420214916207",
    "count_view": 0
  },
  {
    "link_thumb": "https://live.staticflickr.com/65535/49622292623_9d30ed3033_n.jpg",
    "id_album": "-1432180061",
    "description": "KAWAII0503202021260",
    "title": "KAWAII0503202021260",
    "link_img": "https://live.staticflickr.com/65535/49622292623_f523661a1b_o.jpg",
    "id_image": "KAWAII0503202021260",
    "count_view": 0
  },
  {
    "link_thumb": "https://live.staticflickr.com/65535/49742954231_19a5184e75_n.jpg",
    "id_album": "-1431786825",
    "description": "KAWAII060420214912238",
    "title": "KAWAII060420214912238",
    "link_img": "https://live.staticflickr.com/65535/49742954231_384b234480_o.jpg",
    "id_image": "KAWAII060420214912238",
    "count_view": 0
  },
  {
    "link_thumb": "https://live.staticflickr.com/65535/49548659521_aa9eaafa9e_n.jpg",
    "id_album": "-422187261",
    "description": "KAWAII1702202235187",
    "title": "KAWAII1702202235187",
    "link_img": "https://live.staticflickr.com/65535/49548659521_185a302931_o.jpg",
    "id_image": "KAWAII1702202235187",
    "count_view": 0
  },
  {
    "link_thumb": "https://live.staticflickr.com/65535/49694123786_4dfbc91314_n.jpg",
    "id_album": "-358592519",
    "description": "KAWAII12091813",
    "title": "KAWAII12091813",
    "link_img": "https://live.staticflickr.com/65535/49694123786_e816227923_o.jpg",
    "id_image": "KAWAII12091813",
    "count_view": 0
  },
  {
    "link_thumb": "https://live.staticflickr.com/65535/49727759157_d16557d744_n.jpg",
    "id_album": "742877173",
    "description": "KAWAII02042019450942",
    "title": "KAWAII02042019450942",
    "link_img": "https://live.staticflickr.com/65535/49727759157_411c19c88e_o.jpg",
    "id_image": "KAWAII02042019450942",
    "count_view": 0
  },
  {
    "link_thumb": "https://live.staticflickr.com/65535/49548967697_e68f770f65_n.jpg",
    "id_album": "-1431786825",
    "description": "KAWAII1702202239532",
    "title": "KAWAII1702202239532",
    "link_img": "https://live.staticflickr.com/65535/49548967697_e81a4b715a_o.jpg",
    "id_image": "KAWAII1702202239532",
    "count_view": 0
  },
  {
    "link_thumb": "https://live.staticflickr.com/65535/49548694021_aac1a408ab_n.jpg",
    "id_album": "-422187261",
    "description": "KAWAII1702202237355",
    "title": "KAWAII1702202237355",
    "link_img": "https://live.staticflickr.com/65535/49548694021_8570f5a361_o.jpg",
    "id_image": "KAWAII1702202237355",
    "count_view": 0
  },
  {
    "link_thumb": "https://live.staticflickr.com/65535/49727752447_13493c610e_n.jpg",
    "id_album": "-316663319",
    "description": "KAWAII02042019451031",
    "title": "KAWAII02042019451031",
    "link_img": "https://live.staticflickr.com/65535/49727752447_5c7a9ecc13_o.jpg",
    "id_image": "KAWAII02042019451031",
    "count_view": 0
  },
  {
    "link_thumb": "https://live.staticflickr.com/65535/49548545271_67591625b4_n.jpg",
    "id_album": "-1741487325",
    "description": "KAWAII120918104",
    "title": "KAWAII120918104",
    "link_img": "https://live.staticflickr.com/65535/49548545271_6b90942aaf_o.jpg",
    "id_image": "KAWAII120918104",
    "count_view": 0
  },
  {
    "link_thumb": "https://live.staticflickr.com/65535/49552520441_084ea7f0c8_n.jpg",
    "id_album": "-1694302085",
    "description": "KAWAII12091825180220205935",
    "title": "KAWAII12091825180220205935",
    "link_img": "https://live.staticflickr.com/65535/49552520441_ca754aa233_o.jpg",
    "id_image": "KAWAII12091825180220205935",
    "count_view": 0
  },
  {
    "link_thumb": "https://live.staticflickr.com/65535/49743249287_94f386397e_n.jpg",
    "id_album": "-316663319",
    "description": "KAWAII060420214914226",
    "title": "KAWAII060420214914226",
    "link_img": "https://live.staticflickr.com/65535/49743249287_a3c538756a_o.jpg",
    "id_image": "KAWAII060420214914226",
    "count_view": 0
  },
  {
    "link_thumb": "https://live.staticflickr.com/65535/49727756497_6a2efa6382_n.jpg",
    "id_album": "742877173",
    "description": "KAWAII020420194508166",
    "title": "KAWAII020420194508166",
    "link_img": "https://live.staticflickr.com/65535/49727756497_ab118d068f_o.jpg",
    "id_image": "KAWAII020420194508166",
    "count_view": 0
  },
  {
    "link_thumb": "https://live.staticflickr.com/65535/49693562898_049c1a1207_n.jpg",
    "id_album": "1201366373",
    "description": "KAWAII170220223333",
    "title": "KAWAII170220223333",
    "link_img": "https://live.staticflickr.com/65535/49693562898_515fdfe650_o.jpg",
    "id_image": "KAWAII170220223333",
    "count_view": 0
  },
  {
    "link_thumb": "https://live.staticflickr.com/65535/49548105213_4534f29ce5_n.jpg",
    "id_album": "-1741487325",
    "description": "KAWAII120918368",
    "title": "KAWAII120918368",
    "link_img": "https://live.staticflickr.com/65535/49548105213_8eae108d58_o.jpg",
    "id_image": "KAWAII120918368",
    "count_view": 0
  },
  {
    "link_thumb": "https://live.staticflickr.com/65535/49693568038_916ee82a8f_n.jpg",
    "id_album": "1201366373",
    "description": "KAWAII1702202237342",
    "title": "KAWAII1702202237342",
    "link_img": "https://live.staticflickr.com/65535/49693568038_c81c3ed181_o.jpg",
    "id_image": "KAWAII1702202237342",
    "count_view": 0
  },
  {
    "link_thumb": "https://live.staticflickr.com/65535/49694390842_cf645194aa_n.jpg",
    "id_album": "1201366373",
    "description": "KAWAII120918184",
    "title": "KAWAII120918184",
    "link_img": "https://live.staticflickr.com/65535/49694390842_24e3c3fd67_o.jpg",
    "id_image": "KAWAII120918184",
    "count_view": 0
  },
  {
    "link_thumb": "https://live.staticflickr.com/65535/49694220881_4301aa3dea_n.jpg",
    "id_album": "-1432180061",
    "description": "KAWAII1702202237315",
    "title": "KAWAII1702202237315",
    "link_img": "https://live.staticflickr.com/65535/49694220881_2fa35d596c_o.jpg",
    "id_image": "KAWAII1702202237315",
    "count_view": 0
  },
  {
    "link_thumb": "https://live.staticflickr.com/65535/49622816726_7c2109c3a2_n.jpg",
    "id_album": "-316663319",
    "description": "KAWAII050320202113",
    "title": "KAWAII050320202113",
    "link_img": "https://live.staticflickr.com/65535/49622816726_09a020b17f_o.jpg",
    "id_image": "KAWAII050320202113",
    "count_view": 0
  },
  {
    "link_thumb": "https://live.staticflickr.com/65535/49726895508_e686aef6da_n.jpg",
    "id_album": "742877173",
    "description": "KAWAII02042019450836",
    "title": "KAWAII02042019450836",
    "link_img": "https://live.staticflickr.com/65535/49726895508_4a1e11b6b3_o.jpg",
    "id_image": "KAWAII02042019450836",
    "count_view": 0
  },
  {
    "link_thumb": "https://live.staticflickr.com/65535/49622800506_09fc9b0002_n.jpg",
    "id_album": "1396902986",
    "description": "KAWAII0503202021183",
    "title": "KAWAII0503202021183",
    "link_img": "https://live.staticflickr.com/65535/49622800506_077a2f79f3_o.jpg",
    "id_image": "KAWAII0503202021183",
    "count_view": 0
  },
  {
    "link_thumb": "https://live.staticflickr.com/65535/49742915511_a4026f2a42_n.jpg",
    "id_album": "-1497779911",
    "description": "KAWAII060420214915314",
    "title": "KAWAII060420214915314",
    "link_img": "https://live.staticflickr.com/65535/49742915511_069aeb92a1_o.jpg",
    "id_image": "KAWAII060420214915314",
    "count_view": 0
  },
  {
    "link_thumb": "https://live.staticflickr.com/65535/49548624096_f438edf6e3_n.jpg",
    "id_album": "1396902986",
    "description": "KAWAII170220223318",
    "title": "KAWAII170220223318",
    "link_img": "https://live.staticflickr.com/65535/49548624096_5f1f26a17b_o.jpg",
    "id_image": "KAWAII170220223318",
    "count_view": 0
  },
  {
    "link_thumb": "https://live.staticflickr.com/65535/49710822536_6e7910804a_n.jpg",
    "id_album": "-1599896063",
    "description": "LITTLEMONK2903201206396",
    "title": "LITTLEMONK2903201206396",
    "link_img": "https://live.staticflickr.com/65535/49710822536_705c64d0a0_o.jpg",
    "id_image": "LITTLEMONK2903201206396",
    "count_view": 0
  },
  {
    "link_thumb": "https://live.staticflickr.com/65535/49548635651_3666feeb14_n.jpg",
    "id_album": "1396902986",
    "description": "KAWAII170220223448",
    "title": "KAWAII170220223448",
    "link_img": "https://live.staticflickr.com/65535/49548635651_1d233f666d_o.jpg",
    "id_image": "KAWAII170220223448",
    "count_view": 0
  },
  {
    "link_thumb": "https://live.staticflickr.com/65535/49742383238_ea87b68092_n.jpg",
    "id_album": "-316663319",
    "description": "KAWAII060420214917130",
    "title": "KAWAII060420214917130",
    "link_img": "https://live.staticflickr.com/65535/49742383238_5cf925f38d_o.jpg",
    "id_image": "KAWAII060420214917130",
    "count_view": 0
  },
  {
    "link_thumb": "https://live.staticflickr.com/65535/49592949777_fc39988613_n.jpg",
    "id_album": "1396902986",
    "description": "KAWAII270220235115",
    "title": "KAWAII270220235115",
    "link_img": "https://live.staticflickr.com/65535/49592949777_f8055c5f8e_o.jpg",
    "id_image": "KAWAII270220235115",
    "count_view": 0
  },
  {
    "link_thumb": "https://live.staticflickr.com/65535/49693545353_56f7edd886_n.jpg",
    "id_album": "1201366373",
    "description": "KAWAII120918189",
    "title": "KAWAII120918189",
    "link_img": "https://live.staticflickr.com/65535/49693545353_b22fd55d82_o.jpg",
    "id_image": "KAWAII120918189",
    "count_view": 0
  },
  {
    "link_thumb": "https://live.staticflickr.com/65535/49592714866_6f627c0f8c_n.jpg",
    "id_album": "-316663319",
    "description": "KAWAII2702202351133",
    "title": "KAWAII2702202351133",
    "link_img": "https://live.staticflickr.com/65535/49592714866_e095f49d99_o.jpg",
    "id_image": "KAWAII2702202351133",
    "count_view": 0
  },
  {
    "link_thumb": "https://live.staticflickr.com/65535/49548118198_78b244d526_n.jpg",
    "id_album": "-316663319",
    "description": "KAWAII12091890",
    "title": "KAWAII12091890",
    "link_img": "https://live.staticflickr.com/65535/49548118198_6663a0551c_o.jpg",
    "id_image": "KAWAII12091890",
    "count_view": 0
  },
  {
    "link_thumb": "https://live.staticflickr.com/65535/49548761011_a854ffae56_n.jpg",
    "id_album": "-1741487325",
    "description": "KAWAII17091812",
    "title": "KAWAII17091812",
    "link_img": "https://live.staticflickr.com/65535/49548761011_2a9b4eef60_o.jpg",
    "id_image": "KAWAII17091812",
    "count_view": 0
  },
  {
    "link_thumb": "https://live.staticflickr.com/65535/49622796941_4f3450b9b0_n.jpg",
    "id_album": "-422187261",
    "description": "KAWAII0503202021180",
    "title": "KAWAII0503202021180",
    "link_img": "https://live.staticflickr.com/65535/49622796941_225dec259f_o.jpg",
    "id_image": "KAWAII0503202021180",
    "count_view": 0
  },
  {
    "link_thumb": "https://live.staticflickr.com/65535/49743240842_e2d22988ef_n.jpg",
    "id_album": "-1432180061",
    "description": "KAWAII060420214918251",
    "title": "KAWAII060420214918251",
    "link_img": "https://live.staticflickr.com/65535/49743240842_c2baa7d86b_o.jpg",
    "id_image": "KAWAII060420214918251",
    "count_view": 0
  },
  {
    "link_thumb": "https://live.staticflickr.com/65535/49694399017_c0024defa7_n.jpg",
    "id_album": "1201366373",
    "description": "KAWAII120918257",
    "title": "KAWAII120918257",
    "link_img": "https://live.staticflickr.com/65535/49694399017_4d233fe629_o.jpg",
    "id_image": "KAWAII120918257",
    "count_view": 0
  },
  {
    "link_thumb": "https://live.staticflickr.com/65535/49548617816_1b9e579e45_n.jpg",
    "id_album": "-1432180061",
    "description": "KAWAII1209188",
    "title": "KAWAII1209188",
    "link_img": "https://live.staticflickr.com/65535/49548617816_7760c68fb1_o.jpg",
    "id_image": "KAWAII1209188",
    "count_view": 0
  },
  {
    "link_thumb": "https://live.staticflickr.com/65535/49592211593_d8bbd64d7a_n.jpg",
    "id_album": "-316663319",
    "description": "KAWAII2702202351116",
    "title": "KAWAII2702202351116",
    "link_img": "https://live.staticflickr.com/65535/49592211593_9bcae88091_o.jpg",
    "id_image": "KAWAII2702202351116",
    "count_view": 0
  },
  {
    "link_thumb": "https://live.staticflickr.com/65535/49743246732_2d10fc3bb7_n.jpg",
    "id_album": "-316663319",
    "description": "KAWAII06042021491261",
    "title": "KAWAII06042021491261",
    "link_img": "https://live.staticflickr.com/65535/49743246732_5b45f39239_o.jpg",
    "id_image": "KAWAII06042021491261",
    "count_view": 0
  },
  {
    "link_thumb": "https://live.staticflickr.com/65535/49592720141_be59d30f5f_n.jpg",
    "id_album": "-316663319",
    "description": "KAWAII270220235184",
    "title": "KAWAII270220235184",
    "link_img": "https://live.staticflickr.com/65535/49592720141_398f2513cf_o.jpg",
    "id_image": "KAWAII270220235184",
    "count_view": 0
  },
  {
    "link_thumb": "https://live.staticflickr.com/65535/49694521692_e223d9bdc6_n.jpg",
    "id_album": "-643980979",
    "description": "KAWAII2403202205014",
    "title": "KAWAII2403202205014",
    "link_img": "https://live.staticflickr.com/65535/49694521692_1e966d6252_o.jpg",
    "id_image": "KAWAII2403202205014",
    "count_view": 0
  },
  {
    "link_thumb": "https://live.staticflickr.com/65535/49548925972_dd3fa62419_n.jpg",
    "id_album": "-1694302085",
    "description": "KAWAII1702202237371",
    "title": "KAWAII1702202237371",
    "link_img": "https://live.staticflickr.com/65535/49548925972_2d9bcc6478_o.jpg",
    "id_image": "KAWAII1702202237371",
    "count_view": 0
  },
  {
    "link_thumb": "https://live.staticflickr.com/65535/49694122561_9e8e718717_n.jpg",
    "id_album": "-643980979",
    "description": "KAWAII270220235152",
    "title": "KAWAII270220235152",
    "link_img": "https://live.staticflickr.com/65535/49694122561_93ba242655_o.jpg",
    "id_image": "KAWAII270220235152",
    "count_view": 0
  },
  {
    "link_thumb": "https://live.staticflickr.com/65535/49742918556_c9fa56f0ed_n.jpg",
    "id_album": "-128218148",
    "description": "KAWAII060420214912176",
    "title": "KAWAII060420214912176",
    "link_img": "https://live.staticflickr.com/65535/49742918556_2484ceeac6_o.jpg",
    "id_image": "KAWAII060420214912176",
    "count_view": 0
  },
  {
    "link_thumb": "https://live.staticflickr.com/65535/49548271533_25e62fa621_n.jpg",
    "id_album": "-1741487325",
    "description": "KAWAII17091848",
    "title": "KAWAII17091848",
    "link_img": "https://live.staticflickr.com/65535/49548271533_37461da76b_o.jpg",
    "id_image": "KAWAII17091848",
    "count_view": 0
  },
  {
    "link_thumb": "https://live.staticflickr.com/65535/49694387657_ca79ea691c_n.jpg",
    "id_album": "1201366373",
    "description": "KAWAII120918157",
    "title": "KAWAII120918157",
    "link_img": "https://live.staticflickr.com/65535/49694387657_6176250974_o.jpg",
    "id_image": "KAWAII120918157",
    "count_view": 0
  },
  {
    "link_thumb": "https://live.staticflickr.com/65535/49548226593_ab0fbceb32_n.jpg",
    "id_album": "-422187261",
    "description": "KAWAII1702202238480",
    "title": "KAWAII1702202238480",
    "link_img": "https://live.staticflickr.com/65535/49548226593_99ae3b87b7_o.jpg",
    "id_image": "KAWAII1702202238480",
    "count_view": 0
  },
  {
    "link_thumb": "https://live.staticflickr.com/65535/49694387482_6e6cd0b89a_n.jpg",
    "id_album": "1201366373",
    "description": "KAWAII120918156",
    "title": "KAWAII120918156",
    "link_img": "https://live.staticflickr.com/65535/49694387482_748bc789cc_o.jpg",
    "id_image": "KAWAII120918156",
    "count_view": 0
  },
  {
    "link_thumb": "https://live.staticflickr.com/65535/49552517241_cfe1185bd3_n.jpg",
    "id_album": "-1694302085",
    "description": "KAWAII12091825180220205911",
    "title": "KAWAII12091825180220205911",
    "link_img": "https://live.staticflickr.com/65535/49552517241_e6d0dcecb0_o.jpg",
    "id_image": "KAWAII12091825180220205911",
    "count_view": 0
  },
  {
    "link_thumb": "https://live.staticflickr.com/65535/49694123611_c7622fded6_n.jpg",
    "id_album": "-358592519",
    "description": "KAWAII120918106",
    "title": "KAWAII120918106",
    "link_img": "https://live.staticflickr.com/65535/49694123611_c2ff434e14_o.jpg",
    "id_image": "KAWAII120918106",
    "count_view": 0
  },
  {
    "link_thumb": "https://live.staticflickr.com/65535/49548090478_e14671db02_n.jpg",
    "id_album": "-422187261",
    "description": "KAWAII120918308",
    "title": "KAWAII120918308",
    "link_img": "https://live.staticflickr.com/65535/49548090478_68298f952a_o.jpg",
    "id_image": "KAWAII120918308",
    "count_view": 0
  }
]