[
  {
    "link_thumb": "https://live.staticflickr.com/65535/49548730616_5f6af3c076_n.jpg",
    "id_album": "-1694302085",
    "description": "KAWAII1702202238495",
    "title": "KAWAII1702202238495",
    "link_img": "https://live.staticflickr.com/65535/49548730616_0486905b47_o.jpg",
    "id_image": "KAWAII1702202238495",
    "count_view": 0
  },
  {
    "link_thumb": "https://live.staticflickr.com/65535/49548862102_8b2351b5b6_n.jpg",
    "id_album": "-1099943053",
    "description": "KAWAII170220223442",
    "title": "KAWAII170220223442",
    "link_img": "https://live.staticflickr.com/65535/49548862102_248811aa32_o.jpg",
    "id_image": "KAWAII170220223442",
    "count_view": 0
  },
  {
    "link_thumb": "https://live.staticflickr.com/65535/49548130028_19e352e618_n.jpg",
    "id_album": "431597977",
    "description": "KAWAII1702202234112",
    "title": "KAWAII1702202234112",
    "link_img": "https://live.staticflickr.com/65535/49548130028_a7604ab514_o.jpg",
    "id_image": "KAWAII1702202234112",
    "count_view": 0
  },
  {
    "link_thumb": "https://live.staticflickr.com/65535/49727469631_da5e3d1ea9_n.jpg",
    "id_album": "-1862561193",
    "description": "KAWAII020420194511194",
    "title": "KAWAII020420194511194",
    "link_img": "https://live.staticflickr.com/65535/49727469631_c02d13e981_o.jpg",
    "id_image": "KAWAII020420194511194",
    "count_view": 0
  },
  {
    "link_thumb": "https://live.staticflickr.com/65535/49548214718_71dbf76d31_n.jpg",
    "id_album": "-1099943053",
    "description": "KAWAII1702202238437",
    "title": "KAWAII1702202238437",
    "link_img": "https://live.staticflickr.com/65535/49548214718_d4af29ef99_o.jpg",
    "id_image": "KAWAII1702202238437",
    "count_view": 0
  },
  {
    "link_thumb": "https://live.staticflickr.com/65535/49622303833_10c06cfc6a_n.jpg",
    "id_album": "-316663319",
    "description": "KAWAII0503202021153",
    "title": "KAWAII0503202021153",
    "link_img": "https://live.staticflickr.com/65535/49622303833_e829c0ab56_o.jpg",
    "id_image": "KAWAII0503202021153",
    "count_view": 0
  },
  {
    "link_thumb": "https://live.staticflickr.com/65535/49623089307_f6b25ddc91_n.jpg",
    "id_album": "-316663319",
    "description": "KAWAII0503202021131",
    "title": "KAWAII0503202021131",
    "link_img": "https://live.staticflickr.com/65535/49623089307_d57af9517b_o.jpg",
    "id_image": "KAWAII0503202021131",
    "count_view": 0
  },
  {
    "link_thumb": "https://live.staticflickr.com/65535/49743250357_13ae99ab78_n.jpg",
    "id_album": "-316663319",
    "description": "KAWAII06042021491462",
    "title": "KAWAII06042021491462",
    "link_img": "https://live.staticflickr.com/65535/49743250357_83a78b8b87_o.jpg",
    "id_image": "KAWAII06042021491462",
    "count_view": 0
  },
  {
    "link_thumb": "https://live.staticflickr.com/65535/49693681758_be15069edc_n.jpg",
    "id_album": "-1862561193",
    "description": "KAWAII24032022050266",
    "title": "KAWAII24032022050266",
    "link_img": "https://live.staticflickr.com/65535/49693681758_6d430e3652_o.jpg",
    "id_image": "KAWAII24032022050266",
    "count_view": 0
  },
  {
    "link_thumb": "https://live.staticflickr.com/65535/49694429272_8f48347926_n.jpg",
    "id_album": "1563362783",
    "description": "KAWAII1209182518022020594",
    "title": "KAWAII1209182518022020594",
    "link_img": "https://live.staticflickr.com/65535/49694429272_744e12888f_o.jpg",
    "id_image": "KAWAII1209182518022020594",
    "count_view": 0
  },
  {
    "link_thumb": "https://live.staticflickr.com/65535/49548175748_73759313eb_n.jpg",
    "id_album": "1396902986",
    "description": "KAWAII1702202236275",
    "title": "KAWAII1702202236275",
    "link_img": "https://live.staticflickr.com/65535/49548175748_0e675ef75d_o.jpg",
    "id_image": "KAWAII1702202236275",
    "count_view": 0
  },
  {
    "link_thumb": "https://live.staticflickr.com/65535/49622830001_eb9b004f6c_n.jpg",
    "id_album": "-316663319",
    "description": "KAWAII0503202021290",
    "title": "KAWAII0503202021290",
    "link_img": "https://live.staticflickr.com/65535/49622830001_1cb79bebf2_o.jpg",
    "id_image": "KAWAII0503202021290",
    "count_view": 0
  },
  {
    "link_thumb": "https://live.staticflickr.com/65535/49742925101_b70829c04d_n.jpg",
    "id_album": "-316663319",
    "description": "KAWAII060420214914199",
    "title": "KAWAII060420214914199",
    "link_img": "https://live.staticflickr.com/65535/49742925101_b1391f182a_o.jpg",
    "id_image": "KAWAII060420214914199",
    "count_view": 0
  },
  {
    "link_thumb": "https://live.staticflickr.com/65535/49623091632_8f97fdb1d1_n.jpg",
    "id_album": "-316663319",
    "description": "KAWAII0503202021175",
    "title": "KAWAII0503202021175",
    "link_img": "https://live.staticflickr.com/65535/49623091632_ed87177a81_o.jpg",
    "id_image": "KAWAII0503202021175",
    "count_view": 0
  },
  {
    "link_thumb": "https://live.staticflickr.com/65535/49592713431_ed70017969_n.jpg",
    "id_album": "-316663319",
    "description": "KAWAII270220235111",
    "title": "KAWAII270220235111",
    "link_img": "https://live.staticflickr.com/65535/49592713431_ce41f73790_o.jpg",
    "id_image": "KAWAII270220235111",
    "count_view": 0
  },
  {
    "link_thumb": "https://live.staticflickr.com/65535/49727438841_ba457fd835_n.jpg",
    "id_album": "-316663319",
    "description": "KAWAII020420194511183",
    "title": "KAWAII020420194511183",
    "link_img": "https://live.staticflickr.com/65535/49727438841_849c92544b_o.jpg",
    "id_image": "KAWAII020420194511183",
    "count_view": 0
  },
  {
    "link_thumb": "https://live.staticflickr.com/65535/49622802016_1558a39696_n.jpg",
    "id_album": "1396902986",
    "description": "KAWAII0503202021231",
    "title": "KAWAII0503202021231",
    "link_img": "https://live.staticflickr.com/65535/49622802016_e5b340f81d_o.jpg",
    "id_image": "KAWAII0503202021231",
    "count_view": 0
  },
  {
    "link_thumb": "https://live.staticflickr.com/65535/49592218708_fb065ae9fa_n.jpg",
    "id_album": "-316663319",
    "description": "KAWAII270220235189",
    "title": "KAWAII270220235189",
    "link_img": "https://live.staticflickr.com/65535/49592218708_a837ee0215_o.jpg",
    "id_image": "KAWAII270220235189",
    "count_view": 0
  },
  {
    "link_thumb": "https://live.staticflickr.com/65535/49727756497_6a2efa6382_n.jpg",
    "id_album": "742877173",
    "description": "KAWAII020420194508166",
    "title": "KAWAII020420194508166",
    "link_img": "https://live.staticflickr.com/65535/49727756497_ab118d068f_o.jpg",
    "id_image": "KAWAII020420194508166",
    "count_view": 0
  },
  {
    "link_thumb": "https://live.staticflickr.com/65535/49742909136_211a4d41af_n.jpg",
    "id_album": "1271846417",
    "description": "KAWAII060420214912157",
    "title": "KAWAII060420214912157",
    "link_img": "https://live.staticflickr.com/65535/49742909136_cd6fa80f88_o.jpg",
    "id_image": "KAWAII060420214912157",
    "count_view": 0
  },
  {
    "link_thumb": "https://live.staticflickr.com/65535/49548627746_292f5a9a12_n.jpg",
    "id_album": "-1741487325",
    "description": "KAWAII170220223334",
    "title": "KAWAII170220223334",
    "link_img": "https://live.staticflickr.com/65535/49548627746_d5dac589c4_o.jpg",
    "id_image": "KAWAII170220223334",
    "count_view": 0
  },
  {
    "link_thumb": "https://live.staticflickr.com/65535/49548818982_0b96ac76d6_n.jpg",
    "id_album": "-316663319",
    "description": "KAWAII120918306",
    "title": "KAWAII120918306",
    "link_img": "https://live.staticflickr.com/65535/49548818982_364b7e10d1_o.jpg",
    "id_image": "KAWAII120918306",
    "count_view": 0
  },
  {
    "link_thumb": "https://live.staticflickr.com/65535/49693684043_a164af7b2f_n.jpg",
    "id_album": "1226948986",
    "description": "KAWAII24032022050214",
    "title": "KAWAII24032022050214",
    "link_img": "https://live.staticflickr.com/65535/49693684043_ee586dface_o.jpg",
    "id_image": "KAWAII24032022050214",
    "count_view": 0
  },
  {
    "link_thumb": "https://live.staticflickr.com/65535/49727448706_c3d8418039_n.jpg",
    "id_album": "742877173",
    "description": "KAWAII02042019451189",
    "title": "KAWAII02042019451189",
    "link_img": "https://live.staticflickr.com/65535/49727448706_448a753ef2_o.jpg",
    "id_image": "KAWAII02042019451189",
    "count_view": 0
  },
  {
    "link_thumb": "https://live.staticflickr.com/65535/49726894753_b0f75190ce_n.jpg",
    "id_album": "742877173",
    "description": "KAWAII020420194508193",
    "title": "KAWAII020420194508193",
    "link_img": "https://live.staticflickr.com/65535/49726894753_09a1b826f8_o.jpg",
    "id_image": "KAWAII020420194508193",
    "count_view": 0
  },
  {
    "link_thumb": "https://live.staticflickr.com/65535/49694117356_8149fb4ae4_n.jpg",
    "id_album": "-643980979",
    "description": "KAWAII17022023465",
    "title": "KAWAII17022023465",
    "link_img": "https://live.staticflickr.com/65535/49694117356_dd7c59f695_o.jpg",
    "id_image": "KAWAII17022023465",
    "count_view": 0
  },
  {
    "link_thumb": "https://live.staticflickr.com/65535/49592230113_87cd6abff5_n.jpg",
    "id_album": "949200594",
    "description": "KAWAII270220235166",
    "title": "KAWAII270220235166",
    "link_img": "https://live.staticflickr.com/65535/49592230113_cd6742e591_o.jpg",
    "id_image": "KAWAII270220235166",
    "count_view": 0
  },
  {
    "link_thumb": "https://live.staticflickr.com/65535/49727439176_c706ab0e38_n.jpg",
    "id_album": "-316663319",
    "description": "KAWAII020420194511234",
    "title": "KAWAII020420194511234",
    "link_img": "https://live.staticflickr.com/65535/49727439176_2b557b3b19_o.jpg",
    "id_image": "KAWAII020420194511234",
    "count_view": 0
  },
  {
    "link_thumb": "https://live.staticflickr.com/65535/49548648001_2de5d741fa_n.jpg",
    "id_album": "-1741487325",
    "description": "KAWAII1702202235129",
    "title": "KAWAII1702202235129",
    "link_img": "https://live.staticflickr.com/65535/49548648001_3ffc32f97c_o.jpg",
    "id_image": "KAWAII1702202235129",
    "count_view": 0
  },
  {
    "link_thumb": "https://live.staticflickr.com/65535/49694094696_78606a6e68_n.jpg",
    "id_album": "1201366373",
    "description": "KAWAII120918246",
    "title": "KAWAII120918246",
    "link_img": "https://live.staticflickr.com/65535/49694094696_3546c39ba8_o.jpg",
    "id_image": "KAWAII120918246",
    "count_view": 0
  },
  {
    "link_thumb": "https://live.staticflickr.com/65535/49693537968_aa5e3cc05d_n.jpg",
    "id_album": "1201366373",
    "description": "KAWAII120918113",
    "title": "KAWAII120918113",
    "link_img": "https://live.staticflickr.com/65535/49693537968_6df86be63b_o.jpg",
    "id_image": "KAWAII120918113",
    "count_view": 0
  },
  {
    "link_thumb": "https://live.staticflickr.com/65535/49743238552_fd3ffb0faa_n.jpg",
    "id_album": "-1497779911",
    "description": "KAWAII060420214914287",
    "title": "KAWAII060420214914287",
    "link_img": "https://live.staticflickr.com/65535/49743238552_30b39754c4_o.jpg",
    "id_image": "KAWAII060420214914287",
    "count_view": 0
  },
  {
    "link_thumb": "https://live.staticflickr.com/65535/49742410028_95aa6f0114_n.jpg",
    "id_album": "1563362783",
    "description": "KAWAII06042021491740",
    "title": "KAWAII06042021491740",
    "link_img": "https://live.staticflickr.com/65535/49742410028_d5b26217ee_o.jpg",
    "id_image": "KAWAII06042021491740",
    "count_view": 0
  },
  {
    "link_thumb": "https://live.staticflickr.com/65535/49742407608_ac5d069da5_n.jpg",
    "id_album": "-1431786825",
    "description": "KAWAII06042021491426",
    "title": "KAWAII06042021491426",
    "link_img": "https://live.staticflickr.com/65535/49742407608_b6128d0b84_o.jpg",
    "id_image": "KAWAII06042021491426",
    "count_view": 0
  },
  {
    "link_thumb": "https://live.staticflickr.com/65535/49622283833_4431a37fe7_n.jpg",
    "id_album": "1396902986",
    "description": "KAWAII0503202021108",
    "title": "KAWAII0503202021108",
    "link_img": "https://live.staticflickr.com/65535/49622283833_65829db4d6_o.jpg",
    "id_image": "KAWAII0503202021108",
    "count_view": 0
  },
  {
    "link_thumb": "https://live.staticflickr.com/65535/49727748897_340ff7ecbd_n.jpg",
    "id_album": "-1497779911",
    "description": "KAWAII1702202235213",
    "title": "KAWAII1702202235213",
    "link_img": "https://live.staticflickr.com/65535/49727748897_864116ab44_o.jpg",
    "id_image": "KAWAII1702202235213",
    "count_view": 0
  },
  {
    "link_thumb": "https://live.staticflickr.com/65535/49548566621_f8a47d0bae_n.jpg",
    "id_album": "-1741487325",
    "description": "KAWAII120918192",
    "title": "KAWAII120918192",
    "link_img": "https://live.staticflickr.com/65535/49548566621_dcf7453533_o.jpg",
    "id_image": "KAWAII120918192",
    "count_view": 0
  },
  {
    "link_thumb": "https://live.staticflickr.com/65535/49694128121_0a3c66066a_n.jpg",
    "id_album": "1226948986",
    "description": "KAWAII1209183",
    "title": "KAWAII1209183",
    "link_img": "https://live.staticflickr.com/65535/49694128121_8ec7588b7f_o.jpg",
    "id_image": "KAWAII1209183",
    "count_view": 0
  },
  {
    "link_thumb": "https://live.staticflickr.com/65535/49727471611_58cc6cbf82_n.jpg",
    "id_album": "-1862561193",
    "description": "KAWAII02042019451248",
    "title": "KAWAII02042019451248",
    "link_img": "https://live.staticflickr.com/65535/49727471611_e695fa35a5_o.jpg",
    "id_image": "KAWAII02042019451248",
    "count_view": 0
  },
  {
    "link_thumb": "https://live.staticflickr.com/65535/49548645296_9dcffe9684_n.jpg",
    "id_album": "-1432180061",
    "description": "KAWAII170220223492",
    "title": "KAWAII170220223492",
    "link_img": "https://live.staticflickr.com/65535/49548645296_0a4dc82c12_o.jpg",
    "id_image": "KAWAII170220223492",
    "count_view": 0
  },
  {
    "link_thumb": "https://live.staticflickr.com/65535/49552523746_a8b4097645_n.jpg",
    "id_album": "1396902986",
    "description": "KAWAII1209182518022020599",
    "title": "KAWAII1209182518022020599",
    "link_img": "https://live.staticflickr.com/65535/49552523746_1566cd17a8_o.jpg",
    "id_image": "KAWAII1209182518022020599",
    "count_view": 0
  },
  {
    "link_thumb": "https://live.staticflickr.com/65535/49694083526_00a9cdf340_n.jpg",
    "id_album": "1201366373",
    "description": "KAWAII120918135",
    "title": "KAWAII120918135",
    "link_img": "https://live.staticflickr.com/65535/49694083526_3f7a46c882_o.jpg",
    "id_image": "KAWAII120918135",
    "count_view": 0
  },
  {
    "link_thumb": "https://live.staticflickr.com/65535/49548834887_675f3dd3b1_n.jpg",
    "id_album": "-1741487325",
    "description": "KAWAII120918369",
    "title": "KAWAII120918369",
    "link_img": "https://live.staticflickr.com/65535/49548834887_e90e9472a9_o.jpg",
    "id_image": "KAWAII120918369",
    "count_view": 0
  },
  {
    "link_thumb": "https://live.staticflickr.com/65535/49693543518_7f415ef2a6_n.jpg",
    "id_album": "1201366373",
    "description": "KAWAII120918174",
    "title": "KAWAII120918174",
    "link_img": "https://live.staticflickr.com/65535/49693543518_017f9c514a_o.jpg",
    "id_image": "KAWAII120918174",
    "count_view": 0
  },
  {
    "link_thumb": "https://live.staticflickr.com/65535/49548271533_25e62fa621_n.jpg",
    "id_album": "-1741487325",
    "description": "KAWAII17091848",
    "title": "KAWAII17091848",
    "link_img": "https://live.staticflickr.com/65535/49548271533_37461da76b_o.jpg",
    "id_image": "KAWAII17091848",
    "count_view": 0
  },
  {
    "link_thumb": "https://live.staticflickr.com/65535/49694411082_7f8918b1ed_n.jpg",
    "id_album": "1201366373",
    "description": "KAWAII1702202235161",
    "title": "KAWAII1702202235161",
    "link_img": "https://live.staticflickr.com/65535/49694411082_770379d631_o.jpg",
    "id_image": "KAWAII1702202235161",
    "count_view": 0
  },
  {
    "link_thumb": "https://live.staticflickr.com/65535/49694115256_2cb04d6c80_n.jpg",
    "id_album": "-643980979",
    "description": "KAWAII170220234611",
    "title": "KAWAII170220234611",
    "link_img": "https://live.staticflickr.com/65535/49694115256_299f262f28_o.jpg",
    "id_image": "KAWAII170220234611",
    "count_view": 0
  },
  {
    "link_thumb": "https://live.staticflickr.com/65535/49727737932_3fbcaebfff_n.jpg",
    "id_album": "-1694302085",
    "description": "KAWAII02042019450764",
    "title": "KAWAII02042019450764",
    "link_img": "https://live.staticflickr.com/65535/49727737932_45dd1fb080_o.jpg",
    "id_image": "KAWAII02042019450764",
    "count_view": 0
  },
  {
    "link_thumb": "https://live.staticflickr.com/65535/49742943546_140855094f_n.jpg",
    "id_album": "-1779286820",
    "description": "KAWAII060420214913190",
    "title": "KAWAII060420214913190",
    "link_img": "https://live.staticflickr.com/65535/49742943546_0b980a0a42_o.jpg",
    "id_image": "KAWAII060420214913190",
    "count_view": 0
  },
  {
    "link_thumb": "https://live.staticflickr.com/65535/49694404137_1efbe86641_n.jpg",
    "id_album": "1201366373",
    "description": "KAWAII12091844",
    "title": "KAWAII12091844",
    "link_img": "https://live.staticflickr.com/65535/49694404137_96cff5090f_o.jpg",
    "id_image": "KAWAII12091844",
    "count_view": 0
  },
  {
    "link_thumb": "https://live.staticflickr.com/65535/49711144802_1e0afd3a19_n.jpg",
    "id_album": "-1599896063",
    "description": "LITTLEMONK29032012063521",
    "title": "LITTLEMONK29032012063521",
    "link_img": "https://live.staticflickr.com/65535/49711144802_4d2dc609c2_o.jpg",
    "id_image": "LITTLEMONK29032012063521",
    "count_view": 0
  },
  {
    "link_thumb": "https://live.staticflickr.com/65535/49592710441_ed79fe1f96_n.jpg",
    "id_album": "-1741487325",
    "description": "KAWAII1702202238470",
    "title": "KAWAII1702202238470",
    "link_img": "https://live.staticflickr.com/65535/49592710441_3e5c46aec4_o.jpg",
    "id_image": "KAWAII1702202238470",
    "count_view": 0
  },
  {
    "link_thumb": "https://live.staticflickr.com/65535/49726884968_e16c3526ab_n.jpg",
    "id_album": "-1497779911",
    "description": "KAWAII0503202021300",
    "title": "KAWAII0503202021300",
    "link_img": "https://live.staticflickr.com/65535/49726884968_c3d9ff0f8c_o.jpg",
    "id_image": "KAWAII0503202021300",
    "count_view": 0
  },
  {
    "link_thumb": "https://live.staticflickr.com/65535/49592728696_e65ca79af2_n.jpg",
    "id_album": "949200594",
    "description": "KAWAII2702202351102",
    "title": "KAWAII2702202351102",
    "link_img": "https://live.staticflickr.com/65535/49592728696_a73000a49f_o.jpg",
    "id_image": "KAWAII2702202351102",
    "count_view": 0
  },
  {
    "link_thumb": "https://live.staticflickr.com/65535/49711145752_b428a36eb6_n.jpg",
    "id_album": "-1599896063",
    "description": "LITTLEMONK29032012063817",
    "title": "LITTLEMONK29032012063817",
    "link_img": "https://live.staticflickr.com/65535/49711145752_3b11773dd6_o.jpg",
    "id_image": "LITTLEMONK29032012063817",
    "count_view": 0
  },
  {
    "link_thumb": "https://live.staticflickr.com/65535/49622827831_71b926a037_n.jpg",
    "id_album": "-316663319",
    "description": "KAWAII0503202021252",
    "title": "KAWAII0503202021252",
    "link_img": "https://live.staticflickr.com/65535/49622827831_9ba8bcd079_o.jpg",
    "id_image": "KAWAII0503202021252",
    "count_view": 0
  },
  {
    "link_thumb": "https://live.staticflickr.com/65535/49743228317_96446c5e59_n.jpg",
    "id_album": "-1913845949",
    "description": "KAWAII060420214917223",
    "title": "KAWAII060420214917223",
    "link_img": "https://live.staticflickr.com/65535/49743228317_44d2346ef5_o.jpg",
    "id_image": "KAWAII060420214917223",
    "count_view": 0
  },
  {
    "link_thumb": "https://live.staticflickr.com/65535/49548633176_6ac21f02a2_n.jpg",
    "id_album": "1396902986",
    "description": "KAWAII1702202234124",
    "title": "KAWAII1702202234124",
    "link_img": "https://live.staticflickr.com/65535/49548633176_1d50f4508e_o.jpg",
    "id_image": "KAWAII1702202234124",
    "count_view": 0
  },
  {
    "link_thumb": "https://live.staticflickr.com/65535/49727424266_231be909f8_n.jpg",
    "id_album": "-1694302085",
    "description": "KAWAII020420194508115",
    "title": "KAWAII020420194508115",
    "link_img": "https://live.staticflickr.com/65535/49727424266_7d82170298_o.jpg",
    "id_image": "KAWAII020420194508115",
    "count_view": 0
  },
  {
    "link_thumb": "https://live.staticflickr.com/65535/49693545353_56f7edd886_n.jpg",
    "id_album": "1201366373",
    "description": "KAWAII120918189",
    "title": "KAWAII120918189",
    "link_img": "https://live.staticflickr.com/65535/49693545353_b22fd55d82_o.jpg",
    "id_image": "KAWAII120918189",
    "count_view": 0
  },
  {
    "link_thumb": "https://live.staticflickr.com/65535/49694216831_3fed509938_n.jpg",
    "id_album": "-1741487325",
    "description": "KAWAII1702202234110",
    "title": "KAWAII1702202234110",
    "link_img": "https://live.staticflickr.com/65535/49694216831_f93740519b_o.jpg",
    "id_image": "KAWAII1702202234110",
    "count_view": 0
  },
  {
    "link_thumb": "https://live.staticflickr.com/65535/49742390688_6c1335e846_n.jpg",
    "id_album": "-1473448477",
    "description": "KAWAII060420214915278",
    "title": "KAWAII060420214915278",
    "link_img": "https://live.staticflickr.com/65535/49742390688_e32c909954_o.jpg",
    "id_image": "KAWAII060420214915278",
    "count_view": 0
  },
  {
    "link_thumb": "https://live.staticflickr.com/65535/49592950957_761b2dfd03_n.jpg",
    "id_album": "1396902986",
    "description": "KAWAII270220235156",
    "title": "KAWAII270220235156",
    "link_img": "https://live.staticflickr.com/65535/49592950957_b165c6d881_o.jpg",
    "id_image": "KAWAII270220235156",
    "count_view": 0
  },
  {
    "link_thumb": "https://live.staticflickr.com/65535/49727778152_25a2634b3b_n.jpg",
    "id_album": "1396902986",
    "description": "KAWAII020420194508226",
    "title": "KAWAII020420194508226",
    "link_img": "https://live.staticflickr.com/65535/49727778152_52f8951d06_o.jpg",
    "id_image": "KAWAII020420194508226",
    "count_view": 0
  },
  {
    "link_thumb": "https://live.staticflickr.com/65535/49727476226_49b37303c7_n.jpg",
    "id_album": "431597977",
    "description": "KAWAII02042019451226",
    "title": "KAWAII02042019451226",
    "link_img": "https://live.staticflickr.com/65535/49727476226_8e7e823ef0_o.jpg",
    "id_image": "KAWAII02042019451226",
    "count_view": 0
  },
  {
    "link_thumb": "https://live.staticflickr.com/65535/49548120603_dacbbc6809_n.jpg",
    "id_album": "-1099943053",
    "description": "KAWAII170220223310",
    "title": "KAWAII170220223310",
    "link_img": "https://live.staticflickr.com/65535/49548120603_9955480543_o.jpg",
    "id_image": "KAWAII170220223310",
    "count_view": 0
  },
  {
    "link_thumb": "https://live.staticflickr.com/65535/49743266612_67a23a67d8_n.jpg",
    "id_album": "-1779286820",
    "description": "KAWAII06042021491236",
    "title": "KAWAII06042021491236",
    "link_img": "https://live.staticflickr.com/65535/49743266612_0ae8e41462_o.jpg",
    "id_image": "KAWAII06042021491236",
    "count_view": 0
  },
  {
    "link_thumb": "https://live.staticflickr.com/65535/49552758482_006db6854e_n.jpg",
    "id_album": "-1694302085",
    "description": "KAWAII12091825180220205932",
    "title": "KAWAII12091825180220205932",
    "link_img": "https://live.staticflickr.com/65535/49552758482_2bf98d8823_o.jpg",
    "id_image": "KAWAII12091825180220205932",
    "count_view": 0
  },
  {
    "link_thumb": "https://live.staticflickr.com/65535/49742957031_34edfd1845_n.jpg",
    "id_album": "-1431786825",
    "description": "KAWAII06042021491564",
    "title": "KAWAII06042021491564",
    "link_img": "https://live.staticflickr.com/65535/49742957031_7fb48a5c4c_o.jpg",
    "id_image": "KAWAII06042021491564",
    "count_view": 0
  },
  {
    "link_thumb": "https://live.staticflickr.com/65535/49743247877_3868e1f44c_n.jpg",
    "id_album": "-316663319",
    "description": "KAWAII060420214913169",
    "title": "KAWAII060420214913169",
    "link_img": "https://live.staticflickr.com/65535/49743247877_8f7720baea_o.jpg",
    "id_image": "KAWAII060420214913169",
    "count_view": 0
  },
  {
    "link_thumb": "https://live.staticflickr.com/65535/49742400013_75e52df6b5_n.jpg",
    "id_album": "1396902986",
    "description": "KAWAII060420214913159",
    "title": "KAWAII060420214913159",
    "link_img": "https://live.staticflickr.com/65535/49742400013_474352fe4f_o.jpg",
    "id_image": "KAWAII060420214913159",
    "count_view": 0
  },
  {
    "link_thumb": "https://live.staticflickr.com/65535/49694106931_e84516a41d_n.jpg",
    "id_album": "-643980979",
    "description": "KAWAII170220223443",
    "title": "KAWAII170220223443",
    "link_img": "https://live.staticflickr.com/65535/49694106931_9d7422bb05_o.jpg",
    "id_image": "KAWAII170220223443",
    "count_view": 0
  },
  {
    "link_thumb": "https://live.staticflickr.com/65535/49694405907_df658c7e09_n.jpg",
    "id_album": "1201366373",
    "description": "KAWAII12091867",
    "title": "KAWAII12091867",
    "link_img": "https://live.staticflickr.com/65535/49694405907_16355d3222_o.jpg",
    "id_image": "KAWAII12091867",
    "count_view": 0
  },
  {
    "link_thumb": "https://live.staticflickr.com/65535/49694078471_063ecc0884_n.jpg",
    "id_album": "-643980979",
    "description": "KAWAII050320202177",
    "title": "KAWAII050320202177",
    "link_img": "https://live.staticflickr.com/65535/49694078471_c5ebb44ffc_o.jpg",
    "id_image": "KAWAII050320202177",
    "count_view": 0
  },
  {
    "link_thumb": "https://live.staticflickr.com/65535/49743268837_23516a0724_n.jpg",
    "id_album": "-1779286820",
    "description": "KAWAII060420214918103",
    "title": "KAWAII060420214918103",
    "link_img": "https://live.staticflickr.com/65535/49743268837_894b3edc40_o.jpg",
    "id_image": "KAWAII060420214918103",
    "count_view": 0
  },
  {
    "link_thumb": "https://live.staticflickr.com/65535/49743248262_2c94a665f8_n.jpg",
    "id_album": "-316663319",
    "description": "KAWAII060420214913211",
    "title": "KAWAII060420214913211",
    "link_img": "https://live.staticflickr.com/65535/49743248262_287f405867_o.jpg",
    "id_image": "KAWAII060420214913211",
    "count_view": 0
  },
  {
    "link_thumb": "https://live.staticflickr.com/65535/49592202413_27c3cefa93_n.jpg",
    "id_album": "-422187261",
    "description": "KAWAII2702202351140",
    "title": "KAWAII2702202351140",
    "link_img": "https://live.staticflickr.com/65535/49592202413_56c2f371e1_o.jpg",
    "id_image": "KAWAII2702202351140",
    "count_view": 0
  },
  {
    "link_thumb": "https://live.staticflickr.com/65535/49727435976_03176ff0bd_n.jpg",
    "id_album": "-316663319",
    "description": "KAWAII020420194508221",
    "title": "KAWAII020420194508221",
    "link_img": "https://live.staticflickr.com/65535/49727435976_16b7147849_o.jpg",
    "id_image": "KAWAII020420194508221",
    "count_view": 0
  },
  {
    "link_thumb": "https://live.staticflickr.com/65535/49622816441_a1185fa8c3_n.jpg",
    "id_album": "-316663319",
    "description": "KAWAII0503202021128",
    "title": "KAWAII0503202021128",
    "link_img": "https://live.staticflickr.com/65535/49622816441_16b93e7b8c_o.jpg",
    "id_image": "KAWAII0503202021128",
    "count_view": 0
  },
  {
    "link_thumb": "https://live.staticflickr.com/65535/49743233537_97550c2e33_n.jpg",
    "id_album": "-1694302085",
    "description": "KAWAII06042021491576",
    "title": "KAWAII06042021491576",
    "link_img": "https://live.staticflickr.com/65535/49743233537_15d0ff1aaf_o.jpg",
    "id_image": "KAWAII06042021491576",
    "count_view": 0
  },
  {
    "link_thumb": "https://live.staticflickr.com/65535/49742950846_26970047b4_n.jpg",
    "id_album": "-1862561193",
    "description": "KAWAII060420214914236",
    "title": "KAWAII060420214914236",
    "link_img": "https://live.staticflickr.com/65535/49742950846_f89017c778_o.jpg",
    "id_image": "KAWAII060420214914236",
    "count_view": 0
  },
  {
    "link_thumb": "https://live.staticflickr.com/65535/49548998347_2a9f9095e6_n.jpg",
    "id_album": "-316663319",
    "description": "KAWAII17091846",
    "title": "KAWAII17091846",
    "link_img": "https://live.staticflickr.com/65535/49548998347_1838f0e556_o.jpg",
    "id_image": "KAWAII17091846",
    "count_view": 0
  },
  {
    "link_thumb": "https://live.staticflickr.com/65535/49694082046_dc59a22f03_n.jpg",
    "id_album": "1201366373",
    "description": "KAWAII120918115",
    "title": "KAWAII120918115",
    "link_img": "https://live.staticflickr.com/65535/49694082046_3132ff6942_o.jpg",
    "id_image": "KAWAII120918115",
    "count_view": 0
  },
  {
    "link_thumb": "https://live.staticflickr.com/65535/49622798036_37e3d71912_n.jpg",
    "id_album": "-422187261",
    "description": "KAWAII050320202170",
    "title": "KAWAII050320202170",
    "link_img": "https://live.staticflickr.com/65535/49622798036_93a62058b1_o.jpg",
    "id_image": "KAWAII050320202170",
    "count_view": 0
  },
  {
    "link_thumb": "https://live.staticflickr.com/65535/49742956766_47b7a5156a_n.jpg",
    "id_album": "-1431786825",
    "description": "KAWAII060420214915297",
    "title": "KAWAII060420214915297",
    "link_img": "https://live.staticflickr.com/65535/49742956766_8f346b98d5_o.jpg",
    "id_image": "KAWAII060420214915297",
    "count_view": 0
  },
  {
    "link_thumb": "https://live.staticflickr.com/65535/49726896998_47dd5053fe_n.jpg",
    "id_album": "742877173",
    "description": "KAWAII02042019450939",
    "title": "KAWAII02042019450939",
    "link_img": "https://live.staticflickr.com/65535/49726896998_74612dd085_o.jpg",
    "id_image": "KAWAII02042019450939",
    "count_view": 0
  },
  {
    "link_thumb": "https://live.staticflickr.com/65535/49743230407_647f4957e1_n.jpg",
    "id_album": "-422187261",
    "description": "KAWAII060420214912126",
    "title": "KAWAII060420214912126",
    "link_img": "https://live.staticflickr.com/65535/49743230407_19a72103ae_o.jpg",
    "id_image": "KAWAII060420214912126",
    "count_view": 0
  },
  {
    "link_thumb": "https://live.staticflickr.com/65535/49694375002_c347401b0e_n.jpg",
    "id_album": "-643980979",
    "description": "KAWAII0503202021225",
    "title": "KAWAII0503202021225",
    "link_img": "https://live.staticflickr.com/65535/49694375002_7e97191bb9_o.jpg",
    "id_image": "KAWAII0503202021225",
    "count_view": 0
  },
  {
    "link_thumb": "https://live.staticflickr.com/65535/49548832647_f7abbc16dc_n.jpg",
    "id_album": "-1431786825",
    "description": "KAWAII120918360",
    "title": "KAWAII120918360",
    "link_img": "https://live.staticflickr.com/65535/49548832647_6954825421_o.jpg",
    "id_image": "KAWAII120918360",
    "count_view": 0
  },
  {
    "link_thumb": "https://live.staticflickr.com/65535/49743252577_c5c37b428b_n.jpg",
    "id_album": "-316663319",
    "description": "KAWAII060420214915250",
    "title": "KAWAII060420214915250",
    "link_img": "https://live.staticflickr.com/65535/49743252577_4990f8d560_o.jpg",
    "id_image": "KAWAII060420214915250",
    "count_view": 0
  },
  {
    "link_thumb": "https://live.staticflickr.com/65535/49578750566_27e54cdc23_n.jpg",
    "id_album": "-316663319",
    "description": "KAWAII190220211131",
    "title": "KAWAII190220211131",
    "link_img": "https://live.staticflickr.com/65535/49578750566_3f5b567b18_o.jpg",
    "id_image": "KAWAII190220211131",
    "count_view": 0
  },
  {
    "link_thumb": "https://live.staticflickr.com/65535/49622846336_e8cc892781_n.jpg",
    "id_album": "-406350429",
    "description": "KAWAII0503202021253",
    "title": "KAWAII0503202021253",
    "link_img": "https://live.staticflickr.com/65535/49622846336_ace7b84e37_o.jpg",
    "id_image": "KAWAII0503202021253",
    "count_view": 0
  },
  {
    "link_thumb": "https://live.staticflickr.com/65535/49694219991_5df29d8ed5_n.jpg",
    "id_album": "-643980979",
    "description": "KAWAII24032022050265",
    "title": "KAWAII24032022050265",
    "link_img": "https://live.staticflickr.com/65535/49694219991_8eb24b53e7_o.jpg",
    "id_image": "KAWAII24032022050265",
    "count_view": 0
  },
  {
    "link_thumb": "https://live.staticflickr.com/65535/49726893053_4d660b063a_n.jpg",
    "id_album": "-316663319",
    "description": "KAWAII020420194513251",
    "title": "KAWAII020420194513251",
    "link_img": "https://live.staticflickr.com/65535/49726893053_085b300972_o.jpg",
    "id_image": "KAWAII020420194513251",
    "count_view": 0
  },
  {
    "link_thumb": "https://live.staticflickr.com/65535/49743232892_ca4857bffc_n.jpg",
    "id_album": "-1694302085",
    "description": "KAWAII060420214912302",
    "title": "KAWAII060420214912302",
    "link_img": "https://live.staticflickr.com/65535/49743232892_df46f0b288_o.jpg",
    "id_image": "KAWAII060420214912302",
    "count_view": 0
  },
  {
    "link_thumb": "https://live.staticflickr.com/65535/49592971722_34b2fdda01_n.jpg",
    "id_album": "949200594",
    "description": "KAWAII2702202351118",
    "title": "KAWAII2702202351118",
    "link_img": "https://live.staticflickr.com/65535/49592971722_61beeff452_o.jpg",
    "id_image": "KAWAII2702202351118",
    "count_view": 0
  },
  {
    "link_thumb": "https://live.staticflickr.com/65535/49743252197_fc8e6aff13_n.jpg",
    "id_album": "-316663319",
    "description": "KAWAII060420214915220",
    "title": "KAWAII060420214915220",
    "link_img": "https://live.staticflickr.com/65535/49743252197_a0dbe1a485_o.jpg",
    "id_image": "KAWAII060420214915220",
    "count_view": 0
  },
  {
    "link_thumb": "https://live.staticflickr.com/65535/49742408543_f5f39b9b01_n.jpg",
    "id_album": "-1431786825",
    "description": "KAWAII060420214915193",
    "title": "KAWAII060420214915193",
    "link_img": "https://live.staticflickr.com/65535/49742408543_e1cc061ec5_o.jpg",
    "id_image": "KAWAII060420214915193",
    "count_view": 0
  },
  {
    "link_thumb": "https://live.staticflickr.com/65535/49548731631_730093018a_n.jpg",
    "id_album": "-422187261",
    "description": "KAWAII1702202238498",
    "title": "KAWAII1702202238498",
    "link_img": "https://live.staticflickr.com/65535/49548731631_cb19aed3bd_o.jpg",
    "id_image": "KAWAII1702202238498",
    "count_view": 0
  },
  {
    "link_thumb": "https://live.staticflickr.com/65535/49694085796_53f3554199_n.jpg",
    "id_album": "1201366373",
    "description": "KAWAII120918160",
    "title": "KAWAII120918160",
    "link_img": "https://live.staticflickr.com/65535/49694085796_06ce5074a9_o.jpg",
    "id_image": "KAWAII120918160",
    "count_view": 0
  },
  {
    "link_thumb": "https://live.staticflickr.com/65535/49726900403_67e96a1c8c_n.jpg",
    "id_album": "742877173",
    "description": "KAWAII020420194511245",
    "title": "KAWAII020420194511245",
    "link_img": "https://live.staticflickr.com/65535/49726900403_9d34eb64b5_o.jpg",
    "id_image": "KAWAII020420194511245",
    "count_view": 0
  },
  {
    "link_thumb": "https://live.staticflickr.com/65535/49548661441_14782e41aa_n.jpg",
    "id_album": "1396902986",
    "description": "KAWAII1702202235195",
    "title": "KAWAII1702202235195",
    "link_img": "https://live.staticflickr.com/65535/49548661441_a2262afb5f_o.jpg",
    "id_image": "KAWAII1702202235195",
    "count_view": 0
  },
  {
    "link_thumb": "https://live.staticflickr.com/65535/49711145317_1b1a0262e9_n.jpg",
    "id_album": "-1599896063",
    "description": "LITTLEMONK29032012063710",
    "title": "LITTLEMONK29032012063710",
    "link_img": "https://live.staticflickr.com/65535/49711145317_eed91c0a9b_o.jpg",
    "id_image": "LITTLEMONK29032012063710",
    "count_view": 0
  },
  {
    "link_thumb": "https://live.staticflickr.com/65535/49548598861_c539f958f9_n.jpg",
    "id_album": "-316663319",
    "description": "KAWAII120918334",
    "title": "KAWAII120918334",
    "link_img": "https://live.staticflickr.com/65535/49548598861_130472ddd0_o.jpg",
    "id_image": "KAWAII120918334",
    "count_view": 0
  },
  {
    "link_thumb": "https://live.staticflickr.com/65535/49694376347_2b2a6352a1_n.jpg",
    "id_album": "-643980979",
    "description": "KAWAII050320202127",
    "title": "KAWAII050320202127",
    "link_img": "https://live.staticflickr.com/65535/49694376347_6183e39181_o.jpg",
    "id_image": "KAWAII050320202127",
    "count_view": 0
  },
  {
    "link_thumb": "https://live.staticflickr.com/65535/49742372203_2593637929_n.jpg",
    "id_album": "-128218148",
    "description": "KAWAII060420214915244",
    "title": "KAWAII060420214915244",
    "link_img": "https://live.staticflickr.com/65535/49742372203_3b42311d2b_o.jpg",
    "id_image": "KAWAII060420214915244",
    "count_view": 0
  },
  {
    "link_thumb": "https://live.staticflickr.com/65535/49727787597_e2bb9b48d9_n.jpg",
    "id_album": "-1099943053",
    "description": "KAWAII020420194507134",
    "title": "KAWAII020420194507134",
    "link_img": "https://live.staticflickr.com/65535/49727787597_2ac5d5c070_o.jpg",
    "id_image": "KAWAII020420194507134",
    "count_view": 0
  },
  {
    "link_thumb": "https://live.staticflickr.com/65535/49726877658_702cbe6d26_n.jpg",
    "id_album": "-1694302085",
    "description": "KAWAII020420194508231",
    "title": "KAWAII020420194508231",
    "link_img": "https://live.staticflickr.com/65535/49726877658_9c008455be_o.jpg",
    "id_image": "KAWAII020420194508231",
    "count_view": 0
  },
  {
    "link_thumb": "https://live.staticflickr.com/65535/49548545271_67591625b4_n.jpg",
    "id_album": "-1741487325",
    "description": "KAWAII120918104",
    "title": "KAWAII120918104",
    "link_img": "https://live.staticflickr.com/65535/49548545271_6b90942aaf_o.jpg",
    "id_image": "KAWAII120918104",
    "count_view": 0
  },
  {
    "link_thumb": "https://live.staticflickr.com/65535/49548902482_4e5301c113_n.jpg",
    "id_album": "-1694302085",
    "description": "KAWAII1702202236264",
    "title": "KAWAII1702202236264",
    "link_img": "https://live.staticflickr.com/65535/49548902482_d915b835fa_o.jpg",
    "id_image": "KAWAII1702202236264",
    "count_view": 0
  },
  {
    "link_thumb": "https://live.staticflickr.com/65535/49693576513_e6ef2f63db_n.jpg",
    "id_album": "-643980979",
    "description": "KAWAII17091817",
    "title": "KAWAII17091817",
    "link_img": "https://live.staticflickr.com/65535/49693576513_2cdda0be50_o.jpg",
    "id_image": "KAWAII17091817",
    "count_view": 0
  },
  {
    "link_thumb": "https://live.staticflickr.com/65535/49693583953_97eff14de3_n.jpg",
    "id_album": "1563362783",
    "description": "KAWAII12091825180220205950",
    "title": "KAWAII12091825180220205950",
    "link_img": "https://live.staticflickr.com/65535/49693583953_1745fccdf8_o.jpg",
    "id_image": "KAWAII12091825180220205950",
    "count_view": 0
  },
  {
    "link_thumb": "https://live.staticflickr.com/65535/49694425322_b51eb0e2a3_n.jpg",
    "id_album": "-643980979",
    "description": "KAWAII270220235163",
    "title": "KAWAII270220235163",
    "link_img": "https://live.staticflickr.com/65535/49694425322_970edb1907_o.jpg",
    "id_image": "KAWAII270220235163",
    "count_view": 0
  },
  {
    "link_thumb": "https://live.staticflickr.com/65535/49622289598_80c7699f69_n.jpg",
    "id_album": "1396902986",
    "description": "KAWAII050320202159",
    "title": "KAWAII050320202159",
    "link_img": "https://live.staticflickr.com/65535/49622289598_97aba19210_o.jpg",
    "id_image": "KAWAII050320202159",
    "count_view": 0
  },
  {
    "link_thumb": "https://live.staticflickr.com/65535/49693532508_04ee857034_n.jpg",
    "id_album": "-643980979",
    "description": "KAWAII050320202148",
    "title": "KAWAII050320202148",
    "link_img": "https://live.staticflickr.com/65535/49693532508_b26d148096_o.jpg",
    "id_image": "KAWAII050320202148",
    "count_view": 0
  },
  {
    "link_thumb": "https://live.staticflickr.com/65535/49622830401_d62c77434b_n.jpg",
    "id_album": "-316663319",
    "description": "KAWAII0503202021295",
    "title": "KAWAII0503202021295",
    "link_img": "https://live.staticflickr.com/65535/49622830401_1e3e6a8697_o.jpg",
    "id_image": "KAWAII0503202021295",
    "count_view": 0
  },
  {
    "link_thumb": "https://live.staticflickr.com/65535/49743238712_63dded63b7_n.jpg",
    "id_album": "-1497779911",
    "description": "KAWAII06042021491445",
    "title": "KAWAII06042021491445",
    "link_img": "https://live.staticflickr.com/65535/49743238712_d4ec543d5d_o.jpg",
    "id_image": "KAWAII06042021491445",
    "count_view": 0
  },
  {
    "link_thumb": "https://live.staticflickr.com/65535/49622806061_acc7361557_n.jpg",
    "id_album": "-1741487325",
    "description": "KAWAII0503202021132",
    "title": "KAWAII0503202021132",
    "link_img": "https://live.staticflickr.com/65535/49622806061_f780ea6420_o.jpg",
    "id_image": "KAWAII0503202021132",
    "count_view": 0
  },
  {
    "link_thumb": "https://live.staticflickr.com/65535/49548831437_5f1799ae82_n.jpg",
    "id_album": "-1741487325",
    "description": "KAWAII120918356",
    "title": "KAWAII120918356",
    "link_img": "https://live.staticflickr.com/65535/49548831437_157df654a0_o.jpg",
    "id_image": "KAWAII120918356",
    "count_view": 0
  },
  {
    "link_thumb": "https://live.staticflickr.com/65535/49548116398_7aa6d8aed3_n.jpg",
    "id_album": "-316663319",
    "description": "KAWAII12091882",
    "title": "KAWAII12091882",
    "link_img": "https://live.staticflickr.com/65535/49548116398_cbf8fd4eaf_o.jpg",
    "id_image": "KAWAII12091882",
    "count_view": 0
  },
  {
    "link_thumb": "https://live.staticflickr.com/65535/49694118056_c340991dd2_n.jpg",
    "id_album": "-643980979",
    "description": "KAWAII17022023469",
    "title": "KAWAII17022023469",
    "link_img": "https://live.staticflickr.com/65535/49694118056_221d389d0f_o.jpg",
    "id_image": "KAWAII17022023469",
    "count_view": 0
  },
  {
    "link_thumb": "https://live.staticflickr.com/65535/49694071171_cd5ac07c04_n.jpg",
    "id_album": "-643980979",
    "description": "KAWAII0503202021165",
    "title": "KAWAII0503202021165",
    "link_img": "https://live.staticflickr.com/65535/49694071171_d1e527d8fc_o.jpg",
    "id_image": "KAWAII0503202021165",
    "count_view": 0
  },
  {
    "link_thumb": "https://live.staticflickr.com/65535/49548667946_8886f00704_n.jpg",
    "id_album": "-422187261",
    "description": "KAWAII1702202236227",
    "title": "KAWAII1702202236227",
    "link_img": "https://live.staticflickr.com/65535/49548667946_abc94f15f7_o.jpg",
    "id_image": "KAWAII1702202236227",
    "count_view": 0
  },
  {
    "link_thumb": "https://live.staticflickr.com/65535/49693573483_ea8d2f7051_n.jpg",
    "id_album": "-643980979",
    "description": "KAWAII170220234617",
    "title": "KAWAII170220234617",
    "link_img": "https://live.staticflickr.com/65535/49693573483_049617c5d9_o.jpg",
    "id_image": "KAWAII170220234617",
    "count_view": 0
  },
  {
    "link_thumb": "https://live.staticflickr.com/65535/49623070857_ff489a050a_n.jpg",
    "id_album": "1396902986",
    "description": "KAWAII0503202021104",
    "title": "KAWAII0503202021104",
    "link_img": "https://live.staticflickr.com/65535/49623070857_d45001360d_o.jpg",
    "id_image": "KAWAII0503202021104",
    "count_view": 0
  },
  {
    "link_thumb": "https://live.staticflickr.com/65535/49742410198_11b0110020_n.jpg",
    "id_album": "1226948986",
    "description": "KAWAII060420214911212",
    "title": "KAWAII060420214911212",
    "link_img": "https://live.staticflickr.com/65535/49742410198_306bfbd04b_o.jpg",
    "id_image": "KAWAII060420214911212",
    "count_view": 0
  },
  {
    "link_thumb": "https://live.staticflickr.com/65535/49592216793_9f13e875ce_n.jpg",
    "id_album": "-316663319",
    "description": "KAWAII270220235168",
    "title": "KAWAII270220235168",
    "link_img": "https://live.staticflickr.com/65535/49592216793_25bdab5987_o.jpg",
    "id_image": "KAWAII270220235168",
    "count_view": 0
  },
  {
    "link_thumb": "https://live.staticflickr.com/65535/49548842097_f9d9253afd_n.jpg",
    "id_album": "-422187261",
    "description": "KAWAII12091862",
    "title": "KAWAII12091862",
    "link_img": "https://live.staticflickr.com/65535/49548842097_3395c1e152_o.jpg",
    "id_image": "KAWAII12091862",
    "count_view": 0
  },
  {
    "link_thumb": "https://live.staticflickr.com/65535/49548162338_78fe406fcf_n.jpg",
    "id_album": "-316663319",
    "description": "KAWAII1702202235204",
    "title": "KAWAII1702202235204",
    "link_img": "https://live.staticflickr.com/65535/49548162338_8bbf3e7c04_o.jpg",
    "id_image": "KAWAII1702202235204",
    "count_view": 0
  },
  {
    "link_thumb": "https://live.staticflickr.com/65535/49548096618_cf27c22d92_n.jpg",
    "id_album": "-316663319",
    "description": "KAWAII120918333",
    "title": "KAWAII120918333",
    "link_img": "https://live.staticflickr.com/65535/49548096618_b4ddfc91c2_o.jpg",
    "id_image": "KAWAII120918333",
    "count_view": 0
  },
  {
    "link_thumb": "https://live.staticflickr.com/65535/49694422457_9d228a8ec9_n.jpg",
    "id_album": "1201366373",
    "description": "KAWAII17091844",
    "title": "KAWAII17091844",
    "link_img": "https://live.staticflickr.com/65535/49694422457_49d9464530_o.jpg",
    "id_image": "KAWAII17091844",
    "count_view": 0
  },
  {
    "link_thumb": "https://live.staticflickr.com/65535/49726920793_d5f069a07f_n.jpg",
    "id_album": "-1862561193",
    "description": "KAWAII0204201945111",
    "title": "KAWAII0204201945111",
    "link_img": "https://live.staticflickr.com/65535/49726920793_d6b6f36c3f_o.jpg",
    "id_image": "KAWAII0204201945111",
    "count_view": 0
  },
  {
    "link_thumb": "https://live.staticflickr.com/65535/49742950451_7db9483b51_n.jpg",
    "id_album": "-1862561193",
    "description": "KAWAII0604202149126",
    "title": "KAWAII0604202149126",
    "link_img": "https://live.staticflickr.com/65535/49742950451_bf6196a714_o.jpg",
    "id_image": "KAWAII0604202149126",
    "count_view": 0
  },
  {
    "link_thumb": "https://live.staticflickr.com/65535/49549724838_49f72f0e2b_n.jpg",
    "id_album": "-1694302085",
    "description": "KAWAII12091834",
    "title": "KAWAII12091834",
    "link_img": "https://live.staticflickr.com/65535/49549724838_77a3d2a921_o.jpg",
    "id_image": "KAWAII12091834",
    "count_view": 0
  },
  {
    "link_thumb": "https://live.staticflickr.com/65535/49548136443_3c8305ec75_n.jpg",
    "id_album": "-422187261",
    "description": "KAWAII170220223459",
    "title": "KAWAII170220223459",
    "link_img": "https://live.staticflickr.com/65535/49548136443_bc360510ea_o.jpg",
    "id_image": "KAWAII170220223459",
    "count_view": 0
  },
  {
    "link_thumb": "https://live.staticflickr.com/65535/49726887613_bb3ab772c0_n.jpg",
    "id_album": "-1497779911",
    "description": "KAWAII1702202239545",
    "title": "KAWAII1702202239545",
    "link_img": "https://live.staticflickr.com/65535/49726887613_f69b805638_o.jpg",
    "id_image": "KAWAII1702202239545",
    "count_view": 0
  },
  {
    "link_thumb": "https://live.staticflickr.com/65535/49727752792_9bf6e0ced5_n.jpg",
    "id_album": "-316663319",
    "description": "KAWAII020420194511112",
    "title": "KAWAII020420194511112",
    "link_img": "https://live.staticflickr.com/65535/49727752792_1bf4696a5e_o.jpg",
    "id_image": "KAWAII020420194511112",
    "count_view": 0
  },
  {
    "link_thumb": "https://live.staticflickr.com/65535/49726892548_ab74a49b01_n.jpg",
    "id_album": "-316663319",
    "description": "KAWAII020420194512242",
    "title": "KAWAII020420194512242",
    "link_img": "https://live.staticflickr.com/65535/49726892548_df3ed81f03_o.jpg",
    "id_image": "KAWAII020420194512242",
    "count_view": 0
  },
  {
    "link_thumb": "https://live.staticflickr.com/65535/49694519607_e4b83724e6_n.jpg",
    "id_album": "-1694302085",
    "description": "KAWAII24032022050240",
    "title": "KAWAII24032022050240",
    "link_img": "https://live.staticflickr.com/65535/49694519607_620c1d6101_o.jpg",
    "id_image": "KAWAII24032022050240",
    "count_view": 0
  },
  {
    "link_thumb": "https://live.staticflickr.com/65535/49622330628_bc94cffc7c_n.jpg",
    "id_album": "-406350429",
    "description": "KAWAII0503202021232",
    "title": "KAWAII0503202021232",
    "link_img": "https://live.staticflickr.com/65535/49622330628_fa947f14f9_o.jpg",
    "id_image": "KAWAII0503202021232",
    "count_view": 0
  },
  {
    "link_thumb": "https://live.staticflickr.com/65535/49622816161_98892bc61c_n.jpg",
    "id_album": "-316663319",
    "description": "KAWAII0503202021127",
    "title": "KAWAII0503202021127",
    "link_img": "https://live.staticflickr.com/65535/49622816161_fb4f1c7349_o.jpg",
    "id_image": "KAWAII0503202021127",
    "count_view": 0
  },
  {
    "link_thumb": "https://live.staticflickr.com/65535/49726916708_7e4a7f8d8c_n.jpg",
    "id_album": "1201366373",
    "description": "KAWAII120918300",
    "title": "KAWAII120918300",
    "link_img": "https://live.staticflickr.com/65535/49726916708_d4a00a2a6a_o.jpg",
    "id_image": "KAWAII120918300",
    "count_view": 0
  },
  {
    "link_thumb": "https://live.staticflickr.com/65535/49592204403_99989d7f92_n.jpg",
    "id_album": "1396902986",
    "description": "KAWAII2702202351145",
    "title": "KAWAII2702202351145",
    "link_img": "https://live.staticflickr.com/65535/49592204403_aa5304ec91_o.jpg",
    "id_image": "KAWAII2702202351145",
    "count_view": 0
  },
  {
    "link_thumb": "https://live.staticflickr.com/65535/49548843397_dbf2fe5fe9_n.jpg",
    "id_album": "-1432180061",
    "description": "KAWAII1209187",
    "title": "KAWAII1209187",
    "link_img": "https://live.staticflickr.com/65535/49548843397_bf8a64d198_o.jpg",
    "id_image": "KAWAII1209187",
    "count_view": 0
  },
  {
    "link_thumb": "https://live.staticflickr.com/65535/49727465396_43aa8d7c90_n.jpg",
    "id_album": "1396902986",
    "description": "KAWAII02042019451249",
    "title": "KAWAII02042019451249",
    "link_img": "https://live.staticflickr.com/65535/49727465396_a64da1a456_o.jpg",
    "id_image": "KAWAII02042019451249",
    "count_view": 0
  },
  {
    "link_thumb": "https://live.staticflickr.com/65535/49592952392_4c43bf382f_n.jpg",
    "id_album": "-1741487325",
    "description": "KAWAII1702202237338",
    "title": "KAWAII1702202237338",
    "link_img": "https://live.staticflickr.com/65535/49592952392_4bb44f63a9_o.jpg",
    "id_image": "KAWAII1702202237338",
    "count_view": 0
  },
  {
    "link_thumb": "https://live.staticflickr.com/65535/49726896558_0919cc8216_n.jpg",
    "id_album": "742877173",
    "description": "KAWAII020420194509258",
    "title": "KAWAII020420194509258",
    "link_img": "https://live.staticflickr.com/65535/49726896558_3ed84326ed_o.jpg",
    "id_image": "KAWAII020420194509258",
    "count_view": 0
  },
  {
    "link_thumb": "https://live.staticflickr.com/65535/49726925128_f475533b2b_n.jpg",
    "id_album": "-1862561193",
    "description": "KAWAII02042019451366",
    "title": "KAWAII02042019451366",
    "link_img": "https://live.staticflickr.com/65535/49726925128_bba6ddf96b_o.jpg",
    "id_image": "KAWAII02042019451366",
    "count_view": 0
  },
  {
    "link_thumb": "https://live.staticflickr.com/65535/49694403817_304ff6bec8_n.jpg",
    "id_album": "1201366373",
    "description": "KAWAII1209184",
    "title": "KAWAII1209184",
    "link_img": "https://live.staticflickr.com/65535/49694403817_7b234b0c3d_o.jpg",
    "id_image": "KAWAII1209184",
    "count_view": 0
  },
  {
    "link_thumb": "https://live.staticflickr.com/65535/49694229501_481ee8738a_n.jpg",
    "id_album": "1226948986",
    "description": "KAWAII2403202205026",
    "title": "KAWAII2403202205026",
    "link_img": "https://live.staticflickr.com/65535/49694229501_6240dacd6f_o.jpg",
    "id_image": "KAWAII2403202205026",
    "count_view": 0
  },
  {
    "link_thumb": "https://live.staticflickr.com/65535/49693532323_7162d35f4b_n.jpg",
    "id_album": "-643980979",
    "description": "KAWAII050320202143",
    "title": "KAWAII050320202143",
    "link_img": "https://live.staticflickr.com/65535/49693532323_2bbe67359d_o.jpg",
    "id_image": "KAWAII050320202143",
    "count_view": 0
  },
  {
    "link_thumb": "https://live.staticflickr.com/65535/49726925693_708ef6ca57_n.jpg",
    "id_album": "-1431786825",
    "description": "KAWAII020420194511158",
    "title": "KAWAII020420194511158",
    "link_img": "https://live.staticflickr.com/65535/49726925693_70f7508396_o.jpg",
    "id_image": "KAWAII020420194511158",
    "count_view": 0
  },
  {
    "link_thumb": "https://live.staticflickr.com/65535/49694424167_9ca4b99ed0_n.jpg",
    "id_album": "-643980979",
    "description": "KAWAII2702202351163",
    "title": "KAWAII2702202351163",
    "link_img": "https://live.staticflickr.com/65535/49694424167_56c10c06d2_o.jpg",
    "id_image": "KAWAII2702202351163",
    "count_view": 0
  },
  {
    "link_thumb": "https://live.staticflickr.com/65535/49548678916_f6d504cc7d_n.jpg",
    "id_album": "-1694302085",
    "description": "KAWAII1702202236285",
    "title": "KAWAII1702202236285",
    "link_img": "https://live.staticflickr.com/65535/49548678916_b48c6f5be3_o.jpg",
    "id_image": "KAWAII1702202236285",
    "count_view": 0
  },
  {
    "link_thumb": "https://live.staticflickr.com/65535/49548597551_3ef5da225b_n.jpg",
    "id_album": "-1741487325",
    "description": "KAWAII12091833",
    "title": "KAWAII12091833",
    "link_img": "https://live.staticflickr.com/65535/49548597551_5923ea7645_o.jpg",
    "id_image": "KAWAII12091833",
    "count_view": 0
  },
  {
    "link_thumb": "https://live.staticflickr.com/65535/49548056578_4ebb66f297_n.jpg",
    "id_album": "-1741487325",
    "description": "KAWAII120918159",
    "title": "KAWAII120918159",
    "link_img": "https://live.staticflickr.com/65535/49548056578_89ae5d8390_o.jpg",
    "id_image": "KAWAII120918159",
    "count_view": 0
  },
  {
    "link_thumb": "https://live.staticflickr.com/65535/49694091671_e2c80b25ac_n.jpg",
    "id_album": "1201366373",
    "description": "KAWAII120918213",
    "title": "KAWAII120918213",
    "link_img": "https://live.staticflickr.com/65535/49694091671_f396e77508_o.jpg",
    "id_image": "KAWAII120918213",
    "count_view": 0
  },
  {
    "link_thumb": "https://live.staticflickr.com/65535/49548611391_66f9798221_n.jpg",
    "id_album": "-1432180061",
    "description": "KAWAII12091848",
    "title": "KAWAII12091848",
    "link_img": "https://live.staticflickr.com/65535/49548611391_173cf43b70_o.jpg",
    "id_image": "KAWAII12091848",
    "count_view": 0
  },
  {
    "link_thumb": "https://live.staticflickr.com/65535/49694379132_7e13b1e716_n.jpg",
    "id_album": "-643980979",
    "description": "KAWAII050320202150",
    "title": "KAWAII050320202150",
    "link_img": "https://live.staticflickr.com/65535/49694379132_e6f9e621e0_o.jpg",
    "id_image": "KAWAII050320202150",
    "count_view": 0
  },
  {
    "link_thumb": "https://live.staticflickr.com/65535/49694385017_b791a594e0_n.jpg",
    "id_album": "1201366373",
    "description": "KAWAII12091812",
    "title": "KAWAII12091812",
    "link_img": "https://live.staticflickr.com/65535/49694385017_dd00ae1d86_o.jpg",
    "id_image": "KAWAII12091812",
    "count_view": 0
  },
  {
    "link_thumb": "https://live.staticflickr.com/65535/49694070736_42d8ae7b56_n.jpg",
    "id_album": "-643980979",
    "description": "KAWAII0503202021144",
    "title": "KAWAII0503202021144",
    "link_img": "https://live.staticflickr.com/65535/49694070736_3b7f15c311_o.jpg",
    "id_image": "KAWAII0503202021144",
    "count_view": 0
  },
  {
    "link_thumb": "https://live.staticflickr.com/65535/49548996912_d7763a6614_n.jpg",
    "id_album": "-316663319",
    "description": "KAWAII17091840",
    "title": "KAWAII17091840",
    "link_img": "https://live.staticflickr.com/65535/49548996912_e5ffb4d0d4_o.jpg",
    "id_image": "KAWAII17091840",
    "count_view": 0
  },
  {
    "link_thumb": "https://live.staticflickr.com/65535/49592734111_8526662cc3_n.jpg",
    "id_album": "949200594",
    "description": "KAWAII27022023518",
    "title": "KAWAII27022023518",
    "link_img": "https://live.staticflickr.com/65535/49592734111_25abae9b97_o.jpg",
    "id_image": "KAWAII27022023518",
    "count_view": 0
  },
  {
    "link_thumb": "https://live.staticflickr.com/65535/49622806251_53961a8dca_n.jpg",
    "id_album": "-1741487325",
    "description": "KAWAII0503202021158",
    "title": "KAWAII0503202021158",
    "link_img": "https://live.staticflickr.com/65535/49622806251_a997a54bbd_o.jpg",
    "id_image": "KAWAII0503202021158",
    "count_view": 0
  },
  {
    "link_thumb": "https://live.staticflickr.com/65535/49552024243_b38552e998_n.jpg",
    "id_album": "-1432180061",
    "description": "KAWAII12091825180220205938",
    "title": "KAWAII12091825180220205938",
    "link_img": "https://live.staticflickr.com/65535/49552024243_8348b56164_o.jpg",
    "id_image": "KAWAII12091825180220205938",
    "count_view": 0
  },
  {
    "link_thumb": "https://live.staticflickr.com/65535/49548711691_52dff002c1_n.jpg",
    "id_album": "-422187261",
    "description": "KAWAII1702202238423",
    "title": "KAWAII1702202238423",
    "link_img": "https://live.staticflickr.com/65535/49548711691_a471ef5f97_o.jpg",
    "id_image": "KAWAII1702202238423",
    "count_view": 0
  },
  {
    "link_thumb": "https://live.staticflickr.com/65535/49622307308_3576589ac7_n.jpg",
    "id_album": "-316663319",
    "description": "KAWAII0503202021198",
    "title": "KAWAII0503202021198",
    "link_img": "https://live.staticflickr.com/65535/49622307308_652f5de480_o.jpg",
    "id_image": "KAWAII0503202021198",
    "count_view": 0
  },
  {
    "link_thumb": "https://live.staticflickr.com/65535/49727783407_259b0f2615_n.jpg",
    "id_album": "-1862561193",
    "description": "KAWAII020420194511157",
    "title": "KAWAII020420194511157",
    "link_img": "https://live.staticflickr.com/65535/49727783407_5d92787465_o.jpg",
    "id_image": "KAWAII020420194511157",
    "count_view": 0
  },
  {
    "link_thumb": "https://live.staticflickr.com/65535/49727441211_3a0d701017_n.jpg",
    "id_album": "742877173",
    "description": "KAWAII020420194508105",
    "title": "KAWAII020420194508105",
    "link_img": "https://live.staticflickr.com/65535/49727441211_8f9d2e417f_o.jpg",
    "id_image": "KAWAII020420194508105",
    "count_view": 0
  },
  {
    "link_thumb": "https://live.staticflickr.com/65535/49694379302_6d40337bae_n.jpg",
    "id_album": "-643980979",
    "description": "KAWAII050320202156",
    "title": "KAWAII050320202156",
    "link_img": "https://live.staticflickr.com/65535/49694379302_393105eca9_o.jpg",
    "id_image": "KAWAII050320202156",
    "count_view": 0
  },
  {
    "link_thumb": "https://live.staticflickr.com/65535/49743245252_8829082ff1_n.jpg",
    "id_album": "-316663319",
    "description": "KAWAII060420214912205",
    "title": "KAWAII060420214912205",
    "link_img": "https://live.staticflickr.com/65535/49743245252_b8cf046c3f_o.jpg",
    "id_image": "KAWAII060420214912205",
    "count_view": 0
  },
  {
    "link_thumb": "https://live.staticflickr.com/65535/49742954231_19a5184e75_n.jpg",
    "id_album": "-1431786825",
    "description": "KAWAII060420214912238",
    "title": "KAWAII060420214912238",
    "link_img": "https://live.staticflickr.com/65535/49742954231_384b234480_o.jpg",
    "id_image": "KAWAII060420214912238",
    "count_view": 0
  },
  {
    "link_thumb": "https://live.staticflickr.com/65535/49623091427_8ecb0dc677_n.jpg",
    "id_album": "-316663319",
    "description": "KAWAII0503202021173",
    "title": "KAWAII0503202021173",
    "link_img": "https://live.staticflickr.com/65535/49623091427_08332a44e9_o.jpg",
    "id_image": "KAWAII0503202021173",
    "count_view": 0
  },
  {
    "link_thumb": "https://live.staticflickr.com/65535/49726901483_c516a361ae_n.jpg",
    "id_album": "742877173",
    "description": "KAWAII020420194512151",
    "title": "KAWAII020420194512151",
    "link_img": "https://live.staticflickr.com/65535/49726901483_e39374deff_o.jpg",
    "id_image": "KAWAII020420194512151",
    "count_view": 0
  },
  {
    "link_thumb": "https://live.staticflickr.com/65535/49742952006_e9716ab44a_n.jpg",
    "id_album": "-1862561193",
    "description": "KAWAII0604202149153",
    "title": "KAWAII0604202149153",
    "link_img": "https://live.staticflickr.com/65535/49742952006_73b3e51801_o.jpg",
    "id_image": "KAWAII0604202149153",
    "count_view": 0
  },
  {
    "link_thumb": "https://live.staticflickr.com/65535/49742359078_fd9d82915a_n.jpg",
    "id_album": "1699819648",
    "description": "KAWAII06042021491275",
    "title": "KAWAII06042021491275",
    "link_img": "https://live.staticflickr.com/65535/49742359078_abdedcd173_o.jpg",
    "id_image": "KAWAII06042021491275",
    "count_view": 0
  },
  {
    "link_thumb": "https://live.staticflickr.com/65535/49552522471_ca237a98d0_n.jpg",
    "id_album": "-1694302085",
    "description": "KAWAII12091825180220205947",
    "title": "KAWAII12091825180220205947",
    "link_img": "https://live.staticflickr.com/65535/49552522471_7ffda8f93f_o.jpg",
    "id_image": "KAWAII12091825180220205947",
    "count_view": 0
  },
  {
    "link_thumb": "https://live.staticflickr.com/65535/49693549298_c7eaef73cb_n.jpg",
    "id_album": "1201366373",
    "description": "KAWAII120918226",
    "title": "KAWAII120918226",
    "link_img": "https://live.staticflickr.com/65535/49693549298_789a292352_o.jpg",
    "id_image": "KAWAII120918226",
    "count_view": 0
  },
  {
    "link_thumb": "https://live.staticflickr.com/65535/49548846807_90eed5ba80_n.jpg",
    "id_album": "-1741487325",
    "description": "KAWAII12091887",
    "title": "KAWAII12091887",
    "link_img": "https://live.staticflickr.com/65535/49548846807_a8b7b527ac_o.jpg",
    "id_image": "KAWAII12091887",
    "count_view": 0
  },
  {
    "link_thumb": "https://live.staticflickr.com/65535/49710287328_18c2ba3d5f_n.jpg",
    "id_album": "-1599896063",
    "description": "LITTLEMONK29032012063624",
    "title": "LITTLEMONK29032012063624",
    "link_img": "https://live.staticflickr.com/65535/49710287328_1c3a63f6c7_o.jpg",
    "id_image": "LITTLEMONK29032012063624",
    "count_view": 0
  },
  {
    "link_thumb": "https://live.staticflickr.com/65535/49694086796_2038f4e37a_n.jpg",
    "id_album": "-643980979",
    "description": "KAWAII12091817",
    "title": "KAWAII12091817",
    "link_img": "https://live.staticflickr.com/65535/49694086796_46b9dc535b_o.jpg",
    "id_image": "KAWAII12091817",
    "count_view": 0
  },
  {
    "link_thumb": "https://live.staticflickr.com/65535/49727784842_cbc255ac83_n.jpg",
    "id_album": "-1862561193",
    "description": "KAWAII02042019451180",
    "title": "KAWAII02042019451180",
    "link_img": "https://live.staticflickr.com/65535/49727784842_13f09cf695_o.jpg",
    "id_image": "KAWAII02042019451180",
    "count_view": 0
  },
  {
    "link_thumb": "https://live.staticflickr.com/65535/49548648206_fc77f7e2f5_n.jpg",
    "id_album": "1396902986",
    "description": "KAWAII1702202235130",
    "title": "KAWAII1702202235130",
    "link_img": "https://live.staticflickr.com/65535/49548648206_5d6c93a8e1_o.jpg",
    "id_image": "KAWAII1702202235130",
    "count_view": 0
  },
  {
    "link_thumb": "https://live.staticflickr.com/65535/49622305598_9230646744_n.jpg",
    "id_album": "-1694302085",
    "description": "KAWAII0503202021185",
    "title": "KAWAII0503202021185",
    "link_img": "https://live.staticflickr.com/65535/49622305598_e858a8250f_o.jpg",
    "id_image": "KAWAII0503202021185",
    "count_view": 0
  },
  {
    "link_thumb": "https://live.staticflickr.com/65535/49548185898_3ef0c51f7b_n.jpg",
    "id_album": "-1741487325",
    "description": "KAWAII1702202237321",
    "title": "KAWAII1702202237321",
    "link_img": "https://live.staticflickr.com/65535/49548185898_abab100efd_o.jpg",
    "id_image": "KAWAII1702202237321",
    "count_view": 0
  },
  {
    "link_thumb": "https://live.staticflickr.com/65535/49694221281_4bcc2ed000_n.jpg",
    "id_album": "-1432180061",
    "description": "KAWAII1702202237340",
    "title": "KAWAII1702202237340",
    "link_img": "https://live.staticflickr.com/65535/49694221281_264ab1e996_o.jpg",
    "id_image": "KAWAII1702202237340",
    "count_view": 0
  },
  {
    "link_thumb": "https://live.staticflickr.com/65535/49742929001_e119c2c6f8_n.jpg",
    "id_album": "-316663319",
    "description": "KAWAII060420214915295",
    "title": "KAWAII060420214915295",
    "link_img": "https://live.staticflickr.com/65535/49742929001_b618cff33e_o.jpg",
    "id_image": "KAWAII060420214915295",
    "count_view": 0
  },
  {
    "link_thumb": "https://live.staticflickr.com/65535/49743266967_158b749625_n.jpg",
    "id_album": "-1779286820",
    "description": "KAWAII060420214913187",
    "title": "KAWAII060420214913187",
    "link_img": "https://live.staticflickr.com/65535/49743266967_cacda7e47b_o.jpg",
    "id_image": "KAWAII060420214913187",
    "count_view": 0
  },
  {
    "link_thumb": "https://live.staticflickr.com/65535/49743250207_8d58b1d982_n.jpg",
    "id_album": "-316663319",
    "description": "KAWAII06042021491460",
    "title": "KAWAII06042021491460",
    "link_img": "https://live.staticflickr.com/65535/49743250207_89f7b8c0c6_o.jpg",
    "id_image": "KAWAII06042021491460",
    "count_view": 0
  },
  {
    "link_thumb": "https://live.staticflickr.com/65535/49693559363_a9940126b2_n.jpg",
    "id_album": "1201366373",
    "description": "KAWAII12091847",
    "title": "KAWAII12091847",
    "link_img": "https://live.staticflickr.com/65535/49693559363_9714b1daf8_o.jpg",
    "id_image": "KAWAII12091847",
    "count_view": 0
  },
  {
    "link_thumb": "https://live.staticflickr.com/65535/49727471006_043647b0e6_n.jpg",
    "id_album": "-1862561193",
    "description": "KAWAII020420194512159",
    "title": "KAWAII020420194512159",
    "link_img": "https://live.staticflickr.com/65535/49727471006_f15fc868e5_o.jpg",
    "id_image": "KAWAII020420194512159",
    "count_view": 0
  },
  {
    "link_thumb": "https://live.staticflickr.com/65535/49693561578_1491a82a1a_n.jpg",
    "id_album": "-643980979",
    "description": "KAWAII12091889",
    "title": "KAWAII12091889",
    "link_img": "https://live.staticflickr.com/65535/49693561578_76c87b9831_o.jpg",
    "id_image": "KAWAII12091889",
    "count_view": 0
  },
  {
    "link_thumb": "https://live.staticflickr.com/65535/49693681333_6abeaa8d64_n.jpg",
    "id_album": "-1862561193",
    "description": "KAWAII24032022050164",
    "title": "KAWAII24032022050164",
    "link_img": "https://live.staticflickr.com/65535/49693681333_5a06cfd631_o.jpg",
    "id_image": "KAWAII24032022050164",
    "count_view": 0
  },
  {
    "link_thumb": "https://live.staticflickr.com/65535/49726918963_b2a3514582_n.jpg",
    "id_album": "-1862561193",
    "description": "KAWAII020420194508177",
    "title": "KAWAII020420194508177",
    "link_img": "https://live.staticflickr.com/65535/49726918963_5ab6ca99ac_o.jpg",
    "id_image": "KAWAII020420194508177",
    "count_view": 0
  },
  {
    "link_thumb": "https://live.staticflickr.com/65535/49742377823_430d274ee0_n.jpg",
    "id_album": "-316663319",
    "description": "KAWAII060420214914245",
    "title": "KAWAII060420214914245",
    "link_img": "https://live.staticflickr.com/65535/49742377823_82695e5429_o.jpg",
    "id_image": "KAWAII060420214914245",
    "count_view": 0
  },
  {
    "link_thumb": "https://live.staticflickr.com/65535/49548997562_78b5dab695_n.jpg",
    "id_album": "-316663319",
    "description": "KAWAII17091843",
    "title": "KAWAII17091843",
    "link_img": "https://live.staticflickr.com/65535/49548997562_84d0f9d739_o.jpg",
    "id_image": "KAWAII17091843",
    "count_view": 0
  },
  {
    "link_thumb": "https://live.staticflickr.com/65535/49742942536_fc02d0a26a_n.jpg",
    "id_album": "-1779286820",
    "description": "KAWAII060420214912196",
    "title": "KAWAII060420214912196",
    "link_img": "https://live.staticflickr.com/65535/49742942536_e90b189efb_o.jpg",
    "id_image": "KAWAII060420214912196",
    "count_view": 0
  },
  {
    "link_thumb": "https://live.staticflickr.com/65535/49694216611_d0f7c86d52_n.jpg",
    "id_album": "-1741487325",
    "description": "KAWAII120918249",
    "title": "KAWAII120918249",
    "link_img": "https://live.staticflickr.com/65535/49694216611_86a098ca41_o.jpg",
    "id_image": "KAWAII120918249",
    "count_view": 0
  },
  {
    "link_thumb": "https://live.staticflickr.com/65535/49592214838_890bcf4f6d_n.jpg",
    "id_album": "-316663319",
    "description": "KAWAII270220235129",
    "title": "KAWAII270220235129",
    "link_img": "https://live.staticflickr.com/65535/49592214838_713a6a5106_o.jpg",
    "id_image": "KAWAII270220235129",
    "count_view": 0
  },
  {
    "link_thumb": "https://live.staticflickr.com/65535/49592947907_e9babfbfd3_n.jpg",
    "id_album": "-422187261",
    "description": "KAWAII270220235158",
    "title": "KAWAII270220235158",
    "link_img": "https://live.staticflickr.com/65535/49592947907_341dbc7523_o.jpg",
    "id_image": "KAWAII270220235158",
    "count_view": 0
  },
  {
    "link_thumb": "https://live.staticflickr.com/65535/49592712941_9ab292a7fc_n.jpg",
    "id_album": "-316663319",
    "description": "KAWAII17091814",
    "title": "KAWAII17091814",
    "link_img": "https://live.staticflickr.com/65535/49592712941_b7c9d2594e_o.jpg",
    "id_image": "KAWAII17091814",
    "count_view": 0
  },
  {
    "link_thumb": "https://live.staticflickr.com/65535/49727453711_69725a9b6a_n.jpg",
    "id_album": "742877173",
    "description": "KAWAII02042019451471",
    "title": "KAWAII02042019451471",
    "link_img": "https://live.staticflickr.com/65535/49727453711_1b093a62f5_o.jpg",
    "id_image": "KAWAII02042019451471",
    "count_view": 0
  },
  {
    "link_thumb": "https://live.staticflickr.com/65535/49742916301_5761ab09ce_n.jpg",
    "id_album": "-643980979",
    "description": "KAWAII060420214913191",
    "title": "KAWAII060420214913191",
    "link_img": "https://live.staticflickr.com/65535/49742916301_681a230855_o.jpg",
    "id_image": "KAWAII060420214913191",
    "count_view": 0
  },
  {
    "link_thumb": "https://live.staticflickr.com/65535/49742949746_12a3f8ddfc_n.jpg",
    "id_album": "1396902986",
    "description": "KAWAII06042021491780",
    "title": "KAWAII06042021491780",
    "link_img": "https://live.staticflickr.com/65535/49742949746_d15606bb47_o.jpg",
    "id_image": "KAWAII06042021491780",
    "count_view": 0
  },
  {
    "link_thumb": "https://live.staticflickr.com/65535/49742405328_c94bc0f915_n.jpg",
    "id_album": "-1862561193",
    "description": "KAWAII060420214918143",
    "title": "KAWAII060420214918143",
    "link_img": "https://live.staticflickr.com/65535/49742405328_bbc4ea039d_o.jpg",
    "id_image": "KAWAII060420214918143",
    "count_view": 0
  },
  {
    "link_thumb": "https://live.staticflickr.com/65535/49694130451_011541c1c3_n.jpg",
    "id_album": "431597977",
    "description": "KAWAII12091819",
    "title": "KAWAII12091819",
    "link_img": "https://live.staticflickr.com/65535/49694130451_5f5ee9beeb_o.jpg",
    "id_image": "KAWAII12091819",
    "count_view": 0
  },
  {
    "link_thumb": "https://live.staticflickr.com/65535/49548575331_8576900620_n.jpg",
    "id_album": "-316663319",
    "description": "KAWAII120918231",
    "title": "KAWAII120918231",
    "link_img": "https://live.staticflickr.com/65535/49548575331_cc77fbf7e5_o.jpg",
    "id_image": "KAWAII120918231",
    "count_view": 0
  },
  {
    "link_thumb": "https://live.staticflickr.com/65535/49578242613_7c8b60b077_n.jpg",
    "id_album": "-422187261",
    "description": "KAWAII190220211129",
    "title": "KAWAII190220211129",
    "link_img": "https://live.staticflickr.com/65535/49578242613_b4337b78c2_o.jpg",
    "id_image": "KAWAII190220211129",
    "count_view": 0
  },
  {
    "link_thumb": "https://live.staticflickr.com/65535/49592207433_e6d261d1a6_n.jpg",
    "id_album": "-1741487325",
    "description": "KAWAII1702202237382",
    "title": "KAWAII1702202237382",
    "link_img": "https://live.staticflickr.com/65535/49592207433_5dde2b2cd3_o.jpg",
    "id_image": "KAWAII1702202237382",
    "count_view": 0
  },
  {
    "link_thumb": "https://live.staticflickr.com/65535/49694129991_fbaa985ab2_n.jpg",
    "id_album": "1226948986",
    "description": "TOTORO22032015427",
    "title": "TOTORO22032015427",
    "link_img": "https://live.staticflickr.com/65535/49694129991_6217e3c921_o.jpg",
    "id_image": "TOTORO22032015427",
    "count_view": 0
  },
  {
    "link_thumb": "https://live.staticflickr.com/65535/49548144938_89248b4901_n.jpg",
    "id_album": "-1099943053",
    "description": "KAWAII170220223497",
    "title": "KAWAII170220223497",
    "link_img": "https://live.staticflickr.com/65535/49548144938_69b1952f1a_o.jpg",
    "id_image": "KAWAII170220223497",
    "count_view": 0
  },
  {
    "link_thumb": "https://live.staticflickr.com/65535/49742386353_169a844989_n.jpg",
    "id_album": "416744915",
    "description": "KAWAII060420214912114",
    "title": "KAWAII060420214912114",
    "link_img": "https://live.staticflickr.com/65535/49742386353_22d395e5c6_o.jpg",
    "id_image": "KAWAII060420214912114",
    "count_view": 0
  },
  {
    "link_thumb": "https://live.staticflickr.com/65535/49548560796_d6792a7f68_n.jpg",
    "id_album": "-1432180061",
    "description": "KAWAII120918166",
    "title": "KAWAII120918166",
    "link_img": "https://live.staticflickr.com/65535/49548560796_c1fcc92e32_o.jpg",
    "id_image": "KAWAII120918166",
    "count_view": 0
  },
  {
    "link_thumb": "https://live.staticflickr.com/65535/49592957402_3ea6d1276e_n.jpg",
    "id_album": "-316663319",
    "description": "KAWAII2702202351137",
    "title": "KAWAII2702202351137",
    "link_img": "https://live.staticflickr.com/65535/49592957402_366e7bebb4_o.jpg",
    "id_image": "KAWAII2702202351137",
    "count_view": 0
  },
  {
    "link_thumb": "https://live.staticflickr.com/65535/49693576813_fc78654c31_n.jpg",
    "id_album": "-643980979",
    "description": "KAWAII17091841",
    "title": "KAWAII17091841",
    "link_img": "https://live.staticflickr.com/65535/49693576813_88f55eb0eb_o.jpg",
    "id_image": "KAWAII17091841",
    "count_view": 0
  },
  {
    "link_thumb": "https://live.staticflickr.com/65535/49727742027_652122fdb0_n.jpg",
    "id_album": "-1694302085",
    "description": "KAWAII190220211125",
    "title": "KAWAII190220211125",
    "link_img": "https://live.staticflickr.com/65535/49727742027_caa66c7ef6_o.jpg",
    "id_image": "KAWAII190220211125",
    "count_view": 0
  },
  {
    "link_thumb": "https://live.staticflickr.com/65535/49622838741_3cea7265f8_n.jpg",
    "id_album": "-316663319",
    "description": "KAWAII050320202163",
    "title": "KAWAII050320202163",
    "link_img": "https://live.staticflickr.com/65535/49622838741_984a95b2fb_o.jpg",
    "id_image": "KAWAII050320202163",
    "count_view": 0
  },
  {
    "link_thumb": "https://live.staticflickr.com/65535/49548632456_02d78aed1e_n.jpg",
    "id_album": "-316663319",
    "description": "KAWAII1702202234119",
    "title": "KAWAII1702202234119",
    "link_img": "https://live.staticflickr.com/65535/49548632456_9273938554_o.jpg",
    "id_image": "KAWAII1702202234119",
    "count_view": 0
  },
  {
    "link_thumb": "https://live.staticflickr.com/65535/49622837701_8c5132a8df_n.jpg",
    "id_album": "-316663319",
    "description": "KAWAII050320202153",
    "title": "KAWAII050320202153",
    "link_img": "https://live.staticflickr.com/65535/49622837701_082e4868e9_o.jpg",
    "id_image": "KAWAII050320202153",
    "count_view": 0
  },
  {
    "link_thumb": "https://live.staticflickr.com/65535/49742948761_e94d2c008c_n.jpg",
    "id_album": "1396902986",
    "description": "KAWAII060420214915147",
    "title": "KAWAII060420214915147",
    "link_img": "https://live.staticflickr.com/65535/49742948761_b4e2a9b1d7_o.jpg",
    "id_image": "KAWAII060420214915147",
    "count_view": 0
  },
  {
    "link_thumb": "https://live.staticflickr.com/65535/49711145222_3bfb5bf054_n.jpg",
    "id_album": "-1599896063",
    "description": "LITTLEMONK29032012063630",
    "title": "LITTLEMONK29032012063630",
    "link_img": "https://live.staticflickr.com/65535/49711145222_37a51ff33e_o.jpg",
    "id_image": "LITTLEMONK29032012063630",
    "count_view": 0
  },
  {
    "link_thumb": "https://live.staticflickr.com/65535/49727754157_91cc09de26_n.jpg",
    "id_album": "-316663319",
    "description": "KAWAII020420194512160",
    "title": "KAWAII020420194512160",
    "link_img": "https://live.staticflickr.com/65535/49727754157_1ab4982a2a_o.jpg",
    "id_image": "KAWAII020420194512160",
    "count_view": 0
  },
  {
    "link_thumb": "https://live.staticflickr.com/65535/49694385997_7851f90b4a_n.jpg",
    "id_album": "1201366373",
    "description": "KAWAII120918141",
    "title": "KAWAII120918141",
    "link_img": "https://live.staticflickr.com/65535/49694385997_f3e813d133_o.jpg",
    "id_image": "KAWAII120918141",
    "count_view": 0
  },
  {
    "link_thumb": "https://live.staticflickr.com/65535/49726916968_cf41131008_n.jpg",
    "id_album": "1396902986",
    "description": "KAWAII02042019450862",
    "title": "KAWAII02042019450862",
    "link_img": "https://live.staticflickr.com/65535/49726916968_406629827f_o.jpg",
    "id_image": "KAWAII02042019450862",
    "count_view": 0
  },
  {
    "link_thumb": "https://live.staticflickr.com/65535/49743256457_b3730c7fbf_n.jpg",
    "id_album": "-316663319",
    "description": "KAWAII06042021491793",
    "title": "KAWAII06042021491793",
    "link_img": "https://live.staticflickr.com/65535/49743256457_c81101e369_o.jpg",
    "id_image": "KAWAII06042021491793",
    "count_view": 0
  },
  {
    "link_thumb": "https://live.staticflickr.com/65535/49743282302_88444c1c8e_n.jpg",
    "id_album": "1226948986",
    "description": "KAWAII060420214918291",
    "title": "KAWAII060420214918291",
    "link_img": "https://live.staticflickr.com/65535/49743282302_540f70f218_o.jpg",
    "id_image": "KAWAII060420214918291",
    "count_view": 0
  },
  {
    "link_thumb": "https://live.staticflickr.com/65535/49693562678_666524c205_n.jpg",
    "id_album": "1201366373",
    "description": "KAWAII17022022333",
    "title": "KAWAII17022022333",
    "link_img": "https://live.staticflickr.com/65535/49693562678_002115e5c4_o.jpg",
    "id_image": "KAWAII17022022333",
    "count_view": 0
  },
  {
    "link_thumb": "https://live.staticflickr.com/65535/49742954436_79e38cee5f_n.jpg",
    "id_album": "-1431786825",
    "description": "KAWAII060420214912268",
    "title": "KAWAII060420214912268",
    "link_img": "https://live.staticflickr.com/65535/49742954436_2ae6f8afb5_o.jpg",
    "id_image": "KAWAII060420214912268",
    "count_view": 0
  },
  {
    "link_thumb": "https://live.staticflickr.com/65535/49727755717_c911ae91a5_n.jpg",
    "id_album": "742877173",
    "description": "KAWAII020420194507215",
    "title": "KAWAII020420194507215",
    "link_img": "https://live.staticflickr.com/65535/49727755717_9a4a305ae8_o.jpg",
    "id_image": "KAWAII020420194507215",
    "count_view": 0
  },
  {
    "link_thumb": "https://live.staticflickr.com/65535/49548596946_8b990ae9b8_n.jpg",
    "id_album": "1396902986",
    "description": "KAWAII120918327",
    "title": "KAWAII120918327",
    "link_img": "https://live.staticflickr.com/65535/49548596946_df4eb020d8_o.jpg",
    "id_image": "KAWAII120918327",
    "count_view": 0
  },
  {
    "link_thumb": "https://live.staticflickr.com/65535/49548729551_d152518c25_n.jpg",
    "id_album": "-422187261",
    "description": "KAWAII1702202238491",
    "title": "KAWAII1702202238491",
    "link_img": "https://live.staticflickr.com/65535/49548729551_87dde6ce32_o.jpg",
    "id_image": "KAWAII1702202238491",
    "count_view": 0
  },
  {
    "link_thumb": "https://live.staticflickr.com/65535/49592734431_2caa3999b0_n.jpg",
    "id_album": "949200594",
    "description": "KAWAII27022023519",
    "title": "KAWAII27022023519",
    "link_img": "https://live.staticflickr.com/65535/49592734431_cc7c9317c4_o.jpg",
    "id_image": "KAWAII27022023519",
    "count_view": 0
  },
  {
    "link_thumb": "https://live.staticflickr.com/65535/49694109831_34a1bbd234_n.jpg",
    "id_album": "-643980979",
    "description": "KAWAII1702202236281",
    "title": "KAWAII1702202236281",
    "link_img": "https://live.staticflickr.com/65535/49694109831_78a373918d_o.jpg",
    "id_image": "KAWAII1702202236281",
    "count_view": 0
  },
  {
    "link_thumb": "https://live.staticflickr.com/65535/49727744457_659e28499f_n.jpg",
    "id_album": "-1497779911",
    "description": "KAWAII020420194511180",
    "title": "KAWAII020420194511180",
    "link_img": "https://live.staticflickr.com/65535/49727744457_113c3ac71b_o.jpg",
    "id_image": "KAWAII020420194511180",
    "count_view": 0
  },
  {
    "link_thumb": "https://live.staticflickr.com/65535/49592959667_2f7f2098df_n.jpg",
    "id_album": "-316663319",
    "description": "KAWAII270220235121",
    "title": "KAWAII270220235121",
    "link_img": "https://live.staticflickr.com/65535/49592959667_89894cfff3_o.jpg",
    "id_image": "KAWAII270220235121",
    "count_view": 0
  },
  {
    "link_thumb": "https://live.staticflickr.com/65535/49592721871_d8c01a7af3_n.jpg",
    "id_album": "-316663319",
    "description": "KAWAII270220235192",
    "title": "KAWAII270220235192",
    "link_img": "https://live.staticflickr.com/65535/49592721871_96360fb768_o.jpg",
    "id_image": "KAWAII270220235192",
    "count_view": 0
  },
  {
    "link_thumb": "https://live.staticflickr.com/65535/49743256862_0bb0d1dbd6_n.jpg",
    "id_album": "-316663319",
    "description": "KAWAII060420214918256",
    "title": "KAWAII060420214918256",
    "link_img": "https://live.staticflickr.com/65535/49743256862_8171ab2751_o.jpg",
    "id_image": "KAWAII060420214918256",
    "count_view": 0
  },
  {
    "link_thumb": "https://live.staticflickr.com/65535/49743259342_481651d1c3_n.jpg",
    "id_album": "-1473448477",
    "description": "KAWAII060420214915165",
    "title": "KAWAII060420214915165",
    "link_img": "https://live.staticflickr.com/65535/49743259342_a03d2777dd_o.jpg",
    "id_image": "KAWAII060420214915165",
    "count_view": 0
  },
  {
    "link_thumb": "https://live.staticflickr.com/65535/49742386178_0cfdce1133_n.jpg",
    "id_album": "742877173",
    "description": "KAWAII06042021491858",
    "title": "KAWAII06042021491858",
    "link_img": "https://live.staticflickr.com/65535/49742386178_b932cbaa6d_o.jpg",
    "id_image": "KAWAII06042021491858",
    "count_view": 0
  },
  {
    "link_thumb": "https://live.staticflickr.com/65535/49694526187_c1cb44a107_n.jpg",
    "id_album": "-406350429",
    "description": "KAWAII270220235188",
    "title": "KAWAII270220235188",
    "link_img": "https://live.staticflickr.com/65535/49694526187_0d229d72ef_o.jpg",
    "id_image": "KAWAII270220235188",
    "count_view": 0
  },
  {
    "link_thumb": "https://live.staticflickr.com/65535/49727763412_a8a509b1fd_n.jpg",
    "id_album": "742877173",
    "description": "KAWAII020420194512174",
    "title": "KAWAII020420194512174",
    "link_img": "https://live.staticflickr.com/65535/49727763412_45efa3caa1_o.jpg",
    "id_image": "KAWAII020420194512174",
    "count_view": 0
  },
  {
    "link_thumb": "https://live.staticflickr.com/65535/49592953492_b84fb37449_n.jpg",
    "id_album": "-1741487325",
    "description": "KAWAII17091831",
    "title": "KAWAII17091831",
    "link_img": "https://live.staticflickr.com/65535/49592953492_ee077b4196_o.jpg",
    "id_image": "KAWAII17091831",
    "count_view": 0
  },
  {
    "link_thumb": "https://live.staticflickr.com/65535/49694388417_0823b76ba4_n.jpg",
    "id_album": "1201366373",
    "description": "KAWAII120918162",
    "title": "KAWAII120918162",
    "link_img": "https://live.staticflickr.com/65535/49694388417_d1d490b578_o.jpg",
    "id_image": "KAWAII120918162",
    "count_view": 0
  },
  {
    "link_thumb": "https://live.staticflickr.com/65535/49743250537_732aca461a_n.jpg",
    "id_album": "-316663319",
    "description": "KAWAII060420214915109",
    "title": "KAWAII060420214915109",
    "link_img": "https://live.staticflickr.com/65535/49743250537_1019c71c32_o.jpg",
    "id_image": "KAWAII060420214915109",
    "count_view": 0
  },
  {
    "link_thumb": "https://live.staticflickr.com/65535/49694113391_93707dee7b_n.jpg",
    "id_album": "1201366373",
    "description": "KAWAII1702202239507",
    "title": "KAWAII1702202239507",
    "link_img": "https://live.staticflickr.com/65535/49694113391_47d1006bf4_o.jpg",
    "id_image": "KAWAII1702202239507",
    "count_view": 0
  },
  {
    "link_thumb": "https://live.staticflickr.com/65535/49592731011_49c2a743bf_n.jpg",
    "id_album": "949200594",
    "description": "KAWAII2702202351131",
    "title": "KAWAII2702202351131",
    "link_img": "https://live.staticflickr.com/65535/49592731011_23595a6872_o.jpg",
    "id_image": "KAWAII2702202351131",
    "count_view": 0
  },
  {
    "link_thumb": "https://live.staticflickr.com/65535/49727738967_e4973d12f0_n.jpg",
    "id_album": "-1694302085",
    "description": "KAWAII020420194508185",
    "title": "KAWAII020420194508185",
    "link_img": "https://live.staticflickr.com/65535/49727738967_80ec5f38eb_o.jpg",
    "id_image": "KAWAII020420194508185",
    "count_view": 0
  },
  {
    "link_thumb": "https://live.staticflickr.com/65535/49694074656_467bd58490_n.jpg",
    "id_album": "-643980979",
    "description": "KAWAII0503202021282",
    "title": "KAWAII0503202021282",
    "link_img": "https://live.staticflickr.com/65535/49694074656_9a1018bd3c_o.jpg",
    "id_image": "KAWAII0503202021282",
    "count_view": 0
  },
  {
    "link_thumb": "https://live.staticflickr.com/65535/49592711266_9f1c10e4a6_n.jpg",
    "id_album": "-1741487325",
    "description": "KAWAII2702202351135",
    "title": "KAWAII2702202351135",
    "link_img": "https://live.staticflickr.com/65535/49592711266_c98eb4866d_o.jpg",
    "id_image": "KAWAII2702202351135",
    "count_view": 0
  },
  {
    "link_thumb": "https://live.staticflickr.com/65535/49548692246_e33c44dc92_n.jpg",
    "id_album": "-1431786825",
    "description": "KAWAII1702202237347",
    "title": "KAWAII1702202237347",
    "link_img": "https://live.staticflickr.com/65535/49548692246_38e5e82e1a_o.jpg",
    "id_image": "KAWAII1702202237347",
    "count_view": 0
  }
]