[
  {
    "link_thumb": "https://live.staticflickr.com/65535/49742901901_b734d0d065_n.jpg",
    "id_album": "-1913845949",
    "description": "KAWAII06042021491348",
    "title": "KAWAII06042021491348",
    "link_img": "https://live.staticflickr.com/65535/49742901901_d8d816ca1b_o.jpg",
    "id_image": "KAWAII06042021491348",
    "count_view": 0
  },
  {
    "link_thumb": "https://live.staticflickr.com/65535/49548070103_c51992d11a_n.jpg",
    "id_album": "-316663319",
    "description": "KAWAII120918218",
    "title": "KAWAII120918218",
    "link_img": "https://live.staticflickr.com/65535/49548070103_060f53032d_o.jpg",
    "id_image": "KAWAII120918218",
    "count_view": 0
  },
  {
    "link_thumb": "https://live.staticflickr.com/65535/49592731011_49c2a743bf_n.jpg",
    "id_album": "949200594",
    "description": "KAWAII2702202351131",
    "title": "KAWAII2702202351131",
    "link_img": "https://live.staticflickr.com/65535/49592731011_23595a6872_o.jpg",
    "id_image": "KAWAII2702202351131",
    "count_view": 0
  },
  {
    "link_thumb": "https://live.staticflickr.com/65535/49726876713_347a15e4ed_n.jpg",
    "id_album": "-1694302085",
    "description": "KAWAII020420194508119",
    "title": "KAWAII020420194508119",
    "link_img": "https://live.staticflickr.com/65535/49726876713_7db942ecae_o.jpg",
    "id_image": "KAWAII020420194508119",
    "count_view": 0
  },
  {
    "link_thumb": "https://live.staticflickr.com/65535/49548560796_d6792a7f68_n.jpg",
    "id_album": "-1432180061",
    "description": "KAWAII120918166",
    "title": "KAWAII120918166",
    "link_img": "https://live.staticflickr.com/65535/49548560796_c1fcc92e32_o.jpg",
    "id_image": "KAWAII120918166",
    "count_view": 0
  },
  {
    "link_thumb": "https://live.staticflickr.com/65535/49548630381_63d31e5726_n.jpg",
    "id_album": "-1432180061",
    "description": "KAWAII1702202234106",
    "title": "KAWAII1702202234106",
    "link_img": "https://live.staticflickr.com/65535/49548630381_ede726d8da_o.jpg",
    "id_image": "KAWAII1702202234106",
    "count_view": 0
  },
  {
    "link_thumb": "https://live.staticflickr.com/65535/49742389923_e272274913_n.jpg",
    "id_album": "-1473448477",
    "description": "KAWAII060420214915240",
    "title": "KAWAII060420214915240",
    "link_img": "https://live.staticflickr.com/65535/49742389923_3c886ac146_o.jpg",
    "id_image": "KAWAII060420214915240",
    "count_view": 0
  },
  {
    "link_thumb": "https://live.staticflickr.com/65535/49694100931_1484c44f33_n.jpg",
    "id_album": "1201366373",
    "description": "KAWAII12091835",
    "title": "KAWAII12091835",
    "link_img": "https://live.staticflickr.com/65535/49694100931_6e938afa04_o.jpg",
    "id_image": "KAWAII12091835",
    "count_view": 0
  },
  {
    "link_thumb": "https://live.staticflickr.com/65535/49592729676_51ee2d2792_n.jpg",
    "id_album": "949200594",
    "description": "KAWAII2702202351121",
    "title": "KAWAII2702202351121",
    "link_img": "https://live.staticflickr.com/65535/49592729676_4bae3275f4_o.jpg",
    "id_image": "KAWAII2702202351121",
    "count_view": 0
  },
  {
    "link_thumb": "https://live.staticflickr.com/65535/49693521123_a6d6c33aec_n.jpg",
    "id_album": "1699819648",
    "description": "KAWAII0503202021327",
    "title": "KAWAII0503202021327",
    "link_img": "https://live.staticflickr.com/65535/49693521123_7af73e9eda_o.jpg",
    "id_image": "KAWAII0503202021327",
    "count_view": 0
  },
  {
    "link_thumb": "https://live.staticflickr.com/65535/49711146627_ecd37057a1_n.jpg",
    "id_album": "-1599896063",
    "description": "LITTLEMONK29032012064022",
    "title": "LITTLEMONK29032012064022",
    "link_img": "https://live.staticflickr.com/65535/49711146627_b08b52fb70_o.jpg",
    "id_image": "LITTLEMONK29032012064022",
    "count_view": 0
  },
  {
    "link_thumb": "https://live.staticflickr.com/65535/49623109402_bf0168a028_n.jpg",
    "id_album": "-316663319",
    "description": "KAWAII050320202142",
    "title": "KAWAII050320202142",
    "link_img": "https://live.staticflickr.com/65535/49623109402_f72bd09d27_o.jpg",
    "id_image": "KAWAII050320202142",
    "count_view": 0
  },
  {
    "link_thumb": "https://live.staticflickr.com/65535/49622314693_bcce1671b7_n.jpg",
    "id_album": "-316663319",
    "description": "KAWAII0503202021281",
    "title": "KAWAII0503202021281",
    "link_img": "https://live.staticflickr.com/65535/49622314693_850067808d_o.jpg",
    "id_image": "KAWAII0503202021281",
    "count_view": 0
  },
  {
    "link_thumb": "https://live.staticflickr.com/65535/49742404138_dd39a00ba4_n.jpg",
    "id_album": "-1862561193",
    "description": "KAWAII060420214915222",
    "title": "KAWAII060420214915222",
    "link_img": "https://live.staticflickr.com/65535/49742404138_ee8899e8f9_o.jpg",
    "id_image": "KAWAII060420214915222",
    "count_view": 0
  },
  {
    "link_thumb": "https://live.staticflickr.com/65535/49727743857_0937fd0b71_n.jpg",
    "id_album": "-1741487325",
    "description": "KAWAII020420194513254",
    "title": "KAWAII020420194513254",
    "link_img": "https://live.staticflickr.com/65535/49727743857_36fd5a4ba1_o.jpg",
    "id_image": "KAWAII020420194513254",
    "count_view": 0
  },
  {
    "link_thumb": "https://live.staticflickr.com/65535/49742376258_e2dfae3b26_n.jpg",
    "id_album": "-316663319",
    "description": "KAWAII06042021491321",
    "title": "KAWAII06042021491321",
    "link_img": "https://live.staticflickr.com/65535/49742376258_131657c0c2_o.jpg",
    "id_image": "KAWAII06042021491321",
    "count_view": 0
  },
  {
    "link_thumb": "https://live.staticflickr.com/65535/49743237517_b351117ef9_n.jpg",
    "id_album": "-1497779911",
    "description": "KAWAII06042021491250",
    "title": "KAWAII06042021491250",
    "link_img": "https://live.staticflickr.com/65535/49743237517_e4792d6594_o.jpg",
    "id_image": "KAWAII06042021491250",
    "count_view": 0
  },
  {
    "link_thumb": "https://live.staticflickr.com/65535/49742386178_0cfdce1133_n.jpg",
    "id_album": "742877173",
    "description": "KAWAII06042021491858",
    "title": "KAWAII06042021491858",
    "link_img": "https://live.staticflickr.com/65535/49742386178_b932cbaa6d_o.jpg",
    "id_image": "KAWAII06042021491858",
    "count_view": 0
  },
  {
    "link_thumb": "https://live.staticflickr.com/65535/49694402162_571e2018be_n.jpg",
    "id_album": "1201366373",
    "description": "KAWAII120918301",
    "title": "KAWAII120918301",
    "link_img": "https://live.staticflickr.com/65535/49694402162_4b50bcf03a_o.jpg",
    "id_image": "KAWAII120918301",
    "count_view": 0
  },
  {
    "link_thumb": "https://live.staticflickr.com/65535/49742939316_05ef8a4349_n.jpg",
    "id_album": "-1473448477",
    "description": "KAWAII06042021491543",
    "title": "KAWAII06042021491543",
    "link_img": "https://live.staticflickr.com/65535/49742939316_801a766890_o.jpg",
    "id_image": "KAWAII06042021491543",
    "count_view": 0
  },
  {
    "link_thumb": "https://live.staticflickr.com/65535/49548560621_51602de8fb_n.jpg",
    "id_album": "-1741487325",
    "description": "KAWAII120918165",
    "title": "KAWAII120918165",
    "link_img": "https://live.staticflickr.com/65535/49548560621_5f6ce9a1d9_o.jpg",
    "id_image": "KAWAII120918165",
    "count_view": 0
  },
  {
    "link_thumb": "https://live.staticflickr.com/65535/49622283833_4431a37fe7_n.jpg",
    "id_album": "1396902986",
    "description": "KAWAII0503202021108",
    "title": "KAWAII0503202021108",
    "link_img": "https://live.staticflickr.com/65535/49622283833_65829db4d6_o.jpg",
    "id_image": "KAWAII0503202021108",
    "count_view": 0
  },
  {
    "link_thumb": "https://live.staticflickr.com/65535/49548905007_fe53d568fb_n.jpg",
    "id_album": "-1099943053",
    "description": "KAWAII1702202236279",
    "title": "KAWAII1702202236279",
    "link_img": "https://live.staticflickr.com/65535/49548905007_00a605895a_o.jpg",
    "id_image": "KAWAII1702202236279",
    "count_view": 0
  },
  {
    "link_thumb": "https://live.staticflickr.com/65535/49592210588_349e58581a_n.jpg",
    "id_album": "-316663319",
    "description": "KAWAII2702202351107",
    "title": "KAWAII2702202351107",
    "link_img": "https://live.staticflickr.com/65535/49592210588_7a766ca9b7_o.jpg",
    "id_image": "KAWAII2702202351107",
    "count_view": 0
  },
  {
    "link_thumb": "https://live.staticflickr.com/65535/49727751687_7a731233df_n.jpg",
    "id_album": "-316663319",
    "description": "KAWAII020420194510235",
    "title": "KAWAII020420194510235",
    "link_img": "https://live.staticflickr.com/65535/49727751687_d43218505f_o.jpg",
    "id_image": "KAWAII020420194510235",
    "count_view": 0
  },
  {
    "link_thumb": "https://live.staticflickr.com/65535/49693676763_e5880238a2_n.jpg",
    "id_album": "-643980979",
    "description": "KAWAII24032022050256",
    "title": "KAWAII24032022050256",
    "link_img": "https://live.staticflickr.com/65535/49693676763_63e49d7ae3_o.jpg",
    "id_image": "KAWAII24032022050256",
    "count_view": 0
  },
  {
    "link_thumb": "https://live.staticflickr.com/65535/49742369458_35b3319111_n.jpg",
    "id_album": "-1432180061",
    "description": "KAWAII060420214917195",
    "title": "KAWAII060420214917195",
    "link_img": "https://live.staticflickr.com/65535/49742369458_7805c98bce_o.jpg",
    "id_image": "KAWAII060420214917195",
    "count_view": 0
  },
  {
    "link_thumb": "https://live.staticflickr.com/65535/49727783407_259b0f2615_n.jpg",
    "id_album": "-1862561193",
    "description": "KAWAII020420194511157",
    "title": "KAWAII020420194511157",
    "link_img": "https://live.staticflickr.com/65535/49727783407_5d92787465_o.jpg",
    "id_image": "KAWAII020420194511157",
    "count_view": 0
  },
  {
    "link_thumb": "https://live.staticflickr.com/65535/49592958267_6c6c938d37_n.jpg",
    "id_album": "-316663319",
    "description": "KAWAII2702202351147",
    "title": "KAWAII2702202351147",
    "link_img": "https://live.staticflickr.com/65535/49592958267_63297f9b80_o.jpg",
    "id_image": "KAWAII2702202351147",
    "count_view": 0
  },
  {
    "link_thumb": "https://live.staticflickr.com/65535/49548662521_495fec0c6f_n.jpg",
    "id_album": "1396902986",
    "description": "KAWAII1702202235199",
    "title": "KAWAII1702202235199",
    "link_img": "https://live.staticflickr.com/65535/49548662521_41402ffbc9_o.jpg",
    "id_image": "KAWAII1702202235199",
    "count_view": 0
  },
  {
    "link_thumb": "https://live.staticflickr.com/65535/49727738072_e0b319797c_n.jpg",
    "id_album": "-1694302085",
    "description": "KAWAII020420194508100",
    "title": "KAWAII020420194508100",
    "link_img": "https://live.staticflickr.com/65535/49727738072_5cb5e421e0_o.jpg",
    "id_image": "KAWAII020420194508100",
    "count_view": 0
  },
  {
    "link_thumb": "https://live.staticflickr.com/65535/49622830001_eb9b004f6c_n.jpg",
    "id_album": "-316663319",
    "description": "KAWAII0503202021290",
    "title": "KAWAII0503202021290",
    "link_img": "https://live.staticflickr.com/65535/49622830001_1cb79bebf2_o.jpg",
    "id_image": "KAWAII0503202021290",
    "count_view": 0
  },
  {
    "link_thumb": "https://live.staticflickr.com/65535/49623117147_71b8dfdc96_n.jpg",
    "id_album": "-406350429",
    "description": "KAWAII0503202021230",
    "title": "KAWAII0503202021230",
    "link_img": "https://live.staticflickr.com/65535/49623117147_b583232f1f_o.jpg",
    "id_image": "KAWAII0503202021230",
    "count_view": 0
  },
  {
    "link_thumb": "https://live.staticflickr.com/65535/49693584503_746fa8842a_n.jpg",
    "id_album": "-755466332",
    "description": "KAWAII120918128",
    "title": "KAWAII120918128",
    "link_img": "https://live.staticflickr.com/65535/49693584503_76342d4c76_o.jpg",
    "id_image": "KAWAII120918128",
    "count_view": 0
  },
  {
    "link_thumb": "https://live.staticflickr.com/65535/49742400013_75e52df6b5_n.jpg",
    "id_album": "1396902986",
    "description": "KAWAII060420214913159",
    "title": "KAWAII060420214913159",
    "link_img": "https://live.staticflickr.com/65535/49742400013_474352fe4f_o.jpg",
    "id_image": "KAWAII060420214913159",
    "count_view": 0
  },
  {
    "link_thumb": "https://live.staticflickr.com/65535/49548962207_2c915d7e53_n.jpg",
    "id_album": "-422187261",
    "description": "KAWAII1702202239510",
    "title": "KAWAII1702202239510",
    "link_img": "https://live.staticflickr.com/65535/49548962207_8bd2b41354_o.jpg",
    "id_image": "KAWAII1702202239510",
    "count_view": 0
  },
  {
    "link_thumb": "https://live.staticflickr.com/65535/49622312083_f063a67fc7_n.jpg",
    "id_album": "-316663319",
    "description": "KAWAII0503202021244",
    "title": "KAWAII0503202021244",
    "link_img": "https://live.staticflickr.com/65535/49622312083_b3eff5c2cf_o.jpg",
    "id_image": "KAWAII0503202021244",
    "count_view": 0
  },
  {
    "link_thumb": "https://live.staticflickr.com/65535/49694379572_266e9bdf0d_n.jpg",
    "id_album": "1201366373",
    "description": "KAWAII050320202165",
    "title": "KAWAII050320202165",
    "link_img": "https://live.staticflickr.com/65535/49694379572_2a0765af38_o.jpg",
    "id_image": "KAWAII050320202165",
    "count_view": 0
  },
  {
    "link_thumb": "https://live.staticflickr.com/65535/49694404262_22983f7e5e_n.jpg",
    "id_album": "1201366373",
    "description": "KAWAII12091845",
    "title": "KAWAII12091845",
    "link_img": "https://live.staticflickr.com/65535/49694404262_a9eb8c4e27_o.jpg",
    "id_image": "KAWAII12091845",
    "count_view": 0
  },
  {
    "link_thumb": "https://live.staticflickr.com/65535/49548618671_9f25ded9ee_n.jpg",
    "id_album": "-422187261",
    "description": "KAWAII12091884",
    "title": "KAWAII12091884",
    "link_img": "https://live.staticflickr.com/65535/49548618671_76e79df1ca_o.jpg",
    "id_image": "KAWAII12091884",
    "count_view": 0
  },
  {
    "link_thumb": "https://live.staticflickr.com/65535/49742900241_e939992b5b_n.jpg",
    "id_album": "-1913845949",
    "description": "KAWAII06042021491144",
    "title": "KAWAII06042021491144",
    "link_img": "https://live.staticflickr.com/65535/49742900241_c60f6d444d_o.jpg",
    "id_image": "KAWAII06042021491144",
    "count_view": 0
  },
  {
    "link_thumb": "https://live.staticflickr.com/65535/49742952006_e9716ab44a_n.jpg",
    "id_album": "-1862561193",
    "description": "KAWAII0604202149153",
    "title": "KAWAII0604202149153",
    "link_img": "https://live.staticflickr.com/65535/49742952006_73b3e51801_o.jpg",
    "id_image": "KAWAII0604202149153",
    "count_view": 0
  },
  {
    "link_thumb": "https://live.staticflickr.com/65535/49548727196_7af34f5e15_n.jpg",
    "id_album": "-1741487325",
    "description": "KAWAII1702202238481",
    "title": "KAWAII1702202238481",
    "link_img": "https://live.staticflickr.com/65535/49548727196_c37f3180b8_o.jpg",
    "id_image": "KAWAII1702202238481",
    "count_view": 0
  },
  {
    "link_thumb": "https://live.staticflickr.com/65535/49548773511_f261cc3b03_n.jpg",
    "id_album": "-1741487325",
    "description": "KAWAII17091852",
    "title": "KAWAII17091852",
    "link_img": "https://live.staticflickr.com/65535/49548773511_eec13ffc04_o.jpg",
    "id_image": "KAWAII17091852",
    "count_view": 0
  },
  {
    "link_thumb": "https://live.staticflickr.com/65535/49694422457_9d228a8ec9_n.jpg",
    "id_album": "1201366373",
    "description": "KAWAII17091844",
    "title": "KAWAII17091844",
    "link_img": "https://live.staticflickr.com/65535/49694422457_49d9464530_o.jpg",
    "id_image": "KAWAII17091844",
    "count_view": 0
  },
  {
    "link_thumb": "https://live.staticflickr.com/65535/49548606596_66b1a69fc1_n.jpg",
    "id_album": "-1741487325",
    "description": "KAWAII120918366",
    "title": "KAWAII120918366",
    "link_img": "https://live.staticflickr.com/65535/49548606596_fb6fd5f586_o.jpg",
    "id_image": "KAWAII120918366",
    "count_view": 0
  },
  {
    "link_thumb": "https://live.staticflickr.com/65535/49694428222_2c96ddc16f_n.jpg",
    "id_album": "-358592519",
    "description": "KAWAII1702202237329",
    "title": "KAWAII1702202237329",
    "link_img": "https://live.staticflickr.com/65535/49694428222_2f534c562f_o.jpg",
    "id_image": "KAWAII1702202237329",
    "count_view": 0
  },
  {
    "link_thumb": "https://live.staticflickr.com/65535/49743264002_3560ee231e_n.jpg",
    "id_album": "-1473448477",
    "description": "KAWAII06042021491585",
    "title": "KAWAII06042021491585",
    "link_img": "https://live.staticflickr.com/65535/49743264002_969813678f_o.jpg",
    "id_image": "KAWAII06042021491585",
    "count_view": 0
  },
  {
    "link_thumb": "https://live.staticflickr.com/65535/49548139298_6e5456530b_n.jpg",
    "id_album": "-422187261",
    "description": "KAWAII170220223471",
    "title": "KAWAII170220223471",
    "link_img": "https://live.staticflickr.com/65535/49548139298_ba29e127e1_o.jpg",
    "id_image": "KAWAII170220223471",
    "count_view": 0
  },
  {
    "link_thumb": "https://live.staticflickr.com/65535/49727781257_ec3d442756_n.jpg",
    "id_album": "-1862561193",
    "description": "KAWAII020420194509212",
    "title": "KAWAII020420194509212",
    "link_img": "https://live.staticflickr.com/65535/49727781257_cd45f4ed66_o.jpg",
    "id_image": "KAWAII020420194509212",
    "count_view": 0
  },
  {
    "link_thumb": "https://live.staticflickr.com/65535/49548172973_972b1737b0_n.jpg",
    "id_album": "-1432180061",
    "description": "KAWAII1702202236258",
    "title": "KAWAII1702202236258",
    "link_img": "https://live.staticflickr.com/65535/49548172973_c022eb6b6d_o.jpg",
    "id_image": "KAWAII1702202236258",
    "count_view": 0
  },
  {
    "link_thumb": "https://live.staticflickr.com/65535/49548094683_24aab8379c_n.jpg",
    "id_album": "-316663319",
    "description": "KAWAII120918326",
    "title": "KAWAII120918326",
    "link_img": "https://live.staticflickr.com/65535/49548094683_d7759ecd44_o.jpg",
    "id_image": "KAWAII120918326",
    "count_view": 0
  },
  {
    "link_thumb": "https://live.staticflickr.com/65535/49694084581_9d6fb6a1b8_n.jpg",
    "id_album": "-643980979",
    "description": "KAWAII120918151",
    "title": "KAWAII120918151",
    "link_img": "https://live.staticflickr.com/65535/49694084581_fd70a5c5b1_o.jpg",
    "id_image": "KAWAII120918151",
    "count_view": 0
  },
  {
    "link_thumb": "https://live.staticflickr.com/65535/49693681563_0c652e2f73_n.jpg",
    "id_album": "-1862561193",
    "description": "KAWAII24032022050236",
    "title": "KAWAII24032022050236",
    "link_img": "https://live.staticflickr.com/65535/49693681563_3b6a993c59_o.jpg",
    "id_image": "KAWAII24032022050236",
    "count_view": 0
  },
  {
    "link_thumb": "https://live.staticflickr.com/65535/49623089307_f6b25ddc91_n.jpg",
    "id_album": "-316663319",
    "description": "KAWAII0503202021131",
    "title": "KAWAII0503202021131",
    "link_img": "https://live.staticflickr.com/65535/49623089307_d57af9517b_o.jpg",
    "id_image": "KAWAII0503202021131",
    "count_view": 0
  },
  {
    "link_thumb": "https://live.staticflickr.com/65535/49742949936_19f0003080_n.jpg",
    "id_album": "1396902986",
    "description": "KAWAII0604202149184",
    "title": "KAWAII0604202149184",
    "link_img": "https://live.staticflickr.com/65535/49742949936_4d7d1605c3_o.jpg",
    "id_image": "KAWAII0604202149184",
    "count_view": 0
  },
  {
    "link_thumb": "https://live.staticflickr.com/65535/49727453711_69725a9b6a_n.jpg",
    "id_album": "742877173",
    "description": "KAWAII02042019451471",
    "title": "KAWAII02042019451471",
    "link_img": "https://live.staticflickr.com/65535/49727453711_1b093a62f5_o.jpg",
    "id_image": "KAWAII02042019451471",
    "count_view": 0
  },
  {
    "link_thumb": "https://live.staticflickr.com/65535/49694218276_54cc4425bf_n.jpg",
    "id_album": "-643980979",
    "description": "KAWAII2403202205017",
    "title": "KAWAII2403202205017",
    "link_img": "https://live.staticflickr.com/65535/49694218276_e05bf39ccf_o.jpg",
    "id_image": "KAWAII2403202205017",
    "count_view": 0
  },
  {
    "link_thumb": "https://live.staticflickr.com/65535/49548226593_ab0fbceb32_n.jpg",
    "id_album": "-422187261",
    "description": "KAWAII1702202238480",
    "title": "KAWAII1702202238480",
    "link_img": "https://live.staticflickr.com/65535/49548226593_99ae3b87b7_o.jpg",
    "id_image": "KAWAII1702202238480",
    "count_view": 0
  },
  {
    "link_thumb": "https://live.staticflickr.com/65535/49727785262_9a8665653b_n.jpg",
    "id_album": "-1862561193",
    "description": "KAWAII02042019451214",
    "title": "KAWAII02042019451214",
    "link_img": "https://live.staticflickr.com/65535/49727785262_cc3eae3fff_o.jpg",
    "id_image": "KAWAII02042019451214",
    "count_view": 0
  },
  {
    "link_thumb": "https://live.staticflickr.com/65535/49726920378_5fe622b19f_n.jpg",
    "id_album": "-1862561193",
    "description": "KAWAII02042019450970",
    "title": "KAWAII02042019450970",
    "link_img": "https://live.staticflickr.com/65535/49726920378_b7e012f436_o.jpg",
    "id_image": "KAWAII02042019450970",
    "count_view": 0
  },
  {
    "link_thumb": "https://live.staticflickr.com/65535/49726896703_ea1a338b48_n.jpg",
    "id_album": "742877173",
    "description": "KAWAII020420194509264",
    "title": "KAWAII020420194509264",
    "link_img": "https://live.staticflickr.com/65535/49726896703_b1eb5aea93_o.jpg",
    "id_image": "KAWAII020420194509264",
    "count_view": 0
  },
  {
    "link_thumb": "https://live.staticflickr.com/65535/49726916708_7e4a7f8d8c_n.jpg",
    "id_album": "1201366373",
    "description": "KAWAII120918300",
    "title": "KAWAII120918300",
    "link_img": "https://live.staticflickr.com/65535/49726916708_d4a00a2a6a_o.jpg",
    "id_image": "KAWAII120918300",
    "count_view": 0
  },
  {
    "link_thumb": "https://live.staticflickr.com/65535/49742954231_19a5184e75_n.jpg",
    "id_album": "-1431786825",
    "description": "KAWAII060420214912238",
    "title": "KAWAII060420214912238",
    "link_img": "https://live.staticflickr.com/65535/49742954231_384b234480_o.jpg",
    "id_image": "KAWAII060420214912238",
    "count_view": 0
  },
  {
    "link_thumb": "https://live.staticflickr.com/65535/49548900632_a1b7c2ecdc_n.jpg",
    "id_album": "-1432180061",
    "description": "KAWAII1702202236255",
    "title": "KAWAII1702202236255",
    "link_img": "https://live.staticflickr.com/65535/49548900632_89634d0bd9_o.jpg",
    "id_image": "KAWAII1702202236255",
    "count_view": 0
  },
  {
    "link_thumb": "https://live.staticflickr.com/65535/49727741482_f48f2b390b_n.jpg",
    "id_album": "-1694302085",
    "description": "KAWAII1702202239559",
    "title": "KAWAII1702202239559",
    "link_img": "https://live.staticflickr.com/65535/49727741482_eed1cb3888_o.jpg",
    "id_image": "KAWAII1702202239559",
    "count_view": 0
  },
  {
    "link_thumb": "https://live.staticflickr.com/65535/49623091632_8f97fdb1d1_n.jpg",
    "id_album": "-316663319",
    "description": "KAWAII0503202021175",
    "title": "KAWAII0503202021175",
    "link_img": "https://live.staticflickr.com/65535/49623091632_ed87177a81_o.jpg",
    "id_image": "KAWAII0503202021175",
    "count_view": 0
  },
  {
    "link_thumb": "https://live.staticflickr.com/65535/49743278937_e15cdd904a_n.jpg",
    "id_album": "-1431786825",
    "description": "KAWAII060420214915128",
    "title": "KAWAII060420214915128",
    "link_img": "https://live.staticflickr.com/65535/49743278937_cd2b78f010_o.jpg",
    "id_image": "KAWAII060420214915128",
    "count_view": 0
  },
  {
    "link_thumb": "https://live.staticflickr.com/65535/49548570486_dc709ec43b_n.jpg",
    "id_album": "-1694302085",
    "description": "KAWAII120918209",
    "title": "KAWAII120918209",
    "link_img": "https://live.staticflickr.com/65535/49548570486_5138dfca7b_o.jpg",
    "id_image": "KAWAII120918209",
    "count_view": 0
  },
  {
    "link_thumb": "https://live.staticflickr.com/65535/49552517241_cfe1185bd3_n.jpg",
    "id_album": "-1694302085",
    "description": "KAWAII12091825180220205911",
    "title": "KAWAII12091825180220205911",
    "link_img": "https://live.staticflickr.com/65535/49552517241_e6d0dcecb0_o.jpg",
    "id_image": "KAWAII12091825180220205911",
    "count_view": 0
  },
  {
    "link_thumb": "https://live.staticflickr.com/65535/49694124181_8597a99e00_n.jpg",
    "id_album": "-358592519",
    "description": "KAWAII120918255",
    "title": "KAWAII120918255",
    "link_img": "https://live.staticflickr.com/65535/49694124181_b7a93c8a2e_o.jpg",
    "id_image": "KAWAII120918255",
    "count_view": 0
  },
  {
    "link_thumb": "https://live.staticflickr.com/65535/49694227571_4a8796ce62_n.jpg",
    "id_album": "1226948986",
    "description": "KAWAII24032022050221",
    "title": "KAWAII24032022050221",
    "link_img": "https://live.staticflickr.com/65535/49694227571_bc26e018a6_o.jpg",
    "id_image": "KAWAII24032022050221",
    "count_view": 0
  },
  {
    "link_thumb": "https://live.staticflickr.com/65535/49694397282_ee9e7004e9_n.jpg",
    "id_album": "1201366373",
    "description": "KAWAII120918248",
    "title": "KAWAII120918248",
    "link_img": "https://live.staticflickr.com/65535/49694397282_e3e2589734_o.jpg",
    "id_image": "KAWAII120918248",
    "count_view": 0
  },
  {
    "link_thumb": "https://live.staticflickr.com/65535/49548742611_b5332b7a92_n.jpg",
    "id_album": "1396902986",
    "description": "KAWAII1702202239539",
    "title": "KAWAII1702202239539",
    "link_img": "https://live.staticflickr.com/65535/49548742611_78c0a19566_o.jpg",
    "id_image": "KAWAII1702202239539",
    "count_view": 0
  },
  {
    "link_thumb": "https://live.staticflickr.com/65535/49727752792_9bf6e0ced5_n.jpg",
    "id_album": "-316663319",
    "description": "KAWAII020420194511112",
    "title": "KAWAII020420194511112",
    "link_img": "https://live.staticflickr.com/65535/49727752792_1bf4696a5e_o.jpg",
    "id_image": "KAWAII020420194511112",
    "count_view": 0
  },
  {
    "link_thumb": "https://live.staticflickr.com/65535/49623072437_5d592690ea_n.jpg",
    "id_album": "1396902986",
    "description": "KAWAII0503202021182",
    "title": "KAWAII0503202021182",
    "link_img": "https://live.staticflickr.com/65535/49623072437_ed50980cd8_o.jpg",
    "id_image": "KAWAII0503202021182",
    "count_view": 0
  },
  {
    "link_thumb": "https://live.staticflickr.com/65535/49694217311_542ebb2eb7_n.jpg",
    "id_album": "-643980979",
    "description": "KAWAII120918100",
    "title": "KAWAII120918100",
    "link_img": "https://live.staticflickr.com/65535/49694217311_d264883ab3_o.jpg",
    "id_image": "KAWAII120918100",
    "count_view": 0
  },
  {
    "link_thumb": "https://live.staticflickr.com/65535/49727744457_659e28499f_n.jpg",
    "id_album": "-1497779911",
    "description": "KAWAII020420194511180",
    "title": "KAWAII020420194511180",
    "link_img": "https://live.staticflickr.com/65535/49727744457_113c3ac71b_o.jpg",
    "id_image": "KAWAII020420194511180",
    "count_view": 0
  },
  {
    "link_thumb": "https://live.staticflickr.com/65535/49727427451_dcd1c43c47_n.jpg",
    "id_album": "-1694302085",
    "description": "KAWAII190220211113",
    "title": "KAWAII190220211113",
    "link_img": "https://live.staticflickr.com/65535/49727427451_0328f26d66_o.jpg",
    "id_image": "KAWAII190220211113",
    "count_view": 0
  },
  {
    "link_thumb": "https://live.staticflickr.com/65535/49548966717_ec63ed96ac_n.jpg",
    "id_album": "1396902986",
    "description": "KAWAII1702202239528",
    "title": "KAWAII1702202239528",
    "link_img": "https://live.staticflickr.com/65535/49548966717_58d4ff79ce_o.jpg",
    "id_image": "KAWAII1702202239528",
    "count_view": 0
  },
  {
    "link_thumb": "https://live.staticflickr.com/65535/49548130028_19e352e618_n.jpg",
    "id_album": "431597977",
    "description": "KAWAII1702202234112",
    "title": "KAWAII1702202234112",
    "link_img": "https://live.staticflickr.com/65535/49548130028_a7604ab514_o.jpg",
    "id_image": "KAWAII1702202234112",
    "count_view": 0
  },
  {
    "link_thumb": "https://live.staticflickr.com/65535/49548970672_137de1ba9c_n.jpg",
    "id_album": "-422187261",
    "description": "KAWAII1702202239543",
    "title": "KAWAII1702202239543",
    "link_img": "https://live.staticflickr.com/65535/49548970672_ca341a2c14_o.jpg",
    "id_image": "KAWAII1702202239543",
    "count_view": 0
  },
  {
    "link_thumb": "https://live.staticflickr.com/65535/49622293383_64ce599c24_n.jpg",
    "id_album": "-1741487325",
    "description": "KAWAII050320202151",
    "title": "KAWAII050320202151",
    "link_img": "https://live.staticflickr.com/65535/49622293383_87753b2cf5_o.jpg",
    "id_image": "KAWAII050320202151",
    "count_view": 0
  },
  {
    "link_thumb": "https://live.staticflickr.com/65535/49623111392_2edd4c3b04_n.jpg",
    "id_album": "-316663319",
    "description": "KAWAII05032020217",
    "title": "KAWAII05032020217",
    "link_img": "https://live.staticflickr.com/65535/49623111392_dbff49ae1f_o.jpg",
    "id_image": "KAWAII05032020217",
    "count_view": 0
  },
  {
    "link_thumb": "https://live.staticflickr.com/65535/49548596946_8b990ae9b8_n.jpg",
    "id_album": "1396902986",
    "description": "KAWAII120918327",
    "title": "KAWAII120918327",
    "link_img": "https://live.staticflickr.com/65535/49548596946_df4eb020d8_o.jpg",
    "id_image": "KAWAII120918327",
    "count_view": 0
  },
  {
    "link_thumb": "https://live.staticflickr.com/65535/49592730631_f3ff40a4f1_n.jpg",
    "id_album": "949200594",
    "description": "KAWAII2702202351129",
    "title": "KAWAII2702202351129",
    "link_img": "https://live.staticflickr.com/65535/49592730631_7f24a025c3_o.jpg",
    "id_image": "KAWAII2702202351129",
    "count_view": 0
  },
  {
    "link_thumb": "https://live.staticflickr.com/65535/49727765507_72ed327b7e_n.jpg",
    "id_album": "742877173",
    "description": "KAWAII020420194513228",
    "title": "KAWAII020420194513228",
    "link_img": "https://live.staticflickr.com/65535/49727765507_ef2e736a73_o.jpg",
    "id_image": "KAWAII020420194513228",
    "count_view": 0
  },
  {
    "link_thumb": "https://live.staticflickr.com/65535/49622307308_3576589ac7_n.jpg",
    "id_album": "-316663319",
    "description": "KAWAII0503202021198",
    "title": "KAWAII0503202021198",
    "link_img": "https://live.staticflickr.com/65535/49622307308_652f5de480_o.jpg",
    "id_image": "KAWAII0503202021198",
    "count_view": 0
  },
  {
    "link_thumb": "https://live.staticflickr.com/65535/49548175308_0515751899_n.jpg",
    "id_album": "-422187261",
    "description": "KAWAII1702202236273",
    "title": "KAWAII1702202236273",
    "link_img": "https://live.staticflickr.com/65535/49548175308_f3e7364479_o.jpg",
    "id_image": "KAWAII1702202236273",
    "count_view": 0
  },
  {
    "link_thumb": "https://live.staticflickr.com/65535/49548167628_cfc542d609_n.jpg",
    "id_album": "-422187261",
    "description": "KAWAII1702202236230",
    "title": "KAWAII1702202236230",
    "link_img": "https://live.staticflickr.com/65535/49548167628_6a59b842d8_o.jpg",
    "id_image": "KAWAII1702202236230",
    "count_view": 0
  },
  {
    "link_thumb": "https://live.staticflickr.com/65535/49743251342_f5abde3d17_n.jpg",
    "id_album": "-316663319",
    "description": "KAWAII060420214915168",
    "title": "KAWAII060420214915168",
    "link_img": "https://live.staticflickr.com/65535/49743251342_3c5a096da3_o.jpg",
    "id_image": "KAWAII060420214915168",
    "count_view": 0
  },
  {
    "link_thumb": "https://live.staticflickr.com/65535/49742907191_c80bc106d2_n.jpg",
    "id_album": "-422187261",
    "description": "KAWAII060420214912152",
    "title": "KAWAII060420214912152",
    "link_img": "https://live.staticflickr.com/65535/49742907191_9b5e9d3445_o.jpg",
    "id_image": "KAWAII060420214912152",
    "count_view": 0
  },
  {
    "link_thumb": "https://live.staticflickr.com/65535/49694524137_b80953ce00_n.jpg",
    "id_album": "-1432180061",
    "description": "KAWAII12091838",
    "title": "KAWAII12091838",
    "link_img": "https://live.staticflickr.com/65535/49694524137_9730271caf_o.jpg",
    "id_image": "KAWAII12091838",
    "count_view": 0
  },
  {
    "link_thumb": "https://live.staticflickr.com/65535/49742919561_6b11564d35_n.jpg",
    "id_album": "-128218148",
    "description": "KAWAII06042021491296",
    "title": "KAWAII06042021491296",
    "link_img": "https://live.staticflickr.com/65535/49742919561_5e08411a16_o.jpg",
    "id_image": "KAWAII06042021491296",
    "count_view": 0
  },
  {
    "link_thumb": "https://live.staticflickr.com/65535/49548577646_2773c3c0fa_n.jpg",
    "id_album": "-316663319",
    "description": "KAWAII120918245",
    "title": "KAWAII120918245",
    "link_img": "https://live.staticflickr.com/65535/49548577646_e55c07aff1_o.jpg",
    "id_image": "KAWAII120918245",
    "count_view": 0
  },
  {
    "link_thumb": "https://live.staticflickr.com/65535/49694091671_e2c80b25ac_n.jpg",
    "id_album": "1201366373",
    "description": "KAWAII120918213",
    "title": "KAWAII120918213",
    "link_img": "https://live.staticflickr.com/65535/49694091671_f396e77508_o.jpg",
    "id_image": "KAWAII120918213",
    "count_view": 0
  },
  {
    "link_thumb": "https://live.staticflickr.com/65535/49552024243_b38552e998_n.jpg",
    "id_album": "-1432180061",
    "description": "KAWAII12091825180220205938",
    "title": "KAWAII12091825180220205938",
    "link_img": "https://live.staticflickr.com/65535/49552024243_8348b56164_o.jpg",
    "id_image": "KAWAII12091825180220205938",
    "count_view": 0
  },
  {
    "link_thumb": "https://live.staticflickr.com/65535/49548098368_c33c390434_n.jpg",
    "id_album": "-422187261",
    "description": "KAWAII120918341",
    "title": "KAWAII120918341",
    "link_img": "https://live.staticflickr.com/65535/49548098368_4983148212_o.jpg",
    "id_image": "KAWAII120918341",
    "count_view": 0
  },
  {
    "link_thumb": "https://live.staticflickr.com/65535/49548785597_d1bf84a7e6_n.jpg",
    "id_album": "-422187261",
    "description": "KAWAII120918158",
    "title": "KAWAII120918158",
    "link_img": "https://live.staticflickr.com/65535/49548785597_604fe9e477_o.jpg",
    "id_image": "KAWAII120918158",
    "count_view": 0
  },
  {
    "link_thumb": "https://live.staticflickr.com/65535/49742945926_2ba74fd24d_n.jpg",
    "id_album": "-1779286820",
    "description": "KAWAII060420214918265",
    "title": "KAWAII060420214918265",
    "link_img": "https://live.staticflickr.com/65535/49742945926_6ef82b7a3f_o.jpg",
    "id_image": "KAWAII060420214918265",
    "count_view": 0
  },
  {
    "link_thumb": "https://live.staticflickr.com/65535/49742930621_46cbfcebfa_n.jpg",
    "id_album": "-316663319",
    "description": "KAWAII060420214917101",
    "title": "KAWAII060420214917101",
    "link_img": "https://live.staticflickr.com/65535/49742930621_c8a5efe622_o.jpg",
    "id_image": "KAWAII060420214917101",
    "count_view": 0
  },
  {
    "link_thumb": "https://live.staticflickr.com/65535/49622311928_5399a47ab4_n.jpg",
    "id_album": "-316663319",
    "description": "KAWAII0503202021242",
    "title": "KAWAII0503202021242",
    "link_img": "https://live.staticflickr.com/65535/49622311928_d4a9cd9208_o.jpg",
    "id_image": "KAWAII0503202021242",
    "count_view": 0
  },
  {
    "link_thumb": "https://live.staticflickr.com/65535/49693560078_345e31aa6a_n.jpg",
    "id_album": "1201366373",
    "description": "KAWAII12091860",
    "title": "KAWAII12091860",
    "link_img": "https://live.staticflickr.com/65535/49693560078_c6ddf23e5c_o.jpg",
    "id_image": "KAWAII12091860",
    "count_view": 0
  },
  {
    "link_thumb": "https://live.staticflickr.com/65535/49693578608_18b1ed3562_n.jpg",
    "id_album": "-643980979",
    "description": "KAWAII2702202351160",
    "title": "KAWAII2702202351160",
    "link_img": "https://live.staticflickr.com/65535/49693578608_a956a23dc3_o.jpg",
    "id_image": "KAWAII2702202351160",
    "count_view": 0
  },
  {
    "link_thumb": "https://live.staticflickr.com/65535/49742953836_b71ac9c8d5_n.jpg",
    "id_album": "-358592519",
    "description": "KAWAII060420214915311",
    "title": "KAWAII060420214915311",
    "link_img": "https://live.staticflickr.com/65535/49742953836_43140ac6c7_o.jpg",
    "id_image": "KAWAII060420214915311",
    "count_view": 0
  },
  {
    "link_thumb": "https://live.staticflickr.com/65535/49548591466_2e7a3dab1a_n.jpg",
    "id_album": "-316663319",
    "description": "KAWAII120918303",
    "title": "KAWAII120918303",
    "link_img": "https://live.staticflickr.com/65535/49548591466_746ab509f8_o.jpg",
    "id_image": "KAWAII120918303",
    "count_view": 0
  },
  {
    "link_thumb": "https://live.staticflickr.com/65535/49694421527_9cc44a6831_n.jpg",
    "id_album": "1201366373",
    "description": "KAWAII17022023508",
    "title": "KAWAII17022023508",
    "link_img": "https://live.staticflickr.com/65535/49694421527_8a84d85d98_o.jpg",
    "id_image": "KAWAII17022023508",
    "count_view": 0
  },
  {
    "link_thumb": "https://live.staticflickr.com/65535/49693559363_a9940126b2_n.jpg",
    "id_album": "1201366373",
    "description": "KAWAII12091847",
    "title": "KAWAII12091847",
    "link_img": "https://live.staticflickr.com/65535/49693559363_9714b1daf8_o.jpg",
    "id_image": "KAWAII12091847",
    "count_view": 0
  },
  {
    "link_thumb": "https://live.staticflickr.com/65535/49548708171_6d1d5e9699_n.jpg",
    "id_album": "-1741487325",
    "description": "KAWAII1702202238410",
    "title": "KAWAII1702202238410",
    "link_img": "https://live.staticflickr.com/65535/49548708171_89e5112627_o.jpg",
    "id_image": "KAWAII1702202238410",
    "count_view": 0
  },
  {
    "link_thumb": "https://live.staticflickr.com/65535/49694073681_26a46d7531_n.jpg",
    "id_album": "-643980979",
    "description": "KAWAII0503202021264",
    "title": "KAWAII0503202021264",
    "link_img": "https://live.staticflickr.com/65535/49694073681_c3e9af1c12_o.jpg",
    "id_image": "KAWAII0503202021264",
    "count_view": 0
  },
  {
    "link_thumb": "https://live.staticflickr.com/65535/49694388992_a614bef23a_n.jpg",
    "id_album": "1201366373",
    "description": "KAWAII120918168",
    "title": "KAWAII120918168",
    "link_img": "https://live.staticflickr.com/65535/49694388992_28366d1188_o.jpg",
    "id_image": "KAWAII120918168",
    "count_view": 0
  },
  {
    "link_thumb": "https://live.staticflickr.com/65535/49623077527_f75a4ccf12_n.jpg",
    "id_album": "1396902986",
    "description": "KAWAII050320202189",
    "title": "KAWAII050320202189",
    "link_img": "https://live.staticflickr.com/65535/49623077527_f93d23b57d_o.jpg",
    "id_image": "KAWAII050320202189",
    "count_view": 0
  },
  {
    "link_thumb": "https://live.staticflickr.com/65535/49622796941_4f3450b9b0_n.jpg",
    "id_album": "-422187261",
    "description": "KAWAII0503202021180",
    "title": "KAWAII0503202021180",
    "link_img": "https://live.staticflickr.com/65535/49622796941_225dec259f_o.jpg",
    "id_image": "KAWAII0503202021180",
    "count_view": 0
  },
  {
    "link_thumb": "https://live.staticflickr.com/65535/49743231542_f1ef9eac98_n.jpg",
    "id_album": "-422187261",
    "description": "KAWAII060420214915315",
    "title": "KAWAII060420214915315",
    "link_img": "https://live.staticflickr.com/65535/49743231542_9520380e6c_o.jpg",
    "id_image": "KAWAII060420214915315",
    "count_view": 0
  },
  {
    "link_thumb": "https://live.staticflickr.com/65535/49742390308_8891745a55_n.jpg",
    "id_album": "-1473448477",
    "description": "KAWAII060420214915242",
    "title": "KAWAII060420214915242",
    "link_img": "https://live.staticflickr.com/65535/49742390308_64893c0681_o.jpg",
    "id_image": "KAWAII060420214915242",
    "count_view": 0
  },
  {
    "link_thumb": "https://live.staticflickr.com/65535/49548083698_a5d5e71e7f_n.jpg",
    "id_album": "-1741487325",
    "description": "KAWAII120918282",
    "title": "KAWAII120918282",
    "link_img": "https://live.staticflickr.com/65535/49548083698_a9a5b35c14_o.jpg",
    "id_image": "KAWAII120918282",
    "count_view": 0
  },
  {
    "link_thumb": "https://live.staticflickr.com/65535/49548159738_789b788be2_n.jpg",
    "id_album": "-1099943053",
    "description": "KAWAII1702202235193",
    "title": "KAWAII1702202235193",
    "link_img": "https://live.staticflickr.com/65535/49548159738_94d5a8132f_o.jpg",
    "id_image": "KAWAII1702202235193",
    "count_view": 0
  },
  {
    "link_thumb": "https://live.staticflickr.com/65535/49743260147_4499022c49_n.jpg",
    "id_album": "-1473448477",
    "description": "KAWAII060420214915214",
    "title": "KAWAII060420214915214",
    "link_img": "https://live.staticflickr.com/65535/49743260147_200ddd41df_o.jpg",
    "id_image": "KAWAII060420214915214",
    "count_view": 0
  },
  {
    "link_thumb": "https://live.staticflickr.com/65535/49693582248_aec5e0bea5_n.jpg",
    "id_album": "-358592519",
    "description": "KAWAII1702202236302",
    "title": "KAWAII1702202236302",
    "link_img": "https://live.staticflickr.com/65535/49693582248_45280fbeb2_o.jpg",
    "id_image": "KAWAII1702202236302",
    "count_view": 0
  },
  {
    "link_thumb": "https://live.staticflickr.com/65535/49693526623_5940574ea7_n.jpg",
    "id_album": "-643980979",
    "description": "KAWAII0503202021135",
    "title": "KAWAII0503202021135",
    "link_img": "https://live.staticflickr.com/65535/49693526623_d46d8c02b6_o.jpg",
    "id_image": "KAWAII0503202021135",
    "count_view": 0
  },
  {
    "link_thumb": "https://live.staticflickr.com/65535/49622803226_76cafe0d42_n.jpg",
    "id_album": "1396902986",
    "description": "KAWAII0503202021277",
    "title": "KAWAII0503202021277",
    "link_img": "https://live.staticflickr.com/65535/49622803226_e5aed4ff94_o.jpg",
    "id_image": "KAWAII0503202021277",
    "count_view": 0
  },
  {
    "link_thumb": "https://live.staticflickr.com/65535/49693580228_5013bfae93_n.jpg",
    "id_album": "-643980979",
    "description": "KAWAII270220235186",
    "title": "KAWAII270220235186",
    "link_img": "https://live.staticflickr.com/65535/49693580228_8613ee9d35_o.jpg",
    "id_image": "KAWAII270220235186",
    "count_view": 0
  },
  {
    "link_thumb": "https://live.staticflickr.com/65535/49552757222_109c403521_n.jpg",
    "id_album": "-1694302085",
    "description": "KAWAII12091825180220205922",
    "title": "KAWAII12091825180220205922",
    "link_img": "https://live.staticflickr.com/65535/49552757222_da8487c6aa_o.jpg",
    "id_image": "KAWAII12091825180220205922",
    "count_view": 0
  },
  {
    "link_thumb": "https://live.staticflickr.com/65535/49548041908_66b8047820_n.jpg",
    "id_album": "1396902986",
    "description": "KAWAII1209181",
    "title": "KAWAII1209181",
    "link_img": "https://live.staticflickr.com/65535/49548041908_1f80d1139e_o.jpg",
    "id_image": "KAWAII1209181",
    "count_view": 0
  },
  {
    "link_thumb": "https://live.staticflickr.com/65535/49548628346_91796a04ee_n.jpg",
    "id_album": "1396902986",
    "description": "KAWAII17022022335",
    "title": "KAWAII17022022335",
    "link_img": "https://live.staticflickr.com/65535/49548628346_1a0f884a26_o.jpg",
    "id_image": "KAWAII17022022335",
    "count_view": 0
  },
  {
    "link_thumb": "https://live.staticflickr.com/65535/49742912051_2dd184ee26_n.jpg",
    "id_album": "-1741487325",
    "description": "KAWAII060420214912194",
    "title": "KAWAII060420214912194",
    "link_img": "https://live.staticflickr.com/65535/49742912051_c0027a0bb3_o.jpg",
    "id_image": "KAWAII060420214912194",
    "count_view": 0
  },
  {
    "link_thumb": "https://live.staticflickr.com/65535/49694407277_4ba9074b87_n.jpg",
    "id_album": "1201366373",
    "description": "KAWAII12091894",
    "title": "KAWAII12091894",
    "link_img": "https://live.staticflickr.com/65535/49694407277_79624173ba_o.jpg",
    "id_image": "KAWAII12091894",
    "count_view": 0
  },
  {
    "link_thumb": "https://live.staticflickr.com/65535/49743232392_29738dfe21_n.jpg",
    "id_album": "1271846417",
    "description": "KAWAII060420214912138",
    "title": "KAWAII060420214912138",
    "link_img": "https://live.staticflickr.com/65535/49743232392_1f728b0705_o.jpg",
    "id_image": "KAWAII060420214912138",
    "count_view": 0
  },
  {
    "link_thumb": "https://live.staticflickr.com/65535/49742390688_6c1335e846_n.jpg",
    "id_album": "-1473448477",
    "description": "KAWAII060420214915278",
    "title": "KAWAII060420214915278",
    "link_img": "https://live.staticflickr.com/65535/49742390688_e32c909954_o.jpg",
    "id_image": "KAWAII060420214915278",
    "count_view": 0
  },
  {
    "link_thumb": "https://live.staticflickr.com/65535/49548820112_3104e8a4ae_n.jpg",
    "id_album": "-1741487325",
    "description": "KAWAII12091831",
    "title": "KAWAII12091831",
    "link_img": "https://live.staticflickr.com/65535/49548820112_b161c7d4a1_o.jpg",
    "id_image": "KAWAII12091831",
    "count_view": 0
  },
  {
    "link_thumb": "https://live.staticflickr.com/65535/49548730031_4400a7483c_n.jpg",
    "id_album": "-1431786825",
    "description": "KAWAII1702202238493",
    "title": "KAWAII1702202238493",
    "link_img": "https://live.staticflickr.com/65535/49548730031_a2c1c20dbf_o.jpg",
    "id_image": "KAWAII1702202238493",
    "count_view": 0
  },
  {
    "link_thumb": "https://live.staticflickr.com/65535/49592212603_ef02e6c970_n.jpg",
    "id_album": "-316663319",
    "description": "KAWAII2702202351139",
    "title": "KAWAII2702202351139",
    "link_img": "https://live.staticflickr.com/65535/49592212603_896797164e_o.jpg",
    "id_image": "KAWAII2702202351139",
    "count_view": 0
  },
  {
    "link_thumb": "https://live.staticflickr.com/65535/49694124351_8f55f7cde4_n.jpg",
    "id_album": "-358592519",
    "description": "KAWAII120918292",
    "title": "KAWAII120918292",
    "link_img": "https://live.staticflickr.com/65535/49694124351_a1bb680751_o.jpg",
    "id_image": "KAWAII120918292",
    "count_view": 0
  },
  {
    "link_thumb": "https://live.staticflickr.com/65535/49742905991_c9c478aab5_n.jpg",
    "id_album": "-1913845949",
    "description": "KAWAII1702202235133",
    "title": "KAWAII1702202235133",
    "link_img": "https://live.staticflickr.com/65535/49742905991_788e3f3fca_o.jpg",
    "id_image": "KAWAII1702202235133",
    "count_view": 0
  },
  {
    "link_thumb": "https://live.staticflickr.com/65535/49743263517_83166ec652_n.jpg",
    "id_album": "-1473448477",
    "description": "KAWAII06042021491574",
    "title": "KAWAII06042021491574",
    "link_img": "https://live.staticflickr.com/65535/49743263517_0ddfb92706_o.jpg",
    "id_image": "KAWAII06042021491574",
    "count_view": 0
  },
  {
    "link_thumb": "https://live.staticflickr.com/65535/49548898457_9de20dea0d_n.jpg",
    "id_album": "-1099943053",
    "description": "KAWAII1702202236242",
    "title": "KAWAII1702202236242",
    "link_img": "https://live.staticflickr.com/65535/49548898457_c80e13399e_o.jpg",
    "id_image": "KAWAII1702202236242",
    "count_view": 0
  },
  {
    "link_thumb": "https://live.staticflickr.com/65535/49743279367_86ed79dcdb_n.jpg",
    "id_album": "-1431786825",
    "description": "KAWAII06042021491518",
    "title": "KAWAII06042021491518",
    "link_img": "https://live.staticflickr.com/65535/49743279367_7136765f24_o.jpg",
    "id_image": "KAWAII06042021491518",
    "count_view": 0
  },
  {
    "link_thumb": "https://live.staticflickr.com/65535/49743275962_48012dd7d3_n.jpg",
    "id_album": "-1862561193",
    "description": "KAWAII060420214917269",
    "title": "KAWAII060420214917269",
    "link_img": "https://live.staticflickr.com/65535/49743275962_ff52811d6c_o.jpg",
    "id_image": "KAWAII060420214917269",
    "count_view": 0
  },
  {
    "link_thumb": "https://live.staticflickr.com/65535/49693576513_e6ef2f63db_n.jpg",
    "id_album": "-643980979",
    "description": "KAWAII17091817",
    "title": "KAWAII17091817",
    "link_img": "https://live.staticflickr.com/65535/49693576513_2cdda0be50_o.jpg",
    "id_image": "KAWAII17091817",
    "count_view": 0
  },
  {
    "link_thumb": "https://live.staticflickr.com/65535/49694216611_d0f7c86d52_n.jpg",
    "id_album": "-1741487325",
    "description": "KAWAII120918249",
    "title": "KAWAII120918249",
    "link_img": "https://live.staticflickr.com/65535/49694216611_86a098ca41_o.jpg",
    "id_image": "KAWAII120918249",
    "count_view": 0
  },
  {
    "link_thumb": "https://live.staticflickr.com/65535/49592705886_95ab1e321a_n.jpg",
    "id_album": "1396902986",
    "description": "KAWAII27022023511",
    "title": "KAWAII27022023511",
    "link_img": "https://live.staticflickr.com/65535/49592705886_eec36d8b13_o.jpg",
    "id_image": "KAWAII27022023511",
    "count_view": 0
  },
  {
    "link_thumb": "https://live.staticflickr.com/65535/49694393827_79181ed563_n.jpg",
    "id_album": "-643980979",
    "description": "KAWAII120918210",
    "title": "KAWAII120918210",
    "link_img": "https://live.staticflickr.com/65535/49694393827_2b14e6a69c_o.jpg",
    "id_image": "KAWAII120918210",
    "count_view": 0
  },
  {
    "link_thumb": "https://live.staticflickr.com/65535/49693557013_04796e6138_n.jpg",
    "id_album": "1201366373",
    "description": "KAWAII120918305",
    "title": "KAWAII120918305",
    "link_img": "https://live.staticflickr.com/65535/49693557013_eb148c7f4e_o.jpg",
    "id_image": "KAWAII120918305",
    "count_view": 0
  },
  {
    "link_thumb": "https://live.staticflickr.com/65535/49623097582_a0b5d26cc5_n.jpg",
    "id_album": "-316663319",
    "description": "KAWAII0503202021229",
    "title": "KAWAII0503202021229",
    "link_img": "https://live.staticflickr.com/65535/49623097582_22857551b6_o.jpg",
    "id_image": "KAWAII0503202021229",
    "count_view": 0
  },
  {
    "link_thumb": "https://live.staticflickr.com/65535/49694111601_9f55f2da0d_n.jpg",
    "id_album": "-643980979",
    "description": "KAWAII1702202237395",
    "title": "KAWAII1702202237395",
    "link_img": "https://live.staticflickr.com/65535/49694111601_c1d2752b4c_o.jpg",
    "id_image": "KAWAII1702202237395",
    "count_view": 0
  },
  {
    "link_thumb": "https://live.staticflickr.com/65535/49742360958_8303521500_n.jpg",
    "id_album": "-422187261",
    "description": "KAWAII06042021491815",
    "title": "KAWAII06042021491815",
    "link_img": "https://live.staticflickr.com/65535/49742360958_9fa4d89638_o.jpg",
    "id_image": "KAWAII06042021491815",
    "count_view": 0
  },
  {
    "link_thumb": "https://live.staticflickr.com/65535/49694377812_aa7b39c844_n.jpg",
    "id_album": "1201366373",
    "description": "KAWAII0503202021312",
    "title": "KAWAII0503202021312",
    "link_img": "https://live.staticflickr.com/65535/49694377812_bc1e2c0c94_o.jpg",
    "id_image": "KAWAII0503202021312",
    "count_view": 0
  },
  {
    "link_thumb": "https://live.staticflickr.com/65535/49726877388_a4e361fe15_n.jpg",
    "id_album": "-1694302085",
    "description": "KAWAII020420194508186",
    "title": "KAWAII020420194508186",
    "link_img": "https://live.staticflickr.com/65535/49726877388_5fefe1e036_o.jpg",
    "id_image": "KAWAII020420194508186",
    "count_view": 0
  },
  {
    "link_thumb": "https://live.staticflickr.com/65535/49694404137_1efbe86641_n.jpg",
    "id_album": "1201366373",
    "description": "KAWAII12091844",
    "title": "KAWAII12091844",
    "link_img": "https://live.staticflickr.com/65535/49694404137_96cff5090f_o.jpg",
    "id_image": "KAWAII12091844",
    "count_view": 0
  },
  {
    "link_thumb": "https://live.staticflickr.com/65535/49623076102_0d129df886_n.jpg",
    "id_album": "1396902986",
    "description": "KAWAII0503202021289",
    "title": "KAWAII0503202021289",
    "link_img": "https://live.staticflickr.com/65535/49623076102_1e9527d4c5_o.jpg",
    "id_image": "KAWAII0503202021289",
    "count_view": 0
  },
  {
    "link_thumb": "https://live.staticflickr.com/65535/49726891103_ba4937fd71_n.jpg",
    "id_album": "-316663319",
    "description": "KAWAII020420194511113",
    "title": "KAWAII020420194511113",
    "link_img": "https://live.staticflickr.com/65535/49726891103_d33a0d29bf_o.jpg",
    "id_image": "KAWAII020420194511113",
    "count_view": 0
  },
  {
    "link_thumb": "https://live.staticflickr.com/65535/49727784282_3fa89588d1_n.jpg",
    "id_album": "-1862561193",
    "description": "KAWAII02042019451140",
    "title": "KAWAII02042019451140",
    "link_img": "https://live.staticflickr.com/65535/49727784282_4ed66233ee_o.jpg",
    "id_image": "KAWAII02042019451140",
    "count_view": 0
  },
  {
    "link_thumb": "https://live.staticflickr.com/65535/49622331253_409fec308c_n.jpg",
    "id_album": "-406350429",
    "description": "KAWAII0503202021251",
    "title": "KAWAII0503202021251",
    "link_img": "https://live.staticflickr.com/65535/49622331253_957a9a1d10_o.jpg",
    "id_image": "KAWAII0503202021251",
    "count_view": 0
  },
  {
    "link_thumb": "https://live.staticflickr.com/65535/49548217328_788ffac1da_n.jpg",
    "id_album": "-1099943053",
    "description": "KAWAII1702202238447",
    "title": "KAWAII1702202238447",
    "link_img": "https://live.staticflickr.com/65535/49548217328_151ec9ed83_o.jpg",
    "id_image": "KAWAII1702202238447",
    "count_view": 0
  },
  {
    "link_thumb": "https://live.staticflickr.com/65535/49742946911_554a53ee30_n.jpg",
    "id_album": "1396902986",
    "description": "KAWAII06042021491181",
    "title": "KAWAII06042021491181",
    "link_img": "https://live.staticflickr.com/65535/49742946911_fa5d7f719b_o.jpg",
    "id_image": "KAWAII06042021491181",
    "count_view": 0
  },
  {
    "link_thumb": "https://live.staticflickr.com/65535/49694216366_23548fc773_n.jpg",
    "id_album": "-1741487325",
    "description": "KAWAII0503202021311",
    "title": "KAWAII0503202021311",
    "link_img": "https://live.staticflickr.com/65535/49694216366_9bb3068e36_o.jpg",
    "id_image": "KAWAII0503202021311",
    "count_view": 0
  },
  {
    "link_thumb": "https://live.staticflickr.com/65535/49694527092_bc6ec76b97_n.jpg",
    "id_album": "1396902986",
    "description": "KAWAII170220223478",
    "title": "KAWAII170220223478",
    "link_img": "https://live.staticflickr.com/65535/49694527092_0f6c240b52_o.jpg",
    "id_image": "KAWAII170220223478",
    "count_view": 0
  },
  {
    "link_thumb": "https://live.staticflickr.com/65535/49727425281_67878e2bdd_n.jpg",
    "id_album": "-1694302085",
    "description": "KAWAII020420194508201",
    "title": "KAWAII020420194508201",
    "link_img": "https://live.staticflickr.com/65535/49727425281_64f106fd43_o.jpg",
    "id_image": "KAWAII020420194508201",
    "count_view": 0
  },
  {
    "link_thumb": "https://live.staticflickr.com/65535/49742368198_a78aea33e3_n.jpg",
    "id_album": "-1497779911",
    "description": "KAWAII060420214917131",
    "title": "KAWAII060420214917131",
    "link_img": "https://live.staticflickr.com/65535/49742368198_ec94c1902b_o.jpg",
    "id_image": "KAWAII060420214917131",
    "count_view": 0
  },
  {
    "link_thumb": "https://live.staticflickr.com/65535/49694385997_7851f90b4a_n.jpg",
    "id_album": "1201366373",
    "description": "KAWAII120918141",
    "title": "KAWAII120918141",
    "link_img": "https://live.staticflickr.com/65535/49694385997_f3e813d133_o.jpg",
    "id_image": "KAWAII120918141",
    "count_view": 0
  },
  {
    "link_thumb": "https://live.staticflickr.com/65535/49743244862_5576d98f85_n.jpg",
    "id_album": "-316663319",
    "description": "KAWAII060420214912154",
    "title": "KAWAII060420214912154",
    "link_img": "https://live.staticflickr.com/65535/49743244862_a121890c7f_o.jpg",
    "id_image": "KAWAII060420214912154",
    "count_view": 0
  },
  {
    "link_thumb": "https://live.staticflickr.com/65535/49548228903_a91159fa1e_n.jpg",
    "id_album": "-1432180061",
    "description": "KAWAII1702202238490",
    "title": "KAWAII1702202238490",
    "link_img": "https://live.staticflickr.com/65535/49548228903_2cc4c933a6_o.jpg",
    "id_image": "KAWAII1702202238490",
    "count_view": 0
  },
  {
    "link_thumb": "https://live.staticflickr.com/65535/49742909136_211a4d41af_n.jpg",
    "id_album": "1271846417",
    "description": "KAWAII060420214912157",
    "title": "KAWAII060420214912157",
    "link_img": "https://live.staticflickr.com/65535/49742909136_cd6fa80f88_o.jpg",
    "id_image": "KAWAII060420214912157",
    "count_view": 0
  },
  {
    "link_thumb": "https://live.staticflickr.com/65535/49694097081_996458b2c0_n.jpg",
    "id_album": "1201366373",
    "description": "KAWAII120918259",
    "title": "KAWAII120918259",
    "link_img": "https://live.staticflickr.com/65535/49694097081_3712d412e7_o.jpg",
    "id_image": "KAWAII120918259",
    "count_view": 0
  },
  {
    "link_thumb": "https://live.staticflickr.com/65535/49694425322_b51eb0e2a3_n.jpg",
    "id_album": "-643980979",
    "description": "KAWAII270220235163",
    "title": "KAWAII270220235163",
    "link_img": "https://live.staticflickr.com/65535/49694425322_970edb1907_o.jpg",
    "id_image": "KAWAII270220235163",
    "count_view": 0
  },
  {
    "link_thumb": "https://live.staticflickr.com/65535/49727763682_55f3936388_n.jpg",
    "id_album": "742877173",
    "description": "KAWAII020420194512206",
    "title": "KAWAII020420194512206",
    "link_img": "https://live.staticflickr.com/65535/49727763682_6017d5924b_o.jpg",
    "id_image": "KAWAII020420194512206",
    "count_view": 0
  },
  {
    "link_thumb": "https://live.staticflickr.com/65535/49726892548_ab74a49b01_n.jpg",
    "id_album": "-316663319",
    "description": "KAWAII020420194512242",
    "title": "KAWAII020420194512242",
    "link_img": "https://live.staticflickr.com/65535/49726892548_df3ed81f03_o.jpg",
    "id_image": "KAWAII020420194512242",
    "count_view": 0
  },
  {
    "link_thumb": "https://live.staticflickr.com/65535/49693546958_bf60f7305c_n.jpg",
    "id_album": "1201366373",
    "description": "KAWAII120918205",
    "title": "KAWAII120918205",
    "link_img": "https://live.staticflickr.com/65535/49693546958_624b9d5b61_o.jpg",
    "id_image": "KAWAII120918205",
    "count_view": 0
  },
  {
    "link_thumb": "https://live.staticflickr.com/65535/49742933406_ca2712e878_n.jpg",
    "id_album": "-316663319",
    "description": "KAWAII06042021491890",
    "title": "KAWAII06042021491890",
    "link_img": "https://live.staticflickr.com/65535/49742933406_7718feaedc_o.jpg",
    "id_image": "KAWAII06042021491890",
    "count_view": 0
  },
  {
    "link_thumb": "https://live.staticflickr.com/65535/49742366173_9c888d39a5_n.jpg",
    "id_album": "-1497779911",
    "description": "KAWAII060420214912135",
    "title": "KAWAII060420214912135",
    "link_img": "https://live.staticflickr.com/65535/49742366173_fde6d7dc49_o.jpg",
    "id_image": "KAWAII060420214912135",
    "count_view": 0
  },
  {
    "link_thumb": "https://live.staticflickr.com/65535/49623111612_2598b0db04_n.jpg",
    "id_album": "-316663319",
    "description": "KAWAII050320202183",
    "title": "KAWAII050320202183",
    "link_img": "https://live.staticflickr.com/65535/49623111612_bd0136d113_o.jpg",
    "id_image": "KAWAII050320202183",
    "count_view": 0
  },
  {
    "link_thumb": "https://live.staticflickr.com/65535/49727787807_becb0d173f_n.jpg",
    "id_album": "-1099943053",
    "description": "KAWAII020420194508203",
    "title": "KAWAII020420194508203",
    "link_img": "https://live.staticflickr.com/65535/49727787807_d91e1c9be7_o.jpg",
    "id_image": "KAWAII020420194508203",
    "count_view": 0
  },
  {
    "link_thumb": "https://live.staticflickr.com/65535/49742370283_264933b2a1_n.jpg",
    "id_album": "-128218148",
    "description": "KAWAII060420214912111",
    "title": "KAWAII060420214912111",
    "link_img": "https://live.staticflickr.com/65535/49742370283_50ef9d42d0_o.jpg",
    "id_image": "KAWAII060420214912111",
    "count_view": 0
  },
  {
    "link_thumb": "https://live.staticflickr.com/65535/49693585133_e5463d6e2c_n.jpg",
    "id_album": "405170427",
    "description": "KAWAII170220223324",
    "title": "KAWAII170220223324",
    "link_img": "https://live.staticflickr.com/65535/49693585133_9a145701e5_o.jpg",
    "id_image": "KAWAII170220223324",
    "count_view": 0
  },
  {
    "link_thumb": "https://live.staticflickr.com/65535/49727434356_c3ff8953bd_n.jpg",
    "id_album": "-1497779911",
    "description": "KAWAII1702202235125",
    "title": "KAWAII1702202235125",
    "link_img": "https://live.staticflickr.com/65535/49727434356_b768281799_o.jpg",
    "id_image": "KAWAII1702202235125",
    "count_view": 0
  },
  {
    "link_thumb": "https://live.staticflickr.com/65535/49743254982_55b8851550_n.jpg",
    "id_album": "-316663319",
    "description": "KAWAII060420214917150",
    "title": "KAWAII060420214917150",
    "link_img": "https://live.staticflickr.com/65535/49743254982_47dd6f411e_o.jpg",
    "id_image": "KAWAII060420214917150",
    "count_view": 0
  },
  {
    "link_thumb": "https://live.staticflickr.com/65535/49727737932_3fbcaebfff_n.jpg",
    "id_album": "-1694302085",
    "description": "KAWAII02042019450764",
    "title": "KAWAII02042019450764",
    "link_img": "https://live.staticflickr.com/65535/49727737932_45dd1fb080_o.jpg",
    "id_image": "KAWAII02042019450764",
    "count_view": 0
  },
  {
    "link_thumb": "https://live.staticflickr.com/65535/49743233307_73ebe0ec47_n.jpg",
    "id_album": "-1694302085",
    "description": "KAWAII060420214913283",
    "title": "KAWAII060420214913283",
    "link_img": "https://live.staticflickr.com/65535/49743233307_2ff03ca347_o.jpg",
    "id_image": "KAWAII060420214913283",
    "count_view": 0
  },
  {
    "link_thumb": "https://live.staticflickr.com/65535/49726896558_0919cc8216_n.jpg",
    "id_album": "742877173",
    "description": "KAWAII020420194509258",
    "title": "KAWAII020420194509258",
    "link_img": "https://live.staticflickr.com/65535/49726896558_3ed84326ed_o.jpg",
    "id_image": "KAWAII020420194509258",
    "count_view": 0
  },
  {
    "link_thumb": "https://live.staticflickr.com/65535/49548566621_f8a47d0bae_n.jpg",
    "id_album": "-1741487325",
    "description": "KAWAII120918192",
    "title": "KAWAII120918192",
    "link_img": "https://live.staticflickr.com/65535/49548566621_dcf7453533_o.jpg",
    "id_image": "KAWAII120918192",
    "count_view": 0
  },
  {
    "link_thumb": "https://live.staticflickr.com/65535/49726882983_1a981c019f_n.jpg",
    "id_album": "-1497779911",
    "description": "KAWAII020420194511232",
    "title": "KAWAII020420194511232",
    "link_img": "https://live.staticflickr.com/65535/49726882983_cddcb7cb6a_o.jpg",
    "id_image": "KAWAII020420194511232",
    "count_view": 0
  },
  {
    "link_thumb": "https://live.staticflickr.com/65535/49548199453_66d102491a_n.jpg",
    "id_album": "-422187261",
    "description": "KAWAII1702202237378",
    "title": "KAWAII1702202237378",
    "link_img": "https://live.staticflickr.com/65535/49548199453_ff152d56a3_o.jpg",
    "id_image": "KAWAII1702202237378",
    "count_view": 0
  },
  {
    "link_thumb": "https://live.staticflickr.com/65535/49548908167_63b1aa9776_n.jpg",
    "id_album": "-422187261",
    "description": "KAWAII1702202236293",
    "title": "KAWAII1702202236293",
    "link_img": "https://live.staticflickr.com/65535/49548908167_6e57bf0cb4_o.jpg",
    "id_image": "KAWAII1702202236293",
    "count_view": 0
  },
  {
    "link_thumb": "https://live.staticflickr.com/65535/49548794962_a34d765cd7_n.jpg",
    "id_album": "-1741487325",
    "description": "KAWAII120918200",
    "title": "KAWAII120918200",
    "link_img": "https://live.staticflickr.com/65535/49548794962_8ab12877bb_o.jpg",
    "id_image": "KAWAII120918200",
    "count_view": 0
  },
  {
    "link_thumb": "https://live.staticflickr.com/65535/49694392417_3e8a76a371_n.jpg",
    "id_album": "1201366373",
    "description": "KAWAII120918198",
    "title": "KAWAII120918198",
    "link_img": "https://live.staticflickr.com/65535/49694392417_571fc3c679_o.jpg",
    "id_image": "KAWAII120918198",
    "count_view": 0
  },
  {
    "link_thumb": "https://live.staticflickr.com/65535/49548610471_c6a9e5014f_n.jpg",
    "id_album": "-316663319",
    "description": "KAWAII12091843",
    "title": "KAWAII12091843",
    "link_img": "https://live.staticflickr.com/65535/49548610471_bf36fce83f_o.jpg",
    "id_image": "KAWAII12091843",
    "count_view": 0
  },
  {
    "link_thumb": "https://live.staticflickr.com/65535/49622800506_09fc9b0002_n.jpg",
    "id_album": "1396902986",
    "description": "KAWAII0503202021183",
    "title": "KAWAII0503202021183",
    "link_img": "https://live.staticflickr.com/65535/49622800506_077a2f79f3_o.jpg",
    "id_image": "KAWAII0503202021183",
    "count_view": 0
  },
  {
    "link_thumb": "https://live.staticflickr.com/65535/49727452366_a4211e3486_n.jpg",
    "id_album": "742877173",
    "description": "KAWAII020420194514200",
    "title": "KAWAII020420194514200",
    "link_img": "https://live.staticflickr.com/65535/49727452366_78405656a3_o.jpg",
    "id_image": "KAWAII020420194514200",
    "count_view": 0
  },
  {
    "link_thumb": "https://live.staticflickr.com/65535/49694081176_09810f47ba_n.jpg",
    "id_album": "-643980979",
    "description": "KAWAII12091811",
    "title": "KAWAII12091811",
    "link_img": "https://live.staticflickr.com/65535/49694081176_18dac0675d_o.jpg",
    "id_image": "KAWAII12091811",
    "count_view": 0
  },
  {
    "link_thumb": "https://live.staticflickr.com/65535/49727752447_13493c610e_n.jpg",
    "id_album": "-316663319",
    "description": "KAWAII02042019451031",
    "title": "KAWAII02042019451031",
    "link_img": "https://live.staticflickr.com/65535/49727752447_5c7a9ecc13_o.jpg",
    "id_image": "KAWAII02042019451031",
    "count_view": 0
  },
  {
    "link_thumb": "https://live.staticflickr.com/65535/49742933571_6e9e9f413c_n.jpg",
    "id_album": "742877173",
    "description": "KAWAII060420214918237",
    "title": "KAWAII060420214918237",
    "link_img": "https://live.staticflickr.com/65535/49742933571_e39f3a2b2a_o.jpg",
    "id_image": "KAWAII060420214918237",
    "count_view": 0
  },
  {
    "link_thumb": "https://live.staticflickr.com/65535/49727756082_5da809012c_n.jpg",
    "id_album": "742877173",
    "description": "KAWAII020420194508118",
    "title": "KAWAII020420194508118",
    "link_img": "https://live.staticflickr.com/65535/49727756082_3e77906345_o.jpg",
    "id_image": "KAWAII020420194508118",
    "count_view": 0
  },
  {
    "link_thumb": "https://live.staticflickr.com/65535/49694429272_8f48347926_n.jpg",
    "id_album": "1563362783",
    "description": "KAWAII1209182518022020594",
    "title": "KAWAII1209182518022020594",
    "link_img": "https://live.staticflickr.com/65535/49694429272_744e12888f_o.jpg",
    "id_image": "KAWAII1209182518022020594",
    "count_view": 0
  },
  {
    "link_thumb": "https://live.staticflickr.com/65535/49742952331_93f5460291_n.jpg",
    "id_album": "-1862561193",
    "description": "KAWAII06042021491539",
    "title": "KAWAII06042021491539",
    "link_img": "https://live.staticflickr.com/65535/49742952331_60b92287e8_o.jpg",
    "id_image": "KAWAII06042021491539",
    "count_view": 0
  },
  {
    "link_thumb": "https://live.staticflickr.com/65535/49694126256_4dc9484853_n.jpg",
    "id_album": "-1431786825",
    "description": "KAWAII270220235197",
    "title": "KAWAII270220235197",
    "link_img": "https://live.staticflickr.com/65535/49694126256_a9edd582f5_o.jpg",
    "id_image": "KAWAII270220235197",
    "count_view": 0
  },
  {
    "link_thumb": "https://live.staticflickr.com/65535/49548096168_960e4bf3a5_n.jpg",
    "id_album": "-1741487325",
    "description": "KAWAII120918331",
    "title": "KAWAII120918331",
    "link_img": "https://live.staticflickr.com/65535/49548096168_deab32ef86_o.jpg",
    "id_image": "KAWAII120918331",
    "count_view": 0
  },
  {
    "link_thumb": "https://live.staticflickr.com/65535/49727786567_53f487c2c8_n.jpg",
    "id_album": "-1862561193",
    "description": "KAWAII02042019451318",
    "title": "KAWAII02042019451318",
    "link_img": "https://live.staticflickr.com/65535/49727786567_55a0f50465_o.jpg",
    "id_image": "KAWAII02042019451318",
    "count_view": 0
  },
  {
    "link_thumb": "https://live.staticflickr.com/65535/49592707666_c6e0083116_n.jpg",
    "id_album": "1396902986",
    "description": "KAWAII2702202351156",
    "title": "KAWAII2702202351156",
    "link_img": "https://live.staticflickr.com/65535/49592707666_31403892d7_o.jpg",
    "id_image": "KAWAII2702202351156",
    "count_view": 0
  },
  {
    "link_thumb": "https://live.staticflickr.com/65535/49548064628_d02e014ab6_n.jpg",
    "id_album": "-316663319",
    "description": "KAWAII120918191",
    "title": "KAWAII120918191",
    "link_img": "https://live.staticflickr.com/65535/49548064628_78deddcd7e_o.jpg",
    "id_image": "KAWAII120918191",
    "count_view": 0
  },
  {
    "link_thumb": "https://live.staticflickr.com/65535/49548623586_f55e5b16ef_n.jpg",
    "id_album": "-316663319",
    "description": "KAWAII170220223315",
    "title": "KAWAII170220223315",
    "link_img": "https://live.staticflickr.com/65535/49548623586_c374067c56_o.jpg",
    "id_image": "KAWAII170220223315",
    "count_view": 0
  },
  {
    "link_thumb": "https://live.staticflickr.com/65535/49548090478_e14671db02_n.jpg",
    "id_album": "-422187261",
    "description": "KAWAII120918308",
    "title": "KAWAII120918308",
    "link_img": "https://live.staticflickr.com/65535/49548090478_68298f952a_o.jpg",
    "id_image": "KAWAII120918308",
    "count_view": 0
  },
  {
    "link_thumb": "https://live.staticflickr.com/65535/49548843397_dbf2fe5fe9_n.jpg",
    "id_album": "-1432180061",
    "description": "KAWAII1209187",
    "title": "KAWAII1209187",
    "link_img": "https://live.staticflickr.com/65535/49548843397_bf8a64d198_o.jpg",
    "id_image": "KAWAII1209187",
    "count_view": 0
  },
  {
    "link_thumb": "https://live.staticflickr.com/65535/49548710626_0532f61eea_n.jpg",
    "id_album": "-1432180061",
    "description": "KAWAII1702202238419",
    "title": "KAWAII1702202238419",
    "link_img": "https://live.staticflickr.com/65535/49548710626_f269a794fc_o.jpg",
    "id_image": "KAWAII1702202238419",
    "count_view": 0
  },
  {
    "link_thumb": "https://live.staticflickr.com/65535/49623073707_58305f3072_n.jpg",
    "id_album": "1396902986",
    "description": "KAWAII050320202121",
    "title": "KAWAII050320202121",
    "link_img": "https://live.staticflickr.com/65535/49623073707_d671eb6e3a_o.jpg",
    "id_image": "KAWAII050320202121",
    "count_view": 0
  },
  {
    "link_thumb": "https://live.staticflickr.com/65535/49742932701_d5377d3cb9_n.jpg",
    "id_album": "-316663319",
    "description": "KAWAII060420214918252",
    "title": "KAWAII060420214918252",
    "link_img": "https://live.staticflickr.com/65535/49742932701_f9a76244d5_o.jpg",
    "id_image": "KAWAII060420214918252",
    "count_view": 0
  },
  {
    "link_thumb": "https://live.staticflickr.com/65535/49622286478_3e670975d2_n.jpg",
    "id_album": "1396902986",
    "description": "KAWAII0503202021217",
    "title": "KAWAII0503202021217",
    "link_img": "https://live.staticflickr.com/65535/49622286478_b504a41004_o.jpg",
    "id_image": "KAWAII0503202021217",
    "count_view": 0
  },
  {
    "link_thumb": "https://live.staticflickr.com/65535/49694414482_675c55845d_n.jpg",
    "id_album": "-643980979",
    "description": "KAWAII1702202237401",
    "title": "KAWAII1702202237401",
    "link_img": "https://live.staticflickr.com/65535/49694414482_625365d4b7_o.jpg",
    "id_image": "KAWAII1702202237401",
    "count_view": 0
  },
  {
    "link_thumb": "https://live.staticflickr.com/65535/49548979192_8701e062fe_n.jpg",
    "id_album": "-1431786825",
    "description": "KAWAII1702202239579",
    "title": "KAWAII1702202239579",
    "link_img": "https://live.staticflickr.com/65535/49548979192_dbd6fac7f5_o.jpg",
    "id_image": "KAWAII1702202239579",
    "count_view": 0
  },
  {
    "link_thumb": "https://live.staticflickr.com/65535/49743253067_585dfdc469_n.jpg",
    "id_album": "-316663319",
    "description": "KAWAII060420214915301",
    "title": "KAWAII060420214915301",
    "link_img": "https://live.staticflickr.com/65535/49743253067_6eea8fa353_o.jpg",
    "id_image": "KAWAII060420214915301",
    "count_view": 0
  },
  {
    "link_thumb": "https://live.staticflickr.com/65535/49622334453_e7acc9cfeb_n.jpg",
    "id_album": "-406350429",
    "description": "KAWAII050320202160",
    "title": "KAWAII050320202160",
    "link_img": "https://live.staticflickr.com/65535/49622334453_db673f5e89_o.jpg",
    "id_image": "KAWAII050320202160",
    "count_view": 0
  },
  {
    "link_thumb": "https://live.staticflickr.com/65535/49592207698_9b9319dfcf_n.jpg",
    "id_album": "-1741487325",
    "description": "KAWAII1702202238422",
    "title": "KAWAII1702202238422",
    "link_img": "https://live.staticflickr.com/65535/49592207698_6744df8991_o.jpg",
    "id_image": "KAWAII1702202238422",
    "count_view": 0
  },
  {
    "link_thumb": "https://live.staticflickr.com/65535/49743260607_18448666e8_n.jpg",
    "id_album": "-1473448477",
    "description": "KAWAII060420214915228",
    "title": "KAWAII060420214915228",
    "link_img": "https://live.staticflickr.com/65535/49743260607_b7e23e9d31_o.jpg",
    "id_image": "KAWAII060420214915228",
    "count_view": 0
  },
  {
    "link_thumb": "https://live.staticflickr.com/65535/49623074512_72ec37dba4_n.jpg",
    "id_album": "1396902986",
    "description": "KAWAII050320202124",
    "title": "KAWAII050320202124",
    "link_img": "https://live.staticflickr.com/65535/49623074512_8a5df48ac3_o.jpg",
    "id_image": "KAWAII050320202124",
    "count_view": 0
  },
  {
    "link_thumb": "https://live.staticflickr.com/65535/49726925128_f475533b2b_n.jpg",
    "id_album": "-1862561193",
    "description": "KAWAII02042019451366",
    "title": "KAWAII02042019451366",
    "link_img": "https://live.staticflickr.com/65535/49726925128_bba6ddf96b_o.jpg",
    "id_image": "KAWAII02042019451366",
    "count_view": 0
  },
  {
    "link_thumb": "https://live.staticflickr.com/65535/49548978222_83df9d4960_n.jpg",
    "id_album": "-1694302085",
    "description": "KAWAII1702202239575",
    "title": "KAWAII1702202239575",
    "link_img": "https://live.staticflickr.com/65535/49548978222_34d8bacd1b_o.jpg",
    "id_image": "KAWAII1702202239575",
    "count_view": 0
  },
  {
    "link_thumb": "https://live.staticflickr.com/65535/49592215883_1d103b4fd3_n.jpg",
    "id_album": "-316663319",
    "description": "KAWAII27022023515",
    "title": "KAWAII27022023515",
    "link_img": "https://live.staticflickr.com/65535/49592215883_0251ac3dd4_o.jpg",
    "id_image": "KAWAII27022023515",
    "count_view": 0
  },
  {
    "link_thumb": "https://live.staticflickr.com/65535/49694223711_9936d6d2f6_n.jpg",
    "id_album": "-1862561193",
    "description": "KAWAII24032022050147",
    "title": "KAWAII24032022050147",
    "link_img": "https://live.staticflickr.com/65535/49694223711_6553dda6a5_o.jpg",
    "id_image": "KAWAII24032022050147",
    "count_view": 0
  },
  {
    "link_thumb": "https://live.staticflickr.com/65535/49592228503_248d1795ef_n.jpg",
    "id_album": "949200594",
    "description": "KAWAII2702202351155",
    "title": "KAWAII2702202351155",
    "link_img": "https://live.staticflickr.com/65535/49592228503_73a5fbfed9_o.jpg",
    "id_image": "KAWAII2702202351155",
    "count_view": 0
  },
  {
    "link_thumb": "https://live.staticflickr.com/65535/49694375002_c347401b0e_n.jpg",
    "id_album": "-643980979",
    "description": "KAWAII0503202021225",
    "title": "KAWAII0503202021225",
    "link_img": "https://live.staticflickr.com/65535/49694375002_7e97191bb9_o.jpg",
    "id_image": "KAWAII0503202021225",
    "count_view": 0
  },
  {
    "link_thumb": "https://live.staticflickr.com/65535/49622805466_a5265a88fd_n.jpg",
    "id_album": "-1741487325",
    "description": "KAWAII050320202110",
    "title": "KAWAII050320202110",
    "link_img": "https://live.staticflickr.com/65535/49622805466_fb1a9fa924_o.jpg",
    "id_image": "KAWAII050320202110",
    "count_view": 0
  },
  {
    "link_thumb": "https://live.staticflickr.com/65535/49592975592_8580a8b7c2_n.jpg",
    "id_album": "949200594",
    "description": "KAWAII270220235171",
    "title": "KAWAII270220235171",
    "link_img": "https://live.staticflickr.com/65535/49592975592_fa4d0e2041_o.jpg",
    "id_image": "KAWAII270220235171",
    "count_view": 0
  },
  {
    "link_thumb": "https://live.staticflickr.com/65535/49552520441_084ea7f0c8_n.jpg",
    "id_album": "-1694302085",
    "description": "KAWAII12091825180220205935",
    "title": "KAWAII12091825180220205935",
    "link_img": "https://live.staticflickr.com/65535/49552520441_ca754aa233_o.jpg",
    "id_image": "KAWAII12091825180220205935",
    "count_view": 0
  },
  {
    "link_thumb": "https://live.staticflickr.com/65535/49694377467_b776f7ced0_n.jpg",
    "id_album": "1201366373",
    "description": "KAWAII0503202021306",
    "title": "KAWAII0503202021306",
    "link_img": "https://live.staticflickr.com/65535/49694377467_5f1941966d_o.jpg",
    "id_image": "KAWAII0503202021306",
    "count_view": 0
  },
  {
    "link_thumb": "https://live.staticflickr.com/65535/49548850542_101fe68911_n.jpg",
    "id_album": "431597977",
    "description": "KAWAII170220223312",
    "title": "KAWAII170220223312",
    "link_img": "https://live.staticflickr.com/65535/49548850542_8e4da06f99_o.jpg",
    "id_image": "KAWAII170220223312",
    "count_view": 0
  },
  {
    "link_thumb": "https://live.staticflickr.com/65535/49623096962_b2e24a4f06_n.jpg",
    "id_album": "-316663319",
    "description": "KAWAII0503202021223",
    "title": "KAWAII0503202021223",
    "link_img": "https://live.staticflickr.com/65535/49623096962_8d05fc8f26_o.jpg",
    "id_image": "KAWAII0503202021223",
    "count_view": 0
  },
  {
    "link_thumb": "https://live.staticflickr.com/65535/49726922893_af395df580_n.jpg",
    "id_album": "-1862561193",
    "description": "KAWAII0204201945118",
    "title": "KAWAII0204201945118",
    "link_img": "https://live.staticflickr.com/65535/49726922893_9f0e4fa3c4_o.jpg",
    "id_image": "KAWAII0204201945118",
    "count_view": 0
  },
  {
    "link_thumb": "https://live.staticflickr.com/65535/49548245093_44f9fbb385_n.jpg",
    "id_album": "-422187261",
    "description": "KAWAII1702202239551",
    "title": "KAWAII1702202239551",
    "link_img": "https://live.staticflickr.com/65535/49548245093_46504f58cf_o.jpg",
    "id_image": "KAWAII1702202239551",
    "count_view": 0
  },
  {
    "link_thumb": "https://live.staticflickr.com/65535/49592734431_2caa3999b0_n.jpg",
    "id_album": "949200594",
    "description": "KAWAII27022023519",
    "title": "KAWAII27022023519",
    "link_img": "https://live.staticflickr.com/65535/49592734431_cc7c9317c4_o.jpg",
    "id_image": "KAWAII27022023519",
    "count_view": 0
  },
  {
    "link_thumb": "https://live.staticflickr.com/65535/49727439666_4d7308a57b_n.jpg",
    "id_album": "-316663319",
    "description": "KAWAII020420194512154",
    "title": "KAWAII020420194512154",
    "link_img": "https://live.staticflickr.com/65535/49727439666_09f88a6c49_o.jpg",
    "id_image": "KAWAII020420194512154",
    "count_view": 0
  },
  {
    "link_thumb": "https://live.staticflickr.com/65535/49548667946_8886f00704_n.jpg",
    "id_album": "-422187261",
    "description": "KAWAII1702202236227",
    "title": "KAWAII1702202236227",
    "link_img": "https://live.staticflickr.com/65535/49548667946_abc94f15f7_o.jpg",
    "id_image": "KAWAII1702202236227",
    "count_view": 0
  },
  {
    "link_thumb": "https://live.staticflickr.com/65535/49693676418_9c8e1de302_n.jpg",
    "id_album": "-643980979",
    "description": "KAWAII24032022050239",
    "title": "KAWAII24032022050239",
    "link_img": "https://live.staticflickr.com/65535/49693676418_5a3f922bbf_o.jpg",
    "id_image": "KAWAII24032022050239",
    "count_view": 0
  },
  {
    "link_thumb": "https://live.staticflickr.com/65535/49548111418_9a24d946a6_n.jpg",
    "id_album": "-1741487325",
    "description": "KAWAII12091857",
    "title": "KAWAII12091857",
    "link_img": "https://live.staticflickr.com/65535/49548111418_d9dce45796_o.jpg",
    "id_image": "KAWAII12091857",
    "count_view": 0
  },
  {
    "link_thumb": "https://live.staticflickr.com/65535/49694123611_c7622fded6_n.jpg",
    "id_album": "-358592519",
    "description": "KAWAII120918106",
    "title": "KAWAII120918106",
    "link_img": "https://live.staticflickr.com/65535/49694123611_c2ff434e14_o.jpg",
    "id_image": "KAWAII120918106",
    "count_view": 0
  },
  {
    "link_thumb": "https://live.staticflickr.com/65535/49727754157_91cc09de26_n.jpg",
    "id_album": "-316663319",
    "description": "KAWAII020420194512160",
    "title": "KAWAII020420194512160",
    "link_img": "https://live.staticflickr.com/65535/49727754157_1ab4982a2a_o.jpg",
    "id_image": "KAWAII020420194512160",
    "count_view": 0
  },
  {
    "link_thumb": "https://live.staticflickr.com/65535/49548711691_52dff002c1_n.jpg",
    "id_album": "-422187261",
    "description": "KAWAII1702202238423",
    "title": "KAWAII1702202238423",
    "link_img": "https://live.staticflickr.com/65535/49548711691_a471ef5f97_o.jpg",
    "id_image": "KAWAII1702202238423",
    "count_view": 0
  },
  {
    "link_thumb": "https://live.staticflickr.com/65535/49710287133_c88fa54bb0_n.jpg",
    "id_album": "-1599896063",
    "description": "LITTLEMONK29032012063529",
    "title": "LITTLEMONK29032012063529",
    "link_img": "https://live.staticflickr.com/65535/49710287133_b5e17895be_o.jpg",
    "id_image": "LITTLEMONK29032012063529",
    "count_view": 0
  },
  {
    "link_thumb": "https://live.staticflickr.com/65535/49548271533_25e62fa621_n.jpg",
    "id_album": "-1741487325",
    "description": "KAWAII17091848",
    "title": "KAWAII17091848",
    "link_img": "https://live.staticflickr.com/65535/49548271533_37461da76b_o.jpg",
    "id_image": "KAWAII17091848",
    "count_view": 0
  },
  {
    "link_thumb": "https://live.staticflickr.com/65535/49726897378_ef4f0cc21d_n.jpg",
    "id_album": "742877173",
    "description": "KAWAII0204201945096",
    "title": "KAWAII0204201945096",
    "link_img": "https://live.staticflickr.com/65535/49726897378_9d1edc6688_o.jpg",
    "id_image": "KAWAII0204201945096",
    "count_view": 0
  },
  {
    "link_thumb": "https://live.staticflickr.com/65535/49693525553_2c502f8a61_n.jpg",
    "id_album": "416744915",
    "description": "KAWAII1702202238442",
    "title": "KAWAII1702202238442",
    "link_img": "https://live.staticflickr.com/65535/49693525553_7d58a7d5b4_o.jpg",
    "id_image": "KAWAII1702202238442",
    "count_view": 0
  },
  {
    "link_thumb": "https://live.staticflickr.com/65535/49694095971_beac1fac12_n.jpg",
    "id_album": "1201366373",
    "description": "KAWAII12091825180220205937",
    "title": "KAWAII12091825180220205937",
    "link_img": "https://live.staticflickr.com/65535/49694095971_59628ea63a_o.jpg",
    "id_image": "KAWAII12091825180220205937",
    "count_view": 0
  },
  {
    "link_thumb": "https://live.staticflickr.com/65535/49548060263_8d7e848b2a_n.jpg",
    "id_album": "-1741487325",
    "description": "KAWAII120918173",
    "title": "KAWAII120918173",
    "link_img": "https://live.staticflickr.com/65535/49548060263_d35db328c4_o.jpg",
    "id_image": "KAWAII120918173",
    "count_view": 0
  },
  {
    "link_thumb": "https://live.staticflickr.com/65535/49727787947_bff7db4229_n.jpg",
    "id_album": "-1099943053",
    "description": "KAWAII020420194508220",
    "title": "KAWAII020420194508220",
    "link_img": "https://live.staticflickr.com/65535/49727787947_98cf0ca607_o.jpg",
    "id_image": "KAWAII020420194508220",
    "count_view": 0
  },
  {
    "link_thumb": "https://live.staticflickr.com/65535/49548928647_fc902612c2_n.jpg",
    "id_album": "-1694302085",
    "description": "KAWAII1702202237384",
    "title": "KAWAII1702202237384",
    "link_img": "https://live.staticflickr.com/65535/49548928647_8d57ffa024_o.jpg",
    "id_image": "KAWAII1702202237384",
    "count_view": 0
  },
  {
    "link_thumb": "https://live.staticflickr.com/65535/49742398653_358db2c76e_n.jpg",
    "id_album": "-1779286820",
    "description": "KAWAII06042021491835",
    "title": "KAWAII06042021491835",
    "link_img": "https://live.staticflickr.com/65535/49742398653_4ee33a0760_o.jpg",
    "id_image": "KAWAII06042021491835",
    "count_view": 0
  },
  {
    "link_thumb": "https://live.staticflickr.com/65535/49742923161_2d7e175f84_n.jpg",
    "id_album": "-316663319",
    "description": "KAWAII060420214913120",
    "title": "KAWAII060420214913120",
    "link_img": "https://live.staticflickr.com/65535/49742923161_e4af605f0b_o.jpg",
    "id_image": "KAWAII060420214913120",
    "count_view": 0
  },
  {
    "link_thumb": "https://live.staticflickr.com/65535/49694400417_835f6f8b25_n.jpg",
    "id_album": "1201366373",
    "description": "KAWAII120918273",
    "title": "KAWAII120918273",
    "link_img": "https://live.staticflickr.com/65535/49694400417_dc43c44077_o.jpg",
    "id_image": "KAWAII120918273",
    "count_view": 0
  },
  {
    "link_thumb": "https://live.staticflickr.com/65535/49742407823_323f75a2aa_n.jpg",
    "id_album": "-1431786825",
    "description": "KAWAII060420214914275",
    "title": "KAWAII060420214914275",
    "link_img": "https://live.staticflickr.com/65535/49742407823_2e8d533bf4_o.jpg",
    "id_image": "KAWAII060420214914275",
    "count_view": 0
  },
  {
    "link_thumb": "https://live.staticflickr.com/65535/49548930407_6094d1e5b5_n.jpg",
    "id_album": "-422187261",
    "description": "KAWAII1702202237391",
    "title": "KAWAII1702202237391",
    "link_img": "https://live.staticflickr.com/65535/49548930407_6f625a7635_o.jpg",
    "id_image": "KAWAII1702202237391",
    "count_view": 0
  },
  {
    "link_thumb": "https://live.staticflickr.com/65535/49622329163_7bf2efc724_n.jpg",
    "id_album": "-406350429",
    "description": "KAWAII0503202021187",
    "title": "KAWAII0503202021187",
    "link_img": "https://live.staticflickr.com/65535/49622329163_f4aa1f3bc6_o.jpg",
    "id_image": "KAWAII0503202021187",
    "count_view": 0
  },
  {
    "link_thumb": "https://live.staticflickr.com/65535/49693527958_5451a2d822_n.jpg",
    "id_album": "-643980979",
    "description": "KAWAII0503202021179",
    "title": "KAWAII0503202021179",
    "link_img": "https://live.staticflickr.com/65535/49693527958_ce1a1d65b4_o.jpg",
    "id_image": "KAWAII0503202021179",
    "count_view": 0
  }
]