[
  {
    "link_thumb": "https://live.staticflickr.com/65535/49548560796_d6792a7f68_n.jpg",
    "id_album": "-1432180061",
    "description": "KAWAII120918166",
    "title": "KAWAII120918166",
    "link_img": "https://live.staticflickr.com/65535/49548560796_c1fcc92e32_o.jpg",
    "id_image": "KAWAII120918166",
    "count_view": 0
  },
  {
    "link_thumb": "https://live.staticflickr.com/65535/49694225961_522493de17_n.jpg",
    "id_album": "1226948986",
    "description": "KAWAII24032022050141",
    "title": "KAWAII24032022050141",
    "link_img": "https://live.staticflickr.com/65535/49694225961_a865e89710_o.jpg",
    "id_image": "KAWAII24032022050141",
    "count_view": 0
  },
  {
    "link_thumb": "https://live.staticflickr.com/65535/49548151138_9df7836e63_n.jpg",
    "id_album": "-316663319",
    "description": "KAWAII1702202235152",
    "title": "KAWAII1702202235152",
    "link_img": "https://live.staticflickr.com/65535/49548151138_c7aef7d8ff_o.jpg",
    "id_image": "KAWAII1702202235152",
    "count_view": 0
  },
  {
    "link_thumb": "https://live.staticflickr.com/65535/49726883093_cdce31a6d0_n.jpg",
    "id_album": "-1497779911",
    "description": "KAWAII02042019451134",
    "title": "KAWAII02042019451134",
    "link_img": "https://live.staticflickr.com/65535/49726883093_7ecea6c899_o.jpg",
    "id_image": "KAWAII02042019451134",
    "count_view": 0
  },
  {
    "link_thumb": "https://live.staticflickr.com/65535/49743251107_e88cc269cf_n.jpg",
    "id_album": "-316663319",
    "description": "KAWAII060420214915164",
    "title": "KAWAII060420214915164",
    "link_img": "https://live.staticflickr.com/65535/49743251107_4266a8506e_o.jpg",
    "id_image": "KAWAII060420214915164",
    "count_view": 0
  },
  {
    "link_thumb": "https://live.staticflickr.com/65535/49693686563_02b03fcd19_n.jpg",
    "id_album": "1226948986",
    "description": "KAWAII24032022050259",
    "title": "KAWAII24032022050259",
    "link_img": "https://live.staticflickr.com/65535/49693686563_edfd6d82e3_o.jpg",
    "id_image": "KAWAII24032022050259",
    "count_view": 0
  },
  {
    "link_thumb": "https://live.staticflickr.com/65535/49727435836_0d2afe0df0_n.jpg",
    "id_album": "-316663319",
    "description": "KAWAII02042019450816",
    "title": "KAWAII02042019450816",
    "link_img": "https://live.staticflickr.com/65535/49727435836_df66c3d637_o.jpg",
    "id_image": "KAWAII02042019450816",
    "count_view": 0
  },
  {
    "link_thumb": "https://live.staticflickr.com/65535/49548677171_d64ee7e0c8_n.jpg",
    "id_album": "1396902986",
    "description": "KAWAII1702202236276",
    "title": "KAWAII1702202236276",
    "link_img": "https://live.staticflickr.com/65535/49548677171_e3d7c58ebb_o.jpg",
    "id_image": "KAWAII1702202236276",
    "count_view": 0
  },
  {
    "link_thumb": "https://live.staticflickr.com/65535/49742911856_f55e1e9e87_n.jpg",
    "id_album": "-1741487325",
    "description": "KAWAII060420214912186",
    "title": "KAWAII060420214912186",
    "link_img": "https://live.staticflickr.com/65535/49742911856_70532fe4fc_o.jpg",
    "id_image": "KAWAII060420214912186",
    "count_view": 0
  },
  {
    "link_thumb": "https://live.staticflickr.com/65535/49693528313_e2a2db57d1_n.jpg",
    "id_album": "-643980979",
    "description": "KAWAII0503202021188",
    "title": "KAWAII0503202021188",
    "link_img": "https://live.staticflickr.com/65535/49693528313_4748d2da47_o.jpg",
    "id_image": "KAWAII0503202021188",
    "count_view": 0
  },
  {
    "link_thumb": "https://live.staticflickr.com/65535/49726883983_810403235c_n.jpg",
    "id_album": "-1497779911",
    "description": "KAWAII050320202115",
    "title": "KAWAII050320202115",
    "link_img": "https://live.staticflickr.com/65535/49726883983_90249b40a9_o.jpg",
    "id_image": "KAWAII050320202115",
    "count_view": 0
  },
  {
    "link_thumb": "https://live.staticflickr.com/65535/49726927883_8b29fdece6_n.jpg",
    "id_album": "1226948986",
    "description": "KAWAII02042019450715",
    "title": "KAWAII02042019450715",
    "link_img": "https://live.staticflickr.com/65535/49726927883_646cf323b6_o.jpg",
    "id_image": "KAWAII02042019450715",
    "count_view": 0
  },
  {
    "link_thumb": "https://live.staticflickr.com/65535/49693571358_8e09d12fdf_n.jpg",
    "id_album": "1201366373",
    "description": "KAWAII1702202239530",
    "title": "KAWAII1702202239530",
    "link_img": "https://live.staticflickr.com/65535/49693571358_19ac9b5d03_o.jpg",
    "id_image": "KAWAII1702202239530",
    "count_view": 0
  },
  {
    "link_thumb": "https://live.staticflickr.com/65535/49727749397_d14c03d1d7_n.jpg",
    "id_album": "-1497779911",
    "description": "KAWAII1702202239535",
    "title": "KAWAII1702202239535",
    "link_img": "https://live.staticflickr.com/65535/49727749397_2315de8422_o.jpg",
    "id_image": "KAWAII1702202239535",
    "count_view": 0
  },
  {
    "link_thumb": "https://live.staticflickr.com/65535/49694120846_2eac335fe5_n.jpg",
    "id_album": "-643980979",
    "description": "KAWAII2702202351112",
    "title": "KAWAII2702202351112",
    "link_img": "https://live.staticflickr.com/65535/49694120846_3ca1dfdfec_o.jpg",
    "id_image": "KAWAII2702202351112",
    "count_view": 0
  },
  {
    "link_thumb": "https://live.staticflickr.com/65535/49743245022_595e6c3c9d_n.jpg",
    "id_album": "-316663319",
    "description": "KAWAII060420214912171",
    "title": "KAWAII060420214912171",
    "link_img": "https://live.staticflickr.com/65535/49743245022_74a0af58a2_o.jpg",
    "id_image": "KAWAII060420214912171",
    "count_view": 0
  },
  {
    "link_thumb": "https://live.staticflickr.com/65535/49742914281_15539498c7_n.jpg",
    "id_album": "-1497779911",
    "description": "KAWAII06042021491411",
    "title": "KAWAII06042021491411",
    "link_img": "https://live.staticflickr.com/65535/49742914281_2f0cd2bd20_o.jpg",
    "id_image": "KAWAII06042021491411",
    "count_view": 0
  },
  {
    "link_thumb": "https://live.staticflickr.com/65535/49548899667_0f20a993bd_n.jpg",
    "id_album": "-316663319",
    "description": "KAWAII1702202236250",
    "title": "KAWAII1702202236250",
    "link_img": "https://live.staticflickr.com/65535/49548899667_56709fc432_o.jpg",
    "id_image": "KAWAII1702202236250",
    "count_view": 0
  },
  {
    "link_thumb": "https://live.staticflickr.com/65535/49548151668_ac730e667d_n.jpg",
    "id_album": "1396902986",
    "description": "KAWAII1702202235154",
    "title": "KAWAII1702202235154",
    "link_img": "https://live.staticflickr.com/65535/49548151668_debae88f50_o.jpg",
    "id_image": "KAWAII1702202235154",
    "count_view": 0
  },
  {
    "link_thumb": "https://live.staticflickr.com/65535/49726919073_c2ff824298_n.jpg",
    "id_album": "-1862561193",
    "description": "KAWAII020420194508243",
    "title": "KAWAII020420194508243",
    "link_img": "https://live.staticflickr.com/65535/49726919073_b482a8ddc1_o.jpg",
    "id_image": "KAWAII020420194508243",
    "count_view": 0
  },
  {
    "link_thumb": "https://live.staticflickr.com/65535/49578975347_2b3fc70b48_n.jpg",
    "id_album": "-1741487325",
    "description": "KAWAII190220211130",
    "title": "KAWAII190220211130",
    "link_img": "https://live.staticflickr.com/65535/49578975347_ba688e51c1_o.jpg",
    "id_image": "KAWAII190220211130",
    "count_view": 0
  },
  {
    "link_thumb": "https://live.staticflickr.com/65535/49592735741_eb5276fb92_n.jpg",
    "id_album": "431597977",
    "description": "KAWAII270220235149",
    "title": "KAWAII270220235149",
    "link_img": "https://live.staticflickr.com/65535/49592735741_b088e9398f_o.jpg",
    "id_image": "KAWAII270220235149",
    "count_view": 0
  },
  {
    "link_thumb": "https://live.staticflickr.com/65535/49726896998_47dd5053fe_n.jpg",
    "id_album": "742877173",
    "description": "KAWAII02042019450939",
    "title": "KAWAII02042019450939",
    "link_img": "https://live.staticflickr.com/65535/49726896998_74612dd085_o.jpg",
    "id_image": "KAWAII02042019450939",
    "count_view": 0
  },
  {
    "link_thumb": "https://live.staticflickr.com/65535/49726885053_9ea365cccc_n.jpg",
    "id_album": "-1497779911",
    "description": "KAWAII050320202141",
    "title": "KAWAII050320202141",
    "link_img": "https://live.staticflickr.com/65535/49726885053_fe748f8203_o.jpg",
    "id_image": "KAWAII050320202141",
    "count_view": 0
  },
  {
    "link_thumb": "https://live.staticflickr.com/65535/49548188298_60c88f074b_n.jpg",
    "id_album": "-1431786825",
    "description": "KAWAII1702202237333",
    "title": "KAWAII1702202237333",
    "link_img": "https://live.staticflickr.com/65535/49548188298_392174a893_o.jpg",
    "id_image": "KAWAII1702202237333",
    "count_view": 0
  },
  {
    "link_thumb": "https://live.staticflickr.com/65535/49694385152_aeb06a1a8f_n.jpg",
    "id_album": "1201366373",
    "description": "KAWAII120918121",
    "title": "KAWAII120918121",
    "link_img": "https://live.staticflickr.com/65535/49694385152_5aa92e3173_o.jpg",
    "id_image": "KAWAII120918121",
    "count_view": 0
  },
  {
    "link_thumb": "https://live.staticflickr.com/65535/49548623586_f55e5b16ef_n.jpg",
    "id_album": "-316663319",
    "description": "KAWAII170220223315",
    "title": "KAWAII170220223315",
    "link_img": "https://live.staticflickr.com/65535/49548623586_c374067c56_o.jpg",
    "id_image": "KAWAII170220223315",
    "count_view": 0
  },
  {
    "link_thumb": "https://live.staticflickr.com/65535/49693568638_859062b459_n.jpg",
    "id_album": "1201366373",
    "description": "KAWAII1702202237389",
    "title": "KAWAII1702202237389",
    "link_img": "https://live.staticflickr.com/65535/49693568638_23620a4415_o.jpg",
    "id_image": "KAWAII1702202237389",
    "count_view": 0
  },
  {
    "link_thumb": "https://live.staticflickr.com/65535/49742406923_1631d0f5fc_n.jpg",
    "id_album": "-1431786825",
    "description": "KAWAII06042021491268",
    "title": "KAWAII06042021491268",
    "link_img": "https://live.staticflickr.com/65535/49742406923_797826b5f0_o.jpg",
    "id_image": "KAWAII06042021491268",
    "count_view": 0
  },
  {
    "link_thumb": "https://live.staticflickr.com/65535/49622290008_e30c3995b0_n.jpg",
    "id_album": "1396902986",
    "description": "KAWAII050320202166",
    "title": "KAWAII050320202166",
    "link_img": "https://live.staticflickr.com/65535/49622290008_2f36ae4ca9_o.jpg",
    "id_image": "KAWAII050320202166",
    "count_view": 0
  },
  {
    "link_thumb": "https://live.staticflickr.com/65535/49694117356_8149fb4ae4_n.jpg",
    "id_album": "-643980979",
    "description": "KAWAII17022023465",
    "title": "KAWAII17022023465",
    "link_img": "https://live.staticflickr.com/65535/49694117356_dd7c59f695_o.jpg",
    "id_image": "KAWAII17022023465",
    "count_view": 0
  },
  {
    "link_thumb": "https://live.staticflickr.com/65535/49548994707_c8586bc144_n.jpg",
    "id_album": "-422187261",
    "description": "KAWAII17091833",
    "title": "KAWAII17091833",
    "link_img": "https://live.staticflickr.com/65535/49548994707_a8a894a3b9_o.jpg",
    "id_image": "KAWAII17091833",
    "count_view": 0
  },
  {
    "link_thumb": "https://live.staticflickr.com/65535/49742948051_4c3bc0f67f_n.jpg",
    "id_album": "1396902986",
    "description": "KAWAII060420214915113",
    "title": "KAWAII060420214915113",
    "link_img": "https://live.staticflickr.com/65535/49742948051_8b6173d550_o.jpg",
    "id_image": "KAWAII060420214915113",
    "count_view": 0
  },
  {
    "link_thumb": "https://live.staticflickr.com/65535/49623093352_35b1d184b3_n.jpg",
    "id_album": "-316663319",
    "description": "KAWAII0503202021191",
    "title": "KAWAII0503202021191",
    "link_img": "https://live.staticflickr.com/65535/49623093352_c23b7e6dbd_o.jpg",
    "id_image": "KAWAII0503202021191",
    "count_view": 0
  },
  {
    "link_thumb": "https://live.staticflickr.com/65535/49622805916_8b212f9d03_n.jpg",
    "id_album": "-1741487325",
    "description": "KAWAII050320202112",
    "title": "KAWAII050320202112",
    "link_img": "https://live.staticflickr.com/65535/49622805916_76f712a3f8_o.jpg",
    "id_image": "KAWAII050320202112",
    "count_view": 0
  },
  {
    "link_thumb": "https://live.staticflickr.com/65535/49548715926_c11836b31f_n.jpg",
    "id_album": "-422187261",
    "description": "KAWAII1702202238439",
    "title": "KAWAII1702202238439",
    "link_img": "https://live.staticflickr.com/65535/49548715926_bc37b6ac4d_o.jpg",
    "id_image": "KAWAII1702202238439",
    "count_view": 0
  },
  {
    "link_thumb": "https://live.staticflickr.com/65535/49548818087_00d48ca029_n.jpg",
    "id_album": "-422187261",
    "description": "KAWAII120918302",
    "title": "KAWAII120918302",
    "link_img": "https://live.staticflickr.com/65535/49548818087_5861591717_o.jpg",
    "id_image": "KAWAII120918302",
    "count_view": 0
  },
  {
    "link_thumb": "https://live.staticflickr.com/65535/49694392237_a898db2aed_n.jpg",
    "id_album": "1201366373",
    "description": "KAWAII120918197",
    "title": "KAWAII120918197",
    "link_img": "https://live.staticflickr.com/65535/49694392237_749440c1a6_o.jpg",
    "id_image": "KAWAII120918197",
    "count_view": 0
  },
  {
    "link_thumb": "https://live.staticflickr.com/65535/49548683346_86605be243_n.jpg",
    "id_album": "-422187261",
    "description": "KAWAII1702202236306",
    "title": "KAWAII1702202236306",
    "link_img": "https://live.staticflickr.com/65535/49548683346_e9a5c7e8c8_o.jpg",
    "id_image": "KAWAII1702202236306",
    "count_view": 0
  },
  {
    "link_thumb": "https://live.staticflickr.com/65535/49727471006_043647b0e6_n.jpg",
    "id_album": "-1862561193",
    "description": "KAWAII020420194512159",
    "title": "KAWAII020420194512159",
    "link_img": "https://live.staticflickr.com/65535/49727471006_f15fc868e5_o.jpg",
    "id_image": "KAWAII020420194512159",
    "count_view": 0
  },
  {
    "link_thumb": "https://live.staticflickr.com/65535/49727767037_44e8788115_n.jpg",
    "id_album": "742877173",
    "description": "KAWAII020420194514246",
    "title": "KAWAII020420194514246",
    "link_img": "https://live.staticflickr.com/65535/49727767037_c005c78e27_o.jpg",
    "id_image": "KAWAII020420194514246",
    "count_view": 0
  },
  {
    "link_thumb": "https://live.staticflickr.com/65535/49548997562_78b5dab695_n.jpg",
    "id_album": "-316663319",
    "description": "KAWAII17091843",
    "title": "KAWAII17091843",
    "link_img": "https://live.staticflickr.com/65535/49548997562_84d0f9d739_o.jpg",
    "id_image": "KAWAII17091843",
    "count_view": 0
  },
  {
    "link_thumb": "https://live.staticflickr.com/65535/49578979872_210bd44659_n.jpg",
    "id_album": "-1099943053",
    "description": "KAWAII190220211132",
    "title": "KAWAII190220211132",
    "link_img": "https://live.staticflickr.com/65535/49578979872_38bc4a89ff_o.jpg",
    "id_image": "KAWAII190220211132",
    "count_view": 0
  },
  {
    "link_thumb": "https://live.staticflickr.com/65535/49548263893_45c89875c1_n.jpg",
    "id_album": "949200594",
    "description": "KAWAII17091822",
    "title": "KAWAII17091822",
    "link_img": "https://live.staticflickr.com/65535/49548263893_50121a0bbf_o.jpg",
    "id_image": "KAWAII17091822",
    "count_view": 0
  },
  {
    "link_thumb": "https://live.staticflickr.com/65535/49710820586_fe595c2acd_n.jpg",
    "id_album": "-1599896063",
    "description": "LITTLEMONK29032012063316",
    "title": "LITTLEMONK29032012063316",
    "link_img": "https://live.staticflickr.com/65535/49710820586_acbdb7b8ff_o.jpg",
    "id_image": "LITTLEMONK29032012063316",
    "count_view": 0
  },
  {
    "link_thumb": "https://live.staticflickr.com/65535/49727453971_8255094961_n.jpg",
    "id_album": "742877173",
    "description": "KAWAII02042019451497",
    "title": "KAWAII02042019451497",
    "link_img": "https://live.staticflickr.com/65535/49727453971_f333015350_o.jpg",
    "id_image": "KAWAII02042019451497",
    "count_view": 0
  },
  {
    "link_thumb": "https://live.staticflickr.com/65535/49623097197_6736255f0b_n.jpg",
    "id_album": "-316663319",
    "description": "KAWAII0503202021224",
    "title": "KAWAII0503202021224",
    "link_img": "https://live.staticflickr.com/65535/49623097197_5a2ffa9976_o.jpg",
    "id_image": "KAWAII0503202021224",
    "count_view": 0
  },
  {
    "link_thumb": "https://live.staticflickr.com/65535/49727759157_d16557d744_n.jpg",
    "id_album": "742877173",
    "description": "KAWAII02042019450942",
    "title": "KAWAII02042019450942",
    "link_img": "https://live.staticflickr.com/65535/49727759157_411c19c88e_o.jpg",
    "id_image": "KAWAII02042019450942",
    "count_view": 0
  },
  {
    "link_thumb": "https://live.staticflickr.com/65535/49623074512_72ec37dba4_n.jpg",
    "id_album": "1396902986",
    "description": "KAWAII050320202124",
    "title": "KAWAII050320202124",
    "link_img": "https://live.staticflickr.com/65535/49623074512_8a5df48ac3_o.jpg",
    "id_image": "KAWAII050320202124",
    "count_view": 0
  },
  {
    "link_thumb": "https://live.staticflickr.com/65535/49743232392_29738dfe21_n.jpg",
    "id_album": "1271846417",
    "description": "KAWAII060420214912138",
    "title": "KAWAII060420214912138",
    "link_img": "https://live.staticflickr.com/65535/49743232392_1f728b0705_o.jpg",
    "id_image": "KAWAII060420214912138",
    "count_view": 0
  },
  {
    "link_thumb": "https://live.staticflickr.com/65535/49548691371_51bb8f0b89_n.jpg",
    "id_album": "-422187261",
    "description": "KAWAII1702202237343",
    "title": "KAWAII1702202237343",
    "link_img": "https://live.staticflickr.com/65535/49548691371_9f31a66f3c_o.jpg",
    "id_image": "KAWAII1702202237343",
    "count_view": 0
  },
  {
    "link_thumb": "https://live.staticflickr.com/65535/49726883488_df1a893e67_n.jpg",
    "id_album": "-1497779911",
    "description": "KAWAII050320202111",
    "title": "KAWAII050320202111",
    "link_img": "https://live.staticflickr.com/65535/49726883488_252a961326_o.jpg",
    "id_image": "KAWAII050320202111",
    "count_view": 0
  },
  {
    "link_thumb": "https://live.staticflickr.com/65535/49694399217_cbba865cc7_n.jpg",
    "id_album": "1201366373",
    "description": "KAWAII120918258",
    "title": "KAWAII120918258",
    "link_img": "https://live.staticflickr.com/65535/49694399217_7d9a3d0afb_o.jpg",
    "id_image": "KAWAII120918258",
    "count_view": 0
  },
  {
    "link_thumb": "https://live.staticflickr.com/65535/49742395548_5e7830a336_n.jpg",
    "id_album": "-1779286820",
    "description": "KAWAII06042021491283",
    "title": "KAWAII06042021491283",
    "link_img": "https://live.staticflickr.com/65535/49742395548_6ec275cb37_o.jpg",
    "id_image": "KAWAII06042021491283",
    "count_view": 0
  },
  {
    "link_thumb": "https://live.staticflickr.com/65535/49727785262_9a8665653b_n.jpg",
    "id_album": "-1862561193",
    "description": "KAWAII02042019451214",
    "title": "KAWAII02042019451214",
    "link_img": "https://live.staticflickr.com/65535/49727785262_cc3eae3fff_o.jpg",
    "id_image": "KAWAII02042019451214",
    "count_view": 0
  },
  {
    "link_thumb": "https://live.staticflickr.com/65535/49552024243_b38552e998_n.jpg",
    "id_album": "-1432180061",
    "description": "KAWAII12091825180220205938",
    "title": "KAWAII12091825180220205938",
    "link_img": "https://live.staticflickr.com/65535/49552024243_8348b56164_o.jpg",
    "id_image": "KAWAII12091825180220205938",
    "count_view": 0
  },
  {
    "link_thumb": "https://live.staticflickr.com/65535/49548785597_d1bf84a7e6_n.jpg",
    "id_album": "-422187261",
    "description": "KAWAII120918158",
    "title": "KAWAII120918158",
    "link_img": "https://live.staticflickr.com/65535/49548785597_604fe9e477_o.jpg",
    "id_image": "KAWAII120918158",
    "count_view": 0
  },
  {
    "link_thumb": "https://live.staticflickr.com/65535/49622323933_8aec11e413_n.jpg",
    "id_album": "-316663319",
    "description": "KAWAII050320202162",
    "title": "KAWAII050320202162",
    "link_img": "https://live.staticflickr.com/65535/49622323933_2654154e7e_o.jpg",
    "id_image": "KAWAII050320202162",
    "count_view": 0
  },
  {
    "link_thumb": "https://live.staticflickr.com/65535/49743262177_b32b106415_n.jpg",
    "id_album": "-1473448477",
    "description": "KAWAII06042021491528",
    "title": "KAWAII06042021491528",
    "link_img": "https://live.staticflickr.com/65535/49743262177_5c9f2f0140_o.jpg",
    "id_image": "KAWAII06042021491528",
    "count_view": 0
  },
  {
    "link_thumb": "https://live.staticflickr.com/65535/49694398037_e0da415dea_n.jpg",
    "id_album": "1201366373",
    "description": "KAWAII120918251",
    "title": "KAWAII120918251",
    "link_img": "https://live.staticflickr.com/65535/49694398037_a82ac6fb46_o.jpg",
    "id_image": "KAWAII120918251",
    "count_view": 0
  },
  {
    "link_thumb": "https://live.staticflickr.com/65535/49727451156_2cb9eeaf11_n.jpg",
    "id_album": "742877173",
    "description": "KAWAII020420194513192",
    "title": "KAWAII020420194513192",
    "link_img": "https://live.staticflickr.com/65535/49727451156_412c0019a3_o.jpg",
    "id_image": "KAWAII020420194513192",
    "count_view": 0
  },
  {
    "link_thumb": "https://live.staticflickr.com/65535/49694378102_b34904131f_n.jpg",
    "id_album": "-643980979",
    "description": "KAWAII050320202133",
    "title": "KAWAII050320202133",
    "link_img": "https://live.staticflickr.com/65535/49694378102_8fa954c923_o.jpg",
    "id_image": "KAWAII050320202133",
    "count_view": 0
  },
  {
    "link_thumb": "https://live.staticflickr.com/65535/49727753397_4be244d399_n.jpg",
    "id_album": "-316663319",
    "description": "KAWAII0204201945112",
    "title": "KAWAII0204201945112",
    "link_img": "https://live.staticflickr.com/65535/49727753397_6f21a34d4b_o.jpg",
    "id_image": "KAWAII0204201945112",
    "count_view": 0
  },
  {
    "link_thumb": "https://live.staticflickr.com/65535/49727790872_fe112749e1_n.jpg",
    "id_album": "431597977",
    "description": "KAWAII0204201945124",
    "title": "KAWAII0204201945124",
    "link_img": "https://live.staticflickr.com/65535/49727790872_fed9586986_o.jpg",
    "id_image": "KAWAII0204201945124",
    "count_view": 0
  },
  {
    "link_thumb": "https://live.staticflickr.com/65535/49743241147_80a6becc0c_n.jpg",
    "id_album": "-128218148",
    "description": "KAWAII060420214911110",
    "title": "KAWAII060420214911110",
    "link_img": "https://live.staticflickr.com/65535/49743241147_4cd4d2ac3e_o.jpg",
    "id_image": "KAWAII060420214911110",
    "count_view": 0
  },
  {
    "link_thumb": "https://live.staticflickr.com/65535/49742364083_b360349d2c_n.jpg",
    "id_album": "-1741487325",
    "description": "KAWAII060420214912175",
    "title": "KAWAII060420214912175",
    "link_img": "https://live.staticflickr.com/65535/49742364083_1b34810e8a_o.jpg",
    "id_image": "KAWAII060420214912175",
    "count_view": 0
  },
  {
    "link_thumb": "https://live.staticflickr.com/65535/49622308243_cf8039b3fc_n.jpg",
    "id_album": "-316663319",
    "description": "KAWAII0503202021207",
    "title": "KAWAII0503202021207",
    "link_img": "https://live.staticflickr.com/65535/49622308243_33f990139d_o.jpg",
    "id_image": "KAWAII0503202021207",
    "count_view": 0
  },
  {
    "link_thumb": "https://live.staticflickr.com/65535/49693585708_88c3f8b717_n.jpg",
    "id_album": "1226948986",
    "description": "TOTORO220320154111",
    "title": "TOTORO220320154111",
    "link_img": "https://live.staticflickr.com/65535/49693585708_d75025b389_o.jpg",
    "id_image": "TOTORO220320154111",
    "count_view": 0
  },
  {
    "link_thumb": "https://live.staticflickr.com/65535/49710822536_6e7910804a_n.jpg",
    "id_album": "-1599896063",
    "description": "LITTLEMONK2903201206396",
    "title": "LITTLEMONK2903201206396",
    "link_img": "https://live.staticflickr.com/65535/49710822536_705c64d0a0_o.jpg",
    "id_image": "LITTLEMONK2903201206396",
    "count_view": 0
  },
  {
    "link_thumb": "https://live.staticflickr.com/65535/49693582773_e50cbac94e_n.jpg",
    "id_album": "-358592519",
    "description": "KAWAII1702202238483",
    "title": "KAWAII1702202238483",
    "link_img": "https://live.staticflickr.com/65535/49693582773_bc3a7397b2_o.jpg",
    "id_image": "KAWAII1702202238483",
    "count_view": 0
  },
  {
    "link_thumb": "https://live.staticflickr.com/65535/49592705886_95ab1e321a_n.jpg",
    "id_album": "1396902986",
    "description": "KAWAII27022023511",
    "title": "KAWAII27022023511",
    "link_img": "https://live.staticflickr.com/65535/49592705886_eec36d8b13_o.jpg",
    "id_image": "KAWAII27022023511",
    "count_view": 0
  },
  {
    "link_thumb": "https://live.staticflickr.com/65535/49727434816_02b27db2b0_n.jpg",
    "id_album": "-1497779911",
    "description": "KAWAII1702202238476",
    "title": "KAWAII1702202238476",
    "link_img": "https://live.staticflickr.com/65535/49727434816_7c2163c581_o.jpg",
    "id_image": "KAWAII1702202238476",
    "count_view": 0
  },
  {
    "link_thumb": "https://live.staticflickr.com/65535/49742944516_1f7318f3ed_n.jpg",
    "id_album": "-1779286820",
    "description": "KAWAII06042021491571",
    "title": "KAWAII06042021491571",
    "link_img": "https://live.staticflickr.com/65535/49742944516_41d8a0b3d6_o.jpg",
    "id_image": "KAWAII06042021491571",
    "count_view": 0
  },
  {
    "link_thumb": "https://live.staticflickr.com/65535/49623075022_88f2c11de6_n.jpg",
    "id_album": "1396902986",
    "description": "KAWAII0503202021267",
    "title": "KAWAII0503202021267",
    "link_img": "https://live.staticflickr.com/65535/49623075022_cc645a933e_o.jpg",
    "id_image": "KAWAII0503202021267",
    "count_view": 0
  },
  {
    "link_thumb": "https://live.staticflickr.com/65535/49693681563_0c652e2f73_n.jpg",
    "id_album": "-1862561193",
    "description": "KAWAII24032022050236",
    "title": "KAWAII24032022050236",
    "link_img": "https://live.staticflickr.com/65535/49693681563_3b6a993c59_o.jpg",
    "id_image": "KAWAII24032022050236",
    "count_view": 0
  },
  {
    "link_thumb": "https://live.staticflickr.com/65535/49548098158_6496ed01f2_n.jpg",
    "id_album": "-1741487325",
    "description": "KAWAII120918340",
    "title": "KAWAII120918340",
    "link_img": "https://live.staticflickr.com/65535/49548098158_49da34b78f_o.jpg",
    "id_image": "KAWAII120918340",
    "count_view": 0
  },
  {
    "link_thumb": "https://live.staticflickr.com/65535/49548727196_7af34f5e15_n.jpg",
    "id_album": "-1741487325",
    "description": "KAWAII1702202238481",
    "title": "KAWAII1702202238481",
    "link_img": "https://live.staticflickr.com/65535/49548727196_c37f3180b8_o.jpg",
    "id_image": "KAWAII1702202238481",
    "count_view": 0
  },
  {
    "link_thumb": "https://live.staticflickr.com/65535/49693548538_9dba595413_n.jpg",
    "id_album": "1201366373",
    "description": "KAWAII12091822",
    "title": "KAWAII12091822",
    "link_img": "https://live.staticflickr.com/65535/49693548538_28b68d2128_o.jpg",
    "id_image": "KAWAII12091822",
    "count_view": 0
  },
  {
    "link_thumb": "https://live.staticflickr.com/65535/49622804266_a1708e07f0_n.jpg",
    "id_album": "1396902986",
    "description": "KAWAII0503202021303",
    "title": "KAWAII0503202021303",
    "link_img": "https://live.staticflickr.com/65535/49622804266_94fea22507_o.jpg",
    "id_image": "KAWAII0503202021303",
    "count_view": 0
  },
  {
    "link_thumb": "https://live.staticflickr.com/65535/49742947631_d1ebfe6c19_n.jpg",
    "id_album": "1396902986",
    "description": "KAWAII060420214913286",
    "title": "KAWAII060420214913286",
    "link_img": "https://live.staticflickr.com/65535/49742947631_f819898538_o.jpg",
    "id_image": "KAWAII060420214913286",
    "count_view": 0
  },
  {
    "link_thumb": "https://live.staticflickr.com/65535/49727448541_087b7b8cab_n.jpg",
    "id_album": "742877173",
    "description": "KAWAII02042019451188",
    "title": "KAWAII02042019451188",
    "link_img": "https://live.staticflickr.com/65535/49727448541_16fd383dcc_o.jpg",
    "id_image": "KAWAII02042019451188",
    "count_view": 0
  },
  {
    "link_thumb": "https://live.staticflickr.com/65535/49592956682_371f724602_n.jpg",
    "id_album": "-316663319",
    "description": "KAWAII2702202351126",
    "title": "KAWAII2702202351126",
    "link_img": "https://live.staticflickr.com/65535/49592956682_1c70bc7d8b_o.jpg",
    "id_image": "KAWAII2702202351126",
    "count_view": 0
  },
  {
    "link_thumb": "https://live.staticflickr.com/65535/49693571198_a82879b5bf_n.jpg",
    "id_album": "-643980979",
    "description": "KAWAII1702202239525",
    "title": "KAWAII1702202239525",
    "link_img": "https://live.staticflickr.com/65535/49693571198_79c07df54a_o.jpg",
    "id_image": "KAWAII1702202239525",
    "count_view": 0
  },
  {
    "link_thumb": "https://live.staticflickr.com/65535/49548884902_c9ea1d67e8_n.jpg",
    "id_album": "-422187261",
    "description": "KAWAII1702202235175",
    "title": "KAWAII1702202235175",
    "link_img": "https://live.staticflickr.com/65535/49548884902_f126b3f549_o.jpg",
    "id_image": "KAWAII1702202235175",
    "count_view": 0
  },
  {
    "link_thumb": "https://live.staticflickr.com/65535/49727454391_11052785bf_n.jpg",
    "id_album": "1201366373",
    "description": "KAWAII120918294",
    "title": "KAWAII120918294",
    "link_img": "https://live.staticflickr.com/65535/49727454391_85b7ebafec_o.jpg",
    "id_image": "KAWAII120918294",
    "count_view": 0
  },
  {
    "link_thumb": "https://live.staticflickr.com/65535/49548850542_101fe68911_n.jpg",
    "id_album": "431597977",
    "description": "KAWAII170220223312",
    "title": "KAWAII170220223312",
    "link_img": "https://live.staticflickr.com/65535/49548850542_8e4da06f99_o.jpg",
    "id_image": "KAWAII170220223312",
    "count_view": 0
  },
  {
    "link_thumb": "https://live.staticflickr.com/65535/49548098598_8fee019f6c_n.jpg",
    "id_album": "-422187261",
    "description": "KAWAII120918342",
    "title": "KAWAII120918342",
    "link_img": "https://live.staticflickr.com/65535/49548098598_31c01801a9_o.jpg",
    "id_image": "KAWAII120918342",
    "count_view": 0
  },
  {
    "link_thumb": "https://live.staticflickr.com/65535/49592202413_27c3cefa93_n.jpg",
    "id_album": "-422187261",
    "description": "KAWAII2702202351140",
    "title": "KAWAII2702202351140",
    "link_img": "https://live.staticflickr.com/65535/49592202413_56c2f371e1_o.jpg",
    "id_image": "KAWAII2702202351140",
    "count_view": 0
  },
  {
    "link_thumb": "https://live.staticflickr.com/65535/49743253067_585dfdc469_n.jpg",
    "id_album": "-316663319",
    "description": "KAWAII060420214915301",
    "title": "KAWAII060420214915301",
    "link_img": "https://live.staticflickr.com/65535/49743253067_6eea8fa353_o.jpg",
    "id_image": "KAWAII060420214915301",
    "count_view": 0
  },
  {
    "link_thumb": "https://live.staticflickr.com/65535/49743280852_3f1167c6d1_n.jpg",
    "id_album": "1563362783",
    "description": "KAWAII060420214917162",
    "title": "KAWAII060420214917162",
    "link_img": "https://live.staticflickr.com/65535/49743280852_ce050bf963_o.jpg",
    "id_image": "KAWAII060420214917162",
    "count_view": 0
  },
  {
    "link_thumb": "https://live.staticflickr.com/65535/49694078471_063ecc0884_n.jpg",
    "id_album": "-643980979",
    "description": "KAWAII050320202177",
    "title": "KAWAII050320202177",
    "link_img": "https://live.staticflickr.com/65535/49694078471_c5ebb44ffc_o.jpg",
    "id_image": "KAWAII050320202177",
    "count_view": 0
  },
  {
    "link_thumb": "https://live.staticflickr.com/65535/49742406163_cc276c784d_n.jpg",
    "id_album": "-1431786825",
    "description": "KAWAII060420214912210",
    "title": "KAWAII060420214912210",
    "link_img": "https://live.staticflickr.com/65535/49742406163_ba45b9011d_o.jpg",
    "id_image": "KAWAII060420214912210",
    "count_view": 0
  },
  {
    "link_thumb": "https://live.staticflickr.com/65535/49742921921_e2658fe21e_n.jpg",
    "id_album": "-316663319",
    "description": "KAWAII060420214912248",
    "title": "KAWAII060420214912248",
    "link_img": "https://live.staticflickr.com/65535/49742921921_ddb4a7c89b_o.jpg",
    "id_image": "KAWAII060420214912248",
    "count_view": 0
  },
  {
    "link_thumb": "https://live.staticflickr.com/65535/49693571673_b7157feeb2_n.jpg",
    "id_album": "-643980979",
    "description": "KAWAII1702202239562",
    "title": "KAWAII1702202239562",
    "link_img": "https://live.staticflickr.com/65535/49693571673_e6720ca332_o.jpg",
    "id_image": "KAWAII1702202239562",
    "count_view": 0
  },
  {
    "link_thumb": "https://live.staticflickr.com/65535/49743276592_fbdd67d330_n.jpg",
    "id_album": "-358592519",
    "description": "KAWAII060420214912266",
    "title": "KAWAII060420214912266",
    "link_img": "https://live.staticflickr.com/65535/49743276592_0be05d9327_o.jpg",
    "id_image": "KAWAII060420214912266",
    "count_view": 0
  },
  {
    "link_thumb": "https://live.staticflickr.com/65535/49727768952_ac7222a721_n.jpg",
    "id_album": "1201366373",
    "description": "KAWAII120918297",
    "title": "KAWAII120918297",
    "link_img": "https://live.staticflickr.com/65535/49727768952_403d1918af_o.jpg",
    "id_image": "KAWAII120918297",
    "count_view": 0
  },
  {
    "link_thumb": "https://live.staticflickr.com/65535/49694385997_7851f90b4a_n.jpg",
    "id_album": "1201366373",
    "description": "KAWAII120918141",
    "title": "KAWAII120918141",
    "link_img": "https://live.staticflickr.com/65535/49694385997_f3e813d133_o.jpg",
    "id_image": "KAWAII120918141",
    "count_view": 0
  },
  {
    "link_thumb": "https://live.staticflickr.com/65535/49742404138_dd39a00ba4_n.jpg",
    "id_album": "-1862561193",
    "description": "KAWAII060420214915222",
    "title": "KAWAII060420214915222",
    "link_img": "https://live.staticflickr.com/65535/49742404138_ee8899e8f9_o.jpg",
    "id_image": "KAWAII060420214915222",
    "count_view": 0
  },
  {
    "link_thumb": "https://live.staticflickr.com/65535/49548056578_4ebb66f297_n.jpg",
    "id_album": "-1741487325",
    "description": "KAWAII120918159",
    "title": "KAWAII120918159",
    "link_img": "https://live.staticflickr.com/65535/49548056578_89ae5d8390_o.jpg",
    "id_image": "KAWAII120918159",
    "count_view": 0
  },
  {
    "link_thumb": "https://live.staticflickr.com/65535/49592721721_e06e36db65_n.jpg",
    "id_album": "-316663319",
    "description": "KAWAII270220235191",
    "title": "KAWAII270220235191",
    "link_img": "https://live.staticflickr.com/65535/49592721721_5b0f60168c_o.jpg",
    "id_image": "KAWAII270220235191",
    "count_view": 0
  },
  {
    "link_thumb": "https://live.staticflickr.com/65535/49711146377_82eb555582_n.jpg",
    "id_album": "-1599896063",
    "description": "LITTLEMONK29032012064018",
    "title": "LITTLEMONK29032012064018",
    "link_img": "https://live.staticflickr.com/65535/49711146377_944993cde7_o.jpg",
    "id_image": "LITTLEMONK29032012064018",
    "count_view": 0
  },
  {
    "link_thumb": "https://live.staticflickr.com/65535/49693528903_122ff17fb2_n.jpg",
    "id_album": "-643980979",
    "description": "KAWAII0503202021221",
    "title": "KAWAII0503202021221",
    "link_img": "https://live.staticflickr.com/65535/49693528903_94f5696501_o.jpg",
    "id_image": "KAWAII0503202021221",
    "count_view": 0
  },
  {
    "link_thumb": "https://live.staticflickr.com/65535/49694374632_2933d986eb_n.jpg",
    "id_album": "-643980979",
    "description": "KAWAII0503202021195",
    "title": "KAWAII0503202021195",
    "link_img": "https://live.staticflickr.com/65535/49694374632_8924106525_o.jpg",
    "id_image": "KAWAII0503202021195",
    "count_view": 0
  },
  {
    "link_thumb": "https://live.staticflickr.com/65535/49592734871_2c04c37b6e_n.jpg",
    "id_album": "-1431786825",
    "description": "KAWAII270220235110",
    "title": "KAWAII270220235110",
    "link_img": "https://live.staticflickr.com/65535/49592734871_e8ba8146bd_o.jpg",
    "id_image": "KAWAII270220235110",
    "count_view": 0
  },
  {
    "link_thumb": "https://live.staticflickr.com/65535/49726897213_1c815472a8_n.jpg",
    "id_album": "742877173",
    "description": "KAWAII02042019450943",
    "title": "KAWAII02042019450943",
    "link_img": "https://live.staticflickr.com/65535/49726897213_f82e89b21d_o.jpg",
    "id_image": "KAWAII02042019450943",
    "count_view": 0
  },
  {
    "link_thumb": "https://live.staticflickr.com/65535/49694116601_dd81e1197d_n.jpg",
    "id_album": "-643980979",
    "description": "KAWAII170220234619",
    "title": "KAWAII170220234619",
    "link_img": "https://live.staticflickr.com/65535/49694116601_5f6ba4f4f0_o.jpg",
    "id_image": "KAWAII170220234619",
    "count_view": 0
  },
  {
    "link_thumb": "https://live.staticflickr.com/65535/49694378392_d94a66076d_n.jpg",
    "id_album": "-643980979",
    "description": "KAWAII050320202136",
    "title": "KAWAII050320202136",
    "link_img": "https://live.staticflickr.com/65535/49694378392_9321ddde90_o.jpg",
    "id_image": "KAWAII050320202136",
    "count_view": 0
  },
  {
    "link_thumb": "https://live.staticflickr.com/65535/49694111601_9f55f2da0d_n.jpg",
    "id_album": "-643980979",
    "description": "KAWAII1702202237395",
    "title": "KAWAII1702202237395",
    "link_img": "https://live.staticflickr.com/65535/49694111601_c1d2752b4c_o.jpg",
    "id_image": "KAWAII1702202237395",
    "count_view": 0
  },
  {
    "link_thumb": "https://live.staticflickr.com/65535/49726895508_e686aef6da_n.jpg",
    "id_album": "742877173",
    "description": "KAWAII02042019450836",
    "title": "KAWAII02042019450836",
    "link_img": "https://live.staticflickr.com/65535/49726895508_4a1e11b6b3_o.jpg",
    "id_image": "KAWAII02042019450836",
    "count_view": 0
  },
  {
    "link_thumb": "https://live.staticflickr.com/65535/49694532697_ef3e3c520d_n.jpg",
    "id_album": "1226948986",
    "description": "KAWAII24032022050253",
    "title": "KAWAII24032022050253",
    "link_img": "https://live.staticflickr.com/65535/49694532697_e62fff0859_o.jpg",
    "id_image": "KAWAII24032022050253",
    "count_view": 0
  },
  {
    "link_thumb": "https://live.staticflickr.com/65535/49694099321_b2d6dd6665_n.jpg",
    "id_album": "1201366373",
    "description": "KAWAII120918286",
    "title": "KAWAII120918286",
    "link_img": "https://live.staticflickr.com/65535/49694099321_fd4a1d1871_o.jpg",
    "id_image": "KAWAII120918286",
    "count_view": 0
  },
  {
    "link_thumb": "https://live.staticflickr.com/65535/49552520441_084ea7f0c8_n.jpg",
    "id_album": "-1694302085",
    "description": "KAWAII12091825180220205935",
    "title": "KAWAII12091825180220205935",
    "link_img": "https://live.staticflickr.com/65535/49552520441_ca754aa233_o.jpg",
    "id_image": "KAWAII12091825180220205935",
    "count_view": 0
  },
  {
    "link_thumb": "https://live.staticflickr.com/65535/49726877388_a4e361fe15_n.jpg",
    "id_album": "-1694302085",
    "description": "KAWAII020420194508186",
    "title": "KAWAII020420194508186",
    "link_img": "https://live.staticflickr.com/65535/49726877388_5fefe1e036_o.jpg",
    "id_image": "KAWAII020420194508186",
    "count_view": 0
  },
  {
    "link_thumb": "https://live.staticflickr.com/65535/49694381212_07119d1608_n.jpg",
    "id_album": "-643980979",
    "description": "KAWAII050320202182",
    "title": "KAWAII050320202182",
    "link_img": "https://live.staticflickr.com/65535/49694381212_3f18934d9b_o.jpg",
    "id_image": "KAWAII050320202182",
    "count_view": 0
  },
  {
    "link_thumb": "https://live.staticflickr.com/65535/49694083526_00a9cdf340_n.jpg",
    "id_album": "1201366373",
    "description": "KAWAII120918135",
    "title": "KAWAII120918135",
    "link_img": "https://live.staticflickr.com/65535/49694083526_3f7a46c882_o.jpg",
    "id_image": "KAWAII120918135",
    "count_view": 0
  },
  {
    "link_thumb": "https://live.staticflickr.com/65535/49742906226_e9ccba4455_n.jpg",
    "id_album": "-1913845949",
    "description": "KAWAII1702202236218",
    "title": "KAWAII1702202236218",
    "link_img": "https://live.staticflickr.com/65535/49742906226_241a71b539_o.jpg",
    "id_image": "KAWAII1702202236218",
    "count_view": 0
  },
  {
    "link_thumb": "https://live.staticflickr.com/65535/49693678043_28ff5f0824_n.jpg",
    "id_album": "-1432180061",
    "description": "KAWAII1702202237331",
    "title": "KAWAII1702202237331",
    "link_img": "https://live.staticflickr.com/65535/49693678043_e1f98b1124_o.jpg",
    "id_image": "KAWAII1702202237331",
    "count_view": 0
  },
  {
    "link_thumb": "https://live.staticflickr.com/65535/49727751267_d1ddd34e63_n.jpg",
    "id_album": "-316663319",
    "description": "KAWAII020420194510209",
    "title": "KAWAII020420194510209",
    "link_img": "https://live.staticflickr.com/65535/49727751267_76eb7d2aac_o.jpg",
    "id_image": "KAWAII020420194510209",
    "count_view": 0
  },
  {
    "link_thumb": "https://live.staticflickr.com/65535/49694383902_e184555f6d_n.jpg",
    "id_album": "1201366373",
    "description": "KAWAII120918112",
    "title": "KAWAII120918112",
    "link_img": "https://live.staticflickr.com/65535/49694383902_d7f702fe16_o.jpg",
    "id_image": "KAWAII120918112",
    "count_view": 0
  },
  {
    "link_thumb": "https://live.staticflickr.com/65535/49694409247_2b7c1a4244_n.jpg",
    "id_album": "1201366373",
    "description": "KAWAII170220223438",
    "title": "KAWAII170220223438",
    "link_img": "https://live.staticflickr.com/65535/49694409247_68cb656fae_o.jpg",
    "id_image": "KAWAII170220223438",
    "count_view": 0
  },
  {
    "link_thumb": "https://live.staticflickr.com/65535/49742923161_2d7e175f84_n.jpg",
    "id_album": "-316663319",
    "description": "KAWAII060420214913120",
    "title": "KAWAII060420214913120",
    "link_img": "https://live.staticflickr.com/65535/49742923161_e4af605f0b_o.jpg",
    "id_image": "KAWAII060420214913120",
    "count_view": 0
  },
  {
    "link_thumb": "https://live.staticflickr.com/65535/49592953277_fa9f56b16b_n.jpg",
    "id_album": "-1741487325",
    "description": "KAWAII17091829",
    "title": "KAWAII17091829",
    "link_img": "https://live.staticflickr.com/65535/49592953277_874a2deb29_o.jpg",
    "id_image": "KAWAII17091829",
    "count_view": 0
  },
  {
    "link_thumb": "https://live.staticflickr.com/65535/49548978222_83df9d4960_n.jpg",
    "id_album": "-1694302085",
    "description": "KAWAII1702202239575",
    "title": "KAWAII1702202239575",
    "link_img": "https://live.staticflickr.com/65535/49548978222_34d8bacd1b_o.jpg",
    "id_image": "KAWAII1702202239575",
    "count_view": 0
  },
  {
    "link_thumb": "https://live.staticflickr.com/65535/49742389058_53d1bf6200_n.jpg",
    "id_album": "-1473448477",
    "description": "KAWAII060420214915215",
    "title": "KAWAII060420214915215",
    "link_img": "https://live.staticflickr.com/65535/49742389058_dde80c8b33_o.jpg",
    "id_image": "KAWAII060420214915215",
    "count_view": 0
  },
  {
    "link_thumb": "https://live.staticflickr.com/65535/49694221281_4bcc2ed000_n.jpg",
    "id_album": "-1432180061",
    "description": "KAWAII1702202237340",
    "title": "KAWAII1702202237340",
    "link_img": "https://live.staticflickr.com/65535/49694221281_264ab1e996_o.jpg",
    "id_image": "KAWAII1702202237340",
    "count_view": 0
  },
  {
    "link_thumb": "https://live.staticflickr.com/65535/49727425281_67878e2bdd_n.jpg",
    "id_album": "-1694302085",
    "description": "KAWAII020420194508201",
    "title": "KAWAII020420194508201",
    "link_img": "https://live.staticflickr.com/65535/49727425281_64f106fd43_o.jpg",
    "id_image": "KAWAII020420194508201",
    "count_view": 0
  },
  {
    "link_thumb": "https://live.staticflickr.com/65535/49548925482_76aa3720cf_n.jpg",
    "id_album": "-422187261",
    "description": "KAWAII1702202237369",
    "title": "KAWAII1702202237369",
    "link_img": "https://live.staticflickr.com/65535/49548925482_ec816fe0df_o.jpg",
    "id_image": "KAWAII1702202237369",
    "count_view": 0
  },
  {
    "link_thumb": "https://live.staticflickr.com/65535/49743238712_63dded63b7_n.jpg",
    "id_album": "-1497779911",
    "description": "KAWAII06042021491445",
    "title": "KAWAII06042021491445",
    "link_img": "https://live.staticflickr.com/65535/49743238712_d4ec543d5d_o.jpg",
    "id_image": "KAWAII06042021491445",
    "count_view": 0
  },
  {
    "link_thumb": "https://live.staticflickr.com/65535/49693557013_04796e6138_n.jpg",
    "id_album": "1201366373",
    "description": "KAWAII120918305",
    "title": "KAWAII120918305",
    "link_img": "https://live.staticflickr.com/65535/49693557013_eb148c7f4e_o.jpg",
    "id_image": "KAWAII120918305",
    "count_view": 0
  },
  {
    "link_thumb": "https://live.staticflickr.com/65535/49693562518_c990bb6178_n.jpg",
    "id_album": "1201366373",
    "description": "KAWAII170220223322",
    "title": "KAWAII170220223322",
    "link_img": "https://live.staticflickr.com/65535/49693562518_ac33d40c0e_o.jpg",
    "id_image": "KAWAII170220223322",
    "count_view": 0
  },
  {
    "link_thumb": "https://live.staticflickr.com/65535/49726919558_77af99ea8a_n.jpg",
    "id_album": "-1862561193",
    "description": "KAWAII020420194509207",
    "title": "KAWAII020420194509207",
    "link_img": "https://live.staticflickr.com/65535/49726919558_1fdcf5da62_o.jpg",
    "id_image": "KAWAII020420194509207",
    "count_view": 0
  },
  {
    "link_thumb": "https://live.staticflickr.com/65535/49623096177_6bc24dae6a_n.jpg",
    "id_album": "-316663319",
    "description": "KAWAII0503202021215",
    "title": "KAWAII0503202021215",
    "link_img": "https://live.staticflickr.com/65535/49623096177_b449b4e1d1_o.jpg",
    "id_image": "KAWAII0503202021215",
    "count_view": 0
  },
  {
    "link_thumb": "https://live.staticflickr.com/65535/49727432976_ecf2008e5f_n.jpg",
    "id_album": "-1497779911",
    "description": "KAWAII120918123",
    "title": "KAWAII120918123",
    "link_img": "https://live.staticflickr.com/65535/49727432976_dff0933007_o.jpg",
    "id_image": "KAWAII120918123",
    "count_view": 0
  },
  {
    "link_thumb": "https://live.staticflickr.com/65535/49548842647_98cc1d909e_n.jpg",
    "id_album": "-422187261",
    "description": "KAWAII12091866",
    "title": "KAWAII12091866",
    "link_img": "https://live.staticflickr.com/65535/49548842647_e426b9680e_o.jpg",
    "id_image": "KAWAII12091866",
    "count_view": 0
  },
  {
    "link_thumb": "https://live.staticflickr.com/65535/49693672398_86aafaeca7_n.jpg",
    "id_album": "-1694302085",
    "description": "KAWAII120918201",
    "title": "KAWAII120918201",
    "link_img": "https://live.staticflickr.com/65535/49693672398_cb7e8c4cdb_o.jpg",
    "id_image": "KAWAII120918201",
    "count_view": 0
  },
  {
    "link_thumb": "https://live.staticflickr.com/65535/49694414482_675c55845d_n.jpg",
    "id_album": "-643980979",
    "description": "KAWAII1702202237401",
    "title": "KAWAII1702202237401",
    "link_img": "https://live.staticflickr.com/65535/49694414482_625365d4b7_o.jpg",
    "id_image": "KAWAII1702202237401",
    "count_view": 0
  },
  {
    "link_thumb": "https://live.staticflickr.com/65535/49693533688_979bdb70bd_n.jpg",
    "id_album": "-643980979",
    "description": "KAWAII050320202171",
    "title": "KAWAII050320202171",
    "link_img": "https://live.staticflickr.com/65535/49693533688_c03a871960_o.jpg",
    "id_image": "KAWAII050320202171",
    "count_view": 0
  },
  {
    "link_thumb": "https://live.staticflickr.com/65535/49592951792_516da0925f_n.jpg",
    "id_album": "-1741487325",
    "description": "KAWAII170220223325",
    "title": "KAWAII170220223325",
    "link_img": "https://live.staticflickr.com/65535/49592951792_b284ba8523_o.jpg",
    "id_image": "KAWAII170220223325",
    "count_view": 0
  },
  {
    "link_thumb": "https://live.staticflickr.com/65535/49743270082_7f0f33305a_n.jpg",
    "id_album": "1396902986",
    "description": "KAWAII050320202131",
    "title": "KAWAII050320202131",
    "link_img": "https://live.staticflickr.com/65535/49743270082_189a95b3d1_o.jpg",
    "id_image": "KAWAII050320202131",
    "count_view": 0
  },
  {
    "link_thumb": "https://live.staticflickr.com/65535/49548617816_1b9e579e45_n.jpg",
    "id_album": "-1432180061",
    "description": "KAWAII1209188",
    "title": "KAWAII1209188",
    "link_img": "https://live.staticflickr.com/65535/49548617816_7760c68fb1_o.jpg",
    "id_image": "KAWAII1209188",
    "count_view": 0
  },
  {
    "link_thumb": "https://live.staticflickr.com/65535/49622303293_655cb13b6d_n.jpg",
    "id_album": "-316663319",
    "description": "KAWAII0503202021146",
    "title": "KAWAII0503202021146",
    "link_img": "https://live.staticflickr.com/65535/49622303293_d1c675112f_o.jpg",
    "id_image": "KAWAII0503202021146",
    "count_view": 0
  },
  {
    "link_thumb": "https://live.staticflickr.com/65535/49694071296_e7febbbe44_n.jpg",
    "id_album": "1201366373",
    "description": "KAWAII0503202021168",
    "title": "KAWAII0503202021168",
    "link_img": "https://live.staticflickr.com/65535/49694071296_e5bcac0d71_o.jpg",
    "id_image": "KAWAII0503202021168",
    "count_view": 0
  },
  {
    "link_thumb": "https://live.staticflickr.com/65535/49592722066_77739185e0_n.jpg",
    "id_album": "-316663319",
    "description": "KAWAII270220235194",
    "title": "KAWAII270220235194",
    "link_img": "https://live.staticflickr.com/65535/49592722066_a13ae2d18a_o.jpg",
    "id_image": "KAWAII270220235194",
    "count_view": 0
  },
  {
    "link_thumb": "https://live.staticflickr.com/65535/49622833516_ae393cdda7_n.jpg",
    "id_album": "-316663319",
    "description": "KAWAII0503202021325",
    "title": "KAWAII0503202021325",
    "link_img": "https://live.staticflickr.com/65535/49622833516_076f9d9752_o.jpg",
    "id_image": "KAWAII0503202021325",
    "count_view": 0
  },
  {
    "link_thumb": "https://live.staticflickr.com/65535/49693545353_56f7edd886_n.jpg",
    "id_album": "1201366373",
    "description": "KAWAII120918189",
    "title": "KAWAII120918189",
    "link_img": "https://live.staticflickr.com/65535/49693545353_b22fd55d82_o.jpg",
    "id_image": "KAWAII120918189",
    "count_view": 0
  },
  {
    "link_thumb": "https://live.staticflickr.com/65535/49694377812_aa7b39c844_n.jpg",
    "id_album": "1201366373",
    "description": "KAWAII0503202021312",
    "title": "KAWAII0503202021312",
    "link_img": "https://live.staticflickr.com/65535/49694377812_bc1e2c0c94_o.jpg",
    "id_image": "KAWAII0503202021312",
    "count_view": 0
  },
  {
    "link_thumb": "https://live.staticflickr.com/65535/49548917217_2f20948f47_n.jpg",
    "id_album": "-422187261",
    "description": "KAWAII1702202237335",
    "title": "KAWAII1702202237335",
    "link_img": "https://live.staticflickr.com/65535/49548917217_99103157a4_o.jpg",
    "id_image": "KAWAII1702202237335",
    "count_view": 0
  },
  {
    "link_thumb": "https://live.staticflickr.com/65535/49727743857_0937fd0b71_n.jpg",
    "id_album": "-1741487325",
    "description": "KAWAII020420194513254",
    "title": "KAWAII020420194513254",
    "link_img": "https://live.staticflickr.com/65535/49727743857_36fd5a4ba1_o.jpg",
    "id_image": "KAWAII020420194513254",
    "count_view": 0
  },
  {
    "link_thumb": "https://live.staticflickr.com/65535/49694371662_b9bf2540f8_n.jpg",
    "id_album": "416744915",
    "description": "KAWAII1702202239547",
    "title": "KAWAII1702202239547",
    "link_img": "https://live.staticflickr.com/65535/49694371662_1083f42035_o.jpg",
    "id_image": "KAWAII1702202239547",
    "count_view": 0
  },
  {
    "link_thumb": "https://live.staticflickr.com/65535/49548992297_0a22b050db_n.jpg",
    "id_album": "-422187261",
    "description": "KAWAII17091826",
    "title": "KAWAII17091826",
    "link_img": "https://live.staticflickr.com/65535/49548992297_898b17ab48_o.jpg",
    "id_image": "KAWAII17091826",
    "count_view": 0
  },
  {
    "link_thumb": "https://live.staticflickr.com/65535/49548555181_6094758b68_n.jpg",
    "id_album": "-1741487325",
    "description": "KAWAII120918144",
    "title": "KAWAII120918144",
    "link_img": "https://live.staticflickr.com/65535/49548555181_595bf68478_o.jpg",
    "id_image": "KAWAII120918144",
    "count_view": 0
  },
  {
    "link_thumb": "https://live.staticflickr.com/65535/49693519748_a79a94be96_n.jpg",
    "id_album": "1699819648",
    "description": "KAWAII050320202114",
    "title": "KAWAII050320202114",
    "link_img": "https://live.staticflickr.com/65535/49693519748_72ea22ea0c_o.jpg",
    "id_image": "KAWAII050320202114",
    "count_view": 0
  },
  {
    "link_thumb": "https://live.staticflickr.com/65535/49742939316_05ef8a4349_n.jpg",
    "id_album": "-1473448477",
    "description": "KAWAII06042021491543",
    "title": "KAWAII06042021491543",
    "link_img": "https://live.staticflickr.com/65535/49742939316_801a766890_o.jpg",
    "id_image": "KAWAII06042021491543",
    "count_view": 0
  },
  {
    "link_thumb": "https://live.staticflickr.com/65535/49694216366_23548fc773_n.jpg",
    "id_album": "-1741487325",
    "description": "KAWAII0503202021311",
    "title": "KAWAII0503202021311",
    "link_img": "https://live.staticflickr.com/65535/49694216366_9bb3068e36_o.jpg",
    "id_image": "KAWAII0503202021311",
    "count_view": 0
  },
  {
    "link_thumb": "https://live.staticflickr.com/65535/49694419002_e65fc5005a_n.jpg",
    "id_album": "-643980979",
    "description": "KAWAII170220234618",
    "title": "KAWAII170220234618",
    "link_img": "https://live.staticflickr.com/65535/49694419002_8ab9b82634_o.jpg",
    "id_image": "KAWAII170220234618",
    "count_view": 0
  },
  {
    "link_thumb": "https://live.staticflickr.com/65535/49727765847_fe43354fea_n.jpg",
    "id_album": "742877173",
    "description": "KAWAII02042019451329",
    "title": "KAWAII02042019451329",
    "link_img": "https://live.staticflickr.com/65535/49727765847_9eb8ddd9dd_o.jpg",
    "id_image": "KAWAII02042019451329",
    "count_view": 0
  },
  {
    "link_thumb": "https://live.staticflickr.com/65535/49623111852_32aecd05d2_n.jpg",
    "id_album": "-316663319",
    "description": "KAWAII050320202187",
    "title": "KAWAII050320202187",
    "link_img": "https://live.staticflickr.com/65535/49623111852_3449ed0fd5_o.jpg",
    "id_image": "KAWAII050320202187",
    "count_view": 0
  },
  {
    "link_thumb": "https://live.staticflickr.com/65535/49592212103_2bcfe25c63_n.jpg",
    "id_album": "-316663319",
    "description": "KAWAII2702202351132",
    "title": "KAWAII2702202351132",
    "link_img": "https://live.staticflickr.com/65535/49592212103_44cba4b19f_o.jpg",
    "id_image": "KAWAII2702202351132",
    "count_view": 0
  },
  {
    "link_thumb": "https://live.staticflickr.com/65535/49548990817_b3d7189fee_n.jpg",
    "id_album": "-316663319",
    "description": "KAWAII17091821",
    "title": "KAWAII17091821",
    "link_img": "https://live.staticflickr.com/65535/49548990817_1245b29036_o.jpg",
    "id_image": "KAWAII17091821",
    "count_view": 0
  },
  {
    "link_thumb": "https://live.staticflickr.com/65535/49592216793_9f13e875ce_n.jpg",
    "id_album": "-316663319",
    "description": "KAWAII270220235168",
    "title": "KAWAII270220235168",
    "link_img": "https://live.staticflickr.com/65535/49592216793_25bdab5987_o.jpg",
    "id_image": "KAWAII270220235168",
    "count_view": 0
  },
  {
    "link_thumb": "https://live.staticflickr.com/65535/49727440006_66400aafb1_n.jpg",
    "id_album": "-316663319",
    "description": "KAWAII020420194512222",
    "title": "KAWAII020420194512222",
    "link_img": "https://live.staticflickr.com/65535/49727440006_21151552c4_o.jpg",
    "id_image": "KAWAII020420194512222",
    "count_view": 0
  },
  {
    "link_thumb": "https://live.staticflickr.com/65535/49548970672_137de1ba9c_n.jpg",
    "id_album": "-422187261",
    "description": "KAWAII1702202239543",
    "title": "KAWAII1702202239543",
    "link_img": "https://live.staticflickr.com/65535/49548970672_ca341a2c14_o.jpg",
    "id_image": "KAWAII1702202239543",
    "count_view": 0
  },
  {
    "link_thumb": "https://live.staticflickr.com/65535/49548732716_c1b3db900e_n.jpg",
    "id_album": "-422187261",
    "description": "KAWAII1702202239502",
    "title": "KAWAII1702202239502",
    "link_img": "https://live.staticflickr.com/65535/49548732716_9fd25203e7_o.jpg",
    "id_image": "KAWAII1702202239502",
    "count_view": 0
  },
  {
    "link_thumb": "https://live.staticflickr.com/65535/49592962932_0c0df353dc_n.jpg",
    "id_album": "-316663319",
    "description": "KAWAII270220235187",
    "title": "KAWAII270220235187",
    "link_img": "https://live.staticflickr.com/65535/49592962932_3900739668_o.jpg",
    "id_image": "KAWAII270220235187",
    "count_view": 0
  },
  {
    "link_thumb": "https://live.staticflickr.com/65535/49548274513_407c2b8a2f_n.jpg",
    "id_album": "949200594",
    "description": "KAWAII17091857",
    "title": "KAWAII17091857",
    "link_img": "https://live.staticflickr.com/65535/49548274513_201e71fcd3_o.jpg",
    "id_image": "KAWAII17091857",
    "count_view": 0
  },
  {
    "link_thumb": "https://live.staticflickr.com/65535/49622805466_a5265a88fd_n.jpg",
    "id_album": "-1741487325",
    "description": "KAWAII050320202110",
    "title": "KAWAII050320202110",
    "link_img": "https://live.staticflickr.com/65535/49622805466_fb1a9fa924_o.jpg",
    "id_image": "KAWAII050320202110",
    "count_view": 0
  },
  {
    "link_thumb": "https://live.staticflickr.com/65535/49548091408_f4169d36f8_n.jpg",
    "id_album": "-316663319",
    "description": "KAWAII120918311",
    "title": "KAWAII120918311",
    "link_img": "https://live.staticflickr.com/65535/49548091408_0c9ec560f0_o.jpg",
    "id_image": "KAWAII120918311",
    "count_view": 0
  },
  {
    "link_thumb": "https://live.staticflickr.com/65535/49592721546_d1ebfd4155_n.jpg",
    "id_album": "-316663319",
    "description": "KAWAII270220235190",
    "title": "KAWAII270220235190",
    "link_img": "https://live.staticflickr.com/65535/49592721546_c743116700_o.jpg",
    "id_image": "KAWAII270220235190",
    "count_view": 0
  },
  {
    "link_thumb": "https://live.staticflickr.com/65535/49548659521_aa9eaafa9e_n.jpg",
    "id_album": "-422187261",
    "description": "KAWAII1702202235187",
    "title": "KAWAII1702202235187",
    "link_img": "https://live.staticflickr.com/65535/49548659521_185a302931_o.jpg",
    "id_image": "KAWAII1702202235187",
    "count_view": 0
  },
  {
    "link_thumb": "https://live.staticflickr.com/65535/49742930621_46cbfcebfa_n.jpg",
    "id_album": "-316663319",
    "description": "KAWAII060420214917101",
    "title": "KAWAII060420214917101",
    "link_img": "https://live.staticflickr.com/65535/49742930621_c8a5efe622_o.jpg",
    "id_image": "KAWAII060420214917101",
    "count_view": 0
  },
  {
    "link_thumb": "https://live.staticflickr.com/65535/49726884248_c550e37219_n.jpg",
    "id_album": "-1497779911",
    "description": "KAWAII0503202021211",
    "title": "KAWAII0503202021211",
    "link_img": "https://live.staticflickr.com/65535/49726884248_2c3b65451c_o.jpg",
    "id_image": "KAWAII0503202021211",
    "count_view": 0
  },
  {
    "link_thumb": "https://live.staticflickr.com/65535/49693577243_1d71d43a8f_n.jpg",
    "id_album": "-643980979",
    "description": "KAWAII17091850",
    "title": "KAWAII17091850",
    "link_img": "https://live.staticflickr.com/65535/49693577243_8b5016ac40_o.jpg",
    "id_image": "KAWAII17091850",
    "count_view": 0
  },
  {
    "link_thumb": "https://live.staticflickr.com/65535/49742409703_a2a1850435_n.jpg",
    "id_album": "-1431786825",
    "description": "KAWAII060420214918188",
    "title": "KAWAII060420214918188",
    "link_img": "https://live.staticflickr.com/65535/49742409703_58075f483e_o.jpg",
    "id_image": "KAWAII060420214918188",
    "count_view": 0
  },
  {
    "link_thumb": "https://live.staticflickr.com/65535/49727787597_e2bb9b48d9_n.jpg",
    "id_album": "-1099943053",
    "description": "KAWAII020420194507134",
    "title": "KAWAII020420194507134",
    "link_img": "https://live.staticflickr.com/65535/49727787597_2ac5d5c070_o.jpg",
    "id_image": "KAWAII020420194507134",
    "count_view": 0
  },
  {
    "link_thumb": "https://live.staticflickr.com/65535/49548563691_39a2cdd7bd_n.jpg",
    "id_album": "-316663319",
    "description": "KAWAII12091818",
    "title": "KAWAII12091818",
    "link_img": "https://live.staticflickr.com/65535/49548563691_93ee2a0ac1_o.jpg",
    "id_image": "KAWAII12091818",
    "count_view": 0
  },
  {
    "link_thumb": "https://live.staticflickr.com/65535/49694124706_1103db9b34_n.jpg",
    "id_album": "-358592519",
    "description": "KAWAII170220223465",
    "title": "KAWAII170220223465",
    "link_img": "https://live.staticflickr.com/65535/49694124706_3844e47e04_o.jpg",
    "id_image": "KAWAII170220223465",
    "count_view": 0
  },
  {
    "link_thumb": "https://live.staticflickr.com/65535/49727759597_d1afff97f9_n.jpg",
    "id_album": "742877173",
    "description": "KAWAII020420194510107",
    "title": "KAWAII020420194510107",
    "link_img": "https://live.staticflickr.com/65535/49727759597_b05e372b1b_o.jpg",
    "id_image": "KAWAII020420194510107",
    "count_view": 0
  },
  {
    "link_thumb": "https://live.staticflickr.com/65535/49622837701_8c5132a8df_n.jpg",
    "id_album": "-316663319",
    "description": "KAWAII050320202153",
    "title": "KAWAII050320202153",
    "link_img": "https://live.staticflickr.com/65535/49622837701_082e4868e9_o.jpg",
    "id_image": "KAWAII050320202153",
    "count_view": 0
  },
  {
    "link_thumb": "https://live.staticflickr.com/65535/49727780287_9923136f83_n.jpg",
    "id_album": "-1862561193",
    "description": "KAWAII020420194508139",
    "title": "KAWAII020420194508139",
    "link_img": "https://live.staticflickr.com/65535/49727780287_1926a29ea5_o.jpg",
    "id_image": "KAWAII020420194508139",
    "count_view": 0
  },
  {
    "link_thumb": "https://live.staticflickr.com/65535/49623109402_bf0168a028_n.jpg",
    "id_album": "-316663319",
    "description": "KAWAII050320202142",
    "title": "KAWAII050320202142",
    "link_img": "https://live.staticflickr.com/65535/49623109402_f72bd09d27_o.jpg",
    "id_image": "KAWAII050320202142",
    "count_view": 0
  },
  {
    "link_thumb": "https://live.staticflickr.com/65535/49742946911_554a53ee30_n.jpg",
    "id_album": "1396902986",
    "description": "KAWAII06042021491181",
    "title": "KAWAII06042021491181",
    "link_img": "https://live.staticflickr.com/65535/49742946911_fa5d7f719b_o.jpg",
    "id_image": "KAWAII06042021491181",
    "count_view": 0
  },
  {
    "link_thumb": "https://live.staticflickr.com/65535/49693525553_2c502f8a61_n.jpg",
    "id_album": "416744915",
    "description": "KAWAII1702202238442",
    "title": "KAWAII1702202238442",
    "link_img": "https://live.staticflickr.com/65535/49693525553_7d58a7d5b4_o.jpg",
    "id_image": "KAWAII1702202238442",
    "count_view": 0
  },
  {
    "link_thumb": "https://live.staticflickr.com/65535/49548576341_b3485a5923_n.jpg",
    "id_album": "-316663319",
    "description": "KAWAII120918238",
    "title": "KAWAII120918238",
    "link_img": "https://live.staticflickr.com/65535/49548576341_7d71027424_o.jpg",
    "id_image": "KAWAII120918238",
    "count_view": 0
  },
  {
    "link_thumb": "https://live.staticflickr.com/65535/49578243728_cffc5e92dd_n.jpg",
    "id_album": "-1694302085",
    "description": "KAWAII19022021112",
    "title": "KAWAII19022021112",
    "link_img": "https://live.staticflickr.com/65535/49578243728_6c35416521_o.jpg",
    "id_image": "KAWAII19022021112",
    "count_view": 0
  },
  {
    "link_thumb": "https://live.staticflickr.com/65535/49694521342_f81714dbf3_n.jpg",
    "id_album": "-643980979",
    "description": "KAWAII24032022050127",
    "title": "KAWAII24032022050127",
    "link_img": "https://live.staticflickr.com/65535/49694521342_a6e11da6d3_o.jpg",
    "id_image": "KAWAII24032022050127",
    "count_view": 0
  },
  {
    "link_thumb": "https://live.staticflickr.com/65535/49694110351_5db1d489ac_n.jpg",
    "id_album": "-643980979",
    "description": "KAWAII1702202236295",
    "title": "KAWAII1702202236295",
    "link_img": "https://live.staticflickr.com/65535/49694110351_b45f617bf8_o.jpg",
    "id_image": "KAWAII1702202236295",
    "count_view": 0
  },
  {
    "link_thumb": "https://live.staticflickr.com/65535/49742356303_49618919df_n.jpg",
    "id_album": "-1913845949",
    "description": "KAWAII060420214915293",
    "title": "KAWAII060420214915293",
    "link_img": "https://live.staticflickr.com/65535/49742356303_8964bbc8d4_o.jpg",
    "id_image": "KAWAII060420214915293",
    "count_view": 0
  },
  {
    "link_thumb": "https://live.staticflickr.com/65535/49726876058_f37cd5eb5a_n.jpg",
    "id_album": "-422187261",
    "description": "KAWAII020420194511125",
    "title": "KAWAII020420194511125",
    "link_img": "https://live.staticflickr.com/65535/49726876058_b62f3b623b_o.jpg",
    "id_image": "KAWAII020420194511125",
    "count_view": 0
  },
  {
    "link_thumb": "https://live.staticflickr.com/65535/49548939692_eeedcea466_n.jpg",
    "id_album": "1396902986",
    "description": "KAWAII1702202238425",
    "title": "KAWAII1702202238425",
    "link_img": "https://live.staticflickr.com/65535/49548939692_4661bebe6c_o.jpg",
    "id_image": "KAWAII1702202238425",
    "count_view": 0
  },
  {
    "link_thumb": "https://live.staticflickr.com/65535/49694396762_e664b34e90_n.jpg",
    "id_album": "1201366373",
    "description": "KAWAII120918244",
    "title": "KAWAII120918244",
    "link_img": "https://live.staticflickr.com/65535/49694396762_f82715b938_o.jpg",
    "id_image": "KAWAII120918244",
    "count_view": 0
  },
  {
    "link_thumb": "https://live.staticflickr.com/65535/49693540143_bacb5cc03a_n.jpg",
    "id_album": "1201366373",
    "description": "KAWAII120918142",
    "title": "KAWAII120918142",
    "link_img": "https://live.staticflickr.com/65535/49693540143_7dacd41cac_o.jpg",
    "id_image": "KAWAII120918142",
    "count_view": 0
  },
  {
    "link_thumb": "https://live.staticflickr.com/65535/49694064456_6ea5d4102b_n.jpg",
    "id_album": "1699819648",
    "description": "KAWAII0503202021271",
    "title": "KAWAII0503202021271",
    "link_img": "https://live.staticflickr.com/65535/49694064456_7c237f1e94_o.jpg",
    "id_image": "KAWAII0503202021271",
    "count_view": 0
  },
  {
    "link_thumb": "https://live.staticflickr.com/65535/49548671831_2681909ac7_n.jpg",
    "id_album": "1396902986",
    "description": "KAWAII1702202236248",
    "title": "KAWAII1702202236248",
    "link_img": "https://live.staticflickr.com/65535/49548671831_386af457d9_o.jpg",
    "id_image": "KAWAII1702202236248",
    "count_view": 0
  },
  {
    "link_thumb": "https://live.staticflickr.com/65535/49548611391_66f9798221_n.jpg",
    "id_album": "-1432180061",
    "description": "KAWAII12091848",
    "title": "KAWAII12091848",
    "link_img": "https://live.staticflickr.com/65535/49548611391_173cf43b70_o.jpg",
    "id_image": "KAWAII12091848",
    "count_view": 0
  },
  {
    "link_thumb": "https://live.staticflickr.com/65535/49592209938_f62c424820_n.jpg",
    "id_album": "-1432180061",
    "description": "KAWAII270220235185",
    "title": "KAWAII270220235185",
    "link_img": "https://live.staticflickr.com/65535/49592209938_780f1ea26a_o.jpg",
    "id_image": "KAWAII270220235185",
    "count_view": 0
  },
  {
    "link_thumb": "https://live.staticflickr.com/65535/49710287793_ec5ce8fc93_n.jpg",
    "id_album": "-1599896063",
    "description": "LITTLEMONK2903201206377",
    "title": "LITTLEMONK2903201206377",
    "link_img": "https://live.staticflickr.com/65535/49710287793_9e0bab0481_o.jpg",
    "id_image": "LITTLEMONK2903201206377",
    "count_view": 0
  },
  {
    "link_thumb": "https://live.staticflickr.com/65535/49622825466_29ee1c26a4_n.jpg",
    "id_album": "-316663319",
    "description": "KAWAII0503202021227",
    "title": "KAWAII0503202021227",
    "link_img": "https://live.staticflickr.com/65535/49622825466_a5578440bd_o.jpg",
    "id_image": "KAWAII0503202021227",
    "count_view": 0
  },
  {
    "link_thumb": "https://live.staticflickr.com/65535/49693680873_7ff034b3fb_n.jpg",
    "id_album": "-1862561193",
    "description": "KAWAII24032022050154",
    "title": "KAWAII24032022050154",
    "link_img": "https://live.staticflickr.com/65535/49693680873_e35bd49743_o.jpg",
    "id_image": "KAWAII24032022050154",
    "count_view": 0
  },
  {
    "link_thumb": "https://live.staticflickr.com/65535/49742945786_d5e0c62073_n.jpg",
    "id_album": "-1779286820",
    "description": "KAWAII060420214918264",
    "title": "KAWAII060420214918264",
    "link_img": "https://live.staticflickr.com/65535/49742945786_f45b580126_o.jpg",
    "id_image": "KAWAII060420214918264",
    "count_view": 0
  },
  {
    "link_thumb": "https://live.staticflickr.com/65535/49548096618_cf27c22d92_n.jpg",
    "id_album": "-316663319",
    "description": "KAWAII120918333",
    "title": "KAWAII120918333",
    "link_img": "https://live.staticflickr.com/65535/49548096618_b4ddfc91c2_o.jpg",
    "id_image": "KAWAII120918333",
    "count_view": 0
  },
  {
    "link_thumb": "https://live.staticflickr.com/65535/49548661441_14782e41aa_n.jpg",
    "id_album": "1396902986",
    "description": "KAWAII1702202235195",
    "title": "KAWAII1702202235195",
    "link_img": "https://live.staticflickr.com/65535/49548661441_a2262afb5f_o.jpg",
    "id_image": "KAWAII1702202235195",
    "count_view": 0
  },
  {
    "link_thumb": "https://live.staticflickr.com/65535/49622333383_66149eb52f_n.jpg",
    "id_album": "-406350429",
    "description": "KAWAII0503202021309",
    "title": "KAWAII0503202021309",
    "link_img": "https://live.staticflickr.com/65535/49622333383_b5ce7cf8e8_o.jpg",
    "id_image": "KAWAII0503202021309",
    "count_view": 0
  },
  {
    "link_thumb": "https://live.staticflickr.com/65535/49623103777_0910e27b3b_n.jpg",
    "id_album": "-316663319",
    "description": "KAWAII0503202021305",
    "title": "KAWAII0503202021305",
    "link_img": "https://live.staticflickr.com/65535/49623103777_4d46ebfa7a_o.jpg",
    "id_image": "KAWAII0503202021305",
    "count_view": 0
  },
  {
    "link_thumb": "https://live.staticflickr.com/65535/49622287383_fc159ea83c_n.jpg",
    "id_album": "1396902986",
    "description": "KAWAII0503202021250",
    "title": "KAWAII0503202021250",
    "link_img": "https://live.staticflickr.com/65535/49622287383_a1edc87a33_o.jpg",
    "id_image": "KAWAII0503202021250",
    "count_view": 0
  },
  {
    "link_thumb": "https://live.staticflickr.com/65535/49694427082_1206fc2ee5_n.jpg",
    "id_album": "-358592519",
    "description": "KAWAII120918347",
    "title": "KAWAII120918347",
    "link_img": "https://live.staticflickr.com/65535/49694427082_21e2e6b3a7_o.jpg",
    "id_image": "KAWAII120918347",
    "count_view": 0
  },
  {
    "link_thumb": "https://live.staticflickr.com/65535/49548589441_a5fe42b307_n.jpg",
    "id_album": "-316663319",
    "description": "KAWAII120918298",
    "title": "KAWAII120918298",
    "link_img": "https://live.staticflickr.com/65535/49548589441_7894d2d0f6_o.jpg",
    "id_image": "KAWAII120918298",
    "count_view": 0
  },
  {
    "link_thumb": "https://live.staticflickr.com/65535/49548853587_31b76275ee_n.jpg",
    "id_album": "-1099943053",
    "description": "KAWAII170220223326",
    "title": "KAWAII170220223326",
    "link_img": "https://live.staticflickr.com/65535/49548853587_0dcdd11637_o.jpg",
    "id_image": "KAWAII170220223326",
    "count_view": 0
  },
  {
    "link_thumb": "https://live.staticflickr.com/65535/49694113176_4998b08d75_n.jpg",
    "id_album": "-643980979",
    "description": "KAWAII1702202238496",
    "title": "KAWAII1702202238496",
    "link_img": "https://live.staticflickr.com/65535/49694113176_0a4c515e09_o.jpg",
    "id_image": "KAWAII1702202238496",
    "count_view": 0
  },
  {
    "link_thumb": "https://live.staticflickr.com/65535/49694118476_3994733a26_n.jpg",
    "id_album": "1201366373",
    "description": "KAWAII170220235011",
    "title": "KAWAII170220235011",
    "link_img": "https://live.staticflickr.com/65535/49694118476_ec04766452_o.jpg",
    "id_image": "KAWAII170220235011",
    "count_view": 0
  },
  {
    "link_thumb": "https://live.staticflickr.com/65535/49592207433_e6d261d1a6_n.jpg",
    "id_album": "-1741487325",
    "description": "KAWAII1702202237382",
    "title": "KAWAII1702202237382",
    "link_img": "https://live.staticflickr.com/65535/49592207433_5dde2b2cd3_o.jpg",
    "id_image": "KAWAII1702202237382",
    "count_view": 0
  },
  {
    "link_thumb": "https://live.staticflickr.com/65535/49727476716_b31cf435f9_n.jpg",
    "id_album": "431597977",
    "description": "KAWAII0204201945127",
    "title": "KAWAII0204201945127",
    "link_img": "https://live.staticflickr.com/65535/49727476716_81c73efe64_o.jpg",
    "id_image": "KAWAII0204201945127",
    "count_view": 0
  },
  {
    "link_thumb": "https://live.staticflickr.com/65535/49548771156_3f52ac3eba_n.jpg",
    "id_album": "-316663319",
    "description": "KAWAII17091845",
    "title": "KAWAII17091845",
    "link_img": "https://live.staticflickr.com/65535/49548771156_4ddeb425f3_o.jpg",
    "id_image": "KAWAII17091845",
    "count_view": 0
  },
  {
    "link_thumb": "https://live.staticflickr.com/65535/49548119988_4e6f381ed7_n.jpg",
    "id_album": "-316663319",
    "description": "KAWAII12091898",
    "title": "KAWAII12091898",
    "link_img": "https://live.staticflickr.com/65535/49548119988_638fe1d01a_o.jpg",
    "id_image": "KAWAII12091898",
    "count_view": 0
  },
  {
    "link_thumb": "https://live.staticflickr.com/65535/49623075332_dbe0d6c0f1_n.jpg",
    "id_album": "1396902986",
    "description": "KAWAII0503202021275",
    "title": "KAWAII0503202021275",
    "link_img": "https://live.staticflickr.com/65535/49623075332_e5eafa7577_o.jpg",
    "id_image": "KAWAII0503202021275",
    "count_view": 0
  },
  {
    "link_thumb": "https://live.staticflickr.com/65535/49548248893_bfa698f500_n.jpg",
    "id_album": "-316663319",
    "description": "KAWAII1702202239566",
    "title": "KAWAII1702202239566",
    "link_img": "https://live.staticflickr.com/65535/49548248893_27df966554_o.jpg",
    "id_image": "KAWAII1702202239566",
    "count_view": 0
  },
  {
    "link_thumb": "https://live.staticflickr.com/65535/49552022683_2c3037ec3c_n.jpg",
    "id_album": "431597977",
    "description": "KAWAII1209182518022020593",
    "title": "KAWAII1209182518022020593",
    "link_img": "https://live.staticflickr.com/65535/49552022683_e8585838e2_o.jpg",
    "id_image": "KAWAII1209182518022020593",
    "count_view": 0
  },
  {
    "link_thumb": "https://live.staticflickr.com/65535/49548051878_90ee37e07d_n.jpg",
    "id_album": "-316663319",
    "description": "KAWAII120918138",
    "title": "KAWAII120918138",
    "link_img": "https://live.staticflickr.com/65535/49548051878_8ff0cefa9d_o.jpg",
    "id_image": "KAWAII120918138",
    "count_view": 0
  },
  {
    "link_thumb": "https://live.staticflickr.com/65535/49592715936_b6563ff9cf_n.jpg",
    "id_album": "-316663319",
    "description": "KAWAII2702202351151",
    "title": "KAWAII2702202351151",
    "link_img": "https://live.staticflickr.com/65535/49592715936_a826674ff2_o.jpg",
    "id_image": "KAWAII2702202351151",
    "count_view": 0
  },
  {
    "link_thumb": "https://live.staticflickr.com/65535/49726882983_1a981c019f_n.jpg",
    "id_album": "-1497779911",
    "description": "KAWAII020420194511232",
    "title": "KAWAII020420194511232",
    "link_img": "https://live.staticflickr.com/65535/49726882983_cddcb7cb6a_o.jpg",
    "id_image": "KAWAII020420194511232",
    "count_view": 0
  },
  {
    "link_thumb": "https://live.staticflickr.com/65535/49548144938_89248b4901_n.jpg",
    "id_album": "-1099943053",
    "description": "KAWAII170220223497",
    "title": "KAWAII170220223497",
    "link_img": "https://live.staticflickr.com/65535/49548144938_69b1952f1a_o.jpg",
    "id_image": "KAWAII170220223497",
    "count_view": 0
  },
  {
    "link_thumb": "https://live.staticflickr.com/65535/49548999462_ecfdf2b9f6_n.jpg",
    "id_album": "-316663319",
    "description": "KAWAII1709185",
    "title": "KAWAII1709185",
    "link_img": "https://live.staticflickr.com/65535/49548999462_f32f7e31f1_o.jpg",
    "id_image": "KAWAII1709185",
    "count_view": 0
  },
  {
    "link_thumb": "https://live.staticflickr.com/65535/49548833117_fea3aedd49_n.jpg",
    "id_album": "-1741487325",
    "description": "KAWAII120918362",
    "title": "KAWAII120918362",
    "link_img": "https://live.staticflickr.com/65535/49548833117_0ccd00b92a_o.jpg",
    "id_image": "KAWAII120918362",
    "count_view": 0
  },
  {
    "link_thumb": "https://live.staticflickr.com/65535/49693532508_04ee857034_n.jpg",
    "id_album": "-643980979",
    "description": "KAWAII050320202148",
    "title": "KAWAII050320202148",
    "link_img": "https://live.staticflickr.com/65535/49693532508_b26d148096_o.jpg",
    "id_image": "KAWAII050320202148",
    "count_view": 0
  },
  {
    "link_thumb": "https://live.staticflickr.com/65535/49548194378_a450fa4b4d_n.jpg",
    "id_album": "-1099943053",
    "description": "KAWAII1702202237359",
    "title": "KAWAII1702202237359",
    "link_img": "https://live.staticflickr.com/65535/49548194378_b10166d896_o.jpg",
    "id_image": "KAWAII1702202237359",
    "count_view": 0
  },
  {
    "link_thumb": "https://live.staticflickr.com/65535/49548993507_d5f98f1ded_n.jpg",
    "id_album": "-1741487325",
    "description": "KAWAII1709183",
    "title": "KAWAII1709183",
    "link_img": "https://live.staticflickr.com/65535/49548993507_a7333853ac_o.jpg",
    "id_image": "KAWAII1709183",
    "count_view": 0
  },
  {
    "link_thumb": "https://live.staticflickr.com/65535/49548192403_fdafc163df_n.jpg",
    "id_album": "-422187261",
    "description": "KAWAII1702202237351",
    "title": "KAWAII1702202237351",
    "link_img": "https://live.staticflickr.com/65535/49548192403_27deeafaf1_o.jpg",
    "id_image": "KAWAII1702202237351",
    "count_view": 0
  },
  {
    "link_thumb": "https://live.staticflickr.com/65535/49743270952_69c55ff46c_n.jpg",
    "id_album": "1396902986",
    "description": "KAWAII060420214912204",
    "title": "KAWAII060420214912204",
    "link_img": "https://live.staticflickr.com/65535/49743270952_1285abea5b_o.jpg",
    "id_image": "KAWAII060420214912204",
    "count_view": 0
  },
  {
    "link_thumb": "https://live.staticflickr.com/65535/49548781432_bbf23e809a_n.jpg",
    "id_album": "-316663319",
    "description": "KAWAII12091814",
    "title": "KAWAII12091814",
    "link_img": "https://live.staticflickr.com/65535/49548781432_02ef9ac37d_o.jpg",
    "id_image": "KAWAII12091814",
    "count_view": 0
  },
  {
    "link_thumb": "https://live.staticflickr.com/65535/49742949546_5a2707e56d_n.jpg",
    "id_album": "1396902986",
    "description": "KAWAII060420214917148",
    "title": "KAWAII060420214917148",
    "link_img": "https://live.staticflickr.com/65535/49742949546_2909604b24_o.jpg",
    "id_image": "KAWAII060420214917148",
    "count_view": 0
  },
  {
    "link_thumb": "https://live.staticflickr.com/65535/49694425177_218d63f6ae_n.jpg",
    "id_album": "1201366373",
    "description": "KAWAII270220235159",
    "title": "KAWAII270220235159",
    "link_img": "https://live.staticflickr.com/65535/49694425177_c284129e6e_o.jpg",
    "id_image": "KAWAII270220235159",
    "count_view": 0
  },
  {
    "link_thumb": "https://live.staticflickr.com/65535/49694420347_b57abdc279_n.jpg",
    "id_album": "-643980979",
    "description": "KAWAII17022023468",
    "title": "KAWAII17022023468",
    "link_img": "https://live.staticflickr.com/65535/49694420347_5af6f65a0f_o.jpg",
    "id_image": "KAWAII17022023468",
    "count_view": 0
  },
  {
    "link_thumb": "https://live.staticflickr.com/65535/49743222737_6d2f126a30_n.jpg",
    "id_album": "-1913845949",
    "description": "KAWAII0503202021152",
    "title": "KAWAII0503202021152",
    "link_img": "https://live.staticflickr.com/65535/49743222737_a4ceb976f5_o.jpg",
    "id_image": "KAWAII0503202021152",
    "count_view": 0
  },
  {
    "link_thumb": "https://live.staticflickr.com/65535/49592972637_358cb55a37_n.jpg",
    "id_album": "949200594",
    "description": "KAWAII2702202351128",
    "title": "KAWAII2702202351128",
    "link_img": "https://live.staticflickr.com/65535/49592972637_7ece88f9a7_o.jpg",
    "id_image": "KAWAII2702202351128",
    "count_view": 0
  },
  {
    "link_thumb": "https://live.staticflickr.com/65535/49742934366_ef750daf0f_n.jpg",
    "id_album": "-1473448477",
    "description": "KAWAII060420214914180",
    "title": "KAWAII060420214914180",
    "link_img": "https://live.staticflickr.com/65535/49742934366_cbb2ac1530_o.jpg",
    "id_image": "KAWAII060420214914180",
    "count_view": 0
  },
  {
    "link_thumb": "https://live.staticflickr.com/65535/49694083376_717a796b09_n.jpg",
    "id_album": "1201366373",
    "description": "KAWAII120918134",
    "title": "KAWAII120918134",
    "link_img": "https://live.staticflickr.com/65535/49694083376_d1d3a62f54_o.jpg",
    "id_image": "KAWAII120918134",
    "count_view": 0
  },
  {
    "link_thumb": "https://live.staticflickr.com/65535/49743264657_6b99584462_n.jpg",
    "id_album": "-1473448477",
    "description": "KAWAII06042021491622",
    "title": "KAWAII06042021491622",
    "link_img": "https://live.staticflickr.com/65535/49743264657_4a600af82d_o.jpg",
    "id_image": "KAWAII06042021491622",
    "count_view": 0
  },
  {
    "link_thumb": "https://live.staticflickr.com/65535/49548745676_34bdbfa0cf_n.jpg",
    "id_album": "431597977",
    "description": "KAWAII1702202239552",
    "title": "KAWAII1702202239552",
    "link_img": "https://live.staticflickr.com/65535/49548745676_c9217c51d5_o.jpg",
    "id_image": "KAWAII1702202239552",
    "count_view": 0
  },
  {
    "link_thumb": "https://live.staticflickr.com/65535/49743246987_d06bd0e462_n.jpg",
    "id_album": "-316663319",
    "description": "KAWAII06042021491263",
    "title": "KAWAII06042021491263",
    "link_img": "https://live.staticflickr.com/65535/49743246987_31ab39aa3d_o.jpg",
    "id_image": "KAWAII06042021491263",
    "count_view": 0
  },
  {
    "link_thumb": "https://live.staticflickr.com/65535/49548669546_d864b4cec1_n.jpg",
    "id_album": "-1741487325",
    "description": "KAWAII1702202236234",
    "title": "KAWAII1702202236234",
    "link_img": "https://live.staticflickr.com/65535/49548669546_02a854cb7a_o.jpg",
    "id_image": "KAWAII1702202236234",
    "count_view": 0
  },
  {
    "link_thumb": "https://live.staticflickr.com/65535/49693576363_687b529949_n.jpg",
    "id_album": "1201366373",
    "description": "KAWAII1709181",
    "title": "KAWAII1709181",
    "link_img": "https://live.staticflickr.com/65535/49693576363_0e1a57e2ba_o.jpg",
    "id_image": "KAWAII1709181",
    "count_view": 0
  },
  {
    "link_thumb": "https://live.staticflickr.com/65535/49548617406_84aee99d48_n.jpg",
    "id_album": "-316663319",
    "description": "KAWAII12091877",
    "title": "KAWAII12091877",
    "link_img": "https://live.staticflickr.com/65535/49548617406_6cbf2fa379_o.jpg",
    "id_image": "KAWAII12091877",
    "count_view": 0
  },
  {
    "link_thumb": "https://live.staticflickr.com/65535/49592728911_575c675ae4_n.jpg",
    "id_album": "949200594",
    "description": "KAWAII2702202351109",
    "title": "KAWAII2702202351109",
    "link_img": "https://live.staticflickr.com/65535/49592728911_b42aca2802_o.jpg",
    "id_image": "KAWAII2702202351109",
    "count_view": 0
  },
  {
    "link_thumb": "https://live.staticflickr.com/65535/49592207698_9b9319dfcf_n.jpg",
    "id_album": "-1741487325",
    "description": "KAWAII1702202238422",
    "title": "KAWAII1702202238422",
    "link_img": "https://live.staticflickr.com/65535/49592207698_6744df8991_o.jpg",
    "id_image": "KAWAII1702202238422",
    "count_view": 0
  },
  {
    "link_thumb": "https://live.staticflickr.com/65535/49548643831_5c42c25cd4_n.jpg",
    "id_album": "-422187261",
    "description": "KAWAII170220223485",
    "title": "KAWAII170220223485",
    "link_img": "https://live.staticflickr.com/65535/49548643831_e6f9b56cf0_o.jpg",
    "id_image": "KAWAII170220223485",
    "count_view": 0
  },
  {
    "link_thumb": "https://live.staticflickr.com/65535/49694424447_8f64755220_n.jpg",
    "id_album": "-643980979",
    "description": "KAWAII270220235131",
    "title": "KAWAII270220235131",
    "link_img": "https://live.staticflickr.com/65535/49694424447_a654decb56_o.jpg",
    "id_image": "KAWAII270220235131",
    "count_view": 0
  },
  {
    "link_thumb": "https://live.staticflickr.com/65535/49694398557_2e6c415fed_n.jpg",
    "id_album": "1201366373",
    "description": "KAWAII120918254",
    "title": "KAWAII120918254",
    "link_img": "https://live.staticflickr.com/65535/49694398557_78605a80fc_o.jpg",
    "id_image": "KAWAII120918254",
    "count_view": 0
  },
  {
    "link_thumb": "https://live.staticflickr.com/65535/49727475381_d6c16969bd_n.jpg",
    "id_album": "1226948986",
    "description": "KAWAII020420194509140",
    "title": "KAWAII020420194509140",
    "link_img": "https://live.staticflickr.com/65535/49727475381_b1e3ecfe87_o.jpg",
    "id_image": "KAWAII020420194509140",
    "count_view": 0
  },
  {
    "link_thumb": "https://live.staticflickr.com/65535/49592203478_94e007ee2a_n.jpg",
    "id_album": "1396902986",
    "description": "KAWAII2702202351101",
    "title": "KAWAII2702202351101",
    "link_img": "https://live.staticflickr.com/65535/49592203478_565de20aab_o.jpg",
    "id_image": "KAWAII2702202351101",
    "count_view": 0
  },
  {
    "link_thumb": "https://live.staticflickr.com/65535/49694102261_ea702f35c0_n.jpg",
    "id_album": "1201366373",
    "description": "KAWAII12091849",
    "title": "KAWAII12091849",
    "link_img": "https://live.staticflickr.com/65535/49694102261_3f4c6bfa43_o.jpg",
    "id_image": "KAWAII12091849",
    "count_view": 0
  },
  {
    "link_thumb": "https://live.staticflickr.com/65535/49592231873_ddb759420f_n.jpg",
    "id_album": "-1431786825",
    "description": "KAWAII270220235123",
    "title": "KAWAII270220235123",
    "link_img": "https://live.staticflickr.com/65535/49592231873_cbc9d93ce9_o.jpg",
    "id_image": "KAWAII270220235123",
    "count_view": 0
  }
]