[
  {
    "link_thumb": "https://live.staticflickr.com/65535/49726900543_19822a6e01_n.jpg",
    "id_album": "742877173",
    "description": "KAWAII020420194511259",
    "title": "KAWAII020420194511259",
    "link_img": "https://live.staticflickr.com/65535/49726900543_2f401ff096_o.jpg",
    "id_image": "KAWAII020420194511259",
    "count_view": 0
  },
  {
    "link_thumb": "https://live.staticflickr.com/65535/49742923161_2d7e175f84_n.jpg",
    "id_album": "-316663319",
    "description": "KAWAII060420214913120",
    "title": "KAWAII060420214913120",
    "link_img": "https://live.staticflickr.com/65535/49742923161_e4af605f0b_o.jpg",
    "id_image": "KAWAII060420214913120",
    "count_view": 0
  },
  {
    "link_thumb": "https://live.staticflickr.com/65535/49694216366_23548fc773_n.jpg",
    "id_album": "-1741487325",
    "description": "KAWAII0503202021311",
    "title": "KAWAII0503202021311",
    "link_img": "https://live.staticflickr.com/65535/49694216366_9bb3068e36_o.jpg",
    "id_image": "KAWAII0503202021311",
    "count_view": 0
  },
  {
    "link_thumb": "https://live.staticflickr.com/65535/49592707881_8f77d6f622_n.jpg",
    "id_album": "1396902986",
    "description": "KAWAII270220235122",
    "title": "KAWAII270220235122",
    "link_img": "https://live.staticflickr.com/65535/49592707881_cdd5baa49e_o.jpg",
    "id_image": "KAWAII270220235122",
    "count_view": 0
  },
  {
    "link_thumb": "https://live.staticflickr.com/65535/49727752447_13493c610e_n.jpg",
    "id_album": "-316663319",
    "description": "KAWAII02042019451031",
    "title": "KAWAII02042019451031",
    "link_img": "https://live.staticflickr.com/65535/49727752447_5c7a9ecc13_o.jpg",
    "id_image": "KAWAII02042019451031",
    "count_view": 0
  },
  {
    "link_thumb": "https://live.staticflickr.com/65535/49548889667_c6eddf8f20_n.jpg",
    "id_album": "-422187261",
    "description": "KAWAII1702202235197",
    "title": "KAWAII1702202235197",
    "link_img": "https://live.staticflickr.com/65535/49548889667_866252b1f5_o.jpg",
    "id_image": "KAWAII1702202235197",
    "count_view": 0
  },
  {
    "link_thumb": "https://live.staticflickr.com/65535/49743257167_612d045ff3_n.jpg",
    "id_album": "-316663319",
    "description": "KAWAII06042021491882",
    "title": "KAWAII06042021491882",
    "link_img": "https://live.staticflickr.com/65535/49743257167_867127abd9_o.jpg",
    "id_image": "KAWAII06042021491882",
    "count_view": 0
  },
  {
    "link_thumb": "https://live.staticflickr.com/65535/49592974122_fe1850c06e_n.jpg",
    "id_album": "949200594",
    "description": "KAWAII270220235127",
    "title": "KAWAII270220235127",
    "link_img": "https://live.staticflickr.com/65535/49592974122_3bc8277da6_o.jpg",
    "id_image": "KAWAII270220235127",
    "count_view": 0
  },
  {
    "link_thumb": "https://live.staticflickr.com/65535/49693531088_f8aa4fc009_n.jpg",
    "id_album": "1201366373",
    "description": "KAWAII0503202021294",
    "title": "KAWAII0503202021294",
    "link_img": "https://live.staticflickr.com/65535/49693531088_828666a701_o.jpg",
    "id_image": "KAWAII0503202021294",
    "count_view": 0
  },
  {
    "link_thumb": "https://live.staticflickr.com/65535/49742907191_c80bc106d2_n.jpg",
    "id_album": "-422187261",
    "description": "KAWAII060420214912152",
    "title": "KAWAII060420214912152",
    "link_img": "https://live.staticflickr.com/65535/49742907191_9b5e9d3445_o.jpg",
    "id_image": "KAWAII060420214912152",
    "count_view": 0
  },
  {
    "link_thumb": "https://live.staticflickr.com/65535/49727784282_3fa89588d1_n.jpg",
    "id_album": "-1862561193",
    "description": "KAWAII02042019451140",
    "title": "KAWAII02042019451140",
    "link_img": "https://live.staticflickr.com/65535/49727784282_4ed66233ee_o.jpg",
    "id_image": "KAWAII02042019451140",
    "count_view": 0
  },
  {
    "link_thumb": "https://live.staticflickr.com/65535/49592204403_99989d7f92_n.jpg",
    "id_album": "1396902986",
    "description": "KAWAII2702202351145",
    "title": "KAWAII2702202351145",
    "link_img": "https://live.staticflickr.com/65535/49592204403_aa5304ec91_o.jpg",
    "id_image": "KAWAII2702202351145",
    "count_view": 0
  },
  {
    "link_thumb": "https://live.staticflickr.com/65535/49694388512_b37270390e_n.jpg",
    "id_album": "1201366373",
    "description": "KAWAII120918163",
    "title": "KAWAII120918163",
    "link_img": "https://live.staticflickr.com/65535/49694388512_4d13cf57f1_o.jpg",
    "id_image": "KAWAII120918163",
    "count_view": 0
  },
  {
    "link_thumb": "https://live.staticflickr.com/65535/49693582248_aec5e0bea5_n.jpg",
    "id_album": "-358592519",
    "description": "KAWAII1702202236302",
    "title": "KAWAII1702202236302",
    "link_img": "https://live.staticflickr.com/65535/49693582248_45280fbeb2_o.jpg",
    "id_image": "KAWAII1702202236302",
    "count_view": 0
  },
  {
    "link_thumb": "https://live.staticflickr.com/65535/49743238067_e9100109a9_n.jpg",
    "id_album": "-1497779911",
    "description": "KAWAII060420214914146",
    "title": "KAWAII060420214914146",
    "link_img": "https://live.staticflickr.com/65535/49743238067_642958007a_o.jpg",
    "id_image": "KAWAII060420214914146",
    "count_view": 0
  },
  {
    "link_thumb": "https://live.staticflickr.com/65535/49552022963_0a629afafb_n.jpg",
    "id_album": "-1694302085",
    "description": "KAWAII12091825180220205931",
    "title": "KAWAII12091825180220205931",
    "link_img": "https://live.staticflickr.com/65535/49552022963_5b8deaced8_o.jpg",
    "id_image": "KAWAII12091825180220205931",
    "count_view": 0
  },
  {
    "link_thumb": "https://live.staticflickr.com/65535/49548835222_2433b1acd6_n.jpg",
    "id_album": "-1741487325",
    "description": "KAWAII120918370",
    "title": "KAWAII120918370",
    "link_img": "https://live.staticflickr.com/65535/49548835222_33e1fa10d3_o.jpg",
    "id_image": "KAWAII120918370",
    "count_view": 0
  },
  {
    "link_thumb": "https://live.staticflickr.com/65535/49694374632_2933d986eb_n.jpg",
    "id_album": "-643980979",
    "description": "KAWAII0503202021195",
    "title": "KAWAII0503202021195",
    "link_img": "https://live.staticflickr.com/65535/49694374632_8924106525_o.jpg",
    "id_image": "KAWAII0503202021195",
    "count_view": 0
  },
  {
    "link_thumb": "https://live.staticflickr.com/65535/49548999462_ecfdf2b9f6_n.jpg",
    "id_album": "-316663319",
    "description": "KAWAII1709185",
    "title": "KAWAII1709185",
    "link_img": "https://live.staticflickr.com/65535/49548999462_f32f7e31f1_o.jpg",
    "id_image": "KAWAII1709185",
    "count_view": 0
  },
  {
    "link_thumb": "https://live.staticflickr.com/65535/49727745862_fe5f0d562c_n.jpg",
    "id_album": "-1497779911",
    "description": "KAWAII0503202021189",
    "title": "KAWAII0503202021189",
    "link_img": "https://live.staticflickr.com/65535/49727745862_a8cb1b0243_o.jpg",
    "id_image": "KAWAII0503202021189",
    "count_view": 0
  },
  {
    "link_thumb": "https://live.staticflickr.com/65535/49622799796_dd4a25355b_n.jpg",
    "id_album": "1396902986",
    "description": "KAWAII0503202021137",
    "title": "KAWAII0503202021137",
    "link_img": "https://live.staticflickr.com/65535/49622799796_cc0cd3eacf_o.jpg",
    "id_image": "KAWAII0503202021137",
    "count_view": 0
  },
  {
    "link_thumb": "https://live.staticflickr.com/65535/49727442071_a7c0d8a3f0_n.jpg",
    "id_album": "742877173",
    "description": "KAWAII020420194508171",
    "title": "KAWAII020420194508171",
    "link_img": "https://live.staticflickr.com/65535/49727442071_7a61685d45_o.jpg",
    "id_image": "KAWAII020420194508171",
    "count_view": 0
  },
  {
    "link_thumb": "https://live.staticflickr.com/65535/49548098368_c33c390434_n.jpg",
    "id_album": "-422187261",
    "description": "KAWAII120918341",
    "title": "KAWAII120918341",
    "link_img": "https://live.staticflickr.com/65535/49548098368_4983148212_o.jpg",
    "id_image": "KAWAII120918341",
    "count_view": 0
  },
  {
    "link_thumb": "https://live.staticflickr.com/65535/49552759197_673d07d1ae_n.jpg",
    "id_album": "1396902986",
    "description": "KAWAII12091825180220205936",
    "title": "KAWAII12091825180220205936",
    "link_img": "https://live.staticflickr.com/65535/49552759197_fe859d890b_o.jpg",
    "id_image": "KAWAII12091825180220205936",
    "count_view": 0
  },
  {
    "link_thumb": "https://live.staticflickr.com/65535/49592714866_6f627c0f8c_n.jpg",
    "id_album": "-316663319",
    "description": "KAWAII2702202351133",
    "title": "KAWAII2702202351133",
    "link_img": "https://live.staticflickr.com/65535/49592714866_e095f49d99_o.jpg",
    "id_image": "KAWAII2702202351133",
    "count_view": 0
  },
  {
    "link_thumb": "https://live.staticflickr.com/65535/49548582101_8411607161_n.jpg",
    "id_album": "-1741487325",
    "description": "KAWAII120918266",
    "title": "KAWAII120918266",
    "link_img": "https://live.staticflickr.com/65535/49548582101_4076cf9316_o.jpg",
    "id_image": "KAWAII120918266",
    "count_view": 0
  },
  {
    "link_thumb": "https://live.staticflickr.com/65535/49694216611_d0f7c86d52_n.jpg",
    "id_album": "-1741487325",
    "description": "KAWAII120918249",
    "title": "KAWAII120918249",
    "link_img": "https://live.staticflickr.com/65535/49694216611_86a098ca41_o.jpg",
    "id_image": "KAWAII120918249",
    "count_view": 0
  },
  {
    "link_thumb": "https://live.staticflickr.com/65535/49693521123_a6d6c33aec_n.jpg",
    "id_album": "1699819648",
    "description": "KAWAII0503202021327",
    "title": "KAWAII0503202021327",
    "link_img": "https://live.staticflickr.com/65535/49693521123_7af73e9eda_o.jpg",
    "id_image": "KAWAII0503202021327",
    "count_view": 0
  },
  {
    "link_thumb": "https://live.staticflickr.com/65535/49622809301_6b0684800f_n.jpg",
    "id_album": "-1694302085",
    "description": "KAWAII0503202021105",
    "title": "KAWAII0503202021105",
    "link_img": "https://live.staticflickr.com/65535/49622809301_e17339301c_o.jpg",
    "id_image": "KAWAII0503202021105",
    "count_view": 0
  },
  {
    "link_thumb": "https://live.staticflickr.com/65535/49694124351_8f55f7cde4_n.jpg",
    "id_album": "-358592519",
    "description": "KAWAII120918292",
    "title": "KAWAII120918292",
    "link_img": "https://live.staticflickr.com/65535/49694124351_a1bb680751_o.jpg",
    "id_image": "KAWAII120918292",
    "count_view": 0
  },
  {
    "link_thumb": "https://live.staticflickr.com/65535/49742901631_78d2e49845_n.jpg",
    "id_album": "-1913845949",
    "description": "KAWAII0604202149127",
    "title": "KAWAII0604202149127",
    "link_img": "https://live.staticflickr.com/65535/49742901631_70c14b6e2f_o.jpg",
    "id_image": "KAWAII0604202149127",
    "count_view": 0
  },
  {
    "link_thumb": "https://live.staticflickr.com/65535/49694125311_154b517e69_n.jpg",
    "id_album": "-358592519",
    "description": "KAWAII1702202237314",
    "title": "KAWAII1702202237314",
    "link_img": "https://live.staticflickr.com/65535/49694125311_83b4919df8_o.jpg",
    "id_image": "KAWAII1702202237314",
    "count_view": 0
  },
  {
    "link_thumb": "https://live.staticflickr.com/65535/49694219401_04e4444cf2_n.jpg",
    "id_album": "-643980979",
    "description": "KAWAII24032022050238",
    "title": "KAWAII24032022050238",
    "link_img": "https://live.staticflickr.com/65535/49694219401_863f4476c1_o.jpg",
    "id_image": "KAWAII24032022050238",
    "count_view": 0
  },
  {
    "link_thumb": "https://live.staticflickr.com/65535/49727450881_7c7958f382_n.jpg",
    "id_album": "742877173",
    "description": "KAWAII020420194513138",
    "title": "KAWAII020420194513138",
    "link_img": "https://live.staticflickr.com/65535/49727450881_916c922e16_o.jpg",
    "id_image": "KAWAII020420194513138",
    "count_view": 0
  },
  {
    "link_thumb": "https://live.staticflickr.com/65535/49742952811_958f39fba4_n.jpg",
    "id_album": "-1862561193",
    "description": "KAWAII060420214917320",
    "title": "KAWAII060420214917320",
    "link_img": "https://live.staticflickr.com/65535/49742952811_f7a81fdf3b_o.jpg",
    "id_image": "KAWAII060420214917320",
    "count_view": 0
  },
  {
    "link_thumb": "https://live.staticflickr.com/65535/49727753397_4be244d399_n.jpg",
    "id_album": "-316663319",
    "description": "KAWAII0204201945112",
    "title": "KAWAII0204201945112",
    "link_img": "https://live.staticflickr.com/65535/49727753397_6f21a34d4b_o.jpg",
    "id_image": "KAWAII0204201945112",
    "count_view": 0
  },
  {
    "link_thumb": "https://live.staticflickr.com/65535/49727757637_721191975f_n.jpg",
    "id_album": "742877173",
    "description": "KAWAII0204201945085",
    "title": "KAWAII0204201945085",
    "link_img": "https://live.staticflickr.com/65535/49727757637_2281b4fa3d_o.jpg",
    "id_image": "KAWAII0204201945085",
    "count_view": 0
  },
  {
    "link_thumb": "https://live.staticflickr.com/65535/49727428166_9dd22aff1f_n.jpg",
    "id_album": "-1694302085",
    "description": "KAWAII270220235114",
    "title": "KAWAII270220235114",
    "link_img": "https://live.staticflickr.com/65535/49727428166_8c54bb9261_o.jpg",
    "id_image": "KAWAII270220235114",
    "count_view": 0
  },
  {
    "link_thumb": "https://live.staticflickr.com/65535/49694111601_9f55f2da0d_n.jpg",
    "id_album": "-643980979",
    "description": "KAWAII1702202237395",
    "title": "KAWAII1702202237395",
    "link_img": "https://live.staticflickr.com/65535/49694111601_c1d2752b4c_o.jpg",
    "id_image": "KAWAII1702202237395",
    "count_view": 0
  },
  {
    "link_thumb": "https://live.staticflickr.com/65535/49694221281_4bcc2ed000_n.jpg",
    "id_album": "-1432180061",
    "description": "KAWAII1702202237340",
    "title": "KAWAII1702202237340",
    "link_img": "https://live.staticflickr.com/65535/49694221281_264ab1e996_o.jpg",
    "id_image": "KAWAII1702202237340",
    "count_view": 0
  },
  {
    "link_thumb": "https://live.staticflickr.com/65535/49592216213_49ca325b6e_n.jpg",
    "id_album": "-316663319",
    "description": "KAWAII270220235153",
    "title": "KAWAII270220235153",
    "link_img": "https://live.staticflickr.com/65535/49592216213_470e1cef07_o.jpg",
    "id_image": "KAWAII270220235153",
    "count_view": 0
  },
  {
    "link_thumb": "https://live.staticflickr.com/65535/49694402042_b3356c643e_n.jpg",
    "id_album": "1201366373",
    "description": "KAWAII12091830",
    "title": "KAWAII12091830",
    "link_img": "https://live.staticflickr.com/65535/49694402042_887efc8fbe_o.jpg",
    "id_image": "KAWAII12091830",
    "count_view": 0
  },
  {
    "link_thumb": "https://live.staticflickr.com/65535/49743279367_86ed79dcdb_n.jpg",
    "id_album": "-1431786825",
    "description": "KAWAII06042021491518",
    "title": "KAWAII06042021491518",
    "link_img": "https://live.staticflickr.com/65535/49743279367_7136765f24_o.jpg",
    "id_image": "KAWAII06042021491518",
    "count_view": 0
  },
  {
    "link_thumb": "https://live.staticflickr.com/65535/49727432976_ecf2008e5f_n.jpg",
    "id_album": "-1497779911",
    "description": "KAWAII120918123",
    "title": "KAWAII120918123",
    "link_img": "https://live.staticflickr.com/65535/49727432976_dff0933007_o.jpg",
    "id_image": "KAWAII120918123",
    "count_view": 0
  },
  {
    "link_thumb": "https://live.staticflickr.com/65535/49694396612_2dbb811b8c_n.jpg",
    "id_album": "1201366373",
    "description": "KAWAII120918243",
    "title": "KAWAII120918243",
    "link_img": "https://live.staticflickr.com/65535/49694396612_a9d6ca4198_o.jpg",
    "id_image": "KAWAII120918243",
    "count_view": 0
  },
  {
    "link_thumb": "https://live.staticflickr.com/65535/49694228911_22e5202745_n.jpg",
    "id_album": "1226948986",
    "description": "KAWAII24032022050252",
    "title": "KAWAII24032022050252",
    "link_img": "https://live.staticflickr.com/65535/49694228911_fae9953d61_o.jpg",
    "id_image": "KAWAII24032022050252",
    "count_view": 0
  },
  {
    "link_thumb": "https://live.staticflickr.com/65535/49727476716_b31cf435f9_n.jpg",
    "id_album": "431597977",
    "description": "KAWAII0204201945127",
    "title": "KAWAII0204201945127",
    "link_img": "https://live.staticflickr.com/65535/49727476716_81c73efe64_o.jpg",
    "id_image": "KAWAII0204201945127",
    "count_view": 0
  },
  {
    "link_thumb": "https://live.staticflickr.com/65535/49742948761_e94d2c008c_n.jpg",
    "id_album": "1396902986",
    "description": "KAWAII060420214915147",
    "title": "KAWAII060420214915147",
    "link_img": "https://live.staticflickr.com/65535/49742948761_b4e2a9b1d7_o.jpg",
    "id_image": "KAWAII060420214915147",
    "count_view": 0
  },
  {
    "link_thumb": "https://live.staticflickr.com/65535/49743223077_cb6b0d531b_n.jpg",
    "id_album": "-1913845949",
    "description": "KAWAII06042021491116",
    "title": "KAWAII06042021491116",
    "link_img": "https://live.staticflickr.com/65535/49743223077_8b00a1bf15_o.jpg",
    "id_image": "KAWAII06042021491116",
    "count_view": 0
  },
  {
    "link_thumb": "https://live.staticflickr.com/65535/49742390413_c6bbd32bc1_n.jpg",
    "id_album": "-1473448477",
    "description": "KAWAII060420214915246",
    "title": "KAWAII060420214915246",
    "link_img": "https://live.staticflickr.com/65535/49742390413_d03ccc27e5_o.jpg",
    "id_image": "KAWAII060420214915246",
    "count_view": 0
  },
  {
    "link_thumb": "https://live.staticflickr.com/65535/49548112553_abe2621fa0_n.jpg",
    "id_album": "-422187261",
    "description": "KAWAII12091863",
    "title": "KAWAII12091863",
    "link_img": "https://live.staticflickr.com/65535/49548112553_4c15e165d9_o.jpg",
    "id_image": "KAWAII12091863",
    "count_view": 0
  },
  {
    "link_thumb": "https://live.staticflickr.com/65535/49743238552_fd3ffb0faa_n.jpg",
    "id_album": "-1497779911",
    "description": "KAWAII060420214914287",
    "title": "KAWAII060420214914287",
    "link_img": "https://live.staticflickr.com/65535/49743238552_30b39754c4_o.jpg",
    "id_image": "KAWAII060420214914287",
    "count_view": 0
  },
  {
    "link_thumb": "https://live.staticflickr.com/65535/49743244862_5576d98f85_n.jpg",
    "id_album": "-316663319",
    "description": "KAWAII060420214912154",
    "title": "KAWAII060420214912154",
    "link_img": "https://live.staticflickr.com/65535/49743244862_a121890c7f_o.jpg",
    "id_image": "KAWAII060420214912154",
    "count_view": 0
  },
  {
    "link_thumb": "https://live.staticflickr.com/65535/49548211348_d0b36c2d46_n.jpg",
    "id_album": "-1694302085",
    "description": "KAWAII1702202238424",
    "title": "KAWAII1702202238424",
    "link_img": "https://live.staticflickr.com/65535/49548211348_dd8a3c08df_o.jpg",
    "id_image": "KAWAII1702202238424",
    "count_view": 0
  },
  {
    "link_thumb": "https://live.staticflickr.com/65535/49742933061_753661e456_n.jpg",
    "id_album": "-316663319",
    "description": "KAWAII06042021491846",
    "title": "KAWAII06042021491846",
    "link_img": "https://live.staticflickr.com/65535/49742933061_e984dfc0bd_o.jpg",
    "id_image": "KAWAII06042021491846",
    "count_view": 0
  },
  {
    "link_thumb": "https://live.staticflickr.com/65535/49592952392_4c43bf382f_n.jpg",
    "id_album": "-1741487325",
    "description": "KAWAII1702202237338",
    "title": "KAWAII1702202237338",
    "link_img": "https://live.staticflickr.com/65535/49592952392_4bb44f63a9_o.jpg",
    "id_image": "KAWAII1702202237338",
    "count_view": 0
  },
  {
    "link_thumb": "https://live.staticflickr.com/65535/49622330628_bc94cffc7c_n.jpg",
    "id_album": "-406350429",
    "description": "KAWAII0503202021232",
    "title": "KAWAII0503202021232",
    "link_img": "https://live.staticflickr.com/65535/49622330628_fa947f14f9_o.jpg",
    "id_image": "KAWAII0503202021232",
    "count_view": 0
  },
  {
    "link_thumb": "https://live.staticflickr.com/65535/49726918963_b2a3514582_n.jpg",
    "id_album": "-1862561193",
    "description": "KAWAII020420194508177",
    "title": "KAWAII020420194508177",
    "link_img": "https://live.staticflickr.com/65535/49726918963_5ab6ca99ac_o.jpg",
    "id_image": "KAWAII020420194508177",
    "count_view": 0
  },
  {
    "link_thumb": "https://live.staticflickr.com/65535/49694385997_7851f90b4a_n.jpg",
    "id_album": "1201366373",
    "description": "KAWAII120918141",
    "title": "KAWAII120918141",
    "link_img": "https://live.staticflickr.com/65535/49694385997_f3e813d133_o.jpg",
    "id_image": "KAWAII120918141",
    "count_view": 0
  },
  {
    "link_thumb": "https://live.staticflickr.com/65535/49727782887_cac39ff7ec_n.jpg",
    "id_album": "-1862561193",
    "description": "KAWAII020420194511121",
    "title": "KAWAII020420194511121",
    "link_img": "https://live.staticflickr.com/65535/49727782887_051589ae4d_o.jpg",
    "id_image": "KAWAII020420194511121",
    "count_view": 0
  },
  {
    "link_thumb": "https://live.staticflickr.com/65535/49694091671_e2c80b25ac_n.jpg",
    "id_album": "1201366373",
    "description": "KAWAII120918213",
    "title": "KAWAII120918213",
    "link_img": "https://live.staticflickr.com/65535/49694091671_f396e77508_o.jpg",
    "id_image": "KAWAII120918213",
    "count_view": 0
  },
  {
    "link_thumb": "https://live.staticflickr.com/65535/49727436536_7dee9d1b02_n.jpg",
    "id_album": "-316663319",
    "description": "KAWAII0204201945099",
    "title": "KAWAII0204201945099",
    "link_img": "https://live.staticflickr.com/65535/49727436536_0fcc53344f_o.jpg",
    "id_image": "KAWAII0204201945099",
    "count_view": 0
  },
  {
    "link_thumb": "https://live.staticflickr.com/65535/49743231542_f1ef9eac98_n.jpg",
    "id_album": "-422187261",
    "description": "KAWAII060420214915315",
    "title": "KAWAII060420214915315",
    "link_img": "https://live.staticflickr.com/65535/49743231542_9520380e6c_o.jpg",
    "id_image": "KAWAII060420214915315",
    "count_view": 0
  },
  {
    "link_thumb": "https://live.staticflickr.com/65535/49552519201_d4571ef7f6_n.jpg",
    "id_album": "-1694302085",
    "description": "KAWAII12091825180220205927",
    "title": "KAWAII12091825180220205927",
    "link_img": "https://live.staticflickr.com/65535/49552519201_c1699e990d_o.jpg",
    "id_image": "KAWAII12091825180220205927",
    "count_view": 0
  },
  {
    "link_thumb": "https://live.staticflickr.com/65535/49548043143_a178d66949_n.jpg",
    "id_album": "-316663319",
    "description": "KAWAII120918103",
    "title": "KAWAII120918103",
    "link_img": "https://live.staticflickr.com/65535/49548043143_f7ce068383_o.jpg",
    "id_image": "KAWAII120918103",
    "count_view": 0
  },
  {
    "link_thumb": "https://live.staticflickr.com/65535/49743260607_18448666e8_n.jpg",
    "id_album": "-1473448477",
    "description": "KAWAII060420214915228",
    "title": "KAWAII060420214915228",
    "link_img": "https://live.staticflickr.com/65535/49743260607_b7e23e9d31_o.jpg",
    "id_image": "KAWAII060420214915228",
    "count_view": 0
  },
  {
    "link_thumb": "https://live.staticflickr.com/65535/49693533863_24f57dd157_n.jpg",
    "id_album": "1201366373",
    "description": "KAWAII050320202172",
    "title": "KAWAII050320202172",
    "link_img": "https://live.staticflickr.com/65535/49693533863_6a9820385c_o.jpg",
    "id_image": "KAWAII050320202172",
    "count_view": 0
  },
  {
    "link_thumb": "https://live.staticflickr.com/65535/49623068762_8707473d16_n.jpg",
    "id_album": "-422187261",
    "description": "KAWAII0503202021167",
    "title": "KAWAII0503202021167",
    "link_img": "https://live.staticflickr.com/65535/49623068762_44dbf4f645_o.jpg",
    "id_image": "KAWAII0503202021167",
    "count_view": 0
  },
  {
    "link_thumb": "https://live.staticflickr.com/65535/49726884968_e16c3526ab_n.jpg",
    "id_album": "-1497779911",
    "description": "KAWAII0503202021300",
    "title": "KAWAII0503202021300",
    "link_img": "https://live.staticflickr.com/65535/49726884968_c3d9ff0f8c_o.jpg",
    "id_image": "KAWAII0503202021300",
    "count_view": 0
  },
  {
    "link_thumb": "https://live.staticflickr.com/65535/49743233112_a052b832b6_n.jpg",
    "id_album": "-1694302085",
    "description": "KAWAII060420214913279",
    "title": "KAWAII060420214913279",
    "link_img": "https://live.staticflickr.com/65535/49743233112_74409ce0b3_o.jpg",
    "id_image": "KAWAII060420214913279",
    "count_view": 0
  },
  {
    "link_thumb": "https://live.staticflickr.com/65535/49742368198_a78aea33e3_n.jpg",
    "id_album": "-1497779911",
    "description": "KAWAII060420214917131",
    "title": "KAWAII060420214917131",
    "link_img": "https://live.staticflickr.com/65535/49742368198_ec94c1902b_o.jpg",
    "id_image": "KAWAII060420214917131",
    "count_view": 0
  },
  {
    "link_thumb": "https://live.staticflickr.com/65535/49727464601_e44b37d61b_n.jpg",
    "id_album": "1396902986",
    "description": "KAWAII02042019451047",
    "title": "KAWAII02042019451047",
    "link_img": "https://live.staticflickr.com/65535/49727464601_5672fec016_o.jpg",
    "id_image": "KAWAII02042019451047",
    "count_view": 0
  },
  {
    "link_thumb": "https://live.staticflickr.com/65535/49548931182_f11eeae028_n.jpg",
    "id_album": "-1741487325",
    "description": "KAWAII1702202237394",
    "title": "KAWAII1702202237394",
    "link_img": "https://live.staticflickr.com/65535/49548931182_daacf921f8_o.jpg",
    "id_image": "KAWAII1702202237394",
    "count_view": 0
  },
  {
    "link_thumb": "https://live.staticflickr.com/65535/49548060263_8d7e848b2a_n.jpg",
    "id_album": "-1741487325",
    "description": "KAWAII120918173",
    "title": "KAWAII120918173",
    "link_img": "https://live.staticflickr.com/65535/49548060263_d35db328c4_o.jpg",
    "id_image": "KAWAII120918173",
    "count_view": 0
  },
  {
    "link_thumb": "https://live.staticflickr.com/65535/49727787597_e2bb9b48d9_n.jpg",
    "id_album": "-1099943053",
    "description": "KAWAII020420194507134",
    "title": "KAWAII020420194507134",
    "link_img": "https://live.staticflickr.com/65535/49727787597_2ac5d5c070_o.jpg",
    "id_image": "KAWAII020420194507134",
    "count_view": 0
  },
  {
    "link_thumb": "https://live.staticflickr.com/65535/49742944171_e5575bc4ba_n.jpg",
    "id_album": "-1779286820",
    "description": "KAWAII060420214915197",
    "title": "KAWAII060420214915197",
    "link_img": "https://live.staticflickr.com/65535/49742944171_fd10342417_o.jpg",
    "id_image": "KAWAII060420214915197",
    "count_view": 0
  },
  {
    "link_thumb": "https://live.staticflickr.com/65535/49742406923_1631d0f5fc_n.jpg",
    "id_album": "-1431786825",
    "description": "KAWAII06042021491268",
    "title": "KAWAII06042021491268",
    "link_img": "https://live.staticflickr.com/65535/49742406923_797826b5f0_o.jpg",
    "id_image": "KAWAII06042021491268",
    "count_view": 0
  },
  {
    "link_thumb": "https://live.staticflickr.com/65535/49622312083_f063a67fc7_n.jpg",
    "id_album": "-316663319",
    "description": "KAWAII0503202021244",
    "title": "KAWAII0503202021244",
    "link_img": "https://live.staticflickr.com/65535/49622312083_b3eff5c2cf_o.jpg",
    "id_image": "KAWAII0503202021244",
    "count_view": 0
  },
  {
    "link_thumb": "https://live.staticflickr.com/65535/49548603446_33fa09eeaf_n.jpg",
    "id_album": "-1099943053",
    "description": "KAWAII120918353",
    "title": "KAWAII120918353",
    "link_img": "https://live.staticflickr.com/65535/49548603446_c9733f6d5d_o.jpg",
    "id_image": "KAWAII120918353",
    "count_view": 0
  },
  {
    "link_thumb": "https://live.staticflickr.com/65535/49694102261_ea702f35c0_n.jpg",
    "id_album": "1201366373",
    "description": "KAWAII12091849",
    "title": "KAWAII12091849",
    "link_img": "https://live.staticflickr.com/65535/49694102261_3f4c6bfa43_o.jpg",
    "id_image": "KAWAII12091849",
    "count_view": 0
  },
  {
    "link_thumb": "https://live.staticflickr.com/65535/49726876713_347a15e4ed_n.jpg",
    "id_album": "-1694302085",
    "description": "KAWAII020420194508119",
    "title": "KAWAII020420194508119",
    "link_img": "https://live.staticflickr.com/65535/49726876713_7db942ecae_o.jpg",
    "id_image": "KAWAII020420194508119",
    "count_view": 0
  },
  {
    "link_thumb": "https://live.staticflickr.com/65535/49726922893_af395df580_n.jpg",
    "id_album": "-1862561193",
    "description": "KAWAII0204201945118",
    "title": "KAWAII0204201945118",
    "link_img": "https://live.staticflickr.com/65535/49726922893_9f0e4fa3c4_o.jpg",
    "id_image": "KAWAII0204201945118",
    "count_view": 0
  },
  {
    "link_thumb": "https://live.staticflickr.com/65535/49694084236_63d3b3d1f2_n.jpg",
    "id_album": "1201366373",
    "description": "KAWAII120918146",
    "title": "KAWAII120918146",
    "link_img": "https://live.staticflickr.com/65535/49694084236_b4dc9217da_o.jpg",
    "id_image": "KAWAII120918146",
    "count_view": 0
  },
  {
    "link_thumb": "https://live.staticflickr.com/65535/49742931951_0bf3561d19_n.jpg",
    "id_album": "-316663319",
    "description": "KAWAII060420214917289",
    "title": "KAWAII060420214917289",
    "link_img": "https://live.staticflickr.com/65535/49742931951_2356bb7793_o.jpg",
    "id_image": "KAWAII060420214917289",
    "count_view": 0
  },
  {
    "link_thumb": "https://live.staticflickr.com/65535/49693551533_3204e11952_n.jpg",
    "id_album": "1201366373",
    "description": "KAWAII120918247",
    "title": "KAWAII120918247",
    "link_img": "https://live.staticflickr.com/65535/49693551533_e00c35ceea_o.jpg",
    "id_image": "KAWAII120918247",
    "count_view": 0
  },
  {
    "link_thumb": "https://live.staticflickr.com/65535/49694123996_c9489a0f7a_n.jpg",
    "id_album": "-358592519",
    "description": "KAWAII1209182",
    "title": "KAWAII1209182",
    "link_img": "https://live.staticflickr.com/65535/49694123996_cea27b0603_o.jpg",
    "id_image": "KAWAII1209182",
    "count_view": 0
  },
  {
    "link_thumb": "https://live.staticflickr.com/65535/49592710441_ed79fe1f96_n.jpg",
    "id_album": "-1741487325",
    "description": "KAWAII1702202238470",
    "title": "KAWAII1702202238470",
    "link_img": "https://live.staticflickr.com/65535/49592710441_3e5c46aec4_o.jpg",
    "id_image": "KAWAII1702202238470",
    "count_view": 0
  },
  {
    "link_thumb": "https://live.staticflickr.com/65535/49592706831_861ca62369_n.jpg",
    "id_album": "1396902986",
    "description": "KAWAII2702202351138",
    "title": "KAWAII2702202351138",
    "link_img": "https://live.staticflickr.com/65535/49592706831_561d937080_o.jpg",
    "id_image": "KAWAII2702202351138",
    "count_view": 0
  },
  {
    "link_thumb": "https://live.staticflickr.com/65535/49592217268_d6786c2d1a_n.jpg",
    "id_album": "-316663319",
    "description": "KAWAII270220235181",
    "title": "KAWAII270220235181",
    "link_img": "https://live.staticflickr.com/65535/49592217268_d78b40da3a_o.jpg",
    "id_image": "KAWAII270220235181",
    "count_view": 0
  },
  {
    "link_thumb": "https://live.staticflickr.com/65535/49727443351_559cf78630_n.jpg",
    "id_album": "742877173",
    "description": "KAWAII02042019450867",
    "title": "KAWAII02042019450867",
    "link_img": "https://live.staticflickr.com/65535/49727443351_48a92a949e_o.jpg",
    "id_image": "KAWAII02042019450867",
    "count_view": 0
  },
  {
    "link_thumb": "https://live.staticflickr.com/65535/49548825167_030b74dbd6_n.jpg",
    "id_album": "-316663319",
    "description": "KAWAII120918330",
    "title": "KAWAII120918330",
    "link_img": "https://live.staticflickr.com/65535/49548825167_4c814af17e_o.jpg",
    "id_image": "KAWAII120918330",
    "count_view": 0
  },
  {
    "link_thumb": "https://live.staticflickr.com/65535/49693527958_5451a2d822_n.jpg",
    "id_album": "-643980979",
    "description": "KAWAII0503202021179",
    "title": "KAWAII0503202021179",
    "link_img": "https://live.staticflickr.com/65535/49693527958_ce1a1d65b4_o.jpg",
    "id_image": "KAWAII0503202021179",
    "count_view": 0
  },
  {
    "link_thumb": "https://live.staticflickr.com/65535/49624534756_bbaab8afc8_n.jpg",
    "id_album": "-422187261",
    "description": "KAWAII050320202179",
    "title": "KAWAII050320202179",
    "link_img": "https://live.staticflickr.com/65535/49624534756_21dbeda38b_o.jpg",
    "id_image": "KAWAII050320202179",
    "count_view": 0
  },
  {
    "link_thumb": "https://live.staticflickr.com/65535/49727778152_25a2634b3b_n.jpg",
    "id_album": "1396902986",
    "description": "KAWAII020420194508226",
    "title": "KAWAII020420194508226",
    "link_img": "https://live.staticflickr.com/65535/49727778152_52f8951d06_o.jpg",
    "id_image": "KAWAII020420194508226",
    "count_view": 0
  },
  {
    "link_thumb": "https://live.staticflickr.com/65535/49548734856_2e5ceddcba_n.jpg",
    "id_album": "-422187261",
    "description": "KAWAII1702202239509",
    "title": "KAWAII1702202239509",
    "link_img": "https://live.staticflickr.com/65535/49548734856_21e734e710_o.jpg",
    "id_image": "KAWAII1702202239509",
    "count_view": 0
  },
  {
    "link_thumb": "https://live.staticflickr.com/65535/49694124706_1103db9b34_n.jpg",
    "id_album": "-358592519",
    "description": "KAWAII170220223465",
    "title": "KAWAII170220223465",
    "link_img": "https://live.staticflickr.com/65535/49694124706_3844e47e04_o.jpg",
    "id_image": "KAWAII170220223465",
    "count_view": 0
  },
  {
    "link_thumb": "https://live.staticflickr.com/65535/49622816441_a1185fa8c3_n.jpg",
    "id_album": "-316663319",
    "description": "KAWAII0503202021128",
    "title": "KAWAII0503202021128",
    "link_img": "https://live.staticflickr.com/65535/49622816441_16b93e7b8c_o.jpg",
    "id_image": "KAWAII0503202021128",
    "count_view": 0
  },
  {
    "link_thumb": "https://live.staticflickr.com/65535/49578750051_26e3a6ac43_n.jpg",
    "id_album": "-316663319",
    "description": "KAWAII190220211123",
    "title": "KAWAII190220211123",
    "link_img": "https://live.staticflickr.com/65535/49578750051_3bc0f9edfc_o.jpg",
    "id_image": "KAWAII190220211123",
    "count_view": 0
  },
  {
    "link_thumb": "https://live.staticflickr.com/65535/49693564863_d451c3d21c_n.jpg",
    "id_album": "1201366373",
    "description": "KAWAII170220223488",
    "title": "KAWAII170220223488",
    "link_img": "https://live.staticflickr.com/65535/49693564863_846111a703_o.jpg",
    "id_image": "KAWAII170220223488",
    "count_view": 0
  },
  {
    "link_thumb": "https://live.staticflickr.com/65535/49726903528_9e8c3e7d87_n.jpg",
    "id_album": "742877173",
    "description": "KAWAII020420194513147",
    "title": "KAWAII020420194513147",
    "link_img": "https://live.staticflickr.com/65535/49726903528_b8cbc37f56_o.jpg",
    "id_image": "KAWAII020420194513147",
    "count_view": 0
  },
  {
    "link_thumb": "https://live.staticflickr.com/65535/49622290498_4b0b08cd85_n.jpg",
    "id_album": "-1741487325",
    "description": "KAWAII0503202021117",
    "title": "KAWAII0503202021117",
    "link_img": "https://live.staticflickr.com/65535/49622290498_c9f4c4f7ae_o.jpg",
    "id_image": "KAWAII0503202021117",
    "count_view": 0
  },
  {
    "link_thumb": "https://live.staticflickr.com/65535/49694391217_c2cb8c3d6e_n.jpg",
    "id_album": "-643980979",
    "description": "KAWAII120918188",
    "title": "KAWAII120918188",
    "link_img": "https://live.staticflickr.com/65535/49694391217_bf892865be_o.jpg",
    "id_image": "KAWAII120918188",
    "count_view": 0
  },
  {
    "link_thumb": "https://live.staticflickr.com/65535/49548695406_17fe377f76_n.jpg",
    "id_album": "-316663319",
    "description": "KAWAII1702202237360",
    "title": "KAWAII1702202237360",
    "link_img": "https://live.staticflickr.com/65535/49548695406_09b8ea5888_o.jpg",
    "id_image": "KAWAII1702202237360",
    "count_view": 0
  },
  {
    "link_thumb": "https://live.staticflickr.com/65535/49742352313_f78cb67432_n.jpg",
    "id_album": "-1913845949",
    "description": "KAWAII060420214911172",
    "title": "KAWAII060420214911172",
    "link_img": "https://live.staticflickr.com/65535/49742352313_0846d8bdda_o.jpg",
    "id_image": "KAWAII060420214911172",
    "count_view": 0
  },
  {
    "link_thumb": "https://live.staticflickr.com/65535/49742379248_eb54df3a78_n.jpg",
    "id_album": "-316663319",
    "description": "KAWAII060420214915163",
    "title": "KAWAII060420214915163",
    "link_img": "https://live.staticflickr.com/65535/49742379248_21f4d796f2_o.jpg",
    "id_image": "KAWAII060420214915163",
    "count_view": 0
  },
  {
    "link_thumb": "https://live.staticflickr.com/65535/49548669546_d864b4cec1_n.jpg",
    "id_album": "-1741487325",
    "description": "KAWAII1702202236234",
    "title": "KAWAII1702202236234",
    "link_img": "https://live.staticflickr.com/65535/49548669546_02a854cb7a_o.jpg",
    "id_image": "KAWAII1702202236234",
    "count_view": 0
  },
  {
    "link_thumb": "https://live.staticflickr.com/65535/49694424167_9ca4b99ed0_n.jpg",
    "id_album": "-643980979",
    "description": "KAWAII2702202351163",
    "title": "KAWAII2702202351163",
    "link_img": "https://live.staticflickr.com/65535/49694424167_56c10c06d2_o.jpg",
    "id_image": "KAWAII2702202351163",
    "count_view": 0
  },
  {
    "link_thumb": "https://live.staticflickr.com/65535/49693681563_0c652e2f73_n.jpg",
    "id_album": "-1862561193",
    "description": "KAWAII24032022050236",
    "title": "KAWAII24032022050236",
    "link_img": "https://live.staticflickr.com/65535/49693681563_3b6a993c59_o.jpg",
    "id_image": "KAWAII24032022050236",
    "count_view": 0
  },
  {
    "link_thumb": "https://live.staticflickr.com/65535/49693680873_7ff034b3fb_n.jpg",
    "id_album": "-1862561193",
    "description": "KAWAII24032022050154",
    "title": "KAWAII24032022050154",
    "link_img": "https://live.staticflickr.com/65535/49693680873_e35bd49743_o.jpg",
    "id_image": "KAWAII24032022050154",
    "count_view": 0
  },
  {
    "link_thumb": "https://live.staticflickr.com/65535/49694370822_2deb15b120_n.jpg",
    "id_album": "-1432180061",
    "description": "KAWAII120918222",
    "title": "KAWAII120918222",
    "link_img": "https://live.staticflickr.com/65535/49694370822_b592161bf5_o.jpg",
    "id_image": "KAWAII120918222",
    "count_view": 0
  },
  {
    "link_thumb": "https://live.staticflickr.com/65535/49694097306_4b8b24b55c_n.jpg",
    "id_album": "1201366373",
    "description": "KAWAII120918260",
    "title": "KAWAII120918260",
    "link_img": "https://live.staticflickr.com/65535/49694097306_3f53713776_o.jpg",
    "id_image": "KAWAII120918260",
    "count_view": 0
  },
  {
    "link_thumb": "https://live.staticflickr.com/65535/49622832336_d7491684ce_n.jpg",
    "id_album": "-316663319",
    "description": "KAWAII0503202021310",
    "title": "KAWAII0503202021310",
    "link_img": "https://live.staticflickr.com/65535/49622832336_5dbcbf4dd3_o.jpg",
    "id_image": "KAWAII0503202021310",
    "count_view": 0
  },
  {
    "link_thumb": "https://live.staticflickr.com/65535/49578248238_c02e450583_n.jpg",
    "id_album": "-1099943053",
    "description": "KAWAII19022021116",
    "title": "KAWAII19022021116",
    "link_img": "https://live.staticflickr.com/65535/49578248238_266350c32d_o.jpg",
    "id_image": "KAWAII19022021116",
    "count_view": 0
  },
  {
    "link_thumb": "https://live.staticflickr.com/65535/49693577243_1d71d43a8f_n.jpg",
    "id_album": "-643980979",
    "description": "KAWAII17091850",
    "title": "KAWAII17091850",
    "link_img": "https://live.staticflickr.com/65535/49693577243_8b5016ac40_o.jpg",
    "id_image": "KAWAII17091850",
    "count_view": 0
  },
  {
    "link_thumb": "https://live.staticflickr.com/65535/49578750566_27e54cdc23_n.jpg",
    "id_album": "-316663319",
    "description": "KAWAII190220211131",
    "title": "KAWAII190220211131",
    "link_img": "https://live.staticflickr.com/65535/49578750566_3f5b567b18_o.jpg",
    "id_image": "KAWAII190220211131",
    "count_view": 0
  },
  {
    "link_thumb": "https://live.staticflickr.com/65535/49552522646_f48c42dffb_n.jpg",
    "id_album": "431597977",
    "description": "KAWAII12091825180220205948",
    "title": "KAWAII12091825180220205948",
    "link_img": "https://live.staticflickr.com/65535/49552522646_e82ca66f82_o.jpg",
    "id_image": "KAWAII12091825180220205948",
    "count_view": 0
  },
  {
    "link_thumb": "https://live.staticflickr.com/65535/49742386643_04fa2621d0_n.jpg",
    "id_album": "-1473448477",
    "description": "KAWAII0604202149141",
    "title": "KAWAII0604202149141",
    "link_img": "https://live.staticflickr.com/65535/49742386643_736eb40f26_o.jpg",
    "id_image": "KAWAII0604202149141",
    "count_view": 0
  },
  {
    "link_thumb": "https://live.staticflickr.com/65535/49727470746_fa73e3a37f_n.jpg",
    "id_album": "-1862561193",
    "description": "KAWAII020420194512120",
    "title": "KAWAII020420194512120",
    "link_img": "https://live.staticflickr.com/65535/49727470746_3d39dec80e_o.jpg",
    "id_image": "KAWAII020420194512120",
    "count_view": 0
  },
  {
    "link_thumb": "https://live.staticflickr.com/65535/49592209938_f62c424820_n.jpg",
    "id_album": "-1432180061",
    "description": "KAWAII270220235185",
    "title": "KAWAII270220235185",
    "link_img": "https://live.staticflickr.com/65535/49592209938_780f1ea26a_o.jpg",
    "id_image": "KAWAII270220235185",
    "count_view": 0
  },
  {
    "link_thumb": "https://live.staticflickr.com/65535/49592731401_a959ea4ae4_n.jpg",
    "id_album": "949200594",
    "description": "KAWAII2702202351141",
    "title": "KAWAII2702202351141",
    "link_img": "https://live.staticflickr.com/65535/49592731401_18a15bc207_o.jpg",
    "id_image": "KAWAII2702202351141",
    "count_view": 0
  },
  {
    "link_thumb": "https://live.staticflickr.com/65535/49622803226_76cafe0d42_n.jpg",
    "id_album": "1396902986",
    "description": "KAWAII0503202021277",
    "title": "KAWAII0503202021277",
    "link_img": "https://live.staticflickr.com/65535/49622803226_e5aed4ff94_o.jpg",
    "id_image": "KAWAII0503202021277",
    "count_view": 0
  },
  {
    "link_thumb": "https://live.staticflickr.com/65535/49548729551_d152518c25_n.jpg",
    "id_album": "-422187261",
    "description": "KAWAII1702202238491",
    "title": "KAWAII1702202238491",
    "link_img": "https://live.staticflickr.com/65535/49548729551_87dde6ce32_o.jpg",
    "id_image": "KAWAII1702202238491",
    "count_view": 0
  },
  {
    "link_thumb": "https://live.staticflickr.com/65535/49548564106_4da17e55a0_n.jpg",
    "id_album": "-1741487325",
    "description": "KAWAII120918181",
    "title": "KAWAII120918181",
    "link_img": "https://live.staticflickr.com/65535/49548564106_7806ce5f14_o.jpg",
    "id_image": "KAWAII120918181",
    "count_view": 0
  },
  {
    "link_thumb": "https://live.staticflickr.com/65535/49548773511_f261cc3b03_n.jpg",
    "id_album": "-1741487325",
    "description": "KAWAII17091852",
    "title": "KAWAII17091852",
    "link_img": "https://live.staticflickr.com/65535/49548773511_eec13ffc04_o.jpg",
    "id_image": "KAWAII17091852",
    "count_view": 0
  },
  {
    "link_thumb": "https://live.staticflickr.com/65535/49622282188_f7238e3cd5_n.jpg",
    "id_album": "-422187261",
    "description": "KAWAII0503202021330",
    "title": "KAWAII0503202021330",
    "link_img": "https://live.staticflickr.com/65535/49622282188_7f6aa8f2ff_o.jpg",
    "id_image": "KAWAII0503202021330",
    "count_view": 0
  },
  {
    "link_thumb": "https://live.staticflickr.com/65535/49710286373_5453a7f24c_n.jpg",
    "id_album": "-1599896063",
    "description": "LITTLEMONK29032012063212",
    "title": "LITTLEMONK29032012063212",
    "link_img": "https://live.staticflickr.com/65535/49710286373_05b860020e_o.jpg",
    "id_image": "LITTLEMONK29032012063212",
    "count_view": 0
  },
  {
    "link_thumb": "https://live.staticflickr.com/65535/49548587041_497fdce4ca_n.jpg",
    "id_album": "-316663319",
    "description": "KAWAII120918288",
    "title": "KAWAII120918288",
    "link_img": "https://live.staticflickr.com/65535/49548587041_cf1d84938a_o.jpg",
    "id_image": "KAWAII120918288",
    "count_view": 0
  },
  {
    "link_thumb": "https://live.staticflickr.com/65535/49592712941_9ab292a7fc_n.jpg",
    "id_album": "-316663319",
    "description": "KAWAII17091814",
    "title": "KAWAII17091814",
    "link_img": "https://live.staticflickr.com/65535/49592712941_b7c9d2594e_o.jpg",
    "id_image": "KAWAII17091814",
    "count_view": 0
  },
  {
    "link_thumb": "https://live.staticflickr.com/65535/49623096527_6a91efda4c_n.jpg",
    "id_album": "-316663319",
    "description": "KAWAII0503202021220",
    "title": "KAWAII0503202021220",
    "link_img": "https://live.staticflickr.com/65535/49623096527_6dbf6469bf_o.jpg",
    "id_image": "KAWAII0503202021220",
    "count_view": 0
  },
  {
    "link_thumb": "https://live.staticflickr.com/65535/49727754157_91cc09de26_n.jpg",
    "id_album": "-316663319",
    "description": "KAWAII020420194512160",
    "title": "KAWAII020420194512160",
    "link_img": "https://live.staticflickr.com/65535/49727754157_1ab4982a2a_o.jpg",
    "id_image": "KAWAII020420194512160",
    "count_view": 0
  },
  {
    "link_thumb": "https://live.staticflickr.com/65535/49552517241_cfe1185bd3_n.jpg",
    "id_album": "-1694302085",
    "description": "KAWAII12091825180220205911",
    "title": "KAWAII12091825180220205911",
    "link_img": "https://live.staticflickr.com/65535/49552517241_e6d0dcecb0_o.jpg",
    "id_image": "KAWAII12091825180220205911",
    "count_view": 0
  },
  {
    "link_thumb": "https://live.staticflickr.com/65535/49693586948_75d5f24801_n.jpg",
    "id_album": "1226948986",
    "description": "TOTORO22032015426",
    "title": "TOTORO22032015426",
    "link_img": "https://live.staticflickr.com/65535/49693586948_c05ff0c900_o.jpg",
    "id_image": "TOTORO22032015426",
    "count_view": 0
  },
  {
    "link_thumb": "https://live.staticflickr.com/65535/49743250207_8d58b1d982_n.jpg",
    "id_album": "-316663319",
    "description": "KAWAII06042021491460",
    "title": "KAWAII06042021491460",
    "link_img": "https://live.staticflickr.com/65535/49743250207_89f7b8c0c6_o.jpg",
    "id_image": "KAWAII06042021491460",
    "count_view": 0
  },
  {
    "link_thumb": "https://live.staticflickr.com/65535/49548598861_c539f958f9_n.jpg",
    "id_album": "-316663319",
    "description": "KAWAII120918334",
    "title": "KAWAII120918334",
    "link_img": "https://live.staticflickr.com/65535/49548598861_130472ddd0_o.jpg",
    "id_image": "KAWAII120918334",
    "count_view": 0
  },
  {
    "link_thumb": "https://live.staticflickr.com/65535/49622820181_aaa1a1aa67_n.jpg",
    "id_album": "-316663319",
    "description": "KAWAII0503202021178",
    "title": "KAWAII0503202021178",
    "link_img": "https://live.staticflickr.com/65535/49622820181_e390407a10_o.jpg",
    "id_image": "KAWAII0503202021178",
    "count_view": 0
  },
  {
    "link_thumb": "https://live.staticflickr.com/65535/49693685603_fea1c3b98f_n.jpg",
    "id_album": "1226948986",
    "description": "KAWAII24032022050230",
    "title": "KAWAII24032022050230",
    "link_img": "https://live.staticflickr.com/65535/49693685603_4b164d0fa6_o.jpg",
    "id_image": "KAWAII24032022050230",
    "count_view": 0
  },
  {
    "link_thumb": "https://live.staticflickr.com/65535/49623072437_5d592690ea_n.jpg",
    "id_album": "1396902986",
    "description": "KAWAII0503202021182",
    "title": "KAWAII0503202021182",
    "link_img": "https://live.staticflickr.com/65535/49623072437_ed50980cd8_o.jpg",
    "id_image": "KAWAII0503202021182",
    "count_view": 0
  },
  {
    "link_thumb": "https://live.staticflickr.com/65535/49727754967_b6db8d013b_n.jpg",
    "id_album": "-316663319",
    "description": "KAWAII020420194513195",
    "title": "KAWAII020420194513195",
    "link_img": "https://live.staticflickr.com/65535/49727754967_d66f53f51c_o.jpg",
    "id_image": "KAWAII020420194513195",
    "count_view": 0
  },
  {
    "link_thumb": "https://live.staticflickr.com/65535/49694393502_2237f4da4a_n.jpg",
    "id_album": "1201366373",
    "description": "KAWAII120918208",
    "title": "KAWAII120918208",
    "link_img": "https://live.staticflickr.com/65535/49694393502_4971805d9e_o.jpg",
    "id_image": "KAWAII120918208",
    "count_view": 0
  },
  {
    "link_thumb": "https://live.staticflickr.com/65535/49726883488_df1a893e67_n.jpg",
    "id_album": "-1497779911",
    "description": "KAWAII050320202111",
    "title": "KAWAII050320202111",
    "link_img": "https://live.staticflickr.com/65535/49726883488_252a961326_o.jpg",
    "id_image": "KAWAII050320202111",
    "count_view": 0
  },
  {
    "link_thumb": "https://live.staticflickr.com/65535/49548691371_51bb8f0b89_n.jpg",
    "id_album": "-422187261",
    "description": "KAWAII1702202237343",
    "title": "KAWAII1702202237343",
    "link_img": "https://live.staticflickr.com/65535/49548691371_9f31a66f3c_o.jpg",
    "id_image": "KAWAII1702202237343",
    "count_view": 0
  },
  {
    "link_thumb": "https://live.staticflickr.com/65535/49622831141_40b5253569_n.jpg",
    "id_album": "-1694302085",
    "description": "KAWAII050320202130",
    "title": "KAWAII050320202130",
    "link_img": "https://live.staticflickr.com/65535/49622831141_39b6005f93_o.jpg",
    "id_image": "KAWAII050320202130",
    "count_view": 0
  },
  {
    "link_thumb": "https://live.staticflickr.com/65535/49742935991_5706ce237f_n.jpg",
    "id_album": "-1473448477",
    "description": "KAWAII060420214915181",
    "title": "KAWAII060420214915181",
    "link_img": "https://live.staticflickr.com/65535/49742935991_5bf8ff0426_o.jpg",
    "id_image": "KAWAII060420214915181",
    "count_view": 0
  },
  {
    "link_thumb": "https://live.staticflickr.com/65535/49622288518_cd3af19a45_n.jpg",
    "id_album": "1396902986",
    "description": "KAWAII0503202021279",
    "title": "KAWAII0503202021279",
    "link_img": "https://live.staticflickr.com/65535/49622288518_572274970f_o.jpg",
    "id_image": "KAWAII0503202021279",
    "count_view": 0
  },
  {
    "link_thumb": "https://live.staticflickr.com/65535/49726920928_8f0623c8c0_n.jpg",
    "id_album": "-1862561193",
    "description": "KAWAII020420194511103",
    "title": "KAWAII020420194511103",
    "link_img": "https://live.staticflickr.com/65535/49726920928_c2143503dd_o.jpg",
    "id_image": "KAWAII020420194511103",
    "count_view": 0
  },
  {
    "link_thumb": "https://live.staticflickr.com/65535/49548910507_30b6984d2f_n.jpg",
    "id_album": "-316663319",
    "description": "KAWAII1702202236304",
    "title": "KAWAII1702202236304",
    "link_img": "https://live.staticflickr.com/65535/49548910507_619db8d005_o.jpg",
    "id_image": "KAWAII1702202236304",
    "count_view": 0
  },
  {
    "link_thumb": "https://live.staticflickr.com/65535/49710287883_19daf63cf2_n.jpg",
    "id_album": "-1599896063",
    "description": "LITTLEMONK29032012063815",
    "title": "LITTLEMONK29032012063815",
    "link_img": "https://live.staticflickr.com/65535/49710287883_d03d1d9a6c_o.jpg",
    "id_image": "LITTLEMONK29032012063815",
    "count_view": 0
  },
  {
    "link_thumb": "https://live.staticflickr.com/65535/49548920732_dbf562708f_n.jpg",
    "id_album": "-316663319",
    "description": "KAWAII1702202237350",
    "title": "KAWAII1702202237350",
    "link_img": "https://live.staticflickr.com/65535/49548920732_fe967a6dd2_o.jpg",
    "id_image": "KAWAII1702202237350",
    "count_view": 0
  },
  {
    "link_thumb": "https://live.staticflickr.com/65535/49693576813_fc78654c31_n.jpg",
    "id_album": "-643980979",
    "description": "KAWAII17091841",
    "title": "KAWAII17091841",
    "link_img": "https://live.staticflickr.com/65535/49693576813_88f55eb0eb_o.jpg",
    "id_image": "KAWAII17091841",
    "count_view": 0
  },
  {
    "link_thumb": "https://live.staticflickr.com/65535/49623078737_e12156ab87_n.jpg",
    "id_album": "-1432180061",
    "description": "KAWAII0503202021159",
    "title": "KAWAII0503202021159",
    "link_img": "https://live.staticflickr.com/65535/49623078737_ee4fde345c_o.jpg",
    "id_image": "KAWAII0503202021159",
    "count_view": 0
  },
  {
    "link_thumb": "https://live.staticflickr.com/65535/49623106012_72c5b795af_n.jpg",
    "id_album": "-316663319",
    "description": "KAWAII0503202021329",
    "title": "KAWAII0503202021329",
    "link_img": "https://live.staticflickr.com/65535/49623106012_690d803bf8_o.jpg",
    "id_image": "KAWAII0503202021329",
    "count_view": 0
  },
  {
    "link_thumb": "https://live.staticflickr.com/65535/49727739842_08815b2b29_n.jpg",
    "id_album": "-1694302085",
    "description": "KAWAII02042019450876",
    "title": "KAWAII02042019450876",
    "link_img": "https://live.staticflickr.com/65535/49727739842_d9ba38723e_o.jpg",
    "id_image": "KAWAII02042019450876",
    "count_view": 0
  },
  {
    "link_thumb": "https://live.staticflickr.com/65535/49694404262_22983f7e5e_n.jpg",
    "id_album": "1201366373",
    "description": "KAWAII12091845",
    "title": "KAWAII12091845",
    "link_img": "https://live.staticflickr.com/65535/49694404262_a9eb8c4e27_o.jpg",
    "id_image": "KAWAII12091845",
    "count_view": 0
  },
  {
    "link_thumb": "https://live.staticflickr.com/65535/49548742611_b5332b7a92_n.jpg",
    "id_album": "1396902986",
    "description": "KAWAII1702202239539",
    "title": "KAWAII1702202239539",
    "link_img": "https://live.staticflickr.com/65535/49548742611_78c0a19566_o.jpg",
    "id_image": "KAWAII1702202239539",
    "count_view": 0
  },
  {
    "link_thumb": "https://live.staticflickr.com/65535/49694078471_063ecc0884_n.jpg",
    "id_album": "-643980979",
    "description": "KAWAII050320202177",
    "title": "KAWAII050320202177",
    "link_img": "https://live.staticflickr.com/65535/49694078471_c5ebb44ffc_o.jpg",
    "id_image": "KAWAII050320202177",
    "count_view": 0
  },
  {
    "link_thumb": "https://live.staticflickr.com/65535/49727737932_3fbcaebfff_n.jpg",
    "id_album": "-1694302085",
    "description": "KAWAII02042019450764",
    "title": "KAWAII02042019450764",
    "link_img": "https://live.staticflickr.com/65535/49727737932_45dd1fb080_o.jpg",
    "id_image": "KAWAII02042019450764",
    "count_view": 0
  },
  {
    "link_thumb": "https://live.staticflickr.com/65535/49742944306_1e3a76d28c_n.jpg",
    "id_album": "-1779286820",
    "description": "KAWAII060420214915255",
    "title": "KAWAII060420214915255",
    "link_img": "https://live.staticflickr.com/65535/49742944306_e0b574dd6a_o.jpg",
    "id_image": "KAWAII060420214915255",
    "count_view": 0
  },
  {
    "link_thumb": "https://live.staticflickr.com/65535/49694400712_56391747d5_n.jpg",
    "id_album": "1201366373",
    "description": "KAWAII120918277",
    "title": "KAWAII120918277",
    "link_img": "https://live.staticflickr.com/65535/49694400712_8c7d1ee6bb_o.jpg",
    "id_image": "KAWAII120918277",
    "count_view": 0
  },
  {
    "link_thumb": "https://live.staticflickr.com/65535/49710288953_ba29a3541c_n.jpg",
    "id_album": "-1599896063",
    "description": "LITTLEMONK29032012064114",
    "title": "LITTLEMONK29032012064114",
    "link_img": "https://live.staticflickr.com/65535/49710288953_ca837aaca3_o.jpg",
    "id_image": "LITTLEMONK29032012064114",
    "count_view": 0
  },
  {
    "link_thumb": "https://live.staticflickr.com/65535/49727433841_c762cbbf94_n.jpg",
    "id_album": "-1497779911",
    "description": "KAWAII120918354",
    "title": "KAWAII120918354",
    "link_img": "https://live.staticflickr.com/65535/49727433841_784ef85c23_o.jpg",
    "id_image": "KAWAII120918354",
    "count_view": 0
  },
  {
    "link_thumb": "https://live.staticflickr.com/65535/49592207698_9b9319dfcf_n.jpg",
    "id_album": "-1741487325",
    "description": "KAWAII1702202238422",
    "title": "KAWAII1702202238422",
    "link_img": "https://live.staticflickr.com/65535/49592207698_6744df8991_o.jpg",
    "id_image": "KAWAII1702202238422",
    "count_view": 0
  },
  {
    "link_thumb": "https://live.staticflickr.com/65535/49548704591_00653c5e83_n.jpg",
    "id_album": "-1741487325",
    "description": "KAWAII1702202237397",
    "title": "KAWAII1702202237397",
    "link_img": "https://live.staticflickr.com/65535/49548704591_e08e358b04_o.jpg",
    "id_image": "KAWAII1702202237397",
    "count_view": 0
  },
  {
    "link_thumb": "https://live.staticflickr.com/65535/49742354563_11e3dbd821_n.jpg",
    "id_album": "-1913845949",
    "description": "KAWAII060420214914316",
    "title": "KAWAII060420214914316",
    "link_img": "https://live.staticflickr.com/65535/49742354563_6ec665346f_o.jpg",
    "id_image": "KAWAII060420214914316",
    "count_view": 0
  },
  {
    "link_thumb": "https://live.staticflickr.com/65535/49548925197_9c7158b9c0_n.jpg",
    "id_album": "-316663319",
    "description": "KAWAII1702202237368",
    "title": "KAWAII1702202237368",
    "link_img": "https://live.staticflickr.com/65535/49548925197_f0ba9aa5b0_o.jpg",
    "id_image": "KAWAII1702202237368",
    "count_view": 0
  },
  {
    "link_thumb": "https://live.staticflickr.com/65535/49694082046_dc59a22f03_n.jpg",
    "id_album": "1201366373",
    "description": "KAWAII120918115",
    "title": "KAWAII120918115",
    "link_img": "https://live.staticflickr.com/65535/49694082046_3132ff6942_o.jpg",
    "id_image": "KAWAII120918115",
    "count_view": 0
  },
  {
    "link_thumb": "https://live.staticflickr.com/65535/49742915231_bdcaf55483_n.jpg",
    "id_album": "-1497779911",
    "description": "KAWAII06042021491499",
    "title": "KAWAII06042021491499",
    "link_img": "https://live.staticflickr.com/65535/49742915231_530e7591da_o.jpg",
    "id_image": "KAWAII06042021491499",
    "count_view": 0
  },
  {
    "link_thumb": "https://live.staticflickr.com/65535/49623120682_9dbee26f80_n.jpg",
    "id_album": "-406350429",
    "description": "KAWAII0503202021316",
    "title": "KAWAII0503202021316",
    "link_img": "https://live.staticflickr.com/65535/49623120682_b6db381ece_o.jpg",
    "id_image": "KAWAII0503202021316",
    "count_view": 0
  },
  {
    "link_thumb": "https://live.staticflickr.com/65535/49622827431_3bd790c494_n.jpg",
    "id_album": "-316663319",
    "description": "KAWAII0503202021249",
    "title": "KAWAII0503202021249",
    "link_img": "https://live.staticflickr.com/65535/49622827431_1ff409f254_o.jpg",
    "id_image": "KAWAII0503202021249",
    "count_view": 0
  },
  {
    "link_thumb": "https://live.staticflickr.com/65535/49727765847_fe43354fea_n.jpg",
    "id_album": "742877173",
    "description": "KAWAII02042019451329",
    "title": "KAWAII02042019451329",
    "link_img": "https://live.staticflickr.com/65535/49727765847_9eb8ddd9dd_o.jpg",
    "id_image": "KAWAII02042019451329",
    "count_view": 0
  },
  {
    "link_thumb": "https://live.staticflickr.com/65535/49694403987_5acbf63a32_n.jpg",
    "id_album": "1201366373",
    "description": "KAWAII12091840",
    "title": "KAWAII12091840",
    "link_img": "https://live.staticflickr.com/65535/49694403987_397fa540d5_o.jpg",
    "id_image": "KAWAII12091840",
    "count_view": 0
  },
  {
    "link_thumb": "https://live.staticflickr.com/65535/49727785262_9a8665653b_n.jpg",
    "id_album": "-1862561193",
    "description": "KAWAII02042019451214",
    "title": "KAWAII02042019451214",
    "link_img": "https://live.staticflickr.com/65535/49727785262_cc3eae3fff_o.jpg",
    "id_image": "KAWAII02042019451214",
    "count_view": 0
  },
  {
    "link_thumb": "https://live.staticflickr.com/65535/49693563548_d1c224b6c8_n.jpg",
    "id_album": "-643980979",
    "description": "KAWAII1702202234115",
    "title": "KAWAII1702202234115",
    "link_img": "https://live.staticflickr.com/65535/49693563548_740cbf81fc_o.jpg",
    "id_image": "KAWAII1702202234115",
    "count_view": 0
  },
  {
    "link_thumb": "https://live.staticflickr.com/65535/49622846336_e8cc892781_n.jpg",
    "id_album": "-406350429",
    "description": "KAWAII0503202021253",
    "title": "KAWAII0503202021253",
    "link_img": "https://live.staticflickr.com/65535/49622846336_ace7b84e37_o.jpg",
    "id_image": "KAWAII0503202021253",
    "count_view": 0
  },
  {
    "link_thumb": "https://live.staticflickr.com/65535/49578243278_d8c625fc7d_n.jpg",
    "id_album": "-316663319",
    "description": "KAWAII190220211111",
    "title": "KAWAII190220211111",
    "link_img": "https://live.staticflickr.com/65535/49578243278_5f54ec2737_o.jpg",
    "id_image": "KAWAII190220211111",
    "count_view": 0
  },
  {
    "link_thumb": "https://live.staticflickr.com/65535/49694405537_4e31a2246e_n.jpg",
    "id_album": "1201366373",
    "description": "KAWAII12091861",
    "title": "KAWAII12091861",
    "link_img": "https://live.staticflickr.com/65535/49694405537_f1c5d561c6_o.jpg",
    "id_image": "KAWAII12091861",
    "count_view": 0
  },
  {
    "link_thumb": "https://live.staticflickr.com/65535/49727471611_58cc6cbf82_n.jpg",
    "id_album": "-1862561193",
    "description": "KAWAII02042019451248",
    "title": "KAWAII02042019451248",
    "link_img": "https://live.staticflickr.com/65535/49727471611_e695fa35a5_o.jpg",
    "id_image": "KAWAII02042019451248",
    "count_view": 0
  },
  {
    "link_thumb": "https://live.staticflickr.com/65535/49727765507_72ed327b7e_n.jpg",
    "id_album": "742877173",
    "description": "KAWAII020420194513228",
    "title": "KAWAII020420194513228",
    "link_img": "https://live.staticflickr.com/65535/49727765507_ef2e736a73_o.jpg",
    "id_image": "KAWAII020420194513228",
    "count_view": 0
  },
  {
    "link_thumb": "https://live.staticflickr.com/65535/49592720141_be59d30f5f_n.jpg",
    "id_album": "-316663319",
    "description": "KAWAII270220235184",
    "title": "KAWAII270220235184",
    "link_img": "https://live.staticflickr.com/65535/49592720141_398f2513cf_o.jpg",
    "id_image": "KAWAII270220235184",
    "count_view": 0
  },
  {
    "link_thumb": "https://live.staticflickr.com/65535/49622806061_acc7361557_n.jpg",
    "id_album": "-1741487325",
    "description": "KAWAII0503202021132",
    "title": "KAWAII0503202021132",
    "link_img": "https://live.staticflickr.com/65535/49622806061_f780ea6420_o.jpg",
    "id_image": "KAWAII0503202021132",
    "count_view": 0
  },
  {
    "link_thumb": "https://live.staticflickr.com/65535/49694392237_a898db2aed_n.jpg",
    "id_album": "1201366373",
    "description": "KAWAII120918197",
    "title": "KAWAII120918197",
    "link_img": "https://live.staticflickr.com/65535/49694392237_749440c1a6_o.jpg",
    "id_image": "KAWAII120918197",
    "count_view": 0
  },
  {
    "link_thumb": "https://live.staticflickr.com/65535/49727446571_6d5ef95546_n.jpg",
    "id_album": "742877173",
    "description": "KAWAII020420194510178",
    "title": "KAWAII020420194510178",
    "link_img": "https://live.staticflickr.com/65535/49727446571_1345738e04_o.jpg",
    "id_image": "KAWAII020420194510178",
    "count_view": 0
  },
  {
    "link_thumb": "https://live.staticflickr.com/65535/49694423752_6f90b793a7_n.jpg",
    "id_album": "-643980979",
    "description": "KAWAII2702202351148",
    "title": "KAWAII2702202351148",
    "link_img": "https://live.staticflickr.com/65535/49694423752_47092cfd73_o.jpg",
    "id_image": "KAWAII2702202351148",
    "count_view": 0
  },
  {
    "link_thumb": "https://live.staticflickr.com/65535/49592225723_8efd54fe30_n.jpg",
    "id_album": "949200594",
    "description": "KAWAII2702202351100",
    "title": "KAWAII2702202351100",
    "link_img": "https://live.staticflickr.com/65535/49592225723_39372012f5_o.jpg",
    "id_image": "KAWAII2702202351100",
    "count_view": 0
  },
  {
    "link_thumb": "https://live.staticflickr.com/65535/49548151138_9df7836e63_n.jpg",
    "id_album": "-316663319",
    "description": "KAWAII1702202235152",
    "title": "KAWAII1702202235152",
    "link_img": "https://live.staticflickr.com/65535/49548151138_c7aef7d8ff_o.jpg",
    "id_image": "KAWAII1702202235152",
    "count_view": 0
  },
  {
    "link_thumb": "https://live.staticflickr.com/65535/49693548158_722aeebe32_n.jpg",
    "id_album": "1201366373",
    "description": "KAWAII120918215",
    "title": "KAWAII120918215",
    "link_img": "https://live.staticflickr.com/65535/49693548158_be2525a8f3_o.jpg",
    "id_image": "KAWAII120918215",
    "count_view": 0
  },
  {
    "link_thumb": "https://live.staticflickr.com/65535/49727435976_03176ff0bd_n.jpg",
    "id_album": "-316663319",
    "description": "KAWAII020420194508221",
    "title": "KAWAII020420194508221",
    "link_img": "https://live.staticflickr.com/65535/49727435976_16b7147849_o.jpg",
    "id_image": "KAWAII020420194508221",
    "count_view": 0
  },
  {
    "link_thumb": "https://live.staticflickr.com/65535/49743229022_18f1dffec0_n.jpg",
    "id_album": "-1913845949",
    "description": "KAWAII060420214918319",
    "title": "KAWAII060420214918319",
    "link_img": "https://live.staticflickr.com/65535/49743229022_a755296381_o.jpg",
    "id_image": "KAWAII060420214918319",
    "count_view": 0
  },
  {
    "link_thumb": "https://live.staticflickr.com/65535/49592949207_93c1c45ca6_n.jpg",
    "id_album": "1396902986",
    "description": "KAWAII270220235112",
    "title": "KAWAII270220235112",
    "link_img": "https://live.staticflickr.com/65535/49592949207_31871f09e2_o.jpg",
    "id_image": "KAWAII270220235112",
    "count_view": 0
  },
  {
    "link_thumb": "https://live.staticflickr.com/65535/49743247877_3868e1f44c_n.jpg",
    "id_album": "-316663319",
    "description": "KAWAII060420214913169",
    "title": "KAWAII060420214913169",
    "link_img": "https://live.staticflickr.com/65535/49743247877_8f7720baea_o.jpg",
    "id_image": "KAWAII060420214913169",
    "count_view": 0
  },
  {
    "link_thumb": "https://live.staticflickr.com/65535/49592948717_ca9e5f330c_n.jpg",
    "id_album": "1396902986",
    "description": "KAWAII2702202351105",
    "title": "KAWAII2702202351105",
    "link_img": "https://live.staticflickr.com/65535/49592948717_92bdf1a7c9_o.jpg",
    "id_image": "KAWAII2702202351105",
    "count_view": 0
  },
  {
    "link_thumb": "https://live.staticflickr.com/65535/49726885053_9ea365cccc_n.jpg",
    "id_album": "-1497779911",
    "description": "KAWAII050320202141",
    "title": "KAWAII050320202141",
    "link_img": "https://live.staticflickr.com/65535/49726885053_fe748f8203_o.jpg",
    "id_image": "KAWAII050320202141",
    "count_view": 0
  },
  {
    "link_thumb": "https://live.staticflickr.com/65535/49552021163_d9561b31fa_n.jpg",
    "id_album": "-1694302085",
    "description": "KAWAII12091825180220205918",
    "title": "KAWAII12091825180220205918",
    "link_img": "https://live.staticflickr.com/65535/49552021163_bde41e67f8_o.jpg",
    "id_image": "KAWAII12091825180220205918",
    "count_view": 0
  },
  {
    "link_thumb": "https://live.staticflickr.com/65535/49548855947_8c9910ab67_n.jpg",
    "id_album": "-422187261",
    "description": "KAWAII17022022334",
    "title": "KAWAII17022022334",
    "link_img": "https://live.staticflickr.com/65535/49548855947_5c2e8a1189_o.jpg",
    "id_image": "KAWAII17022022334",
    "count_view": 0
  },
  {
    "link_thumb": "https://live.staticflickr.com/65535/49622285663_33e9e60699_n.jpg",
    "id_album": "1396902986",
    "description": "KAWAII0503202021200",
    "title": "KAWAII0503202021200",
    "link_img": "https://live.staticflickr.com/65535/49622285663_9bb454601f_o.jpg",
    "id_image": "KAWAII0503202021200",
    "count_view": 0
  },
  {
    "link_thumb": "https://live.staticflickr.com/65535/49548247368_c984c30ec9_n.jpg",
    "id_album": "1396902986",
    "description": "KAWAII1702202239560",
    "title": "KAWAII1702202239560",
    "link_img": "https://live.staticflickr.com/65535/49548247368_84baf8d586_o.jpg",
    "id_image": "KAWAII1702202239560",
    "count_view": 0
  },
  {
    "link_thumb": "https://live.staticflickr.com/65535/49693525448_a81c777647_n.jpg",
    "id_album": "416744915",
    "description": "KAWAII1702202238408",
    "title": "KAWAII1702202238408",
    "link_img": "https://live.staticflickr.com/65535/49693525448_3ba600859d_o.jpg",
    "id_image": "KAWAII1702202238408",
    "count_view": 0
  },
  {
    "link_thumb": "https://live.staticflickr.com/65535/49726885228_f3551204a1_n.jpg",
    "id_album": "-1497779911",
    "description": "KAWAII050320202164",
    "title": "KAWAII050320202164",
    "link_img": "https://live.staticflickr.com/65535/49726885228_3207863863_o.jpg",
    "id_image": "KAWAII050320202164",
    "count_view": 0
  },
  {
    "link_thumb": "https://live.staticflickr.com/65535/49693532508_04ee857034_n.jpg",
    "id_album": "-643980979",
    "description": "KAWAII050320202148",
    "title": "KAWAII050320202148",
    "link_img": "https://live.staticflickr.com/65535/49693532508_b26d148096_o.jpg",
    "id_image": "KAWAII050320202148",
    "count_view": 0
  },
  {
    "link_thumb": "https://live.staticflickr.com/65535/49548214718_71dbf76d31_n.jpg",
    "id_album": "-1099943053",
    "description": "KAWAII1702202238437",
    "title": "KAWAII1702202238437",
    "link_img": "https://live.staticflickr.com/65535/49548214718_d4af29ef99_o.jpg",
    "id_image": "KAWAII1702202238437",
    "count_view": 0
  },
  {
    "link_thumb": "https://live.staticflickr.com/65535/49726878558_b8a8b44afd_n.jpg",
    "id_album": "-1694302085",
    "description": "KAWAII0503202021156",
    "title": "KAWAII0503202021156",
    "link_img": "https://live.staticflickr.com/65535/49726878558_27c639290a_o.jpg",
    "id_image": "KAWAII0503202021156",
    "count_view": 0
  },
  {
    "link_thumb": "https://live.staticflickr.com/65535/49726889313_269c56d408_n.jpg",
    "id_album": "-316663319",
    "description": "KAWAII02042019451011",
    "title": "KAWAII02042019451011",
    "link_img": "https://live.staticflickr.com/65535/49726889313_5411c0b820_o.jpg",
    "id_image": "KAWAII02042019451011",
    "count_view": 0
  },
  {
    "link_thumb": "https://live.staticflickr.com/65535/49743224367_4843c13df6_n.jpg",
    "id_album": "-1913845949",
    "description": "KAWAII060420214912296",
    "title": "KAWAII060420214912296",
    "link_img": "https://live.staticflickr.com/65535/49743224367_699fd6fe3e_o.jpg",
    "id_image": "KAWAII060420214912296",
    "count_view": 0
  },
  {
    "link_thumb": "https://live.staticflickr.com/65535/49727761752_c968d433f3_n.jpg",
    "id_album": "742877173",
    "description": "KAWAII02042019451113",
    "title": "KAWAII02042019451113",
    "link_img": "https://live.staticflickr.com/65535/49727761752_441f8fa031_o.jpg",
    "id_image": "KAWAII02042019451113",
    "count_view": 0
  },
  {
    "link_thumb": "https://live.staticflickr.com/65535/49693533688_979bdb70bd_n.jpg",
    "id_album": "-643980979",
    "description": "KAWAII050320202171",
    "title": "KAWAII050320202171",
    "link_img": "https://live.staticflickr.com/65535/49693533688_c03a871960_o.jpg",
    "id_image": "KAWAII050320202171",
    "count_view": 0
  },
  {
    "link_thumb": "https://live.staticflickr.com/65535/49578975347_2b3fc70b48_n.jpg",
    "id_album": "-1741487325",
    "description": "KAWAII190220211130",
    "title": "KAWAII190220211130",
    "link_img": "https://live.staticflickr.com/65535/49578975347_ba688e51c1_o.jpg",
    "id_image": "KAWAII190220211130",
    "count_view": 0
  },
  {
    "link_thumb": "https://live.staticflickr.com/65535/49623091427_8ecb0dc677_n.jpg",
    "id_album": "-316663319",
    "description": "KAWAII0503202021173",
    "title": "KAWAII0503202021173",
    "link_img": "https://live.staticflickr.com/65535/49623091427_08332a44e9_o.jpg",
    "id_image": "KAWAII0503202021173",
    "count_view": 0
  },
  {
    "link_thumb": "https://live.staticflickr.com/65535/49552757127_65080a2967_n.jpg",
    "id_album": "-1694302085",
    "description": "KAWAII12091825180220205921",
    "title": "KAWAII12091825180220205921",
    "link_img": "https://live.staticflickr.com/65535/49552757127_aebd87c41d_o.jpg",
    "id_image": "KAWAII12091825180220205921",
    "count_view": 0
  },
  {
    "link_thumb": "https://live.staticflickr.com/65535/49548967697_e68f770f65_n.jpg",
    "id_album": "-1431786825",
    "description": "KAWAII1702202239532",
    "title": "KAWAII1702202239532",
    "link_img": "https://live.staticflickr.com/65535/49548967697_e81a4b715a_o.jpg",
    "id_image": "KAWAII1702202239532",
    "count_view": 0
  },
  {
    "link_thumb": "https://live.staticflickr.com/65535/49548106158_d03a1ba093_n.jpg",
    "id_album": "-1741487325",
    "description": "KAWAII120918372",
    "title": "KAWAII120918372",
    "link_img": "https://live.staticflickr.com/65535/49548106158_77f555b9e7_o.jpg",
    "id_image": "KAWAII120918372",
    "count_view": 0
  },
  {
    "link_thumb": "https://live.staticflickr.com/65535/49694522597_cbc78edf6a_n.jpg",
    "id_album": "-643980979",
    "description": "KAWAII2403202205023",
    "title": "KAWAII2403202205023",
    "link_img": "https://live.staticflickr.com/65535/49694522597_72b3d5a0b8_o.jpg",
    "id_image": "KAWAII2403202205023",
    "count_view": 0
  },
  {
    "link_thumb": "https://live.staticflickr.com/65535/49548661171_80dc43847e_n.jpg",
    "id_album": "-1431786825",
    "description": "KAWAII1702202235194",
    "title": "KAWAII1702202235194",
    "link_img": "https://live.staticflickr.com/65535/49548661171_d8e0c4fa0a_o.jpg",
    "id_image": "KAWAII1702202235194",
    "count_view": 0
  },
  {
    "link_thumb": "https://live.staticflickr.com/65535/49693567538_cf1f40e282_n.jpg",
    "id_album": "-643980979",
    "description": "KAWAII1702202236291",
    "title": "KAWAII1702202236291",
    "link_img": "https://live.staticflickr.com/65535/49693567538_534a3fa332_o.jpg",
    "id_image": "KAWAII1702202236291",
    "count_view": 0
  },
  {
    "link_thumb": "https://live.staticflickr.com/65535/49592961752_8a46053810_n.jpg",
    "id_album": "-316663319",
    "description": "KAWAII270220235165",
    "title": "KAWAII270220235165",
    "link_img": "https://live.staticflickr.com/65535/49592961752_f7ab543b0a_o.jpg",
    "id_image": "KAWAII270220235165",
    "count_view": 0
  },
  {
    "link_thumb": "https://live.staticflickr.com/65535/49694396762_e664b34e90_n.jpg",
    "id_album": "1201366373",
    "description": "KAWAII120918244",
    "title": "KAWAII120918244",
    "link_img": "https://live.staticflickr.com/65535/49694396762_f82715b938_o.jpg",
    "id_image": "KAWAII120918244",
    "count_view": 0
  },
  {
    "link_thumb": "https://live.staticflickr.com/65535/49693675653_0e7fd4a63e_n.jpg",
    "id_album": "-643980979",
    "description": "KAWAII24032022050223",
    "title": "KAWAII24032022050223",
    "link_img": "https://live.staticflickr.com/65535/49693675653_c3fa1e43ba_o.jpg",
    "id_image": "KAWAII24032022050223",
    "count_view": 0
  },
  {
    "link_thumb": "https://live.staticflickr.com/65535/49693568638_859062b459_n.jpg",
    "id_album": "1201366373",
    "description": "KAWAII1702202237389",
    "title": "KAWAII1702202237389",
    "link_img": "https://live.staticflickr.com/65535/49693568638_23620a4415_o.jpg",
    "id_image": "KAWAII1702202237389",
    "count_view": 0
  },
  {
    "link_thumb": "https://live.staticflickr.com/65535/49694393827_79181ed563_n.jpg",
    "id_album": "-643980979",
    "description": "KAWAII120918210",
    "title": "KAWAII120918210",
    "link_img": "https://live.staticflickr.com/65535/49694393827_2b14e6a69c_o.jpg",
    "id_image": "KAWAII120918210",
    "count_view": 0
  },
  {
    "link_thumb": "https://live.staticflickr.com/65535/49548844797_7ca96dfa33_n.jpg",
    "id_album": "-1694302085",
    "description": "KAWAII12091876",
    "title": "KAWAII12091876",
    "link_img": "https://live.staticflickr.com/65535/49548844797_a2d51ebe21_o.jpg",
    "id_image": "KAWAII12091876",
    "count_view": 0
  },
  {
    "link_thumb": "https://live.staticflickr.com/65535/49622333383_66149eb52f_n.jpg",
    "id_album": "-406350429",
    "description": "KAWAII0503202021309",
    "title": "KAWAII0503202021309",
    "link_img": "https://live.staticflickr.com/65535/49622333383_b5ce7cf8e8_o.jpg",
    "id_image": "KAWAII0503202021309",
    "count_view": 0
  },
  {
    "link_thumb": "https://live.staticflickr.com/65535/49548667946_8886f00704_n.jpg",
    "id_album": "-422187261",
    "description": "KAWAII1702202236227",
    "title": "KAWAII1702202236227",
    "link_img": "https://live.staticflickr.com/65535/49548667946_abc94f15f7_o.jpg",
    "id_image": "KAWAII1702202236227",
    "count_view": 0
  },
  {
    "link_thumb": "https://live.staticflickr.com/65535/49694409247_2b7c1a4244_n.jpg",
    "id_album": "1201366373",
    "description": "KAWAII170220223438",
    "title": "KAWAII170220223438",
    "link_img": "https://live.staticflickr.com/65535/49694409247_68cb656fae_o.jpg",
    "id_image": "KAWAII170220223438",
    "count_view": 0
  },
  {
    "link_thumb": "https://live.staticflickr.com/65535/49743259907_59f31bfa3e_n.jpg",
    "id_album": "-1473448477",
    "description": "KAWAII060420214915206",
    "title": "KAWAII060420214915206",
    "link_img": "https://live.staticflickr.com/65535/49743259907_c31226ddb4_o.jpg",
    "id_image": "KAWAII060420214915206",
    "count_view": 0
  },
  {
    "link_thumb": "https://live.staticflickr.com/65535/49548991617_4db3ec9d8e_n.jpg",
    "id_album": "-422187261",
    "description": "KAWAII17091824",
    "title": "KAWAII17091824",
    "link_img": "https://live.staticflickr.com/65535/49548991617_f9fd738220_o.jpg",
    "id_image": "KAWAII17091824",
    "count_view": 0
  },
  {
    "link_thumb": "https://live.staticflickr.com/65535/49548553491_8957418aa9_n.jpg",
    "id_album": "-316663319",
    "description": "KAWAII120918136",
    "title": "KAWAII120918136",
    "link_img": "https://live.staticflickr.com/65535/49548553491_7069863d97_o.jpg",
    "id_image": "KAWAII120918136",
    "count_view": 0
  },
  {
    "link_thumb": "https://live.staticflickr.com/65535/49694422952_3e4b1fe084_n.jpg",
    "id_album": "-643980979",
    "description": "KAWAII190220211136",
    "title": "KAWAII190220211136",
    "link_img": "https://live.staticflickr.com/65535/49694422952_84233e920a_o.jpg",
    "id_image": "KAWAII190220211136",
    "count_view": 0
  },
  {
    "link_thumb": "https://live.staticflickr.com/65535/49742928076_aa5cc0962e_n.jpg",
    "id_album": "-316663319",
    "description": "KAWAII060420214915218",
    "title": "KAWAII060420214915218",
    "link_img": "https://live.staticflickr.com/65535/49742928076_9374722011_o.jpg",
    "id_image": "KAWAII060420214915218",
    "count_view": 0
  },
  {
    "link_thumb": "https://live.staticflickr.com/65535/49693580228_5013bfae93_n.jpg",
    "id_album": "-643980979",
    "description": "KAWAII270220235186",
    "title": "KAWAII270220235186",
    "link_img": "https://live.staticflickr.com/65535/49693580228_8613ee9d35_o.jpg",
    "id_image": "KAWAII270220235186",
    "count_view": 0
  },
  {
    "link_thumb": "https://live.staticflickr.com/65535/49742403943_8f329e56f9_n.jpg",
    "id_album": "-1862561193",
    "description": "KAWAII0604202149145",
    "title": "KAWAII0604202149145",
    "link_img": "https://live.staticflickr.com/65535/49742403943_b30a019b05_o.jpg",
    "id_image": "KAWAII0604202149145",
    "count_view": 0
  },
  {
    "link_thumb": "https://live.staticflickr.com/65535/49622323933_8aec11e413_n.jpg",
    "id_album": "-316663319",
    "description": "KAWAII050320202162",
    "title": "KAWAII050320202162",
    "link_img": "https://live.staticflickr.com/65535/49622323933_2654154e7e_o.jpg",
    "id_image": "KAWAII050320202162",
    "count_view": 0
  },
  {
    "link_thumb": "https://live.staticflickr.com/65535/49623111612_2598b0db04_n.jpg",
    "id_album": "-316663319",
    "description": "KAWAII050320202183",
    "title": "KAWAII050320202183",
    "link_img": "https://live.staticflickr.com/65535/49623111612_bd0136d113_o.jpg",
    "id_image": "KAWAII050320202183",
    "count_view": 0
  },
  {
    "link_thumb": "https://live.staticflickr.com/65535/49726920378_5fe622b19f_n.jpg",
    "id_album": "-1862561193",
    "description": "KAWAII02042019450970",
    "title": "KAWAII02042019450970",
    "link_img": "https://live.staticflickr.com/65535/49726920378_b7e012f436_o.jpg",
    "id_image": "KAWAII02042019450970",
    "count_view": 0
  },
  {
    "link_thumb": "https://live.staticflickr.com/65535/49742356873_a75b1528ac_n.jpg",
    "id_album": "-1913845949",
    "description": "KAWAII06042021491565",
    "title": "KAWAII06042021491565",
    "link_img": "https://live.staticflickr.com/65535/49742356873_ab7a02cb9b_o.jpg",
    "id_image": "KAWAII06042021491565",
    "count_view": 0
  },
  {
    "link_thumb": "https://live.staticflickr.com/65535/49548739296_296dbcea52_n.jpg",
    "id_album": "-422187261",
    "description": "KAWAII1702202239526",
    "title": "KAWAII1702202239526",
    "link_img": "https://live.staticflickr.com/65535/49548739296_6725352ecb_o.jpg",
    "id_image": "KAWAII1702202239526",
    "count_view": 0
  },
  {
    "link_thumb": "https://live.staticflickr.com/65535/49623111392_2edd4c3b04_n.jpg",
    "id_album": "-316663319",
    "description": "KAWAII05032020217",
    "title": "KAWAII05032020217",
    "link_img": "https://live.staticflickr.com/65535/49623111392_dbff49ae1f_o.jpg",
    "id_image": "KAWAII05032020217",
    "count_view": 0
  },
  {
    "link_thumb": "https://live.staticflickr.com/65535/49548824417_efffec8b98_n.jpg",
    "id_album": "-1741487325",
    "description": "KAWAII120918328",
    "title": "KAWAII120918328",
    "link_img": "https://live.staticflickr.com/65535/49548824417_a9b7e9303d_o.jpg",
    "id_image": "KAWAII120918328",
    "count_view": 0
  },
  {
    "link_thumb": "https://live.staticflickr.com/65535/49727437436_c6c1274a44_n.jpg",
    "id_album": "-316663319",
    "description": "KAWAII020420194510260",
    "title": "KAWAII020420194510260",
    "link_img": "https://live.staticflickr.com/65535/49727437436_fdae47b3bc_o.jpg",
    "id_image": "KAWAII020420194510260",
    "count_view": 0
  },
  {
    "link_thumb": "https://live.staticflickr.com/65535/49622295503_702dda537d_n.jpg",
    "id_album": "-316663319",
    "description": "KAWAII0503202021114",
    "title": "KAWAII0503202021114",
    "link_img": "https://live.staticflickr.com/65535/49622295503_74778609a0_o.jpg",
    "id_image": "KAWAII0503202021114",
    "count_view": 0
  },
  {
    "link_thumb": "https://live.staticflickr.com/65535/49726881143_d4a10af099_n.jpg",
    "id_album": "-1741487325",
    "description": "KAWAII02042019450827",
    "title": "KAWAII02042019450827",
    "link_img": "https://live.staticflickr.com/65535/49726881143_99a3e5255f_o.jpg",
    "id_image": "KAWAII02042019450827",
    "count_view": 0
  },
  {
    "link_thumb": "https://live.staticflickr.com/65535/49694378217_3a7c46a586_n.jpg",
    "id_album": "1201366373",
    "description": "KAWAII050320202134",
    "title": "KAWAII050320202134",
    "link_img": "https://live.staticflickr.com/65535/49694378217_31cb48028a_o.jpg",
    "id_image": "KAWAII050320202134",
    "count_view": 0
  },
  {
    "link_thumb": "https://live.staticflickr.com/65535/49694386657_07a4f6fa3e_n.jpg",
    "id_album": "1201366373",
    "description": "KAWAII12091815",
    "title": "KAWAII12091815",
    "link_img": "https://live.staticflickr.com/65535/49694386657_679a3490e7_o.jpg",
    "id_image": "KAWAII12091815",
    "count_view": 0
  },
  {
    "link_thumb": "https://live.staticflickr.com/65535/49623095697_82cd3c5c7a_n.jpg",
    "id_album": "-316663319",
    "description": "KAWAII0503202021212",
    "title": "KAWAII0503202021212",
    "link_img": "https://live.staticflickr.com/65535/49623095697_4780ff976a_o.jpg",
    "id_image": "KAWAII0503202021212",
    "count_view": 0
  },
  {
    "link_thumb": "https://live.staticflickr.com/65535/49694118056_c340991dd2_n.jpg",
    "id_album": "-643980979",
    "description": "KAWAII17022023469",
    "title": "KAWAII17022023469",
    "link_img": "https://live.staticflickr.com/65535/49694118056_221d389d0f_o.jpg",
    "id_image": "KAWAII17022023469",
    "count_view": 0
  },
  {
    "link_thumb": "https://live.staticflickr.com/65535/49694394307_ce4ef3eaf2_n.jpg",
    "id_album": "-643980979",
    "description": "KAWAII120918216",
    "title": "KAWAII120918216",
    "link_img": "https://live.staticflickr.com/65535/49694394307_024ed829e4_o.jpg",
    "id_image": "KAWAII120918216",
    "count_view": 0
  },
  {
    "link_thumb": "https://live.staticflickr.com/65535/49694425322_b51eb0e2a3_n.jpg",
    "id_album": "-643980979",
    "description": "KAWAII270220235163",
    "title": "KAWAII270220235163",
    "link_img": "https://live.staticflickr.com/65535/49694425322_970edb1907_o.jpg",
    "id_image": "KAWAII270220235163",
    "count_view": 0
  },
  {
    "link_thumb": "https://live.staticflickr.com/65535/49548245093_44f9fbb385_n.jpg",
    "id_album": "-422187261",
    "description": "KAWAII1702202239551",
    "title": "KAWAII1702202239551",
    "link_img": "https://live.staticflickr.com/65535/49548245093_46504f58cf_o.jpg",
    "id_image": "KAWAII1702202239551",
    "count_view": 0
  },
  {
    "link_thumb": "https://live.staticflickr.com/65535/49693686563_02b03fcd19_n.jpg",
    "id_album": "1226948986",
    "description": "KAWAII24032022050259",
    "title": "KAWAII24032022050259",
    "link_img": "https://live.staticflickr.com/65535/49693686563_edfd6d82e3_o.jpg",
    "id_image": "KAWAII24032022050259",
    "count_view": 0
  },
  {
    "link_thumb": "https://live.staticflickr.com/65535/49743259472_e3b19a4610_n.jpg",
    "id_album": "-1473448477",
    "description": "KAWAII06042021491517",
    "title": "KAWAII06042021491517",
    "link_img": "https://live.staticflickr.com/65535/49743259472_059f78e1bf_o.jpg",
    "id_image": "KAWAII06042021491517",
    "count_view": 0
  },
  {
    "link_thumb": "https://live.staticflickr.com/65535/49727741722_17f9282083_n.jpg",
    "id_album": "-1694302085",
    "description": "KAWAII190220211121",
    "title": "KAWAII190220211121",
    "link_img": "https://live.staticflickr.com/65535/49727741722_8916e5b55d_o.jpg",
    "id_image": "KAWAII190220211121",
    "count_view": 0
  },
  {
    "link_thumb": "https://live.staticflickr.com/65535/49742377823_430d274ee0_n.jpg",
    "id_album": "-316663319",
    "description": "KAWAII060420214914245",
    "title": "KAWAII060420214914245",
    "link_img": "https://live.staticflickr.com/65535/49742377823_82695e5429_o.jpg",
    "id_image": "KAWAII060420214914245",
    "count_view": 0
  },
  {
    "link_thumb": "https://live.staticflickr.com/65535/49727744457_659e28499f_n.jpg",
    "id_album": "-1497779911",
    "description": "KAWAII020420194511180",
    "title": "KAWAII020420194511180",
    "link_img": "https://live.staticflickr.com/65535/49727744457_113c3ac71b_o.jpg",
    "id_image": "KAWAII020420194511180",
    "count_view": 0
  }
]