[
  {
    "link_thumb": "https://live.staticflickr.com/65535/49694378217_3a7c46a586_n.jpg",
    "id_album": "1201366373",
    "description": "KAWAII050320202134",
    "title": "KAWAII050320202134",
    "link_img": "https://live.staticflickr.com/65535/49694378217_31cb48028a_o.jpg",
    "id_image": "KAWAII050320202134",
    "count_view": 0
  },
  {
    "link_thumb": "https://live.staticflickr.com/65535/49622820181_aaa1a1aa67_n.jpg",
    "id_album": "-316663319",
    "description": "KAWAII0503202021178",
    "title": "KAWAII0503202021178",
    "link_img": "https://live.staticflickr.com/65535/49622820181_e390407a10_o.jpg",
    "id_image": "KAWAII0503202021178",
    "count_view": 0
  },
  {
    "link_thumb": "https://live.staticflickr.com/65535/49694074656_467bd58490_n.jpg",
    "id_album": "-643980979",
    "description": "KAWAII0503202021282",
    "title": "KAWAII0503202021282",
    "link_img": "https://live.staticflickr.com/65535/49694074656_9a1018bd3c_o.jpg",
    "id_image": "KAWAII0503202021282",
    "count_view": 0
  },
  {
    "link_thumb": "https://live.staticflickr.com/65535/49623091217_7b4abf5289_n.jpg",
    "id_album": "-316663319",
    "description": "KAWAII0503202021169",
    "title": "KAWAII0503202021169",
    "link_img": "https://live.staticflickr.com/65535/49623091217_302da218d6_o.jpg",
    "id_image": "KAWAII0503202021169",
    "count_view": 0
  },
  {
    "link_thumb": "https://live.staticflickr.com/65535/49548866597_0cfb98f563_n.jpg",
    "id_album": "-316663319",
    "description": "KAWAII170220223464",
    "title": "KAWAII170220223464",
    "link_img": "https://live.staticflickr.com/65535/49548866597_a1088b00c9_o.jpg",
    "id_image": "KAWAII170220223464",
    "count_view": 0
  },
  {
    "link_thumb": "https://live.staticflickr.com/65535/49548553491_8957418aa9_n.jpg",
    "id_album": "-316663319",
    "description": "KAWAII120918136",
    "title": "KAWAII120918136",
    "link_img": "https://live.staticflickr.com/65535/49548553491_7069863d97_o.jpg",
    "id_image": "KAWAII120918136",
    "count_view": 0
  },
  {
    "link_thumb": "https://live.staticflickr.com/65535/49727763977_e863d26ff9_n.jpg",
    "id_album": "742877173",
    "description": "KAWAII020420194512253",
    "title": "KAWAII020420194512253",
    "link_img": "https://live.staticflickr.com/65535/49727763977_92c1b7021c_o.jpg",
    "id_image": "KAWAII020420194512253",
    "count_view": 0
  },
  {
    "link_thumb": "https://live.staticflickr.com/65535/49693525553_2c502f8a61_n.jpg",
    "id_album": "416744915",
    "description": "KAWAII1702202238442",
    "title": "KAWAII1702202238442",
    "link_img": "https://live.staticflickr.com/65535/49693525553_7d58a7d5b4_o.jpg",
    "id_image": "KAWAII1702202238442",
    "count_view": 0
  },
  {
    "link_thumb": "https://live.staticflickr.com/65535/49743237517_b351117ef9_n.jpg",
    "id_album": "-1497779911",
    "description": "KAWAII06042021491250",
    "title": "KAWAII06042021491250",
    "link_img": "https://live.staticflickr.com/65535/49743237517_e4792d6594_o.jpg",
    "id_image": "KAWAII06042021491250",
    "count_view": 0
  },
  {
    "link_thumb": "https://live.staticflickr.com/65535/49694411672_12889a3713_n.jpg",
    "id_album": "1201366373",
    "description": "KAWAII1702202235205",
    "title": "KAWAII1702202235205",
    "link_img": "https://live.staticflickr.com/65535/49694411672_18fc847755_o.jpg",
    "id_image": "KAWAII1702202235205",
    "count_view": 0
  },
  {
    "link_thumb": "https://live.staticflickr.com/65535/49548608146_9fe9c57e70_n.jpg",
    "id_album": "-1741487325",
    "description": "KAWAII120918373",
    "title": "KAWAII120918373",
    "link_img": "https://live.staticflickr.com/65535/49548608146_ba1314391a_o.jpg",
    "id_image": "KAWAII120918373",
    "count_view": 0
  },
  {
    "link_thumb": "https://live.staticflickr.com/65535/49592226138_0450179af4_n.jpg",
    "id_album": "949200594",
    "description": "KAWAII2702202351111",
    "title": "KAWAII2702202351111",
    "link_img": "https://live.staticflickr.com/65535/49592226138_678696631d_o.jpg",
    "id_image": "KAWAII2702202351111",
    "count_view": 0
  },
  {
    "link_thumb": "https://live.staticflickr.com/65535/49693546958_bf60f7305c_n.jpg",
    "id_album": "1201366373",
    "description": "KAWAII120918205",
    "title": "KAWAII120918205",
    "link_img": "https://live.staticflickr.com/65535/49693546958_624b9d5b61_o.jpg",
    "id_image": "KAWAII120918205",
    "count_view": 0
  },
  {
    "link_thumb": "https://live.staticflickr.com/65535/49694377072_48cb4665a7_n.jpg",
    "id_album": "-643980979",
    "description": "KAWAII0503202021288",
    "title": "KAWAII0503202021288",
    "link_img": "https://live.staticflickr.com/65535/49694377072_f69cd73ae1_o.jpg",
    "id_image": "KAWAII0503202021288",
    "count_view": 0
  },
  {
    "link_thumb": "https://live.staticflickr.com/65535/49548979192_8701e062fe_n.jpg",
    "id_album": "-1431786825",
    "description": "KAWAII1702202239579",
    "title": "KAWAII1702202239579",
    "link_img": "https://live.staticflickr.com/65535/49548979192_dbd6fac7f5_o.jpg",
    "id_image": "KAWAII1702202239579",
    "count_view": 0
  },
  {
    "link_thumb": "https://live.staticflickr.com/65535/49548151668_ac730e667d_n.jpg",
    "id_album": "1396902986",
    "description": "KAWAII1702202235154",
    "title": "KAWAII1702202235154",
    "link_img": "https://live.staticflickr.com/65535/49548151668_debae88f50_o.jpg",
    "id_image": "KAWAII1702202235154",
    "count_view": 0
  },
  {
    "link_thumb": "https://live.staticflickr.com/65535/49693574143_b085e67ec3_n.jpg",
    "id_album": "-643980979",
    "description": "KAWAII17022023463",
    "title": "KAWAII17022023463",
    "link_img": "https://live.staticflickr.com/65535/49693574143_396fa49eca_o.jpg",
    "id_image": "KAWAII17022023463",
    "count_view": 0
  },
  {
    "link_thumb": "https://live.staticflickr.com/65535/49726879053_ec7cb932f9_n.jpg",
    "id_album": "-1694302085",
    "description": "KAWAII0503202021222",
    "title": "KAWAII0503202021222",
    "link_img": "https://live.staticflickr.com/65535/49726879053_5ac34bdd7d_o.jpg",
    "id_image": "KAWAII0503202021222",
    "count_view": 0
  },
  {
    "link_thumb": "https://live.staticflickr.com/65535/49548925972_dd3fa62419_n.jpg",
    "id_album": "-1694302085",
    "description": "KAWAII1702202237371",
    "title": "KAWAII1702202237371",
    "link_img": "https://live.staticflickr.com/65535/49548925972_2d9bcc6478_o.jpg",
    "id_image": "KAWAII1702202237371",
    "count_view": 0
  },
  {
    "link_thumb": "https://live.staticflickr.com/65535/49623076732_9fbf54cc87_n.jpg",
    "id_album": "1396902986",
    "description": "KAWAII0503202021322",
    "title": "KAWAII0503202021322",
    "link_img": "https://live.staticflickr.com/65535/49623076732_2db56f4701_o.jpg",
    "id_image": "KAWAII0503202021322",
    "count_view": 0
  },
  {
    "link_thumb": "https://live.staticflickr.com/65535/49548662521_495fec0c6f_n.jpg",
    "id_album": "1396902986",
    "description": "KAWAII1702202235199",
    "title": "KAWAII1702202235199",
    "link_img": "https://live.staticflickr.com/65535/49548662521_41402ffbc9_o.jpg",
    "id_image": "KAWAII1702202235199",
    "count_view": 0
  },
  {
    "link_thumb": "https://live.staticflickr.com/65535/49711145752_b428a36eb6_n.jpg",
    "id_album": "-1599896063",
    "description": "LITTLEMONK29032012063817",
    "title": "LITTLEMONK29032012063817",
    "link_img": "https://live.staticflickr.com/65535/49711145752_3b11773dd6_o.jpg",
    "id_image": "LITTLEMONK29032012063817",
    "count_view": 0
  },
  {
    "link_thumb": "https://live.staticflickr.com/65535/49592202413_27c3cefa93_n.jpg",
    "id_album": "-422187261",
    "description": "KAWAII2702202351140",
    "title": "KAWAII2702202351140",
    "link_img": "https://live.staticflickr.com/65535/49592202413_56c2f371e1_o.jpg",
    "id_image": "KAWAII2702202351140",
    "count_view": 0
  },
  {
    "link_thumb": "https://live.staticflickr.com/65535/49743247677_fdc0dc1ca9_n.jpg",
    "id_album": "-316663319",
    "description": "KAWAII060420214913153",
    "title": "KAWAII060420214913153",
    "link_img": "https://live.staticflickr.com/65535/49743247677_14ba0362cd_o.jpg",
    "id_image": "KAWAII060420214913153",
    "count_view": 0
  },
  {
    "link_thumb": "https://live.staticflickr.com/65535/49694123091_16ef87c5f9_n.jpg",
    "id_album": "-643980979",
    "description": "KAWAII270220235177",
    "title": "KAWAII270220235177",
    "link_img": "https://live.staticflickr.com/65535/49694123091_4b33fbff62_o.jpg",
    "id_image": "KAWAII270220235177",
    "count_view": 0
  },
  {
    "link_thumb": "https://live.staticflickr.com/65535/49592713936_1da375d6a3_n.jpg",
    "id_album": "-316663319",
    "description": "KAWAII2702202351115",
    "title": "KAWAII2702202351115",
    "link_img": "https://live.staticflickr.com/65535/49592713936_b7d3481be7_o.jpg",
    "id_image": "KAWAII2702202351115",
    "count_view": 0
  },
  {
    "link_thumb": "https://live.staticflickr.com/65535/49727439666_4d7308a57b_n.jpg",
    "id_album": "-316663319",
    "description": "KAWAII020420194512154",
    "title": "KAWAII020420194512154",
    "link_img": "https://live.staticflickr.com/65535/49727439666_09f88a6c49_o.jpg",
    "id_image": "KAWAII020420194512154",
    "count_view": 0
  },
  {
    "link_thumb": "https://live.staticflickr.com/65535/49742915941_883ca8ddcd_n.jpg",
    "id_album": "-1497779911",
    "description": "KAWAII060420214918276",
    "title": "KAWAII060420214918276",
    "link_img": "https://live.staticflickr.com/65535/49742915941_86224c14f7_o.jpg",
    "id_image": "KAWAII060420214918276",
    "count_view": 0
  },
  {
    "link_thumb": "https://live.staticflickr.com/65535/49548173768_b0c339bbb9_n.jpg",
    "id_album": "1396902986",
    "description": "KAWAII1702202236263",
    "title": "KAWAII1702202236263",
    "link_img": "https://live.staticflickr.com/65535/49548173768_00ebf4e24e_o.jpg",
    "id_image": "KAWAII1702202236263",
    "count_view": 0
  },
  {
    "link_thumb": "https://live.staticflickr.com/65535/49694400207_221b958100_n.jpg",
    "id_album": "1201366373",
    "description": "KAWAII120918272",
    "title": "KAWAII120918272",
    "link_img": "https://live.staticflickr.com/65535/49694400207_0a7b2cc9b0_o.jpg",
    "id_image": "KAWAII120918272",
    "count_view": 0
  },
  {
    "link_thumb": "https://live.staticflickr.com/65535/49548648206_fc77f7e2f5_n.jpg",
    "id_album": "1396902986",
    "description": "KAWAII1702202235130",
    "title": "KAWAII1702202235130",
    "link_img": "https://live.staticflickr.com/65535/49548648206_5d6c93a8e1_o.jpg",
    "id_image": "KAWAII1702202235130",
    "count_view": 0
  },
  {
    "link_thumb": "https://live.staticflickr.com/65535/49742387398_a3c2dd7a30_n.jpg",
    "id_album": "-1473448477",
    "description": "KAWAII060420214915149",
    "title": "KAWAII060420214915149",
    "link_img": "https://live.staticflickr.com/65535/49742387398_14426b905c_o.jpg",
    "id_image": "KAWAII060420214915149",
    "count_view": 0
  },
  {
    "link_thumb": "https://live.staticflickr.com/65535/49693573983_d5936924a6_n.jpg",
    "id_album": "-643980979",
    "description": "KAWAII17022023462",
    "title": "KAWAII17022023462",
    "link_img": "https://live.staticflickr.com/65535/49693573983_9eb4cbed21_o.jpg",
    "id_image": "KAWAII17022023462",
    "count_view": 0
  },
  {
    "link_thumb": "https://live.staticflickr.com/65535/49694229856_553885b8dc_n.jpg",
    "id_album": "1226948986",
    "description": "KAWAII2403202205028",
    "title": "KAWAII2403202205028",
    "link_img": "https://live.staticflickr.com/65535/49694229856_991631dd0e_o.jpg",
    "id_image": "KAWAII2403202205028",
    "count_view": 0
  },
  {
    "link_thumb": "https://live.staticflickr.com/65535/49726920378_5fe622b19f_n.jpg",
    "id_album": "-1862561193",
    "description": "KAWAII02042019450970",
    "title": "KAWAII02042019450970",
    "link_img": "https://live.staticflickr.com/65535/49726920378_b7e012f436_o.jpg",
    "id_image": "KAWAII02042019450970",
    "count_view": 0
  },
  {
    "link_thumb": "https://live.staticflickr.com/65535/49592207248_426b3e5f30_n.jpg",
    "id_album": "-1741487325",
    "description": "KAWAII1702202235146",
    "title": "KAWAII1702202235146",
    "link_img": "https://live.staticflickr.com/65535/49592207248_43f8e028ce_o.jpg",
    "id_image": "KAWAII1702202235146",
    "count_view": 0
  },
  {
    "link_thumb": "https://live.staticflickr.com/65535/49623103582_c6ce891571_n.jpg",
    "id_album": "-316663319",
    "description": "KAWAII0503202021302",
    "title": "KAWAII0503202021302",
    "link_img": "https://live.staticflickr.com/65535/49623103582_0438ee03ca_o.jpg",
    "id_image": "KAWAII0503202021302",
    "count_view": 0
  },
  {
    "link_thumb": "https://live.staticflickr.com/65535/49548566801_954692e382_n.jpg",
    "id_album": "-316663319",
    "description": "KAWAII120918193",
    "title": "KAWAII120918193",
    "link_img": "https://live.staticflickr.com/65535/49548566801_9b9ece4a00_o.jpg",
    "id_image": "KAWAII120918193",
    "count_view": 0
  },
  {
    "link_thumb": "https://live.staticflickr.com/65535/49552023193_1168d96f1a_n.jpg",
    "id_album": "-1694302085",
    "description": "KAWAII12091825180220205933",
    "title": "KAWAII12091825180220205933",
    "link_img": "https://live.staticflickr.com/65535/49552023193_984f322a4e_o.jpg",
    "id_image": "KAWAII12091825180220205933",
    "count_view": 0
  },
  {
    "link_thumb": "https://live.staticflickr.com/65535/49548692246_e33c44dc92_n.jpg",
    "id_album": "-1431786825",
    "description": "KAWAII1702202237347",
    "title": "KAWAII1702202237347",
    "link_img": "https://live.staticflickr.com/65535/49548692246_38e5e82e1a_o.jpg",
    "id_image": "KAWAII1702202237347",
    "count_view": 0
  },
  {
    "link_thumb": "https://live.staticflickr.com/65535/49726877818_53f61f5de1_n.jpg",
    "id_album": "-1694302085",
    "description": "KAWAII02042019450832",
    "title": "KAWAII02042019450832",
    "link_img": "https://live.staticflickr.com/65535/49726877818_b29789fafa_o.jpg",
    "id_image": "KAWAII02042019450832",
    "count_view": 0
  },
  {
    "link_thumb": "https://live.staticflickr.com/65535/49727745482_f382fce553_n.jpg",
    "id_album": "-1497779911",
    "description": "KAWAII0503202021126",
    "title": "KAWAII0503202021126",
    "link_img": "https://live.staticflickr.com/65535/49727745482_731a05e64f_o.jpg",
    "id_image": "KAWAII0503202021126",
    "count_view": 0
  },
  {
    "link_thumb": "https://live.staticflickr.com/65535/49548198158_5a9a25317d_n.jpg",
    "id_album": "1396902986",
    "description": "KAWAII1702202237373",
    "title": "KAWAII1702202237373",
    "link_img": "https://live.staticflickr.com/65535/49548198158_a3bf926739_o.jpg",
    "id_image": "KAWAII1702202237373",
    "count_view": 0
  },
  {
    "link_thumb": "https://live.staticflickr.com/65535/49623110077_21b03950bc_n.jpg",
    "id_album": "-316663319",
    "description": "KAWAII050320202154",
    "title": "KAWAII050320202154",
    "link_img": "https://live.staticflickr.com/65535/49623110077_15d7deab7b_o.jpg",
    "id_image": "KAWAII050320202154",
    "count_view": 0
  },
  {
    "link_thumb": "https://live.staticflickr.com/65535/49694093706_d60073e99a_n.jpg",
    "id_album": "1201366373",
    "description": "KAWAII120918236",
    "title": "KAWAII120918236",
    "link_img": "https://live.staticflickr.com/65535/49694093706_39bf0f80cf_o.jpg",
    "id_image": "KAWAII120918236",
    "count_view": 0
  },
  {
    "link_thumb": "https://live.staticflickr.com/65535/49622840081_e373bc4bf9_n.jpg",
    "id_album": "-1694302085",
    "description": "KAWAII050320202197",
    "title": "KAWAII050320202197",
    "link_img": "https://live.staticflickr.com/65535/49622840081_3138ee4372_o.jpg",
    "id_image": "KAWAII050320202197",
    "count_view": 0
  },
  {
    "link_thumb": "https://live.staticflickr.com/65535/49693530168_bb9c66d336_n.jpg",
    "id_album": "-643980979",
    "description": "KAWAII0503202021265",
    "title": "KAWAII0503202021265",
    "link_img": "https://live.staticflickr.com/65535/49693530168_ccdea627fe_o.jpg",
    "id_image": "KAWAII0503202021265",
    "count_view": 0
  },
  {
    "link_thumb": "https://live.staticflickr.com/65535/49743258527_6ff605826d_n.jpg",
    "id_album": "-1473448477",
    "description": "KAWAII06042021491512",
    "title": "KAWAII06042021491512",
    "link_img": "https://live.staticflickr.com/65535/49743258527_ff528a6d5a_o.jpg",
    "id_image": "KAWAII06042021491512",
    "count_view": 0
  },
  {
    "link_thumb": "https://live.staticflickr.com/65535/49694083526_00a9cdf340_n.jpg",
    "id_album": "1201366373",
    "description": "KAWAII120918135",
    "title": "KAWAII120918135",
    "link_img": "https://live.staticflickr.com/65535/49694083526_3f7a46c882_o.jpg",
    "id_image": "KAWAII120918135",
    "count_view": 0
  },
  {
    "link_thumb": "https://live.staticflickr.com/65535/49727779722_730c65946c_n.jpg",
    "id_album": "1396902986",
    "description": "KAWAII1702202237336",
    "title": "KAWAII1702202237336",
    "link_img": "https://live.staticflickr.com/65535/49727779722_6e4be09687_o.jpg",
    "id_image": "KAWAII1702202237336",
    "count_view": 0
  },
  {
    "link_thumb": "https://live.staticflickr.com/65535/49623074512_72ec37dba4_n.jpg",
    "id_album": "1396902986",
    "description": "KAWAII050320202124",
    "title": "KAWAII050320202124",
    "link_img": "https://live.staticflickr.com/65535/49623074512_8a5df48ac3_o.jpg",
    "id_image": "KAWAII050320202124",
    "count_view": 0
  },
  {
    "link_thumb": "https://live.staticflickr.com/65535/49548731631_730093018a_n.jpg",
    "id_album": "-422187261",
    "description": "KAWAII1702202238498",
    "title": "KAWAII1702202238498",
    "link_img": "https://live.staticflickr.com/65535/49548731631_cb19aed3bd_o.jpg",
    "id_image": "KAWAII1702202238498",
    "count_view": 0
  },
  {
    "link_thumb": "https://live.staticflickr.com/65535/49552024243_b38552e998_n.jpg",
    "id_album": "-1432180061",
    "description": "KAWAII12091825180220205938",
    "title": "KAWAII12091825180220205938",
    "link_img": "https://live.staticflickr.com/65535/49552024243_8348b56164_o.jpg",
    "id_image": "KAWAII12091825180220205938",
    "count_view": 0
  },
  {
    "link_thumb": "https://live.staticflickr.com/65535/49548195458_58ee968802_n.jpg",
    "id_album": "-1432180061",
    "description": "KAWAII1702202237363",
    "title": "KAWAII1702202237363",
    "link_img": "https://live.staticflickr.com/65535/49548195458_2d6f2e65ca_o.jpg",
    "id_image": "KAWAII1702202237363",
    "count_view": 0
  },
  {
    "link_thumb": "https://live.staticflickr.com/65535/49548083248_38f59ac156_n.jpg",
    "id_album": "-1741487325",
    "description": "KAWAII12091828",
    "title": "KAWAII12091828",
    "link_img": "https://live.staticflickr.com/65535/49548083248_c20621c5d3_o.jpg",
    "id_image": "KAWAII12091828",
    "count_view": 0
  },
  {
    "link_thumb": "https://live.staticflickr.com/65535/49727767037_44e8788115_n.jpg",
    "id_album": "742877173",
    "description": "KAWAII020420194514246",
    "title": "KAWAII020420194514246",
    "link_img": "https://live.staticflickr.com/65535/49727767037_c005c78e27_o.jpg",
    "id_image": "KAWAII020420194514246",
    "count_view": 0
  },
  {
    "link_thumb": "https://live.staticflickr.com/65535/49694409247_2b7c1a4244_n.jpg",
    "id_album": "1201366373",
    "description": "KAWAII170220223438",
    "title": "KAWAII170220223438",
    "link_img": "https://live.staticflickr.com/65535/49694409247_68cb656fae_o.jpg",
    "id_image": "KAWAII170220223438",
    "count_view": 0
  },
  {
    "link_thumb": "https://live.staticflickr.com/65535/49623115537_abfe410cf9_n.jpg",
    "id_album": "-406350429",
    "description": "KAWAII0503202021164",
    "title": "KAWAII0503202021164",
    "link_img": "https://live.staticflickr.com/65535/49623115537_6f1a6bb2e6_o.jpg",
    "id_image": "KAWAII0503202021164",
    "count_view": 0
  },
  {
    "link_thumb": "https://live.staticflickr.com/65535/49726884508_99c8e18231_n.jpg",
    "id_album": "-1497779911",
    "description": "KAWAII0503202021218",
    "title": "KAWAII0503202021218",
    "link_img": "https://live.staticflickr.com/65535/49726884508_1c0456b6bb_o.jpg",
    "id_image": "KAWAII0503202021218",
    "count_view": 0
  },
  {
    "link_thumb": "https://live.staticflickr.com/65535/49622803226_76cafe0d42_n.jpg",
    "id_album": "1396902986",
    "description": "KAWAII0503202021277",
    "title": "KAWAII0503202021277",
    "link_img": "https://live.staticflickr.com/65535/49622803226_e5aed4ff94_o.jpg",
    "id_image": "KAWAII0503202021277",
    "count_view": 0
  },
  {
    "link_thumb": "https://live.staticflickr.com/65535/49548663956_90a3113582_n.jpg",
    "id_album": "-1741487325",
    "description": "KAWAII1702202235206",
    "title": "KAWAII1702202235206",
    "link_img": "https://live.staticflickr.com/65535/49548663956_debf4e0019_o.jpg",
    "id_image": "KAWAII1702202235206",
    "count_view": 0
  },
  {
    "link_thumb": "https://live.staticflickr.com/65535/49694385997_7851f90b4a_n.jpg",
    "id_album": "1201366373",
    "description": "KAWAII120918141",
    "title": "KAWAII120918141",
    "link_img": "https://live.staticflickr.com/65535/49694385997_f3e813d133_o.jpg",
    "id_image": "KAWAII120918141",
    "count_view": 0
  },
  {
    "link_thumb": "https://live.staticflickr.com/65535/49548263893_45c89875c1_n.jpg",
    "id_album": "949200594",
    "description": "KAWAII17091822",
    "title": "KAWAII17091822",
    "link_img": "https://live.staticflickr.com/65535/49548263893_50121a0bbf_o.jpg",
    "id_image": "KAWAII17091822",
    "count_view": 0
  },
  {
    "link_thumb": "https://live.staticflickr.com/65535/49622841286_8de55c841f_n.jpg",
    "id_album": "-406350429",
    "description": "KAWAII0503202021101",
    "title": "KAWAII0503202021101",
    "link_img": "https://live.staticflickr.com/65535/49622841286_7d148d19f9_o.jpg",
    "id_image": "KAWAII0503202021101",
    "count_view": 0
  },
  {
    "link_thumb": "https://live.staticflickr.com/65535/49548857017_a2206d4fb1_n.jpg",
    "id_album": "-1694302085",
    "description": "KAWAII17022022339",
    "title": "KAWAII17022022339",
    "link_img": "https://live.staticflickr.com/65535/49548857017_78ff7c5c27_o.jpg",
    "id_image": "KAWAII17022022339",
    "count_view": 0
  },
  {
    "link_thumb": "https://live.staticflickr.com/65535/49694379572_266e9bdf0d_n.jpg",
    "id_album": "1201366373",
    "description": "KAWAII050320202165",
    "title": "KAWAII050320202165",
    "link_img": "https://live.staticflickr.com/65535/49694379572_2a0765af38_o.jpg",
    "id_image": "KAWAII050320202165",
    "count_view": 0
  },
  {
    "link_thumb": "https://live.staticflickr.com/65535/49622307713_80ee8ee40d_n.jpg",
    "id_album": "-316663319",
    "description": "KAWAII05032020212",
    "title": "KAWAII05032020212",
    "link_img": "https://live.staticflickr.com/65535/49622307713_39424e7f74_o.jpg",
    "id_image": "KAWAII05032020212",
    "count_view": 0
  },
  {
    "link_thumb": "https://live.staticflickr.com/65535/49548681796_a26cc947ba_n.jpg",
    "id_album": "-422187261",
    "description": "KAWAII1702202236299",
    "title": "KAWAII1702202236299",
    "link_img": "https://live.staticflickr.com/65535/49548681796_cb8451079e_o.jpg",
    "id_image": "KAWAII1702202236299",
    "count_view": 0
  },
  {
    "link_thumb": "https://live.staticflickr.com/65535/49727744457_659e28499f_n.jpg",
    "id_album": "-1497779911",
    "description": "KAWAII020420194511180",
    "title": "KAWAII020420194511180",
    "link_img": "https://live.staticflickr.com/65535/49727744457_113c3ac71b_o.jpg",
    "id_image": "KAWAII020420194511180",
    "count_view": 0
  },
  {
    "link_thumb": "https://live.staticflickr.com/65535/49548979637_95ca19ffa0_n.jpg",
    "id_album": "-1694302085",
    "description": "KAWAII1702202239581",
    "title": "KAWAII1702202239581",
    "link_img": "https://live.staticflickr.com/65535/49548979637_d09ac4d8e8_o.jpg",
    "id_image": "KAWAII1702202239581",
    "count_view": 0
  },
  {
    "link_thumb": "https://live.staticflickr.com/65535/49548139298_6e5456530b_n.jpg",
    "id_album": "-422187261",
    "description": "KAWAII170220223471",
    "title": "KAWAII170220223471",
    "link_img": "https://live.staticflickr.com/65535/49548139298_ba29e127e1_o.jpg",
    "id_image": "KAWAII170220223471",
    "count_view": 0
  },
  {
    "link_thumb": "https://live.staticflickr.com/65535/49622830001_eb9b004f6c_n.jpg",
    "id_album": "-316663319",
    "description": "KAWAII0503202021290",
    "title": "KAWAII0503202021290",
    "link_img": "https://live.staticflickr.com/65535/49622830001_1cb79bebf2_o.jpg",
    "id_image": "KAWAII0503202021290",
    "count_view": 0
  },
  {
    "link_thumb": "https://live.staticflickr.com/65535/49693682353_8b39a5992c_n.jpg",
    "id_album": "46674803",
    "description": "KAWAII24032022050233",
    "title": "KAWAII24032022050233",
    "link_img": "https://live.staticflickr.com/65535/49693682353_ffce88a729_o.jpg",
    "id_image": "KAWAII24032022050233",
    "count_view": 0
  },
  {
    "link_thumb": "https://live.staticflickr.com/65535/49552755517_25b299252c_n.jpg",
    "id_album": "-1694302085",
    "description": "KAWAII1209182518022020591",
    "title": "KAWAII1209182518022020591",
    "link_img": "https://live.staticflickr.com/65535/49552755517_359822b8ec_o.jpg",
    "id_image": "KAWAII1209182518022020591",
    "count_view": 0
  },
  {
    "link_thumb": "https://live.staticflickr.com/65535/49693544168_467e9abb20_n.jpg",
    "id_album": "1201366373",
    "description": "KAWAII120918177",
    "title": "KAWAII120918177",
    "link_img": "https://live.staticflickr.com/65535/49693544168_251a2efff3_o.jpg",
    "id_image": "KAWAII120918177",
    "count_view": 0
  },
  {
    "link_thumb": "https://live.staticflickr.com/65535/49742948051_4c3bc0f67f_n.jpg",
    "id_album": "1396902986",
    "description": "KAWAII060420214915113",
    "title": "KAWAII060420214915113",
    "link_img": "https://live.staticflickr.com/65535/49742948051_8b6173d550_o.jpg",
    "id_image": "KAWAII060420214915113",
    "count_view": 0
  },
  {
    "link_thumb": "https://live.staticflickr.com/65535/49592212103_2bcfe25c63_n.jpg",
    "id_album": "-316663319",
    "description": "KAWAII2702202351132",
    "title": "KAWAII2702202351132",
    "link_img": "https://live.staticflickr.com/65535/49592212103_44cba4b19f_o.jpg",
    "id_image": "KAWAII2702202351132",
    "count_view": 0
  },
  {
    "link_thumb": "https://live.staticflickr.com/65535/49622282188_f7238e3cd5_n.jpg",
    "id_album": "-422187261",
    "description": "KAWAII0503202021330",
    "title": "KAWAII0503202021330",
    "link_img": "https://live.staticflickr.com/65535/49622282188_7f6aa8f2ff_o.jpg",
    "id_image": "KAWAII0503202021330",
    "count_view": 0
  },
  {
    "link_thumb": "https://live.staticflickr.com/65535/49548866362_12816ef6b5_n.jpg",
    "id_album": "-1432180061",
    "description": "KAWAII170220223463",
    "title": "KAWAII170220223463",
    "link_img": "https://live.staticflickr.com/65535/49548866362_4041334eae_o.jpg",
    "id_image": "KAWAII170220223463",
    "count_view": 0
  },
  {
    "link_thumb": "https://live.staticflickr.com/65535/49742914281_15539498c7_n.jpg",
    "id_album": "-1497779911",
    "description": "KAWAII06042021491411",
    "title": "KAWAII06042021491411",
    "link_img": "https://live.staticflickr.com/65535/49742914281_2f0cd2bd20_o.jpg",
    "id_image": "KAWAII06042021491411",
    "count_view": 0
  },
  {
    "link_thumb": "https://live.staticflickr.com/65535/49548818087_00d48ca029_n.jpg",
    "id_album": "-422187261",
    "description": "KAWAII120918302",
    "title": "KAWAII120918302",
    "link_img": "https://live.staticflickr.com/65535/49548818087_5861591717_o.jpg",
    "id_image": "KAWAII120918302",
    "count_view": 0
  },
  {
    "link_thumb": "https://live.staticflickr.com/65535/49548224413_f058009119_n.jpg",
    "id_album": "-1099943053",
    "description": "KAWAII1702202238472",
    "title": "KAWAII1702202238472",
    "link_img": "https://live.staticflickr.com/65535/49548224413_3f5cb366f2_o.jpg",
    "id_image": "KAWAII1702202238472",
    "count_view": 0
  },
  {
    "link_thumb": "https://live.staticflickr.com/65535/49548613636_486776df81_n.jpg",
    "id_album": "-1741487325",
    "description": "KAWAII1209186",
    "title": "KAWAII1209186",
    "link_img": "https://live.staticflickr.com/65535/49548613636_d72c4dae0a_o.jpg",
    "id_image": "KAWAII1209186",
    "count_view": 0
  },
  {
    "link_thumb": "https://live.staticflickr.com/65535/49694397282_ee9e7004e9_n.jpg",
    "id_album": "1201366373",
    "description": "KAWAII120918248",
    "title": "KAWAII120918248",
    "link_img": "https://live.staticflickr.com/65535/49694397282_e3e2589734_o.jpg",
    "id_image": "KAWAII120918248",
    "count_view": 0
  },
  {
    "link_thumb": "https://live.staticflickr.com/65535/49742406923_1631d0f5fc_n.jpg",
    "id_album": "-1431786825",
    "description": "KAWAII06042021491268",
    "title": "KAWAII06042021491268",
    "link_img": "https://live.staticflickr.com/65535/49742406923_797826b5f0_o.jpg",
    "id_image": "KAWAII06042021491268",
    "count_view": 0
  },
  {
    "link_thumb": "https://live.staticflickr.com/65535/49623096527_6a91efda4c_n.jpg",
    "id_album": "-316663319",
    "description": "KAWAII0503202021220",
    "title": "KAWAII0503202021220",
    "link_img": "https://live.staticflickr.com/65535/49623096527_6dbf6469bf_o.jpg",
    "id_image": "KAWAII0503202021220",
    "count_view": 0
  },
  {
    "link_thumb": "https://live.staticflickr.com/65535/49548900632_a1b7c2ecdc_n.jpg",
    "id_album": "-1432180061",
    "description": "KAWAII1702202236255",
    "title": "KAWAII1702202236255",
    "link_img": "https://live.staticflickr.com/65535/49548900632_89634d0bd9_o.jpg",
    "id_image": "KAWAII1702202236255",
    "count_view": 0
  },
  {
    "link_thumb": "https://live.staticflickr.com/65535/49548916167_7193644414_n.jpg",
    "id_album": "1396902986",
    "description": "KAWAII1702202237330",
    "title": "KAWAII1702202237330",
    "link_img": "https://live.staticflickr.com/65535/49548916167_ee64254e9d_o.jpg",
    "id_image": "KAWAII1702202237330",
    "count_view": 0
  },
  {
    "link_thumb": "https://live.staticflickr.com/65535/49694416202_7f887b82b5_n.jpg",
    "id_album": "-643980979",
    "description": "KAWAII1702202239517",
    "title": "KAWAII1702202239517",
    "link_img": "https://live.staticflickr.com/65535/49694416202_00a576f716_o.jpg",
    "id_image": "KAWAII1702202239517",
    "count_view": 0
  },
  {
    "link_thumb": "https://live.staticflickr.com/65535/49623111612_2598b0db04_n.jpg",
    "id_album": "-316663319",
    "description": "KAWAII050320202183",
    "title": "KAWAII050320202183",
    "link_img": "https://live.staticflickr.com/65535/49623111612_bd0136d113_o.jpg",
    "id_image": "KAWAII050320202183",
    "count_view": 0
  },
  {
    "link_thumb": "https://live.staticflickr.com/65535/49548230953_8ac345f2c0_n.jpg",
    "id_album": "-1741487325",
    "description": "KAWAII1702202238497",
    "title": "KAWAII1702202238497",
    "link_img": "https://live.staticflickr.com/65535/49548230953_f32cb29135_o.jpg",
    "id_image": "KAWAII1702202238497",
    "count_view": 0
  },
  {
    "link_thumb": "https://live.staticflickr.com/65535/49622846951_ea92c7b8a6_n.jpg",
    "id_album": "-406350429",
    "description": "KAWAII0503202021266",
    "title": "KAWAII0503202021266",
    "link_img": "https://live.staticflickr.com/65535/49622846951_8c7fc8cfa4_o.jpg",
    "id_image": "KAWAII0503202021266",
    "count_view": 0
  },
  {
    "link_thumb": "https://live.staticflickr.com/65535/49622825466_29ee1c26a4_n.jpg",
    "id_album": "-316663319",
    "description": "KAWAII0503202021227",
    "title": "KAWAII0503202021227",
    "link_img": "https://live.staticflickr.com/65535/49622825466_a5578440bd_o.jpg",
    "id_image": "KAWAII0503202021227",
    "count_view": 0
  },
  {
    "link_thumb": "https://live.staticflickr.com/65535/49743230762_d587990639_n.jpg",
    "id_album": "-422187261",
    "description": "KAWAII060420214912167",
    "title": "KAWAII060420214912167",
    "link_img": "https://live.staticflickr.com/65535/49743230762_70ab22a7e4_o.jpg",
    "id_image": "KAWAII060420214912167",
    "count_view": 0
  },
  {
    "link_thumb": "https://live.staticflickr.com/65535/49727446571_6d5ef95546_n.jpg",
    "id_album": "742877173",
    "description": "KAWAII020420194510178",
    "title": "KAWAII020420194510178",
    "link_img": "https://live.staticflickr.com/65535/49727446571_1345738e04_o.jpg",
    "id_image": "KAWAII020420194510178",
    "count_view": 0
  },
  {
    "link_thumb": "https://live.staticflickr.com/65535/49742387728_dda125ce78_n.jpg",
    "id_album": "-1473448477",
    "description": "KAWAII060420214915156",
    "title": "KAWAII060420214915156",
    "link_img": "https://live.staticflickr.com/65535/49742387728_9e64db86d3_o.jpg",
    "id_image": "KAWAII060420214915156",
    "count_view": 0
  },
  {
    "link_thumb": "https://live.staticflickr.com/65535/49694071296_e7febbbe44_n.jpg",
    "id_album": "1201366373",
    "description": "KAWAII0503202021168",
    "title": "KAWAII0503202021168",
    "link_img": "https://live.staticflickr.com/65535/49694071296_e5bcac0d71_o.jpg",
    "id_image": "KAWAII0503202021168",
    "count_view": 0
  },
  {
    "link_thumb": "https://live.staticflickr.com/65535/49694096531_6d257d2400_n.jpg",
    "id_album": "1201366373",
    "description": "KAWAII120918256",
    "title": "KAWAII120918256",
    "link_img": "https://live.staticflickr.com/65535/49694096531_ee6e497485_o.jpg",
    "id_image": "KAWAII120918256",
    "count_view": 0
  },
  {
    "link_thumb": "https://live.staticflickr.com/65535/49622305398_fc6c1afdd2_n.jpg",
    "id_album": "-316663319",
    "description": "KAWAII0503202021184",
    "title": "KAWAII0503202021184",
    "link_img": "https://live.staticflickr.com/65535/49622305398_db7491fa16_o.jpg",
    "id_image": "KAWAII0503202021184",
    "count_view": 0
  },
  {
    "link_thumb": "https://live.staticflickr.com/65535/49742949391_a17e6cf09d_n.jpg",
    "id_album": "1396902986",
    "description": "KAWAII06042021491579",
    "title": "KAWAII06042021491579",
    "link_img": "https://live.staticflickr.com/65535/49742949391_50884158ac_o.jpg",
    "id_image": "KAWAII06042021491579",
    "count_view": 0
  },
  {
    "link_thumb": "https://live.staticflickr.com/65535/49694405732_73d6df1054_n.jpg",
    "id_album": "1201366373",
    "description": "KAWAII12091864",
    "title": "KAWAII12091864",
    "link_img": "https://live.staticflickr.com/65535/49694405732_144d3d366c_o.jpg",
    "id_image": "KAWAII12091864",
    "count_view": 0
  },
  {
    "link_thumb": "https://live.staticflickr.com/65535/49548999462_ecfdf2b9f6_n.jpg",
    "id_album": "-316663319",
    "description": "KAWAII1709185",
    "title": "KAWAII1709185",
    "link_img": "https://live.staticflickr.com/65535/49548999462_f32f7e31f1_o.jpg",
    "id_image": "KAWAII1709185",
    "count_view": 0
  },
  {
    "link_thumb": "https://live.staticflickr.com/65535/49592206538_8eb7abfc3e_n.jpg",
    "id_album": "1396902986",
    "description": "KAWAII270220235180",
    "title": "KAWAII270220235180",
    "link_img": "https://live.staticflickr.com/65535/49592206538_39174b06ac_o.jpg",
    "id_image": "KAWAII270220235180",
    "count_view": 0
  },
  {
    "link_thumb": "https://live.staticflickr.com/65535/49727754687_0ef88fd8c3_n.jpg",
    "id_album": "-316663319",
    "description": "KAWAII02042019451298",
    "title": "KAWAII02042019451298",
    "link_img": "https://live.staticflickr.com/65535/49727754687_d35c90e8e0_o.jpg",
    "id_image": "KAWAII02042019451298",
    "count_view": 0
  },
  {
    "link_thumb": "https://live.staticflickr.com/65535/49727751267_d1ddd34e63_n.jpg",
    "id_album": "-316663319",
    "description": "KAWAII020420194510209",
    "title": "KAWAII020420194510209",
    "link_img": "https://live.staticflickr.com/65535/49727751267_76eb7d2aac_o.jpg",
    "id_image": "KAWAII020420194510209",
    "count_view": 0
  },
  {
    "link_thumb": "https://live.staticflickr.com/65535/49742912506_ef3b279ef4_n.jpg",
    "id_album": "-1741487325",
    "description": "KAWAII06042021491566",
    "title": "KAWAII06042021491566",
    "link_img": "https://live.staticflickr.com/65535/49742912506_9d8f3b2559_o.jpg",
    "id_image": "KAWAII06042021491566",
    "count_view": 0
  },
  {
    "link_thumb": "https://live.staticflickr.com/65535/49548643831_5c42c25cd4_n.jpg",
    "id_album": "-422187261",
    "description": "KAWAII170220223485",
    "title": "KAWAII170220223485",
    "link_img": "https://live.staticflickr.com/65535/49548643831_e6f9b56cf0_o.jpg",
    "id_image": "KAWAII170220223485",
    "count_view": 0
  },
  {
    "link_thumb": "https://live.staticflickr.com/65535/49548136443_3c8305ec75_n.jpg",
    "id_album": "-422187261",
    "description": "KAWAII170220223459",
    "title": "KAWAII170220223459",
    "link_img": "https://live.staticflickr.com/65535/49548136443_bc360510ea_o.jpg",
    "id_image": "KAWAII170220223459",
    "count_view": 0
  },
  {
    "link_thumb": "https://live.staticflickr.com/65535/49693546498_266cedc3fd_n.jpg",
    "id_album": "1201366373",
    "description": "KAWAII120918199",
    "title": "KAWAII120918199",
    "link_img": "https://live.staticflickr.com/65535/49693546498_68082d5e8c_o.jpg",
    "id_image": "KAWAII120918199",
    "count_view": 0
  },
  {
    "link_thumb": "https://live.staticflickr.com/65535/49548106158_d03a1ba093_n.jpg",
    "id_album": "-1741487325",
    "description": "KAWAII120918372",
    "title": "KAWAII120918372",
    "link_img": "https://live.staticflickr.com/65535/49548106158_77f555b9e7_o.jpg",
    "id_image": "KAWAII120918372",
    "count_view": 0
  },
  {
    "link_thumb": "https://live.staticflickr.com/65535/49623109402_bf0168a028_n.jpg",
    "id_album": "-316663319",
    "description": "KAWAII050320202142",
    "title": "KAWAII050320202142",
    "link_img": "https://live.staticflickr.com/65535/49623109402_f72bd09d27_o.jpg",
    "id_image": "KAWAII050320202142",
    "count_view": 0
  },
  {
    "link_thumb": "https://live.staticflickr.com/65535/49711147087_1133d035f7_n.jpg",
    "id_album": "-1599896063",
    "description": "LITTLEMONK2903201206423",
    "title": "LITTLEMONK2903201206423",
    "link_img": "https://live.staticflickr.com/65535/49711147087_9ba71648ca_o.jpg",
    "id_image": "LITTLEMONK2903201206423",
    "count_view": 0
  },
  {
    "link_thumb": "https://live.staticflickr.com/65535/49548631296_5f6f495d45_n.jpg",
    "id_album": "-316663319",
    "description": "KAWAII1702202234111",
    "title": "KAWAII1702202234111",
    "link_img": "https://live.staticflickr.com/65535/49548631296_4e556fbc92_o.jpg",
    "id_image": "KAWAII1702202234111",
    "count_view": 0
  },
  {
    "link_thumb": "https://live.staticflickr.com/65535/49693682648_1a841806bb_n.jpg",
    "id_album": "46674803",
    "description": "KAWAII24032022050349",
    "title": "KAWAII24032022050349",
    "link_img": "https://live.staticflickr.com/65535/49693682648_21aa5984af_o.jpg",
    "id_image": "KAWAII24032022050349",
    "count_view": 0
  },
  {
    "link_thumb": "https://live.staticflickr.com/65535/49622826041_e7d0205d93_n.jpg",
    "id_album": "-316663319",
    "description": "KAWAII0503202021235",
    "title": "KAWAII0503202021235",
    "link_img": "https://live.staticflickr.com/65535/49622826041_722579ba3e_o.jpg",
    "id_image": "KAWAII0503202021235",
    "count_view": 0
  },
  {
    "link_thumb": "https://live.staticflickr.com/65535/49727752447_13493c610e_n.jpg",
    "id_album": "-316663319",
    "description": "KAWAII02042019451031",
    "title": "KAWAII02042019451031",
    "link_img": "https://live.staticflickr.com/65535/49727752447_5c7a9ecc13_o.jpg",
    "id_image": "KAWAII02042019451031",
    "count_view": 0
  },
  {
    "link_thumb": "https://live.staticflickr.com/65535/49743253372_f91982bd8a_n.jpg",
    "id_album": "-316663319",
    "description": "KAWAII060420214915306",
    "title": "KAWAII060420214915306",
    "link_img": "https://live.staticflickr.com/65535/49743253372_90177eb6be_o.jpg",
    "id_image": "KAWAII060420214915306",
    "count_view": 0
  },
  {
    "link_thumb": "https://live.staticflickr.com/65535/49743231542_f1ef9eac98_n.jpg",
    "id_album": "-422187261",
    "description": "KAWAII060420214915315",
    "title": "KAWAII060420214915315",
    "link_img": "https://live.staticflickr.com/65535/49743231542_9520380e6c_o.jpg",
    "id_image": "KAWAII060420214915315",
    "count_view": 0
  },
  {
    "link_thumb": "https://live.staticflickr.com/65535/49693672713_f0ae745203_n.jpg",
    "id_album": "-1694302085",
    "description": "KAWAII2403202205022",
    "title": "KAWAII2403202205022",
    "link_img": "https://live.staticflickr.com/65535/49693672713_486f4578a4_o.jpg",
    "id_image": "KAWAII2403202205022",
    "count_view": 0
  },
  {
    "link_thumb": "https://live.staticflickr.com/65535/49623078737_e12156ab87_n.jpg",
    "id_album": "-1432180061",
    "description": "KAWAII0503202021159",
    "title": "KAWAII0503202021159",
    "link_img": "https://live.staticflickr.com/65535/49623078737_ee4fde345c_o.jpg",
    "id_image": "KAWAII0503202021159",
    "count_view": 0
  },
  {
    "link_thumb": "https://live.staticflickr.com/65535/49578750051_26e3a6ac43_n.jpg",
    "id_album": "-316663319",
    "description": "KAWAII190220211123",
    "title": "KAWAII190220211123",
    "link_img": "https://live.staticflickr.com/65535/49578750051_3bc0f9edfc_o.jpg",
    "id_image": "KAWAII190220211123",
    "count_view": 0
  },
  {
    "link_thumb": "https://live.staticflickr.com/65535/49694378392_d94a66076d_n.jpg",
    "id_album": "-643980979",
    "description": "KAWAII050320202136",
    "title": "KAWAII050320202136",
    "link_img": "https://live.staticflickr.com/65535/49694378392_9321ddde90_o.jpg",
    "id_image": "KAWAII050320202136",
    "count_view": 0
  },
  {
    "link_thumb": "https://live.staticflickr.com/65535/49693569493_bcc9abe5f7_n.jpg",
    "id_album": "1201366373",
    "description": "KAWAII1702202238478",
    "title": "KAWAII1702202238478",
    "link_img": "https://live.staticflickr.com/65535/49693569493_ce73b63e12_o.jpg",
    "id_image": "KAWAII1702202238478",
    "count_view": 0
  },
  {
    "link_thumb": "https://live.staticflickr.com/65535/49694388992_a614bef23a_n.jpg",
    "id_album": "1201366373",
    "description": "KAWAII120918168",
    "title": "KAWAII120918168",
    "link_img": "https://live.staticflickr.com/65535/49694388992_28366d1188_o.jpg",
    "id_image": "KAWAII120918168",
    "count_view": 0
  },
  {
    "link_thumb": "https://live.staticflickr.com/65535/49727453196_7151bc12f8_n.jpg",
    "id_album": "742877173",
    "description": "KAWAII02042019451430",
    "title": "KAWAII02042019451430",
    "link_img": "https://live.staticflickr.com/65535/49727453196_a3fe118243_o.jpg",
    "id_image": "KAWAII02042019451430",
    "count_view": 0
  },
  {
    "link_thumb": "https://live.staticflickr.com/65535/49743259472_e3b19a4610_n.jpg",
    "id_album": "-1473448477",
    "description": "KAWAII06042021491517",
    "title": "KAWAII06042021491517",
    "link_img": "https://live.staticflickr.com/65535/49743259472_059f78e1bf_o.jpg",
    "id_image": "KAWAII06042021491517",
    "count_view": 0
  },
  {
    "link_thumb": "https://live.staticflickr.com/65535/49548180778_6e380c3a9f_n.jpg",
    "id_album": "-1432180061",
    "description": "KAWAII1702202236298",
    "title": "KAWAII1702202236298",
    "link_img": "https://live.staticflickr.com/65535/49548180778_5d7d573817_o.jpg",
    "id_image": "KAWAII1702202236298",
    "count_view": 0
  },
  {
    "link_thumb": "https://live.staticflickr.com/65535/49624534756_bbaab8afc8_n.jpg",
    "id_album": "-422187261",
    "description": "KAWAII050320202179",
    "title": "KAWAII050320202179",
    "link_img": "https://live.staticflickr.com/65535/49624534756_21dbeda38b_o.jpg",
    "id_image": "KAWAII050320202179",
    "count_view": 0
  },
  {
    "link_thumb": "https://live.staticflickr.com/65535/49694124706_1103db9b34_n.jpg",
    "id_album": "-358592519",
    "description": "KAWAII170220223465",
    "title": "KAWAII170220223465",
    "link_img": "https://live.staticflickr.com/65535/49694124706_3844e47e04_o.jpg",
    "id_image": "KAWAII170220223465",
    "count_view": 0
  },
  {
    "link_thumb": "https://live.staticflickr.com/65535/49743228317_96446c5e59_n.jpg",
    "id_album": "-1913845949",
    "description": "KAWAII060420214917223",
    "title": "KAWAII060420214917223",
    "link_img": "https://live.staticflickr.com/65535/49743228317_44d2346ef5_o.jpg",
    "id_image": "KAWAII060420214917223",
    "count_view": 0
  },
  {
    "link_thumb": "https://live.staticflickr.com/65535/49548093483_9ab45cb624_n.jpg",
    "id_album": "-1099943053",
    "description": "KAWAII120918320",
    "title": "KAWAII120918320",
    "link_img": "https://live.staticflickr.com/65535/49548093483_a370cd9c27_o.jpg",
    "id_image": "KAWAII120918320",
    "count_view": 0
  },
  {
    "link_thumb": "https://live.staticflickr.com/65535/49548867492_3d9cb6c0b4_n.jpg",
    "id_album": "-316663319",
    "description": "KAWAII170220223468",
    "title": "KAWAII170220223468",
    "link_img": "https://live.staticflickr.com/65535/49548867492_84aca2cf5a_o.jpg",
    "id_image": "KAWAII170220223468",
    "count_view": 0
  },
  {
    "link_thumb": "https://live.staticflickr.com/65535/49727437436_c6c1274a44_n.jpg",
    "id_album": "-316663319",
    "description": "KAWAII020420194510260",
    "title": "KAWAII020420194510260",
    "link_img": "https://live.staticflickr.com/65535/49727437436_fdae47b3bc_o.jpg",
    "id_image": "KAWAII020420194510260",
    "count_view": 0
  },
  {
    "link_thumb": "https://live.staticflickr.com/65535/49548154838_4fc30f774c_n.jpg",
    "id_album": "-422187261",
    "description": "KAWAII1702202235170",
    "title": "KAWAII1702202235170",
    "link_img": "https://live.staticflickr.com/65535/49548154838_a22527a35f_o.jpg",
    "id_image": "KAWAII1702202235170",
    "count_view": 0
  },
  {
    "link_thumb": "https://live.staticflickr.com/65535/49622841011_3417453e23_n.jpg",
    "id_album": "-406350429",
    "description": "KAWAII0503202021100",
    "title": "KAWAII0503202021100",
    "link_img": "https://live.staticflickr.com/65535/49622841011_b10733d940_o.jpg",
    "id_image": "KAWAII0503202021100",
    "count_view": 0
  },
  {
    "link_thumb": "https://live.staticflickr.com/65535/49743268987_a02ff27df9_n.jpg",
    "id_album": "-1779286820",
    "description": "KAWAII060420214918105",
    "title": "KAWAII060420214918105",
    "link_img": "https://live.staticflickr.com/65535/49743268987_0692e47578_o.jpg",
    "id_image": "KAWAII060420214918105",
    "count_view": 0
  },
  {
    "link_thumb": "https://live.staticflickr.com/65535/49548175308_0515751899_n.jpg",
    "id_album": "-422187261",
    "description": "KAWAII1702202236273",
    "title": "KAWAII1702202236273",
    "link_img": "https://live.staticflickr.com/65535/49548175308_f3e7364479_o.jpg",
    "id_image": "KAWAII1702202236273",
    "count_view": 0
  },
  {
    "link_thumb": "https://live.staticflickr.com/65535/49693528313_e2a2db57d1_n.jpg",
    "id_album": "-643980979",
    "description": "KAWAII0503202021188",
    "title": "KAWAII0503202021188",
    "link_img": "https://live.staticflickr.com/65535/49693528313_4748d2da47_o.jpg",
    "id_image": "KAWAII0503202021188",
    "count_view": 0
  },
  {
    "link_thumb": "https://live.staticflickr.com/65535/49552756917_77cfb21e42_n.jpg",
    "id_album": "-316663319",
    "description": "KAWAII1209182518022020592",
    "title": "KAWAII1209182518022020592",
    "link_img": "https://live.staticflickr.com/65535/49552756917_e42ee02182_o.jpg",
    "id_image": "KAWAII1209182518022020592",
    "count_view": 0
  },
  {
    "link_thumb": "https://live.staticflickr.com/65535/49622330628_bc94cffc7c_n.jpg",
    "id_album": "-406350429",
    "description": "KAWAII0503202021232",
    "title": "KAWAII0503202021232",
    "link_img": "https://live.staticflickr.com/65535/49622330628_fa947f14f9_o.jpg",
    "id_image": "KAWAII0503202021232",
    "count_view": 0
  },
  {
    "link_thumb": "https://live.staticflickr.com/65535/49743247462_f92806a66d_n.jpg",
    "id_album": "-316663319",
    "description": "KAWAII060420214913137",
    "title": "KAWAII060420214913137",
    "link_img": "https://live.staticflickr.com/65535/49743247462_821845a635_o.jpg",
    "id_image": "KAWAII060420214913137",
    "count_view": 0
  },
  {
    "link_thumb": "https://live.staticflickr.com/65535/49742379248_eb54df3a78_n.jpg",
    "id_album": "-316663319",
    "description": "KAWAII060420214915163",
    "title": "KAWAII060420214915163",
    "link_img": "https://live.staticflickr.com/65535/49742379248_21f4d796f2_o.jpg",
    "id_image": "KAWAII060420214915163",
    "count_view": 0
  },
  {
    "link_thumb": "https://live.staticflickr.com/65535/49548730031_4400a7483c_n.jpg",
    "id_album": "-1431786825",
    "description": "KAWAII1702202238493",
    "title": "KAWAII1702202238493",
    "link_img": "https://live.staticflickr.com/65535/49548730031_a2c1c20dbf_o.jpg",
    "id_image": "KAWAII1702202238493",
    "count_view": 0
  },
  {
    "link_thumb": "https://live.staticflickr.com/65535/49694226081_6569eac63c_n.jpg",
    "id_album": "1226948986",
    "description": "KAWAII24032022050150",
    "title": "KAWAII24032022050150",
    "link_img": "https://live.staticflickr.com/65535/49694226081_3ee90bb1c7_o.jpg",
    "id_image": "KAWAII24032022050150",
    "count_view": 0
  },
  {
    "link_thumb": "https://live.staticflickr.com/65535/49548962207_2c915d7e53_n.jpg",
    "id_album": "-422187261",
    "description": "KAWAII1702202239510",
    "title": "KAWAII1702202239510",
    "link_img": "https://live.staticflickr.com/65535/49548962207_8bd2b41354_o.jpg",
    "id_image": "KAWAII1702202239510",
    "count_view": 0
  },
  {
    "link_thumb": "https://live.staticflickr.com/65535/49694221281_4bcc2ed000_n.jpg",
    "id_album": "-1432180061",
    "description": "KAWAII1702202237340",
    "title": "KAWAII1702202237340",
    "link_img": "https://live.staticflickr.com/65535/49694221281_264ab1e996_o.jpg",
    "id_image": "KAWAII1702202237340",
    "count_view": 0
  },
  {
    "link_thumb": "https://live.staticflickr.com/65535/49743270952_69c55ff46c_n.jpg",
    "id_album": "1396902986",
    "description": "KAWAII060420214912204",
    "title": "KAWAII060420214912204",
    "link_img": "https://live.staticflickr.com/65535/49743270952_1285abea5b_o.jpg",
    "id_image": "KAWAII060420214912204",
    "count_view": 0
  },
  {
    "link_thumb": "https://live.staticflickr.com/65535/49742399878_faea0d5d6b_n.jpg",
    "id_album": "1396902986",
    "description": "KAWAII06042021491277",
    "title": "KAWAII06042021491277",
    "link_img": "https://live.staticflickr.com/65535/49742399878_a23337b0c7_o.jpg",
    "id_image": "KAWAII06042021491277",
    "count_view": 0
  },
  {
    "link_thumb": "https://live.staticflickr.com/65535/49548899667_0f20a993bd_n.jpg",
    "id_album": "-316663319",
    "description": "KAWAII1702202236250",
    "title": "KAWAII1702202236250",
    "link_img": "https://live.staticflickr.com/65535/49548899667_56709fc432_o.jpg",
    "id_image": "KAWAII1702202236250",
    "count_view": 0
  },
  {
    "link_thumb": "https://live.staticflickr.com/65535/49742941541_605e14273e_n.jpg",
    "id_album": "-1473448477",
    "description": "KAWAII06042021491725",
    "title": "KAWAII06042021491725",
    "link_img": "https://live.staticflickr.com/65535/49742941541_72682c9681_o.jpg",
    "id_image": "KAWAII06042021491725",
    "count_view": 0
  },
  {
    "link_thumb": "https://live.staticflickr.com/65535/49548043143_a178d66949_n.jpg",
    "id_album": "-316663319",
    "description": "KAWAII120918103",
    "title": "KAWAII120918103",
    "link_img": "https://live.staticflickr.com/65535/49548043143_f7ce068383_o.jpg",
    "id_image": "KAWAII120918103",
    "count_view": 0
  },
  {
    "link_thumb": "https://live.staticflickr.com/65535/49623097197_6736255f0b_n.jpg",
    "id_album": "-316663319",
    "description": "KAWAII0503202021224",
    "title": "KAWAII0503202021224",
    "link_img": "https://live.staticflickr.com/65535/49623097197_5a2ffa9976_o.jpg",
    "id_image": "KAWAII0503202021224",
    "count_view": 0
  },
  {
    "link_thumb": "https://live.staticflickr.com/65535/49548122483_6b98c05981_n.jpg",
    "id_album": "-422187261",
    "description": "KAWAII170220223319",
    "title": "KAWAII170220223319",
    "link_img": "https://live.staticflickr.com/65535/49548122483_00da78383f_o.jpg",
    "id_image": "KAWAII170220223319",
    "count_view": 0
  },
  {
    "link_thumb": "https://live.staticflickr.com/65535/49623117147_71b8dfdc96_n.jpg",
    "id_album": "-406350429",
    "description": "KAWAII0503202021230",
    "title": "KAWAII0503202021230",
    "link_img": "https://live.staticflickr.com/65535/49623117147_b583232f1f_o.jpg",
    "id_image": "KAWAII0503202021230",
    "count_view": 0
  },
  {
    "link_thumb": "https://live.staticflickr.com/65535/49711146947_2b7b494f19_n.jpg",
    "id_album": "-1599896063",
    "description": "LITTLEMONK29032012064226",
    "title": "LITTLEMONK29032012064226",
    "link_img": "https://live.staticflickr.com/65535/49711146947_1ee772217a_o.jpg",
    "id_image": "LITTLEMONK29032012064226",
    "count_view": 0
  },
  {
    "link_thumb": "https://live.staticflickr.com/65535/49694392417_3e8a76a371_n.jpg",
    "id_album": "1201366373",
    "description": "KAWAII120918198",
    "title": "KAWAII120918198",
    "link_img": "https://live.staticflickr.com/65535/49694392417_571fc3c679_o.jpg",
    "id_image": "KAWAII120918198",
    "count_view": 0
  },
  {
    "link_thumb": "https://live.staticflickr.com/65535/49694379132_7e13b1e716_n.jpg",
    "id_album": "-643980979",
    "description": "KAWAII050320202150",
    "title": "KAWAII050320202150",
    "link_img": "https://live.staticflickr.com/65535/49694379132_e6f9e621e0_o.jpg",
    "id_image": "KAWAII050320202150",
    "count_view": 0
  },
  {
    "link_thumb": "https://live.staticflickr.com/65535/49694387482_6e6cd0b89a_n.jpg",
    "id_album": "1201366373",
    "description": "KAWAII120918156",
    "title": "KAWAII120918156",
    "link_img": "https://live.staticflickr.com/65535/49694387482_748bc789cc_o.jpg",
    "id_image": "KAWAII120918156",
    "count_view": 0
  },
  {
    "link_thumb": "https://live.staticflickr.com/65535/49548801802_c5eeb19bf0_n.jpg",
    "id_album": "-422187261",
    "description": "KAWAII12091823",
    "title": "KAWAII12091823",
    "link_img": "https://live.staticflickr.com/65535/49548801802_b1f6c4d5de_o.jpg",
    "id_image": "KAWAII12091823",
    "count_view": 0
  },
  {
    "link_thumb": "https://live.staticflickr.com/65535/49548711691_52dff002c1_n.jpg",
    "id_album": "-422187261",
    "description": "KAWAII1702202238423",
    "title": "KAWAII1702202238423",
    "link_img": "https://live.staticflickr.com/65535/49548711691_a471ef5f97_o.jpg",
    "id_image": "KAWAII1702202238423",
    "count_view": 0
  },
  {
    "link_thumb": "https://live.staticflickr.com/65535/49548911892_ae57db85f4_n.jpg",
    "id_album": "-422187261",
    "description": "KAWAII1702202237309",
    "title": "KAWAII1702202237309",
    "link_img": "https://live.staticflickr.com/65535/49548911892_342fb1ff70_o.jpg",
    "id_image": "KAWAII1702202237309",
    "count_view": 0
  },
  {
    "link_thumb": "https://live.staticflickr.com/65535/49742948581_82717c9931_n.jpg",
    "id_album": "1396902986",
    "description": "KAWAII060420214915119",
    "title": "KAWAII060420214915119",
    "link_img": "https://live.staticflickr.com/65535/49742948581_b2ef97035f_o.jpg",
    "id_image": "KAWAII060420214915119",
    "count_view": 0
  },
  {
    "link_thumb": "https://live.staticflickr.com/65535/49694383902_e184555f6d_n.jpg",
    "id_album": "1201366373",
    "description": "KAWAII120918112",
    "title": "KAWAII120918112",
    "link_img": "https://live.staticflickr.com/65535/49694383902_d7f702fe16_o.jpg",
    "id_image": "KAWAII120918112",
    "count_view": 0
  },
  {
    "link_thumb": "https://live.staticflickr.com/65535/49742915511_a4026f2a42_n.jpg",
    "id_album": "-1497779911",
    "description": "KAWAII060420214915314",
    "title": "KAWAII060420214915314",
    "link_img": "https://live.staticflickr.com/65535/49742915511_069aeb92a1_o.jpg",
    "id_image": "KAWAII060420214915314",
    "count_view": 0
  },
  {
    "link_thumb": "https://live.staticflickr.com/65535/49742372073_9bd255cb1d_n.jpg",
    "id_album": "-128218148",
    "description": "KAWAII06042021491456",
    "title": "KAWAII06042021491456",
    "link_img": "https://live.staticflickr.com/65535/49742372073_5257691a79_o.jpg",
    "id_image": "KAWAII06042021491456",
    "count_view": 0
  },
  {
    "link_thumb": "https://live.staticflickr.com/65535/49694115256_2cb04d6c80_n.jpg",
    "id_album": "-643980979",
    "description": "KAWAII170220234611",
    "title": "KAWAII170220234611",
    "link_img": "https://live.staticflickr.com/65535/49694115256_299f262f28_o.jpg",
    "id_image": "KAWAII170220234611",
    "count_view": 0
  },
  {
    "link_thumb": "https://live.staticflickr.com/65535/49548572826_f4e86f8f90_n.jpg",
    "id_album": "-1694302085",
    "description": "KAWAII120918220",
    "title": "KAWAII120918220",
    "link_img": "https://live.staticflickr.com/65535/49548572826_25cc91e0a9_o.jpg",
    "id_image": "KAWAII120918220",
    "count_view": 0
  },
  {
    "link_thumb": "https://live.staticflickr.com/65535/49623080192_04e063ffdc_n.jpg",
    "id_album": "-1741487325",
    "description": "KAWAII050320202138",
    "title": "KAWAII050320202138",
    "link_img": "https://live.staticflickr.com/65535/49623080192_817c0191bb_o.jpg",
    "id_image": "KAWAII050320202138",
    "count_view": 0
  },
  {
    "link_thumb": "https://live.staticflickr.com/65535/49742919561_6b11564d35_n.jpg",
    "id_album": "-128218148",
    "description": "KAWAII06042021491296",
    "title": "KAWAII06042021491296",
    "link_img": "https://live.staticflickr.com/65535/49742919561_5e08411a16_o.jpg",
    "id_image": "KAWAII06042021491296",
    "count_view": 0
  },
  {
    "link_thumb": "https://live.staticflickr.com/65535/49727436536_7dee9d1b02_n.jpg",
    "id_album": "-316663319",
    "description": "KAWAII0204201945099",
    "title": "KAWAII0204201945099",
    "link_img": "https://live.staticflickr.com/65535/49727436536_0fcc53344f_o.jpg",
    "id_image": "KAWAII0204201945099",
    "count_view": 0
  },
  {
    "link_thumb": "https://live.staticflickr.com/65535/49694418562_51e263706d_n.jpg",
    "id_album": "-643980979",
    "description": "KAWAII170220234616",
    "title": "KAWAII170220234616",
    "link_img": "https://live.staticflickr.com/65535/49694418562_c02075e061_o.jpg",
    "id_image": "KAWAII170220234616",
    "count_view": 0
  },
  {
    "link_thumb": "https://live.staticflickr.com/65535/49742942336_d8179730b4_n.jpg",
    "id_album": "-1779286820",
    "description": "KAWAII060420214912106",
    "title": "KAWAII060420214912106",
    "link_img": "https://live.staticflickr.com/65535/49742942336_033df459ee_o.jpg",
    "id_image": "KAWAII060420214912106",
    "count_view": 0
  },
  {
    "link_thumb": "https://live.staticflickr.com/65535/49743236852_27bb7c199f_n.jpg",
    "id_album": "-1497779911",
    "description": "KAWAII060420214911124",
    "title": "KAWAII060420214911124",
    "link_img": "https://live.staticflickr.com/65535/49743236852_719f1ee19a_o.jpg",
    "id_image": "KAWAII060420214911124",
    "count_view": 0
  },
  {
    "link_thumb": "https://live.staticflickr.com/65535/49548847582_c1e6076bf8_n.jpg",
    "id_album": "-422187261",
    "description": "KAWAII1209189",
    "title": "KAWAII1209189",
    "link_img": "https://live.staticflickr.com/65535/49548847582_1ffc716c5e_o.jpg",
    "id_image": "KAWAII1209189",
    "count_view": 0
  },
  {
    "link_thumb": "https://live.staticflickr.com/65535/49742356483_b4dbd813b8_n.jpg",
    "id_album": "-1913845949",
    "description": "KAWAII060420214915298",
    "title": "KAWAII060420214915298",
    "link_img": "https://live.staticflickr.com/65535/49742356483_5d266574ca_o.jpg",
    "id_image": "KAWAII060420214915298",
    "count_view": 0
  },
  {
    "link_thumb": "https://live.staticflickr.com/65535/49727790872_fe112749e1_n.jpg",
    "id_album": "431597977",
    "description": "KAWAII0204201945124",
    "title": "KAWAII0204201945124",
    "link_img": "https://live.staticflickr.com/65535/49727790872_fed9586986_o.jpg",
    "id_image": "KAWAII0204201945124",
    "count_view": 0
  },
  {
    "link_thumb": "https://live.staticflickr.com/65535/49548742611_b5332b7a92_n.jpg",
    "id_album": "1396902986",
    "description": "KAWAII1702202239539",
    "title": "KAWAII1702202239539",
    "link_img": "https://live.staticflickr.com/65535/49548742611_78c0a19566_o.jpg",
    "id_image": "KAWAII1702202239539",
    "count_view": 0
  },
  {
    "link_thumb": "https://live.staticflickr.com/65535/49548617406_84aee99d48_n.jpg",
    "id_album": "-316663319",
    "description": "KAWAII12091877",
    "title": "KAWAII12091877",
    "link_img": "https://live.staticflickr.com/65535/49548617406_6cbf2fa379_o.jpg",
    "id_image": "KAWAII12091877",
    "count_view": 0
  },
  {
    "link_thumb": "https://live.staticflickr.com/65535/49592953492_b84fb37449_n.jpg",
    "id_album": "-1741487325",
    "description": "KAWAII17091831",
    "title": "KAWAII17091831",
    "link_img": "https://live.staticflickr.com/65535/49592953492_ee077b4196_o.jpg",
    "id_image": "KAWAII17091831",
    "count_view": 0
  },
  {
    "link_thumb": "https://live.staticflickr.com/65535/49694400567_51744eec7c_n.jpg",
    "id_album": "1201366373",
    "description": "KAWAII120918275",
    "title": "KAWAII120918275",
    "link_img": "https://live.staticflickr.com/65535/49694400567_290d9c2508_o.jpg",
    "id_image": "KAWAII120918275",
    "count_view": 0
  },
  {
    "link_thumb": "https://live.staticflickr.com/65535/49727742597_391b21ae15_n.jpg",
    "id_album": "-1694302085",
    "description": "KAWAII270220235164",
    "title": "KAWAII270220235164",
    "link_img": "https://live.staticflickr.com/65535/49727742597_58b7c0801c_o.jpg",
    "id_image": "KAWAII270220235164",
    "count_view": 0
  },
  {
    "link_thumb": "https://live.staticflickr.com/65535/49694100821_84ee9e3f06_n.jpg",
    "id_album": "1201366373",
    "description": "KAWAII12091832",
    "title": "KAWAII12091832",
    "link_img": "https://live.staticflickr.com/65535/49694100821_68c3afc405_o.jpg",
    "id_image": "KAWAII12091832",
    "count_view": 0
  },
  {
    "link_thumb": "https://live.staticflickr.com/65535/49726899433_0ced87f4a6_n.jpg",
    "id_album": "742877173",
    "description": "KAWAII02042019451025",
    "title": "KAWAII02042019451025",
    "link_img": "https://live.staticflickr.com/65535/49726899433_ba505a1f61_o.jpg",
    "id_image": "KAWAII02042019451025",
    "count_view": 0
  },
  {
    "link_thumb": "https://live.staticflickr.com/65535/49743265042_a289f35b3c_n.jpg",
    "id_album": "-1473448477",
    "description": "KAWAII060420214917177",
    "title": "KAWAII060420214917177",
    "link_img": "https://live.staticflickr.com/65535/49743265042_902a3b4cbe_o.jpg",
    "id_image": "KAWAII060420214917177",
    "count_view": 0
  },
  {
    "link_thumb": "https://live.staticflickr.com/65535/49623106012_72c5b795af_n.jpg",
    "id_album": "-316663319",
    "description": "KAWAII0503202021329",
    "title": "KAWAII0503202021329",
    "link_img": "https://live.staticflickr.com/65535/49623106012_690d803bf8_o.jpg",
    "id_image": "KAWAII0503202021329",
    "count_view": 0
  },
  {
    "link_thumb": "https://live.staticflickr.com/65535/49693571358_8e09d12fdf_n.jpg",
    "id_album": "1201366373",
    "description": "KAWAII1702202239530",
    "title": "KAWAII1702202239530",
    "link_img": "https://live.staticflickr.com/65535/49693571358_19ac9b5d03_o.jpg",
    "id_image": "KAWAII1702202239530",
    "count_view": 0
  },
  {
    "link_thumb": "https://live.staticflickr.com/65535/49548998347_2a9f9095e6_n.jpg",
    "id_album": "-316663319",
    "description": "KAWAII17091846",
    "title": "KAWAII17091846",
    "link_img": "https://live.staticflickr.com/65535/49548998347_1838f0e556_o.jpg",
    "id_image": "KAWAII17091846",
    "count_view": 0
  },
  {
    "link_thumb": "https://live.staticflickr.com/65535/49727778152_25a2634b3b_n.jpg",
    "id_album": "1396902986",
    "description": "KAWAII020420194508226",
    "title": "KAWAII020420194508226",
    "link_img": "https://live.staticflickr.com/65535/49727778152_52f8951d06_o.jpg",
    "id_image": "KAWAII020420194508226",
    "count_view": 0
  },
  {
    "link_thumb": "https://live.staticflickr.com/65535/49742908481_95792a165d_n.jpg",
    "id_album": "-422187261",
    "description": "KAWAII06042021491857",
    "title": "KAWAII06042021491857",
    "link_img": "https://live.staticflickr.com/65535/49742908481_88e5ccd871_o.jpg",
    "id_image": "KAWAII06042021491857",
    "count_view": 0
  },
  {
    "link_thumb": "https://live.staticflickr.com/65535/49743279367_86ed79dcdb_n.jpg",
    "id_album": "-1431786825",
    "description": "KAWAII06042021491518",
    "title": "KAWAII06042021491518",
    "link_img": "https://live.staticflickr.com/65535/49743279367_7136765f24_o.jpg",
    "id_image": "KAWAII06042021491518",
    "count_view": 0
  },
  {
    "link_thumb": "https://live.staticflickr.com/65535/49548130028_19e352e618_n.jpg",
    "id_album": "431597977",
    "description": "KAWAII1702202234112",
    "title": "KAWAII1702202234112",
    "link_img": "https://live.staticflickr.com/65535/49548130028_a7604ab514_o.jpg",
    "id_image": "KAWAII1702202234112",
    "count_view": 0
  },
  {
    "link_thumb": "https://live.staticflickr.com/65535/49693520348_930b0d775f_n.jpg",
    "id_album": "1699819648",
    "description": "KAWAII0503202021255",
    "title": "KAWAII0503202021255",
    "link_img": "https://live.staticflickr.com/65535/49693520348_2471d56f25_o.jpg",
    "id_image": "KAWAII0503202021255",
    "count_view": 0
  },
  {
    "link_thumb": "https://live.staticflickr.com/65535/49624019673_61024febde_n.jpg",
    "id_album": "-422187261",
    "description": "KAWAII0503202021102",
    "title": "KAWAII0503202021102",
    "link_img": "https://live.staticflickr.com/65535/49624019673_b65557323c_o.jpg",
    "id_image": "KAWAII0503202021102",
    "count_view": 0
  },
  {
    "link_thumb": "https://live.staticflickr.com/65535/49592975792_8d5c9b8fa7_n.jpg",
    "id_album": "949200594",
    "description": "KAWAII270220235173",
    "title": "KAWAII270220235173",
    "link_img": "https://live.staticflickr.com/65535/49592975792_a991967fea_o.jpg",
    "id_image": "KAWAII270220235173",
    "count_view": 0
  },
  {
    "link_thumb": "https://live.staticflickr.com/65535/49548974152_be46f5c0fd_n.jpg",
    "id_album": "-1099943053",
    "description": "KAWAII1702202239557",
    "title": "KAWAII1702202239557",
    "link_img": "https://live.staticflickr.com/65535/49548974152_183ccf7aa7_o.jpg",
    "id_image": "KAWAII1702202239557",
    "count_view": 0
  },
  {
    "link_thumb": "https://live.staticflickr.com/65535/49726887613_bb3ab772c0_n.jpg",
    "id_album": "-1497779911",
    "description": "KAWAII1702202239545",
    "title": "KAWAII1702202239545",
    "link_img": "https://live.staticflickr.com/65535/49726887613_f69b805638_o.jpg",
    "id_image": "KAWAII1702202239545",
    "count_view": 0
  },
  {
    "link_thumb": "https://live.staticflickr.com/65535/49552024348_0ec56c8447_n.jpg",
    "id_album": "-1432180061",
    "description": "KAWAII12091825180220205939",
    "title": "KAWAII12091825180220205939",
    "link_img": "https://live.staticflickr.com/65535/49552024348_b2b262bbb4_o.jpg",
    "id_image": "KAWAII12091825180220205939",
    "count_view": 0
  },
  {
    "link_thumb": "https://live.staticflickr.com/65535/49693568243_842d9bc88f_n.jpg",
    "id_album": "-643980979",
    "description": "KAWAII1702202237353",
    "title": "KAWAII1702202237353",
    "link_img": "https://live.staticflickr.com/65535/49693568243_ded2639e16_o.jpg",
    "id_image": "KAWAII1702202237353",
    "count_view": 0
  },
  {
    "link_thumb": "https://live.staticflickr.com/65535/49742916301_5761ab09ce_n.jpg",
    "id_album": "-643980979",
    "description": "KAWAII060420214913191",
    "title": "KAWAII060420214913191",
    "link_img": "https://live.staticflickr.com/65535/49742916301_681a230855_o.jpg",
    "id_image": "KAWAII060420214913191",
    "count_view": 0
  },
  {
    "link_thumb": "https://live.staticflickr.com/65535/49727743857_0937fd0b71_n.jpg",
    "id_album": "-1741487325",
    "description": "KAWAII020420194513254",
    "title": "KAWAII020420194513254",
    "link_img": "https://live.staticflickr.com/65535/49727743857_36fd5a4ba1_o.jpg",
    "id_image": "KAWAII020420194513254",
    "count_view": 0
  },
  {
    "link_thumb": "https://live.staticflickr.com/65535/49694392237_a898db2aed_n.jpg",
    "id_album": "1201366373",
    "description": "KAWAII120918197",
    "title": "KAWAII120918197",
    "link_img": "https://live.staticflickr.com/65535/49694392237_749440c1a6_o.jpg",
    "id_image": "KAWAII120918197",
    "count_view": 0
  },
  {
    "link_thumb": "https://live.staticflickr.com/65535/49548674331_ec9a153fe8_n.jpg",
    "id_album": "-422187261",
    "description": "KAWAII1702202236260",
    "title": "KAWAII1702202236260",
    "link_img": "https://live.staticflickr.com/65535/49548674331_014171d2dd_o.jpg",
    "id_image": "KAWAII1702202236260",
    "count_view": 0
  },
  {
    "link_thumb": "https://live.staticflickr.com/65535/49694367197_7cee8a9bb0_n.jpg",
    "id_album": "-1694302085",
    "description": "KAWAII1702202236235",
    "title": "KAWAII1702202236235",
    "link_img": "https://live.staticflickr.com/65535/49694367197_2803f9fe8a_o.jpg",
    "id_image": "KAWAII1702202236235",
    "count_view": 0
  },
  {
    "link_thumb": "https://live.staticflickr.com/65535/49548672536_ebdfaf9237_n.jpg",
    "id_album": "-422187261",
    "description": "KAWAII1702202236252",
    "title": "KAWAII1702202236252",
    "link_img": "https://live.staticflickr.com/65535/49548672536_000c99449f_o.jpg",
    "id_image": "KAWAII1702202236252",
    "count_view": 0
  },
  {
    "link_thumb": "https://live.staticflickr.com/65535/49694092836_c5f7363490_n.jpg",
    "id_album": "1201366373",
    "description": "KAWAII120918225",
    "title": "KAWAII120918225",
    "link_img": "https://live.staticflickr.com/65535/49694092836_31f5c3c766_o.jpg",
    "id_image": "KAWAII120918225",
    "count_view": 0
  },
  {
    "link_thumb": "https://live.staticflickr.com/65535/49694371987_aff287f26d_n.jpg",
    "id_album": "-643980979",
    "description": "KAWAII0503202021106",
    "title": "KAWAII0503202021106",
    "link_img": "https://live.staticflickr.com/65535/49694371987_c04ff20047_o.jpg",
    "id_image": "KAWAII0503202021106",
    "count_view": 0
  },
  {
    "link_thumb": "https://live.staticflickr.com/65535/49548925482_76aa3720cf_n.jpg",
    "id_album": "-422187261",
    "description": "KAWAII1702202237369",
    "title": "KAWAII1702202237369",
    "link_img": "https://live.staticflickr.com/65535/49548925482_ec816fe0df_o.jpg",
    "id_image": "KAWAII1702202237369",
    "count_view": 0
  },
  {
    "link_thumb": "https://live.staticflickr.com/65535/49548576341_b3485a5923_n.jpg",
    "id_album": "-316663319",
    "description": "KAWAII120918238",
    "title": "KAWAII120918238",
    "link_img": "https://live.staticflickr.com/65535/49548576341_7d71027424_o.jpg",
    "id_image": "KAWAII120918238",
    "count_view": 0
  },
  {
    "link_thumb": "https://live.staticflickr.com/65535/49548102943_1427b14e8f_n.jpg",
    "id_album": "-1741487325",
    "description": "KAWAII12091836",
    "title": "KAWAII12091836",
    "link_img": "https://live.staticflickr.com/65535/49548102943_505ac71255_o.jpg",
    "id_image": "KAWAII12091836",
    "count_view": 0
  },
  {
    "link_thumb": "https://live.staticflickr.com/65535/49592212603_ef02e6c970_n.jpg",
    "id_album": "-316663319",
    "description": "KAWAII2702202351139",
    "title": "KAWAII2702202351139",
    "link_img": "https://live.staticflickr.com/65535/49592212603_896797164e_o.jpg",
    "id_image": "KAWAII2702202351139",
    "count_view": 0
  },
  {
    "link_thumb": "https://live.staticflickr.com/65535/49548825167_030b74dbd6_n.jpg",
    "id_album": "-316663319",
    "description": "KAWAII120918330",
    "title": "KAWAII120918330",
    "link_img": "https://live.staticflickr.com/65535/49548825167_4c814af17e_o.jpg",
    "id_image": "KAWAII120918330",
    "count_view": 0
  },
  {
    "link_thumb": "https://live.staticflickr.com/65535/49727428866_b94445e179_n.jpg",
    "id_album": "-1741487325",
    "description": "KAWAII020420194509190",
    "title": "KAWAII020420194509190",
    "link_img": "https://live.staticflickr.com/65535/49727428866_92a2cc237b_o.jpg",
    "id_image": "KAWAII020420194509190",
    "count_view": 0
  },
  {
    "link_thumb": "https://live.staticflickr.com/65535/49548547066_a5fcae1d0d_n.jpg",
    "id_album": "-1741487325",
    "description": "KAWAII120918111",
    "title": "KAWAII120918111",
    "link_img": "https://live.staticflickr.com/65535/49548547066_58e63364cd_o.jpg",
    "id_image": "KAWAII120918111",
    "count_view": 0
  },
  {
    "link_thumb": "https://live.staticflickr.com/65535/49622809301_6b0684800f_n.jpg",
    "id_album": "-1694302085",
    "description": "KAWAII0503202021105",
    "title": "KAWAII0503202021105",
    "link_img": "https://live.staticflickr.com/65535/49622809301_e17339301c_o.jpg",
    "id_image": "KAWAII0503202021105",
    "count_view": 0
  },
  {
    "link_thumb": "https://live.staticflickr.com/65535/49592960942_cd3e725d7e_n.jpg",
    "id_album": "-316663319",
    "description": "KAWAII270220235147",
    "title": "KAWAII270220235147",
    "link_img": "https://live.staticflickr.com/65535/49592960942_c20af3a9ff_o.jpg",
    "id_image": "KAWAII270220235147",
    "count_view": 0
  },
  {
    "link_thumb": "https://live.staticflickr.com/65535/49693532323_7162d35f4b_n.jpg",
    "id_album": "-643980979",
    "description": "KAWAII050320202143",
    "title": "KAWAII050320202143",
    "link_img": "https://live.staticflickr.com/65535/49693532323_2bbe67359d_o.jpg",
    "id_image": "KAWAII050320202143",
    "count_view": 0
  },
  {
    "link_thumb": "https://live.staticflickr.com/65535/49548910797_f739431fdb_n.jpg",
    "id_album": "1396902986",
    "description": "KAWAII1702202236305",
    "title": "KAWAII1702202236305",
    "link_img": "https://live.staticflickr.com/65535/49548910797_893b16401f_o.jpg",
    "id_image": "KAWAII1702202236305",
    "count_view": 0
  },
  {
    "link_thumb": "https://live.staticflickr.com/65535/49592203818_4be5912330_n.jpg",
    "id_album": "1396902986",
    "description": "KAWAII2702202351117",
    "title": "KAWAII2702202351117",
    "link_img": "https://live.staticflickr.com/65535/49592203818_07fb022dd1_o.jpg",
    "id_image": "KAWAII2702202351117",
    "count_view": 0
  },
  {
    "link_thumb": "https://live.staticflickr.com/65535/49592712941_9ab292a7fc_n.jpg",
    "id_album": "-316663319",
    "description": "KAWAII17091814",
    "title": "KAWAII17091814",
    "link_img": "https://live.staticflickr.com/65535/49592712941_b7c9d2594e_o.jpg",
    "id_image": "KAWAII17091814",
    "count_view": 0
  },
  {
    "link_thumb": "https://live.staticflickr.com/65535/49548146233_188fafd02f_n.jpg",
    "id_album": "-1694302085",
    "description": "KAWAII1702202235127",
    "title": "KAWAII1702202235127",
    "link_img": "https://live.staticflickr.com/65535/49548146233_e99c3e4208_o.jpg",
    "id_image": "KAWAII1702202235127",
    "count_view": 0
  },
  {
    "link_thumb": "https://live.staticflickr.com/65535/49742398653_358db2c76e_n.jpg",
    "id_album": "-1779286820",
    "description": "KAWAII06042021491835",
    "title": "KAWAII06042021491835",
    "link_img": "https://live.staticflickr.com/65535/49742398653_4ee33a0760_o.jpg",
    "id_image": "KAWAII06042021491835",
    "count_view": 0
  },
  {
    "link_thumb": "https://live.staticflickr.com/65535/49622291638_2e4139d76c_n.jpg",
    "id_album": "-1741487325",
    "description": "KAWAII0503202021160",
    "title": "KAWAII0503202021160",
    "link_img": "https://live.staticflickr.com/65535/49622291638_95aaffd762_o.jpg",
    "id_image": "KAWAII0503202021160",
    "count_view": 0
  },
  {
    "link_thumb": "https://live.staticflickr.com/65535/49693582248_aec5e0bea5_n.jpg",
    "id_album": "-358592519",
    "description": "KAWAII1702202236302",
    "title": "KAWAII1702202236302",
    "link_img": "https://live.staticflickr.com/65535/49693582248_45280fbeb2_o.jpg",
    "id_image": "KAWAII1702202236302",
    "count_view": 0
  },
  {
    "link_thumb": "https://live.staticflickr.com/65535/49548824417_efffec8b98_n.jpg",
    "id_album": "-1741487325",
    "description": "KAWAII120918328",
    "title": "KAWAII120918328",
    "link_img": "https://live.staticflickr.com/65535/49548824417_a9b7e9303d_o.jpg",
    "id_image": "KAWAII120918328",
    "count_view": 0
  },
  {
    "link_thumb": "https://live.staticflickr.com/65535/49726892788_c85fe215ca_n.jpg",
    "id_album": "-316663319",
    "description": "KAWAII020420194513188",
    "title": "KAWAII020420194513188",
    "link_img": "https://live.staticflickr.com/65535/49726892788_d1ddc68caa_o.jpg",
    "id_image": "KAWAII020420194513188",
    "count_view": 0
  },
  {
    "link_thumb": "https://live.staticflickr.com/65535/49622286108_d4a5d67cf8_n.jpg",
    "id_album": "1396902986",
    "description": "KAWAII0503202021209",
    "title": "KAWAII0503202021209",
    "link_img": "https://live.staticflickr.com/65535/49622286108_e050d8ce17_o.jpg",
    "id_image": "KAWAII0503202021209",
    "count_view": 0
  },
  {
    "link_thumb": "https://live.staticflickr.com/65535/49727751987_6afab538cd_n.jpg",
    "id_album": "-316663319",
    "description": "KAWAII020420194510262",
    "title": "KAWAII020420194510262",
    "link_img": "https://live.staticflickr.com/65535/49727751987_5d67578ca0_o.jpg",
    "id_image": "KAWAII020420194510262",
    "count_view": 0
  },
  {
    "link_thumb": "https://live.staticflickr.com/65535/49548219163_b7c23d2f73_n.jpg",
    "id_album": "-422187261",
    "description": "KAWAII1702202238454",
    "title": "KAWAII1702202238454",
    "link_img": "https://live.staticflickr.com/65535/49548219163_85206ac23f_o.jpg",
    "id_image": "KAWAII1702202238454",
    "count_view": 0
  },
  {
    "link_thumb": "https://live.staticflickr.com/65535/49592708451_8824c137ec_n.jpg",
    "id_album": "1396902986",
    "description": "KAWAII270220235141",
    "title": "KAWAII270220235141",
    "link_img": "https://live.staticflickr.com/65535/49592708451_7b6f016983_o.jpg",
    "id_image": "KAWAII270220235141",
    "count_view": 0
  },
  {
    "link_thumb": "https://live.staticflickr.com/65535/49694394307_ce4ef3eaf2_n.jpg",
    "id_album": "-643980979",
    "description": "KAWAII120918216",
    "title": "KAWAII120918216",
    "link_img": "https://live.staticflickr.com/65535/49694394307_024ed829e4_o.jpg",
    "id_image": "KAWAII120918216",
    "count_view": 0
  },
  {
    "link_thumb": "https://live.staticflickr.com/65535/49622828731_fdf5e06088_n.jpg",
    "id_album": "-316663319",
    "description": "KAWAII0503202021270",
    "title": "KAWAII0503202021270",
    "link_img": "https://live.staticflickr.com/65535/49622828731_bc080fb95a_o.jpg",
    "id_image": "KAWAII0503202021270",
    "count_view": 0
  },
  {
    "link_thumb": "https://live.staticflickr.com/65535/49548785597_d1bf84a7e6_n.jpg",
    "id_album": "-422187261",
    "description": "KAWAII120918158",
    "title": "KAWAII120918158",
    "link_img": "https://live.staticflickr.com/65535/49548785597_604fe9e477_o.jpg",
    "id_image": "KAWAII120918158",
    "count_view": 0
  },
  {
    "link_thumb": "https://live.staticflickr.com/65535/49727450881_7c7958f382_n.jpg",
    "id_album": "742877173",
    "description": "KAWAII020420194513138",
    "title": "KAWAII020420194513138",
    "link_img": "https://live.staticflickr.com/65535/49727450881_916c922e16_o.jpg",
    "id_image": "KAWAII020420194513138",
    "count_view": 0
  },
  {
    "link_thumb": "https://live.staticflickr.com/65535/49727738967_e4973d12f0_n.jpg",
    "id_album": "-1694302085",
    "description": "KAWAII020420194508185",
    "title": "KAWAII020420194508185",
    "link_img": "https://live.staticflickr.com/65535/49727738967_80ec5f38eb_o.jpg",
    "id_image": "KAWAII020420194508185",
    "count_view": 0
  },
  {
    "link_thumb": "https://live.staticflickr.com/65535/49548669546_d864b4cec1_n.jpg",
    "id_album": "-1741487325",
    "description": "KAWAII1702202236234",
    "title": "KAWAII1702202236234",
    "link_img": "https://live.staticflickr.com/65535/49548669546_02a854cb7a_o.jpg",
    "id_image": "KAWAII1702202236234",
    "count_view": 0
  },
  {
    "link_thumb": "https://live.staticflickr.com/65535/49622333383_66149eb52f_n.jpg",
    "id_album": "-406350429",
    "description": "KAWAII0503202021309",
    "title": "KAWAII0503202021309",
    "link_img": "https://live.staticflickr.com/65535/49622333383_b5ce7cf8e8_o.jpg",
    "id_image": "KAWAII0503202021309",
    "count_view": 0
  },
  {
    "link_thumb": "https://live.staticflickr.com/65535/49548831217_38f2298764_n.jpg",
    "id_album": "-422187261",
    "description": "KAWAII120918355",
    "title": "KAWAII120918355",
    "link_img": "https://live.staticflickr.com/65535/49548831217_533091f33d_o.jpg",
    "id_image": "KAWAII120918355",
    "count_view": 0
  },
  {
    "link_thumb": "https://live.staticflickr.com/65535/49592716656_46e8dcfc3d_n.jpg",
    "id_album": "-316663319",
    "description": "KAWAII2702202351159",
    "title": "KAWAII2702202351159",
    "link_img": "https://live.staticflickr.com/65535/49592716656_1469b0be81_o.jpg",
    "id_image": "KAWAII2702202351159",
    "count_view": 0
  },
  {
    "link_thumb": "https://live.staticflickr.com/65535/49742934526_c63d1f7c1c_n.jpg",
    "id_album": "-1473448477",
    "description": "KAWAII060420214915112",
    "title": "KAWAII060420214915112",
    "link_img": "https://live.staticflickr.com/65535/49742934526_e387f14521_o.jpg",
    "id_image": "KAWAII060420214915112",
    "count_view": 0
  },
  {
    "link_thumb": "https://live.staticflickr.com/65535/49622306878_f6b262f2dd_n.jpg",
    "id_album": "-316663319",
    "description": "KAWAII0503202021193",
    "title": "KAWAII0503202021193",
    "link_img": "https://live.staticflickr.com/65535/49622306878_1de4b7ac25_o.jpg",
    "id_image": "KAWAII0503202021193",
    "count_view": 0
  },
  {
    "link_thumb": "https://live.staticflickr.com/65535/49623093352_35b1d184b3_n.jpg",
    "id_album": "-316663319",
    "description": "KAWAII0503202021191",
    "title": "KAWAII0503202021191",
    "link_img": "https://live.staticflickr.com/65535/49623093352_c23b7e6dbd_o.jpg",
    "id_image": "KAWAII0503202021191",
    "count_view": 0
  },
  {
    "link_thumb": "https://live.staticflickr.com/65535/49623111852_32aecd05d2_n.jpg",
    "id_album": "-316663319",
    "description": "KAWAII050320202187",
    "title": "KAWAII050320202187",
    "link_img": "https://live.staticflickr.com/65535/49623111852_3449ed0fd5_o.jpg",
    "id_image": "KAWAII050320202187",
    "count_view": 0
  },
  {
    "link_thumb": "https://live.staticflickr.com/65535/49548835222_2433b1acd6_n.jpg",
    "id_album": "-1741487325",
    "description": "KAWAII120918370",
    "title": "KAWAII120918370",
    "link_img": "https://live.staticflickr.com/65535/49548835222_33e1fa10d3_o.jpg",
    "id_image": "KAWAII120918370",
    "count_view": 0
  },
  {
    "link_thumb": "https://live.staticflickr.com/65535/49592708121_d3b90ed4e7_n.jpg",
    "id_album": "1396902986",
    "description": "KAWAII270220235137",
    "title": "KAWAII270220235137",
    "link_img": "https://live.staticflickr.com/65535/49592708121_c87e16771c_o.jpg",
    "id_image": "KAWAII270220235137",
    "count_view": 0
  },
  {
    "link_thumb": "https://live.staticflickr.com/65535/49592731401_a959ea4ae4_n.jpg",
    "id_album": "949200594",
    "description": "KAWAII2702202351141",
    "title": "KAWAII2702202351141",
    "link_img": "https://live.staticflickr.com/65535/49592731401_18a15bc207_o.jpg",
    "id_image": "KAWAII2702202351141",
    "count_view": 0
  },
  {
    "link_thumb": "https://live.staticflickr.com/65535/49623161482_17b070f43c_n.jpg",
    "id_album": "-1099943053",
    "description": "KAWAII0503202021259",
    "title": "KAWAII0503202021259",
    "link_img": "https://live.staticflickr.com/65535/49623161482_851780ab72_o.jpg",
    "id_image": "KAWAII0503202021259",
    "count_view": 0
  },
  {
    "link_thumb": "https://live.staticflickr.com/65535/49548832647_f7abbc16dc_n.jpg",
    "id_album": "-1431786825",
    "description": "KAWAII120918360",
    "title": "KAWAII120918360",
    "link_img": "https://live.staticflickr.com/65535/49548832647_6954825421_o.jpg",
    "id_image": "KAWAII120918360",
    "count_view": 0
  },
  {
    "link_thumb": "https://live.staticflickr.com/65535/49592705886_95ab1e321a_n.jpg",
    "id_album": "1396902986",
    "description": "KAWAII27022023511",
    "title": "KAWAII27022023511",
    "link_img": "https://live.staticflickr.com/65535/49592705886_eec36d8b13_o.jpg",
    "id_image": "KAWAII27022023511",
    "count_view": 0
  },
  {
    "link_thumb": "https://live.staticflickr.com/65535/49727738072_e0b319797c_n.jpg",
    "id_album": "-1694302085",
    "description": "KAWAII020420194508100",
    "title": "KAWAII020420194508100",
    "link_img": "https://live.staticflickr.com/65535/49727738072_5cb5e421e0_o.jpg",
    "id_image": "KAWAII020420194508100",
    "count_view": 0
  },
  {
    "link_thumb": "https://live.staticflickr.com/65535/49693548643_f895171502_n.jpg",
    "id_album": "-643980979",
    "description": "KAWAII120918221",
    "title": "KAWAII120918221",
    "link_img": "https://live.staticflickr.com/65535/49693548643_4a459079ff_o.jpg",
    "id_image": "KAWAII120918221",
    "count_view": 0
  }
]